Actives Prisoners
0 0
462 25
464 57
425 87
403 115
382 147
367 174
335 201
321 224
293 252
279 277
267 298
266 312
235 333
230 350
217 364
206 374
189 393
186 403
185 411
167 420
170 432
166 439
153 449
146 457
149 455
150 453
156 454
147 459
157 452
148 453
134 457
140 460
136 461
147 461
141 466
149 466
134 475
138 470
148 459
145 463
150 463
146 463
136 459
151 460
152 457
151 459
143 457
151 451
166 441
170 433
170 432
173 423
173 425
164 434
161 434
167 431
161 434
156 438
164 440
159 444
161 448
159 453
148 449
152 445
155 438
162 433
162 436
158 439
155 441
160 445
162 441
159 443
160 450
164 440
173 433
171 439
156 445
155 447
157 444
155 440
162 440
173 434
165 435
171 431
171 433
165 432
161 436
158 441
162 436
166 438
162 443
164 442
156 447
160 442
164 440
154 441
173 441
157 450
159 446
148 445
151 443
153 439
171 432
162 436
169 434
187 427
181 425
179 423
178 425
173 424
192 412
190 414
190 417
191 411
187 413
176 418
183 411
190 410
175 411
175 414
182 409
191 407
188 407
181 413
189 412
188 414
176 423
174 423
183 415
178 416
170 427
174 429
169 435
173 430
162 429
163 434
174 428
166 434
163 444
160 444
164 440
160 440
170 437
161 437
169 434
165 435
156 440
148 439
160 435
152 434
156 437
163 436
164 439
166 437
150 445
145 451
150 444
149 445
160 437
168 427
163 424
174 422
189 415
183 417
188 418
169 423
167 428
173 428
163 431
159 434
175 433
160 435
170 439
163 443
161 446
154 445
153 449
144 455
154 449
144 460
151 452
157 452
153 448
171 434
165 433
171 429
186 420
188 414
179 419
179 423
176 427
179 426
168 433
170 431
174 427
167 424
168 426
177 431
169 438
165 440
147 440
154 443
174 431
167 431
163 432
156 439
166 433
177 428
185 421
184 418
183 420
174 426
168 427
163 431
181 432
169 435
171 431
176 427
162 432
168 430
179 413
184 417
176 424
172 426
163 431
167 429
161 432
155 437
177 436
165 439
162 441
158 444
157 447
166 442
165 436
163 433
166 435
163 433
166 437
157 440
167 436
158 443
150 447
164 447
157 448
151 448
152 449
158 443
181 430
173 422
179 412
179 416
178 422
180 425
166 432
169 433
178 427
169 433
156 434
160 427
164 429
158 435
156 446
149 446
163 437
158 441
165 440
159 441
164 440
157 444
156 451
161 447
156 454
152 453
153 447
162 448
153 441
146 441
155 441
144 450
145 453
149 450
153 456
151 453
148 455
159 447
154 447
161 444
155 444
152 445
151 445
146 447
161 445
148 451
144 464
151 459
155 456
148 454
162 441
165 441
153 447
153 446
155 445
149 451
137 456
139 455
143 459
154 449
153 451
158 440
154 438
160 442
162 444
152 445
178 436
163 440
173 426
184 421
174 423
181 418
178 418
172 427
168 427
182 417
180 423
172 425
173 426
168 425
169 428
170 426
173 427
171 426
154 434
182 420
189 421
182 419
192 419
185 427
182 429
183 422
178 425
182 422
175 424
174 427
179 420
182 413
181 416
183 412
187 405
183 409
186 404
191 405
188 407
185 410
182 411
181 419
175 420
179 425
179 427
162 435
160 443
154 443
153 450
156 448
160 443
156 451
158 447
150 453
157 458
145 456
150 453
146 460
156 451
154 449
148 451
162 439
160 440
157 445
153 442
169 435
169 427
167 431
176 431
177 428
172 429
176 420
189 407
195 397
205 392
194 399
195 395
198 397
186 398
192 401
198 399
190 402
187 410
192 409
182 412
193 407
194 410
186 413
167 424
154 442
154 449
141 466
142 461
146 456
160 452
145 459
144 465
133 468
142 456
156 451
160 450
142 458
159 452
143 452
145 451
162 443
162 442
159 446
154 448
152 448
166 439
149 435
155 434
147 437
159 437
169 431
176 426
168 423
177 422
172 427
167 426
170 427
166 429
165 421
162 420
171 424
165 424
175 422
180 426
166 427
174 430
173 430
169 432
167 438
159 445
162 443
169 435
163 436
160 436
174 433
176 430
174 422
163 432
165 432
154 440
166 443
163 446
169 437
172 434
161 441
157 443
162 440
163 435
165 430
179 426
168 431
173 433
155 439
158 443
153 447
147 450
163 442
173 432
164 435
163 433
160 441
165 434
173 434
171 432
176 425
181 417
179 416
174 423
180 418
180 418
174 420
180 423
185 416
193 418
195 417
197 412
182 412
185 410
184 412
173 421
178 415
183 418
168 424
184 414
189 417
175 427
175 434
172 431
172 430
166 434
153 439
168 433
171 429
177 423
178 420
187 412
182 411
173 419
175 421
169 426
157 432
172 431
170 431
184 422
188 424
188 422
180 420
181 421
189 417
187 420
184 414
188 411
200 404
194 401
201 399
187 399
201 397
197 400
194 405
191 415
176 414
174 412
179 408
185 410
174 416
165 426
157 431
150 431
165 430
167 435
168 429
165 429
156 440
170 434
161 444
167 441
165 438
167 435
162 434
161 437
160 434
153 439
179 428
177 426
166 426
168 424
182 419
178 418
174 421
180 416
171 419
166 420
169 421
173 424
165 427
166 432
166 425
168 430
153 439
155 444
159 437
170 436
162 438
175 431
180 421
183 422
175 428
175 426
169 429
153 441
162 445
154 453
152 454
160 450
164 444
157 447
153 452
163 447
163 449
153 460
146 463
155 458
155 454
158 456
153 454
160 445
149 447
166 443
161 447
162 443
154 452
135 462
145 463
154 457
154 446
160 441
171 434
177 434
175 425
184 418
185 410
180 410
176 413
179 419
189 419
181 417
190 407
170 420
187 417
178 422
179 419
174 422
168 426
171 433
162 434
150 443
167 438
163 435
163 438
161 442
160 437
159 433
152 440
161 439
158 436
157 443
161 440
160 439
147 444
151 443
163 436
158 441
162 437
156 439
143 445
149 442
158 440
169 442
159 442
170 438
163 442
164 443
159 448
160 447
160 447
156 446
163 442
156 438
161 441
175 438
170 433
172 432
169 435
167 435
167 434
175 428
163 438
172 429
166 441
166 442
167 439
164 436
170 438
172 431
160 434
175 427
171 432
171 428
171 429
171 428
172 430
173 420
180 421
171 426
178 421
178 422
180 421
166 429
160 435
159 441
156 438
163 434
161 436
161 435
150 445
156 446
146 453
137 457
138 460
137 466
143 463
158 456
174 437
169 439
171 430
175 428
179 423
174 424
180 425
181 421
180 421
176 428
169 422
176 425
172 420
180 418
181 416
170 429
170 428
175 424
168 426
180 426
176 427
170 430
169 433
169 439
159 444
171 432
180 422
183 418
185 419
184 411
182 414
176 412
175 417
179 420
176 426
166 432
161 428
172 426
167 430
176 424
170 428
170 422
174 417
175 415
187 409
179 413
179 417
188 418
185 418
178 420
182 423
175 427
166 430
162 437
165 434
157 438
163 436
160 433
160 437
163 438
176 426
176 426
172 426
168 425
165 425
168 428
151 440
158 440
153 439
165 436
168 436
168 434
162 433
168 435
165 434
161 438
160 441
161 442
169 435
161 444
157 446
147 445
158 445
156 443
159 441
169 440
164 440
158 441
149 443
162 439
174 434
165 431
168 436
163 435
164 435
167 434
153 442
163 443
156 443
154 451
143 457
149 452
150 453
158 445
145 457
149 454
149 452
149 445
157 445
160 443
168 439
174 439
163 444
156 445
156 443
161 445
154 447
157 444
158 439
156 443
152 444
160 443
163 446
163 446
166 435
180 432
185 424
190 416
182 423
190 416
176 425
177 430
178 432
163 444
161 445
157 448
162 442
156 439
167 437
165 437
175 428
171 433
176 424
178 428
187 423
175 428
170 427
164 431
164 434
163 430
156 430
161 428
165 429
162 433
153 434
157 438
155 445
152 449
162 442
146 453
150 456
149 451
151 451
151 453
141 446
161 439
160 437
156 437
168 438
159 435
169 429
162 431
152 439
163 440
170 425
179 423
170 425
165 428
184 413
181 415
171 425
171 425
183 422
184 421
173 425
183 421
189 423
184 426
179 430
163 436
155 443
177 425
167 429
172 429
163 430
172 428
183 421
180 419
167 425
179 424
178 425
186 420
175 421
191 417
185 418
182 414
182 409
185 409
182 412
180 421
183 418
194 416
179 413
195 406
187 404
176 416
175 424
177 427
157 439
166 435
170 433
163 432
162 434
160 439
167 435
145 450
142 459
149 454
146 462
136 463
147 457
147 451
150 451
160 445
153 449
150 452
159 448
145 453
169 447
165 442
154 447
152 451
157 450
163 445
163 440
176 430
174 434
161 435
174 425
161 428
167 431
162 433
167 426
174 422
180 421
169 423
169 428
173 431
168 432
181 430
172 430
174 422
162 438
162 445
161 441
159 444
165 439
161 443
151 446
172 436
165 434
170 432
166 429
151 430
177 427
160 432
164 428
160 434
159 437
168 434
171 426
174 422
168 425
167 427
168 428
174 425
169 429
177 424
168 422
170 425
166 427
168 430
184 427
174 427
184 419
183 416
183 420
191 416
172 427
188 414
184 417
182 416
191 413
177 416
184 416
189 411
191 411
200 408
190 416
188 420
198 416
189 414
196 412
184 417
176 418
175 423
180 418
172 423
164 425
162 425
159 430
173 428
167 438
171 433
181 424
186 417
179 423
180 419
180 419
170 430
161 432
169 428
176 428
170 424
172 426
169 425
174 419
159 427
163 435
151 437
172 428
172 426
180 425
167 434
153 443
156 438
158 439
149 443
155 441
165 438
159 441
162 442
160 436
160 435
170 433
163 441
157 445
165 434
166 431
169 430
171 432
155 441
165 442
168 436
170 436
180 432
179 432
169 441
164 439
176 434
160 438
159 441
166 439
167 436
159 443
155 450
153 450
156 450
153 449
147 451
162 436
163 430
155 435
157 437
149 434
164 428
176 426
180 425
163 431
163 429
163 440
170 435
158 439
163 436
164 435
169 436
153 445
156 447
165 438
159 438
166 441
166 437
168 434
173 434
176 435
176 430
170 431
172 428
169 434
165 433
174 432
181 421
176 421
179 420
184 422
189 416
182 412
190 406
185 414
176 424
179 423
179 419
174 416
166 422
181 426
162 427
171 435
159 441
160 446
162 447
162 439
173 430
182 420
179 419
184 419
166 423
158 429
170 421
168 428
153 437
155 437
162 432
170 420
165 428
174 424
175 428
163 436
172 433
163 432
161 436
162 442
171 429
162 431
175 425
170 430
179 414
175 415
190 419
177 422
177 426
184 422
167 431
166 428
174 424
181 424
172 426
169 427
170 429
163 434
158 435
151 440
157 439
171 433
167 434
171 432
176 425
169 425
186 417
175 423
176 426
165 437
169 437
162 442
159 443
163 441
148 449
161 443
152 451
145 457
150 451
149 455
144 456
152 456
147 456
150 460
139 462
156 445
157 445
168 429
163 434
158 439
156 443
155 441
160 445
179 433
175 426
187 417
192 413
177 422
177 423
167 435
158 438
174 436
172 439
172 427
180 427
172 432
178 424
178 425
176 428
168 437
167 433
162 434
166 435
160 438
165 434
168 439
167 438
166 440
157 453
159 450
156 446
169 441
157 442
164 438
172 434
171 433
171 435
161 439
174 430
173 431
180 422
172 422
175 421
171 425
162 436
167 433
157 443
161 441
162 440
164 437
166 434
149 440
167 432
159 432
160 434
165 437
154 437
166 435
166 437
169 434
155 441
167 441
158 443
155 442
159 443
167 439
165 436
164 434
155 438
166 434
169 430
179 431
177 429
170 427
161 425
169 424
156 430
157 430
171 422
171 420
172 422
164 428
169 430
164 433
168 434
175 427
174 426
167 431
158 436
167 434
165 431
167 434
177 429
179 427
185 419
180 427
171 432
164 438
168 430
162 433
153 433
165 437
166 439
182 424
193 414
186 412
180 421
178 420
172 429
160 438
179 420
179 424
173 431
168 435
163 436
170 432
174 427
171 426
179 423
169 427
179 424
177 426
168 430
172 430
162 436
150 441
147 441
143 445
148 449
158 439
168 435
155 441
171 435
178 431
170 434
175 424
170 433
170 435
146 447
146 455
138 465
146 461
138 469
146 467
147 467
139 473
138 475
149 462
157 452
142 450
148 456
156 446
150 447
146 445
143 455
141 451
157 448
148 453
152 450
154 453
154 449
173 434
164 435
173 430
180 425
185 419
175 424
178 428
171 432
169 427
172 430
169 425
167 429
162 439
161 439
165 434
168 439
158 437
170 438
171 437
157 446
167 435
179 431
160 443
154 439
170 432
175 428
175 431
173 429
168 432
169 433
175 433
169 428
157 432
178 420
169 425
166 425
176 416
170 423
166 425
180 427
172 426
170 431
170 424
172 418
185 417
196 410
171 418
173 413
184 409
185 415
189 415
189 419
173 423
184 413
169 418
180 420
168 428
171 426
159 429
169 428
178 419
175 420
176 425
174 424
158 432
166 435
166 436
162 432
159 437
159 438
145 445
167 439
161 436
167 435
158 435
164 428
159 434
166 434
160 438
170 437
158 443
151 442
171 431
176 429
187 423
183 419
195 411
204 402
184 410
177 414
174 420
177 426
169 426
160 431
168 429
175 427
172 432
163 439
172 435
172 436
166 430
168 431
172 428
177 424
182 422
182 418
171 423
162 430
163 437
172 430
164 436
161 436
168 438
161 437
162 429
180 418
173 420
171 428
175 422
174 426
158 434
145 447
161 447
157 442
155 441
161 436
167 437
159 441
164 436
164 437
163 431
165 432
171 427
164 432
179 425
180 424
173 430
184 423
168 432
168 430
182 425
172 429
170 437
173 435
165 435
164 433
157 441
160 434
157 443
162 435
171 427
167 427
159 438
171 437
169 429
178 424
165 429
178 425
168 429
173 429
176 425
176 425
182 418
175 412
180 417
178 414
177 415
178 412
183 419
175 426
178 424
178 424
172 429
174 425
167 436
165 440
157 442
158 439
156 440
161 430
175 425
175 429
182 424
168 428
163 426
176 424
176 431
168 433
167 431
166 435
164 436
166 432
160 439
160 443
156 448
158 444
152 443
163 434
165 433
162 435
161 439
168 431
174 432
167 437
164 437
171 437
170 436
172 438
168 438
170 442
161 441
149 446
152 445
162 438
165 433
163 430
161 434
169 431
165 431
173 434
160 436
154 443
146 446
167 437
154 436
144 444
153 439
158 446
148 453
153 445
162 444
172 435
158 434
164 438
162 437
172 435
168 433
174 434
162 438
167 440
163 441
166 439
177 436
159 443
159 442
163 436
158 435
165 433
174 434
170 433
170 433
167 431
175 434
170 435
169 432
178 426
172 424
183 416
175 424
163 432
172 427
171 428
169 429
173 435
167 435
171 434
165 433
173 431
167 432
176 432
171 428
182 422
180 422
180 424
178 426
181 423
177 431
177 428
169 431
169 428
162 434
179 431
172 430
171 423
178 421
180 423
178 428
170 434
164 434
168 429
170 433
165 433
150 442
151 440
158 447
161 442
174 435
174 434
177 421
178 423
170 427
171 425
174 428
180 426
179 429
181 424
184 424
192 412
177 414
171 418
184 418
175 422
183 422
172 431
168 429
169 433
170 431
166 433
158 432
170 436
170 433
171 431
167 434
164 432
168 436
162 439
156 446
172 434
161 437
181 431
178 430
179 422
178 422
181 425
178 424
180 420
174 423
169 424
163 429
160 437
163 435
174 437
178 432
177 429
177 431
169 431
158 432
171 425
171 422
189 410
190 409
179 411
165 418
168 423
175 418
182 418
170 420
175 419
162 426
166 424
161 426
165 431
163 429
172 430
167 436
172 432
171 429
165 432
161 437
171 439
175 429
185 421
175 428
169 436
161 439
158 448
149 450
142 460
138 464
139 464
144 464
151 458
147 458
150 448
154 450
150 458
151 463
152 466
147 459
142 445
148 449
148 454
158 445
144 449
140 451
142 454
157 446
152 449
152 450
150 451
154 449
158 444
167 436
156 440
165 441
163 443
157 445
149 446
166 442
167 437
171 435
175 431
164 428
170 433
173 430
183 428
180 425
183 422
183 423
157 430
154 431
161 432
160 437
160 437
164 437
161 440
179 431
182 424
177 422
167 423
176 427
167 433
172 431
160 435
156 437
168 443
160 444
158 445
152 440
161 440
154 441
161 440
156 440
153 441
154 443
153 446
152 445
160 445
152 446
146 446
147 447
150 442
171 430
166 437
168 442
169 441
162 446
145 455
152 449
156 451
143 452
151 451
148 455
145 457
142 456
157 451
139 457
145 453
147 452
139 454
150 455
149 459
155 458
145 458
155 461
153 454
156 450
166 444
175 433
151 444
170 442
166 442
147 453
154 454
157 452
150 448
156 448
161 446
167 444
164 438
166 435
166 439
170 433
160 439
165 435
159 435
171 431
168 435
177 426
177 420
168 423
174 420
185 411
180 412
170 419
181 418
168 424
170 423
178 420
182 418
179 423
167 431
157 437
170 429
158 434
160 434
176 430
155 429
147 444
157 437
163 437
163 436
157 442
159 444
161 441
158 438
155 445
159 450
142 460
142 459
149 459
139 457
155 454
150 452
142 461
145 466
144 464
144 461
150 457
148 457
148 457
142 466
145 468
139 467
152 461
142 465
149 458
159 445
159 445
156 444
151 450
151 453
170 442
170 442
172 438
162 439
167 437
161 440
169 440
151 435
163 440
162 441
166 430
169 437
171 439
162 440
167 441
162 439
169 436
171 436
177 424
163 436
169 439
154 442
171 427
177 427
169 429
168 430
166 433
170 434
162 432
166 435
160 437
157 438
172 429
181 424
170 427
179 423
170 429
162 429
170 432
155 443
164 441
161 434
166 438
169 440
164 440
174 433
170 438
164 444
158 448
161 443
161 445
172 436
169 430
163 428
174 423
173 421
184 419
178 417
186 414
190 414
183 411
186 419
165 433
175 428
172 425
165 432
169 431
169 432
175 431
170 431
169 425
179 423
174 427
168 432
165 445
148 446
152 443
165 439
165 437
155 444
155 445
167 435
172 432
160 428
166 426
180 424
179 417
174 419
167 419
169 416
176 422
182 420
180 415
164 423
162 436
159 436
158 439
158 444
160 443
172 431
170 431
175 423
174 416
162 424
168 422
167 418
181 412
180 417
184 418
190 412
178 414
173 422
162 422
173 423
181 416
179 418
178 421
178 420
182 421
167 429
157 435
167 430
153 433
158 434
163 431
162 431
162 424
173 424
176 425
171 428
161 433
180 428
163 439
160 444
162 445
155 449
144 449
167 440
172 438
156 445
158 442
151 443
151 444
152 444
161 440
164 440
157 445
145 452
139 452
157 446
153 448
156 450
162 442
150 446
137 450
155 450
144 449
138 457
145 455
148 451
153 459
154 446
156 445
156 449
160 438
174 431
166 433
156 438
158 433
165 426
171 432
170 426
174 428
177 423
174 423
169 423
173 426
171 431
184 427
176 427
172 427
176 432
179 427
158 437
170 435
176 431
170 436
163 436
168 437
168 433
171 430
179 427
180 424
185 424
171 434
170 435
157 442
158 441
148 448
147 453
146 449
147 450
166 440
151 450
143 454
150 449
146 456
154 448
147 446
163 440
161 442
161 443
151 448
150 448
155 446
160 440
146 447
145 456
146 462
148 456
155 455
155 447
162 440
165 437
174 437
167 436
165 429
167 432
169 430
176 429
187 420
161 425
161 429
171 418
166 425
164 429
168 432
164 430
169 436
169 432
156 437
167 435
153 447
150 452
156 451
156 456
142 458
151 457
142 460
137 461
137 461
146 457
156 452
147 455
151 451
145 457
147 451
153 448
153 455
151 453
157 450
169 442
171 433
174 428
182 422
184 417
182 417
165 423
167 429
177 427
185 419
167 423
161 433
165 428
167 431
164 431
185 421
187 419
173 428
180 424
180 429
178 435
176 440
178 435
178 426
190 416
188 422
187 418
192 417
197 413
196 410
195 407
177 411
185 411
185 412
189 415
198 410
191 413
197 413
202 409
184 415
187 423
178 427
186 423
176 425
178 420
181 415
182 421
186 419
168 429
175 424
177 422
189 417
187 427
177 429
168 438
172 435
166 442
154 446
160 439
158 448
154 450
160 447
157 447
159 444
160 443
165 440
156 443
162 441
161 449
162 447
163 444
166 437
170 431
160 431
156 440
164 436
156 442
145 453
145 447
145 449
148 450
145 449
159 450
156 447
155 443
170 440
157 447
169 429
163 436
167 437
180 428
184 428
174 426
182 422
171 428
169 428
170 429
172 435
171 441
162 448
164 442
154 443
161 441
151 442
166 428
173 424
178 426
177 419
177 412
175 415
179 410
168 419
168 418
166 421
181 416
166 420
163 425
171 427
158 436
157 444
159 443
153 446
158 441
157 440
153 450
154 447
166 440
158 437
159 435
171 432
168 433
162 436
167 434
161 436
164 439
158 442
161 440
160 438
157 441
146 445
145 448
150 450
154 451
138 454
148 446
154 447
138 453
146 454
144 463
151 456
151 456
149 452
152 453
158 448
160 439
151 446
145 450
160 444
153 449
152 453
156 448
161 440
162 440
161 434
158 433
158 440
165 437
156 440
161 439
164 440
155 445
162 440
163 443
154 439
162 442
160 440
157 441
162 437
170 437
167 432
165 434
165 431
154 441
154 443
157 444
164 441
160 442
169 438
183 428
192 421
178 418
183 412
189 411
183 413
193 409
195 411
181 416
172 422
176 422
177 422
188 418
179 422
183 417
177 421
188 424
184 421
189 417
185 415
176 423
176 425
175 424
178 426
187 415
187 413
178 421
178 425
172 432
172 433
179 431
172 433
161 438
167 440
160 445
158 447
149 452
145 454
149 457
148 456
151 451
158 451
139 456
144 455
139 458
145 460
139 463
146 463
152 458
152 453
155 449
162 446
163 446
159 448
160 452
174 439
171 437
176 433
170 434
168 432
164 435
163 435
157 442
158 443
143 446
140 453
142 457
149 453
147 454
146 461
139 457
141 457
161 450
162 446
157 453
140 461
151 460
141 462
145 459
148 454
146 452
162 439
145 445
156 448
153 445
161 447
155 448
147 448
149 452
146 454
151 451
151 445
145 449
154 443
174 436
167 434
172 428
169 433
167 438
169 430
168 431
169 437
169 433
164 432
172 430
165 428
163 432
178 429
175 428
180 427
175 424
182 418
164 428
174 424
155 433
155 438
157 436
164 432
158 444
142 446
164 440
176 438
173 436
154 442
151 443
166 436
162 432
160 433
169 429
164 426
173 431
159 435
157 449
147 450
154 445
158 444
163 438
168 443
165 440
178 435
160 436
161 437
159 440
161 438
149 446
152 443
163 436
169 431
167 430
167 427
163 430
177 424
175 427
175 427
173 435
163 438
166 433
159 439
157 438
160 432
166 432
161 440
156 439
161 439
164 440
166 441
169 439
156 451
154 446
156 444
152 446
150 448
159 447
149 453
141 460
149 457
132 464
133 467
134 467
144 458
147 457
153 455
162 442
162 438
164 432
158 438
161 437
167 436
178 429
178 421
186 414
183 412
194 405
189 410
190 408
182 411
192 411
192 412
191 415
170 419
185 414
188 413
180 423
187 418
171 419
166 425
170 428
172 426
173 421
170 423
164 422
169 426
175 422
179 422
179 418
173 417
171 421
163 428
174 425
171 426
171 425
161 432
164 431
162 436
167 438
162 443
149 448
154 447
165 443
153 448
141 456
144 460
136 459
157 446
161 446
159 446
157 446
163 439
165 432
158 430
158 439
166 434
153 441
157 435
157 440
164 433
158 436
165 432
159 442
152 448
154 444
156 434
169 433
158 440
168 430
163 437
164 435
164 427
174 421
188 421
170 428
175 430
167 426
174 428
166 431
158 436
156 438
152 440
148 443
142 447
149 444
152 443
148 451
130 459
140 454
145 457
153 452
151 450
160 442
162 436
161 433
178 434
174 433
179 427
178 421
172 429
166 426
173 427
177 424
182 419
188 420
187 412
181 420
179 420
177 421
172 424
175 426
181 427
176 430
178 427
165 423
168 421
174 426
171 427
165 428
166 436
166 431
165 434
173 431
172 432
157 440
154 438
170 435
168 442
161 441
164 441
183 434
167 435
170 432
160 431
171 430
180 426
180 420
179 423
177 423
173 428
158 435
165 429
160 433
171 433
165 433
163 433
168 430
171 427
171 427
175 427
160 429
183 423
179 429
173 429
166 431
160 426
170 428
171 436
163 441
157 442
159 438
158 441
172 432
186 427
182 426
179 425
168 433
178 427
172 434
162 435
164 437
162 434
156 439
169 438
164 442
157 445
176 436
178 429
175 428
181 421
167 425
162 433
157 439
160 439
157 439
153 450
150 458
147 454
154 448
154 445
162 440
161 441
171 439
166 440
166 439
158 442
162 438
168 433
171 428
167 431
158 439
174 428
171 431
157 432
157 434
156 432
175 429
175 431
166 431
166 433
159 439
170 437
171 430
169 432
166 435
182 432
168 436
171 432
162 435
164 439
169 438
169 442
173 436
172 435
164 440
176 432
164 432
162 433
166 435
173 428
164 439
175 432
161 429
170 433
167 439
156 441
155 441
161 439
166 433
170 433
159 432
161 435
171 436
168 436
161 437
156 442
160 444
162 445
165 437
170 437
163 439
176 432
179 429
174 426
170 421
175 420
170 421
174 416
169 420
176 421
176 425
178 425
183 421
177 426
181 428
181 428
179 433
173 432
168 436
168 438
153 441
170 439
153 443
160 441
170 430
164 436
166 432
170 428
168 430
179 424
182 422
178 417
189 407
193 408
184 416
187 410
186 404
191 409
184 411
183 411
178 414
178 415
168 420
166 428
172 431
157 439
164 438
173 440
163 445
165 443
173 436
173 427
162 435
163 434
171 434
169 438
148 445
150 450
151 451
162 451
158 447
142 451
160 445
153 441
152 445
156 446
160 449
146 448
159 446
149 440
152 450
162 439
151 437
153 442
158 444
164 441
150 452
147 457
156 445
162 438
173 431
171 427
171 430
162 429
160 429
151 436
162 434
174 430
173 428
184 417
181 420
177 421
176 421
180 424
180 421
176 419
186 407
188 409
185 413
178 411
175 417
177 415
181 414
174 423
174 427
171 433
183 424
187 420
188 423
188 416
181 423
185 424
181 426
180 433
181 426
177 429
186 427
172 428
178 418
178 422
187 415
189 413
186 417
180 415
186 414
186 415
190 411
184 413
174 415
186 412
177 420
153 437
149 445
154 446
150 454
150 452
154 452
150 456
156 448
159 451
159 450
147 453
155 451
155 440
169 441
170 435
160 433
181 424
178 427
167 429
157 433
155 441
145 441
142 449
158 448
146 454
148 455
147 458
148 459
158 451
149 452
158 447
174 439
167 440
172 434
178 425
181 422
190 412
180 414
180 413
194 403
188 407
183 408
183 414
178 420
171 429
167 431
159 435
169 428
171 430
175 427
176 424
170 423
181 420
173 428
158 437
153 442
153 442
150 448
142 454
150 449
151 444
156 445
142 450
142 450
154 444
162 440
173 431
168 432
168 431
172 431
166 436
167 439
160 445
162 441
153 445
152 441
173 433
183 421
182 421
162 429
172 430
176 423
180 428
172 433
191 420
196 417
188 417
175 415
189 416
181 418
188 411
183 416
180 414
183 415
195 407
203 403
191 404
201 400
189 400
200 397
179 411
174 420
184 421
176 421
178 416
174 418
177 422
180 416
168 421
172 420
178 420
175 425
171 431
153 441
164 440
151 443
156 447
156 447
160 441
159 441
157 445
164 446
169 440
155 445
161 438
163 440
169 432
166 433
164 434
179 424
172 432
165 429
169 428
178 431
159 435
171 434
173 432
174 426
167 427
160 427
160 441
161 435
165 437
158 436
170 428
165 431
163 432
172 435
164 431
164 437
158 438
169 430
161 433
156 430
148 443
167 433
160 437
168 436
160 438
151 449
154 450
162 444
161 447
159 448
154 452
156 450
148 450
146 453
143 457
151 452
149 455
159 448
162 451
165 444
170 438
164 439
155 438
157 436
168 437
168 435
166 435
170 432
173 433
165 436
157 434
165 435
163 432
164 433
186 426
178 428
168 432
168 433
159 441
163 437
170 429
161 431
155 437
165 436
169 426
177 416
183 414
196 416
183 422
179 424
175 428
184 417
176 419
168 426
166 426
174 424
175 419
179 423
191 418
175 425
188 423
193 415
170 425
182 422
171 425
179 420
176 420
163 431
169 433
158 430
164 428
162 427
159 423
161 433
148 440
163 438
147 451
153 448
148 443
152 441
159 434
174 426
188 420
174 429
174 430
175 426
164 421
174 426
169 426
172 431
171 435
165 431
175 424
180 427
169 426
178 418
172 416
181 416
168 421
191 420
177 424
175 429
172 426
171 428
177 428
167 431
170 436
175 435
173 433
169 433
178 429
182 422
186 418
188 415
187 419
188 413
185 417
180 418
169 423
164 426
170 423
176 420
171 423
167 428
165 431
168 439
175 433
176 436
174 437
168 432
174 436
163 441
168 429
178 428
182 426
182 428
173 423
181 421
179 420
188 414
185 413
170 419
171 421
171 424
185 422
170 426
170 429
176 423
178 413
161 432
173 425
167 428
165 431
161 440
156 448
162 443
170 449
155 451
153 451
170 438
170 439
168 438
169 433
160 433
165 433
160 435
171 430
160 435
155 438
163 433
184 422
170 426
179 420
178 424
186 420
172 430
174 430
179 427
160 431
160 429
182 425
166 424
178 422
173 423
173 428
164 428
173 433
166 438
165 438
162 435
161 435
156 441
165 433
152 436
167 434
159 436
167 434
167 429
163 426
159 431
171 423
177 417
174 417
175 412
186 410
186 406
183 409
185 418
179 417
178 420
185 418
171 426
174 421
184 418
182 417
181 414
175 424
165 431
172 425
175 422
161 429
172 426
165 433
169 431
176 434
170 430
174 429
166 435
163 439
167 433
165 438
165 436
173 437
177 434
174 431
172 428
179 419
184 420
185 420
182 416
182 419
164 428
172 424
179 423
161 431
155 427
157 429
164 424
161 426
170 420
166 425
160 432
165 435
167 432
166 434
168 431
166 439
180 430
179 419
182 419
185 415
186 416
191 414
193 409
176 419
186 411
178 419
169 424
167 429
172 424
181 413
192 409
190 408
190 404
185 404
174 409
184 410
188 408
182 411
172 419
179 420
179 422
166 426
161 429
173 427
173 431
167 433
186 428
181 428
174 431
177 430
174 427
175 429
157 439
158 442
164 436
149 443
160 441
164 445
150 444
166 440
149 441
157 446
148 448
144 447
156 441
163 445
160 447
148 454
157 444
159 443
164 440
165 435
169 438
170 429
176 426
176 423
175 432
162 439
156 438
162 437
165 432
155 440
149 442
159 434
154 434
167 434
164 435
165 438
172 437
169 431
163 430
182 429
169 431
166 431
172 431
189 414
180 423
170 424
169 423
168 426
167 428
166 428
181 427
175 427
174 426
159 430
164 436
168 433
169 436
166 436
155 440
176 431
166 426
171 425
165 428
179 422
169 422
181 417
172 420
162 428
160 433
162 434
166 433
167 436
163 437
161 438
163 438
160 445
163 442
160 442
159 440
171 431
186 425
191 419
181 426
176 426
172 428
179 418
172 422
173 423
178 430
172 430
170 434
162 437
167 434
176 432
174 432
170 429
183 424
179 418
185 415
186 414
185 414
191 409
173 409
172 418
179 415
183 418
164 426
169 435
166 435
166 435
162 440
162 448
159 442
159 437
165 436
167 432
167 430
161 430
181 419
175 423
162 430
164 436
167 434
181 430
174 430
158 438
158 436
162 435
162 437
156 441
160 441
178 435
165 435
165 433
165 424
171 427
162 429
167 425
169 425
179 425
185 414
172 422
188 426
169 430
164 434
169 432
157 442
167 441
164 443
154 443
155 447
150 448
152 452
152 454
160 448
158 448
147 453
146 459
143 459
153 455
159 448
172 443
160 444
168 443
165 440
174 427
161 431
170 430
156 436
155 431
157 435
159 441
168 439
158 441
160 442
151 448
150 446
159 454
151 456
149 458
156 449
142 455
161 449
157 448
150 448
145 447
160 446
154 448
150 449
148 446
146 448
148 451
157 453
155 452
156 453
144 456
148 461
147 462
139 459
139 460
145 454
153 451
150 446
157 440
156 441
148 451
149 447
143 453
135 456
147 458
139 457
152 454
156 454
142 457
158 451
149 445
155 448
154 444
156 441
148 444
157 435
156 438
161 437
173 427
172 428
163 436
164 436
168 431
166 439
187 432
171 434
165 438
153 441
158 439
164 439
155 434
163 433
170 434
173 429
168 434
164 438
173 433
166 429
170 434
155 438
163 434
165 435
169 433
178 433
167 433
182 422
169 431
181 428
161 431
168 431
177 419
181 417
172 428
174 428
168 431
160 432
165 430
173 432
166 434
170 430
170 426
172 426
165 428
169 434
168 433
163 440
157 433
175 428
175 423
174 428
173 424
175 424
180 417
176 423
170 428
169 433
167 434
165 434
163 435
166 440
167 438
170 436
162 433
170 430
176 429
163 437
166 440
153 445
152 445
148 453
150 446
165 441
158 446
162 440
162 439
173 432
170 434
166 434
160 435
166 438
164 438
157 437
172 436
179 426
182 417
179 419
179 420
171 415
169 423
181 414
180 415
174 420
167 432
171 432
172 434
168 429
175 426
181 418
187 411
184 416
176 417
177 413
161 422
159 428
160 430
174 423
174 420
170 432
161 436
152 441
146 447
165 443
166 438
157 442
156 441
158 442
159 442
164 437
156 436
160 439
170 427
160 434
160 437
156 439
157 440
163 436
175 427
185 417
183 417
179 421
172 420
164 432
158 435
159 436
148 442
151 446
148 449
147 454
155 448
149 447
163 444
164 438
163 436
168 438
170 439
158 440
162 437
167 438
168 437
175 433
173 427
170 429
171 430
174 428
170 422
175 422
175 420
183 418
187 418
188 416
190 411
181 417
168 425
172 427
163 430
165 429
169 436
174 434
173 433
185 424
178 425
178 422
184 423
186 421
186 421
182 419
170 424
173 421
177 420
180 418
189 418
187 419
190 424
189 420
183 423
172 430
175 435
173 431
174 431
171 432
168 434
172 433
178 431
183 424
174 430
186 422
186 422
178 422
160 424
167 429
164 430
166 432
148 441
157 437
161 436
164 437
168 431
159 439
156 438
159 436
165 437
166 435
160 438
177 427
174 429
167 430
176 426
172 430
174 432
170 431
172 428
178 430
177 433
167 434
164 434
168 430
161 435
173 430
164 437
175 434
181 429
181 430
170 430
177 429
170 436
185 432
175 432
178 426
174 423
170 426
163 439
161 442
154 442
148 442
153 448
163 439
170 427
164 433
157 438
153 442
168 437
172 435
175 431
176 426
177 423
180 420
185 420
192 417
203 407
192 413
184 419
178 418
173 417
176 419
169 424
171 424
153 433
147 442
155 440
159 438
153 439
159 438
147 445
139 451
143 451
136 458
138 457
141 459
148 457
140 460
135 467
142 458
152 451
156 448
168 446
155 448
146 449
152 449
161 447
164 439
164 437
169 436
168 433
164 438
158 436
157 439
161 433
164 437
159 443
163 439
173 435
172 437
178 435
158 443
166 440
165 435
167 428
168 434
164 435
158 448
141 456
152 459
147 457
139 462
137 467
134 462
127 463
142 460
130 470
124 478
136 474
132 480
137 473
132 471
135 470
142 463
153 455
145 445
150 442
152 441
154 440
175 432
169 443
165 442
170 436
166 440
160 437
158 441
167 437
168 438
167 439
166 439
168 430
183 423
185 412
184 413
180 409
183 415
190 408
189 406
190 404
189 407
186 401
206 399
195 403
181 408
183 408
179 412
177 412
177 414
181 415
184 410
190 404
182 409
192 405
196 404
186 411
180 410
189 407
188 406
186 411
181 423
176 421
176 422
163 426
165 429
169 431
172 428
156 431
161 433
160 437
169 434
183 426
179 419
183 420
184 420
181 422
183 429
179 432
173 432
176 430
165 432
158 436
160 441
164 435
170 428
169 428
164 433
170 426
164 427
160 430
163 429
144 443
156 441
147 447
147 446
145 454
155 448
162 445
152 449
157 452
144 455
158 437
152 441
158 437
156 445
154 451
167 441
155 439
167 433
163 439
167 438
165 442
151 446
152 448
159 436
157 437
152 442
151 445
150 448
142 450
165 446
159 438
159 440
155 436
165 439
162 444
156 440
162 441
156 429
163 427
177 424
183 420
168 429
157 434
162 435
165 440
161 440
163 438
168 437
158 442
168 430
172 432
179 426
180 428
169 421
167 425
167 433
161 436
152 441
148 441
158 436
165 430
162 432
158 438
158 438
160 442
158 445
153 449
150 445
170 438
165 437
166 433
159 439
152 447
146 447
153 447
147 452
151 451
163 451
154 452
161 448
151 449
155 452
157 452
149 454
151 453
146 458
163 450
168 442
173 434
168 430
164 432
166 430
167 432
169 435
164 437
163 440
169 441
171 436
158 443
164 443
169 443
158 443
151 448
154 447
164 444
151 449
154 449
160 447
161 449
166 449
162 446
162 443
149 447
150 448
160 440
164 437
159 440
165 433
179 419
184 421
180 426
195 420
188 418
186 419
194 418
169 431
172 425
175 421
168 432
164 438
158 438
164 442
160 438
156 446
158 446
160 449
152 450
156 455
151 447
162 447
164 443
169 431
173 426
158 429
167 435
161 438
164 440
153 439
146 454
157 448
152 451
160 444
168 440
161 437
165 443
168 444
149 449
154 451
170 439
174 431
179 426
185 423
187 418
190 418
189 416
188 413
196 410
202 404
193 407
187 413
179 417
183 418
177 414
181 408
186 408
179 410
175 414
181 414
192 412
197 406
192 414
200 414
189 418
178 421
177 419
170 428
160 429
161 427
165 429
178 423
182 418
181 422
181 424
172 422
183 415
177 417
191 414
182 412
183 413
177 415
177 418
169 420
174 421
164 430
168 435
166 434
163 439
164 434
171 432
163 435
155 437
161 425
167 423
180 421
184 414
181 420
174 424
167 433
171 426
171 428
170 425
161 428
162 437
165 435
162 443
172 433
170 436
164 438
168 436
156 443
160 444
167 442
178 432
162 439
150 443
163 437
164 438
168 436
175 434
175 430
173 428
178 427
168 427
188 420
172 426
179 425
166 426
177 428
175 427
174 422
171 430
160 432
169 428
167 432
161 440
162 443
154 440
151 446
143 450
165 436
156 438
164 443
162 437
171 439
168 438
186 426
169 431
158 438
152 441
150 446
155 447
171 446
174 437
175 433
173 425
174 429
164 436
167 442
169 435
175 430
170 428
171 428
182 419
193 417
199 409
179 418
185 411
193 414
185 418
186 422
182 418
181 419
191 417
182 421
189 420
187 418
192 414
186 416
186 414
189 415
185 419
179 418
185 421
184 420
182 418
183 419
187 417
190 419
188 411
192 410
181 417
189 413
190 408
194 412
186 415
178 420
167 417
180 415
176 418
176 422
177 421
186 422
177 426
172 433
179 425
177 418
186 417
172 422
165 429
170 429
176 427
175 421
194 408
181 415
184 418
174 422
177 420
178 417
186 419
169 431
168 433
154 444
147 451
158 449
154 446
153 449
160 447
159 446
164 439
151 442
159 436
168 434
172 435
162 440
159 439
163 443
165 440
152 441
159 442
161 439
170 441
162 441
167 436
170 430
166 434
171 439
158 439
162 433
164 428
172 430
167 429
179 425
175 428
168 432
173 431
171 433
165 439
172 431
180 431
169 434
174 430
169 428
191 423
176 421
162 430
171 431
180 427
167 431
177 424
178 427
175 431
170 434
169 435
167 436
168 434
170 435
169 435
176 427
176 427
185 420
165 423
178 419
180 420
177 420
171 423
164 426
177 424
168 427
169 426
163 429
157 433
161 432
166 434
158 440
148 449
149 448
150 454
153 451
151 450
154 454
147 454
154 443
158 430
176 421
170 423
177 423
180 416
169 424
165 425
172 426
161 432
143 450
142 453
153 454
152 453
158 445
168 440
167 438
152 442
166 433
155 441
159 442
162 434
165 433
173 428
164 435
163 434
178 430
169 434
167 435
182 425
174 426
164 430
172 427
161 433
164 438
156 438
157 435
144 439
142 445
141 449
151 445
169 436
156 447
156 446
165 444
153 450
156 438
175 430
185 418
187 420
179 423
173 425
175 424
180 424
169 423
165 431
154 435
153 443
153 441
164 433
164 437
149 439
149 440
152 447
160 445
161 439
157 442
161 441
169 434
170 429
179 423
181 419
178 417
168 425
169 429
176 428
171 430
163 431
164 433
151 443
151 444
163 445
165 447
166 439
172 432
181 421
183 421
177 421
181 421
177 425
175 427
182 420
183 425
176 427
170 429
172 423
178 423
174 429
172 432
177 427
163 436
161 437
158 437
178 426
172 430
172 427
167 428
165 429
162 430
169 430
166 431
163 432
157 440
171 430
165 436
171 429
172 431
163 435
159 434
168 429
174 424
173 427
182 415
183 413
175 421
181 414
202 406
183 414
184 416
186 411
192 410
194 408
191 411
169 420
171 427
161 438
156 437
168 434
171 436
174 432
175 433
163 438
170 436
163 439
157 443
164 430
176 430
169 443
152 444
157 442
158 444
169 431
176 429
184 420
186 422
175 427
185 422
168 423
182 420
164 425
173 424
180 418
183 421
185 423
194 413
175 416
179 426
183 418
176 417
174 420
181 412
172 416
172 417
172 424
165 435
177 431
149 438
146 448
155 440
151 436
163 430
155 436
148 439
168 434
165 434
165 434
163 438
163 440
162 438
159 444
163 438
173 430
166 439
153 446
161 440
164 432
155 441
161 445
158 438
151 449
156 443
148 445
170 432
159 436
161 437
158 431
169 432
156 435
157 435
170 430
163 434
163 428
182 423
175 420
182 410
176 419
168 418
183 417
184 415
187 420
176 422
175 419
170 426
164 428
170 424
165 428
153 433
172 434
158 441
167 433
162 435
169 433
175 422
174 424
173 422
188 414
193 416
187 417
175 419
185 419
181 425
179 424
167 431
165 431
165 436
148 441
150 446
141 457
142 460
138 455
136 456
151 451
140 454
157 444
154 446
161 446
146 452
140 450
151 448
156 446
155 444
158 446
162 442
150 446
164 437
170 436
160 433
157 439
153 442
166 444
168 441
164 443
170 440
165 439
169 438
164 435
176 437
170 441
174 435
174 438
157 445
157 445
158 448
169 440
156 447
156 453
157 448
157 447
137 452
148 447
155 449
154 449
138 461
146 461
161 454
146 455
149 453
142 462
147 462
151 456
141 461
147 456
150 450
152 447
153 446
159 444
163 435
164 439
155 446
166 442
166 434
170 434
178 427
180 423
181 419
178 420
177 419
171 427
168 428
164 437
153 446
151 449
163 436
151 439
160 439
152 443
147 451
152 444
152 447
150 447
149 456
153 451
158 444
152 451
140 450
151 451
151 443
157 437
168 437
156 440
153 447
152 444
166 436
150 445
153 441
159 438
173 425
185 418
186 420
173 424
165 435
156 438
159 432
157 433
177 425
166 431
167 432
171 428
183 426
174 434
161 434
166 438
165 438
170 434
159 438
168 429
157 437
158 433
159 439
160 435
172 430
164 436
164 435
154 439
160 438
156 442
161 443
149 444
156 440
152 445
169 437
164 439
152 446
145 443
160 442
153 445
160 439
149 449
143 454
148 449
151 445
169 439
162 439
175 434
170 436
169 432
161 436
161 436
172 429
171 430
169 430
184 430
175 435
173 431
178 426
176 431
169 435
165 438
171 440
153 444
144 446
166 438
159 437
149 443
147 454
147 453
146 452
162 454
162 444
157 447
154 447
150 448
142 451
151 454
148 457
141 460
137 468
143 462
151 463
135 466
140 466
138 465
152 459
151 454
151 452
163 454
155 456
157 453
152 447
151 451
145 455
151 454
165 443
165 440
157 445
172 436
179 431
180 430
182 424
173 426
178 418
181 416
187 410
184 411
169 419
173 424
164 421
162 423
164 434
156 448
156 450
164 450
157 449
146 449
143 451
153 447
146 446
150 446
147 454
148 453
143 452
151 447
151 449
154 447
162 441
153 446
154 449
160 442
168 441
158 456
153 453
161 450
156 450
158 448
159 454
160 450
160 440
169 437
172 436
179 431
180 433
172 435
164 435
177 430
175 431
170 435
162 434
169 424
163 432
163 432
164 433
160 439
154 442
161 444
164 436
171 436
164 438
168 434
161 433
164 426
172 426
168 424
171 422
171 424
176 425
179 422
175 427
186 423
171 428
171 439
173 432
179 430
179 431
168 432
174 433
162 432
164 435
163 440
154 443
158 444
154 452
143 463
144 458
154 454
153 452
147 452
144 458
151 458
159 447
149 452
154 451
165 442
159 444
151 442
153 439
172 434
175 429
158 438
170 435
159 444
162 439
166 429
173 425
171 424
164 429
171 431
172 431
175 431
171 434
168 431
159 432
162 431
154 436
153 447
162 442
164 438
165 442
153 446
151 450
160 449
158 451
161 446
158 451
168 444
169 437
168 432
162 441
175 438
159 442
161 440
156 449
148 450
143 455
156 451
153 453
146 454
154 450
144 456
131 456
149 451
150 448
156 442
168 438
168 426
169 422
170 425
173 422
178 417
192 411
195 416
175 423
177 423
186 422
192 417
174 427
180 428
161 434
166 433
169 436
169 439
167 441
163 439
166 441
154 441
162 433
170 429
162 434
145 441
155 443
158 443
166 442
170 440
163 443
147 449
148 453
142 457
150 451
151 446
154 449
149 457
156 451
153 449
162 447
168 446
167 444
159 450
160 445
166 440
157 440
157 441
157 445
156 445
158 438
170 432
176 429
175 423
166 428
175 428
179 420
178 421
170 424
167 426
175 414
175 416
170 425
161 428
163 426
182 418
173 422
177 419
179 416
180 416
176 422
176 420
186 416
177 422
174 420
172 422
176 420
170 428
167 432
172 426
162 430
167 429
170 430
165 424
173 423
178 421
175 429
178 429
160 432
159 436
163 435
167 437
172 432
172 438
168 438
164 439
160 442
177 434
157 446
166 440
170 435
171 435
160 437
179 426
171 431
170 435
159 442
157 444
155 447
159 443
167 444
164 444
167 436
160 440
166 438
169 435
165 433
161 439
158 442
171 435
161 442
160 441
163 434
163 440
173 437
177 434
156 441
174 433
169 434
162 429
179 423
166 425
168 421
177 428
172 432
169 429
161 433
164 432
172 430
160 432
162 428
175 429
165 426
163 426
163 433
160 431
163 435
152 438
165 431
162 437
156 443
161 448
153 446
148 450
150 449
150 450
140 458
135 460
137 459
145 454
160 446
164 439
161 440
156 440
168 439
152 438
161 442
169 441
165 440
165 442
162 436
151 440
148 437
161 439
158 435
170 427
157 435
167 434
171 430
173 433
167 441
142 454
151 454
152 452
150 452
145 461
146 465
140 462
148 458
148 453
134 455
143 456
150 452
149 455
151 448
158 441
155 445
144 453
149 450
152 449
154 446
156 446
156 449
171 440
169 438
152 444
158 448
174 434
171 435
172 435
166 438
171 438
161 440
163 445
162 446
179 439
184 434
172 431
183 422
188 417
170 427
163 431
163 436
168 431
157 438
162 450
149 457
147 461
148 457
148 452
154 441
150 448
155 445
156 441
156 428
170 433
156 440
159 442
168 437
154 450
161 444
173 435
159 434
172 435
168 432
171 429
182 418
174 424
172 429
172 426
173 430
168 431
162 441
160 435
154 441
145 444
160 445
153 448
153 449
151 453
148 452
156 453
150 452
157 445
166 441
163 445
159 448
161 445
157 443
164 444
167 436
164 434
165 433
171 428
166 435
163 437
151 446
163 442
161 441
152 448
139 455
149 451
159 446
166 432
158 443
156 446
155 449
151 450
151 444
166 441
158 447
169 442
167 433
153 441
161 437
167 431
164 433
164 432
165 428
170 431
165 434
158 442
146 451
140 452
155 454
160 444
163 444
159 435
172 423
178 428
154 441
156 442
152 439
165 434
153 440
160 439
153 439
165 442
163 441
160 437
164 439
165 441
157 439
163 440
154 445
150 442
157 440
150 439
157 441
159 441
159 440
158 447
159 449
154 446
176 431
166 437
157 442
157 441
163 435
159 436
156 433
170 435
166 430
164 432
151 442
158 436
158 437
166 439
159 442
158 445
156 446
164 442
155 442
164 442
158 447
152 458
157 457
163 454
166 446
158 444
160 443
172 437
163 443
165 437
161 435
164 436
156 434
159 432
161 431
165 428
180 420
164 422
170 426
154 435
169 430
165 434
152 449
147 454
158 449
162 446
159 446
153 443
162 441
158 444
159 448
153 446
158 445
156 447
159 438
174 434
174 430
169 433
171 434
169 435
181 426
165 435
159 438
180 423
179 419
158 428
169 432
166 437
170 432
167 430
167 434
163 435
168 435
160 440
142 451
151 453
149 459
135 469
147 464
135 457
149 448
154 441
154 443
151 444
163 437
157 438
165 438
163 437
159 440
155 446
148 449
148 456
145 455
145 453
149 451
146 455
150 455
155 450
152 453
159 444
162 447
146 450
149 455
150 456
151 456
163 440
163 440
157 440
170 431
157 440
165 436
174 427
161 427
167 432
172 436
162 436
169 433
175 427
164 433
176 431
167 440
181 430
176 429
166 428
175 426
165 431
163 442
155 448
134 455
150 443
158 441
171 435
163 442
157 446
163 445
155 444
149 450
165 443
161 444
164 444
168 440
166 439
175 431
176 427
179 427
180 428
165 431
171 431
175 431
178 433
167 437
166 433
175 423
165 431
160 427
176 423
157 429
162 441
161 443
159 436
173 432
177 434
180 433
179 429
182 428
182 427
184 417
182 417
176 413
188 413
184 417
186 419
176 420
169 427
185 419
182 425
177 428
163 436
152 438
155 441
151 442
161 440
159 440
157 433
163 433
179 431
165 439
158 440
157 443
146 449
143 454
143 454
142 457
147 450
152 454
150 464
154 453
126 457
143 454
146 450
146 444
156 441
156 453
149 454
146 454
152 455
157 453
143 460
151 451
137 458
148 452
147 454
147 456
154 451
155 452
156 451
145 455
168 440
178 427
166 436
170 432
163 436
167 433
145 446
158 443
153 450
146 457
150 453
160 453
156 450
150 448
149 452
161 447
159 445
171 433
166 435
183 428
180 428
178 428
177 433
177 433
179 429
167 431
160 434
172 434
161 438
166 433
171 427
168 432
155 438
148 448
133 455
146 452
139 456
152 446
159 442
150 441
151 439
157 448
154 442
158 440
153 440
154 443
148 444
146 448
155 447
158 450
161 453
156 455
155 452
163 449
152 448
162 443
162 439
166 429
161 434
166 437
160 433
163 441
163 439
158 444
155 453
155 450
143 455
154 446
167 438
166 437
164 433
174 431
172 432
186 428
166 433
176 433
171 430
170 431
174 431
181 428
188 420
175 424
186 416
193 414
184 411
184 416
187 411
181 410
174 411
163 423
161 428
172 430
175 425
175 428
174 428
164 437
151 447
149 446
138 456
150 450
151 454
145 451
160 443
166 437
169 432
156 437
162 431
158 442
161 446
149 450
158 448
158 442
150 447
152 444
159 444
151 450
153 444
169 441
165 437
167 435
162 436
167 435
183 425
180 425
182 420
173 425
178 423
177 422
171 433
170 432
168 434
165 436
165 432
162 431
163 432
167 427
164 432
172 436
166 436
158 436
173 435
169 436
158 438
151 438
166 438
155 442
168 439
157 445
160 452
165 448
169 439
155 443
164 447
173 440
169 445
151 447
172 437
170 436
160 437
160 439
153 443
154 438
152 437
163 434
166 440
164 437
173 433
171 428
176 427
151 433
160 431
165 430
158 440
167 431
159 436
156 438
153 440
154 441
160 441
162 440
148 448
149 448
154 444
159 441
165 442
165 439
168 433
165 440
153 443
158 436
158 440
174 439
163 439
164 440
183 432
186 422
171 433
172 433
162 434
159 433
153 433
163 437
154 439
165 444
154 448
170 445
154 450
164 444
154 446
156 446
157 448
148 443
157 441
151 448
159 437
158 437
149 443
153 447
149 449
150 451
159 449
154 446
158 447
158 447
153 443
168 443
165 446
161 447
152 450
160 452
154 451
152 458
162 455
147 456
161 450
159 445
153 446
157 444
159 440
163 435
170 432
175 427
179 424
166 429
181 424
174 429
170 429
170 431
165 430
167 433
173 424
172 430
179 426
172 422
184 414
181 413
194 411
195 410
197 402
177 419
182 416
177 413
191 415
175 425
167 429
178 423
159 435
165 444
150 448
142 451
161 445
157 443
150 450
153 457
147 454
149 457
142 453
150 459
144 459
153 455
154 452
150 450
141 448
142 456
154 452
152 446
155 447
160 443
158 451
158 448
151 456
148 454
144 460
152 457
154 454
151 451
146 449
151 449
154 444
159 449
163 446
151 456
142 463
144 464
151 458
160 451
160 444
151 439
152 437
163 439
164 434
166 434
146 448
161 441
170 441
161 441
157 439
162 436
152 440
155 439
161 432
167 431
157 438
161 439
164 441
165 437
152 443
158 443
157 440
154 440
157 440
159 446
157 446
151 446
165 444
137 457
139 459
144 460
146 451
151 451
140 455
150 450
155 445
160 437
173 430
169 432
167 430
174 430
159 436
173 432
185 428
178 425
178 426
182 421
177 430
178 427
179 428
192 420
184 422
168 424
170 427
173 419
172 421
174 423
185 419
172 425
165 429
163 437
163 440
155 447
155 450
160 439
166 431
157 428
164 424
172 426
175 425
184 423
178 424
171 426
163 432
166 429
161 438
159 438
168 432
166 432
161 428
177 426
151 431
171 422
153 428
164 429
147 444
149 442
158 441
173 435
170 435
157 443
147 451
156 451
151 446
150 442
168 441
154 445
146 445
151 436
166 435
162 441
162 434
171 433
180 425
159 436
164 434
171 434
167 434
170 437
158 441
160 436
159 438
167 435
161 433
172 429
174 425
171 425
173 418
177 420
172 422
184 421
176 421
173 417
182 413
193 409
176 411
178 409
181 415
183 410
180 412
197 408
187 415
176 409
173 410
171 421
171 421
167 431
165 438
165 435
171 431
176 429
165 431
170 426
170 426
178 427
190 422
184 423
183 417
194 411
187 410
181 410
170 426
169 432
176 424
173 425
176 430
182 427
151 441
152 444
176 435
165 441
154 445
158 447
155 451
155 451
150 453
150 450
155 451
156 453
134 461
149 450
141 447
144 447
134 455
148 450
146 448
144 447
146 445
152 442
162 442
165 437
163 446
155 447
159 447
158 448
158 446
168 430
160 432
163 437
161 443
150 446
144 447
146 448
154 449
154 444
165 434
151 442
162 433
168 427
169 427
164 431
169 433
176 430
164 433
174 435
177 427
167 425
168 424
166 427
177 424
174 423
169 423
161 435
163 436
159 440
164 435
164 444
157 439
164 434
166 435
159 441
164 443
166 439
158 438
167 439
176 437
150 440
156 438
155 437
153 439
168 440
156 441
149 447
148 448
158 445
145 441
148 443
151 443
165 444
159 436
156 436
153 438
161 438
160 443
161 444
163 451
153 447
163 443
158 447
169 440
164 438
172 435
171 437
161 438
153 444
152 445
171 435
158 443
163 443
148 448
157 446
173 439
158 444
169 433
171 429
168 430
173 433
167 438
161 436
167 434
169 427
173 426
168 429
170 430
166 433
164 434
169 429
173 422
176 427
180 426
175 422
173 423
165 434
158 440
148 441
156 444
177 438
173 436
163 440
168 441
162 438
166 436
154 445
160 442
164 440
162 446
161 447
161 441
166 433
157 439
165 440
162 439
162 440
164 435
163 438
170 435
158 442
162 446
149 451
147 449
149 448
151 450
157 442
157 438
169 434
178 424
184 425
172 433
170 434
157 435
168 435
172 438
165 443
154 440
171 432
172 432
162 437
156 449
161 442
164 434
180 428
171 423
168 424
178 416
173 417
170 425
170 421
184 420
176 424
163 431
164 436
169 432
171 434
167 434
162 442
166 441
163 438
166 435
167 438
174 436
170 434
170 426
172 430
160 439
156 448
146 452
149 456
145 456
153 450
150 448
155 448
157 447
158 440
172 433
178 433
166 437
171 428
175 427
165 429
174 427
168 428
173 431
168 434
173 432
173 429
183 427
179 429
185 423
181 425
183 417
176 418
175 417
175 414
176 411
182 406
166 417
180 416
189 410
191 404
175 412
175 418
174 421
169 433
169 435
167 438
175 438
177 426
173 431
164 431
170 428
190 415
173 422
164 427
166 428
160 428
169 422
178 416
173 421
172 415
172 420
175 419
172 428
165 424
176 417
181 425
168 426
163 432
172 431
173 428
175 429
166 434
164 435
175 434
163 437
173 430
172 432
163 432
167 436
167 436
168 432
167 428
161 433
159 436
155 441
161 438
166 432
157 438
155 445
156 445
153 449
156 448
161 439
163 438
155 447
160 442
155 445
166 439
159 445
167 442
161 445
166 445
164 435
173 435
163 436
181 427
176 422
171 420
187 414
166 420
175 419
171 423
169 429
169 426
155 435
176 431
162 437
164 443
148 457
154 456
155 452
156 449
155 449
152 444
149 443
164 440
163 439
154 444
153 448
166 445
169 442
154 444
159 439
171 435
158 445
160 443
164 444
163 447
168 442
180 434
168 435
177 437
168 445
150 453
147 451
149 456
149 453
141 453
141 454
148 450
146 448
132 456
140 454
152 447
158 437
167 435
163 441
167 442
165 436
159 436
157 432
170 424
166 429
162 427
159 433
159 438
153 442
149 444
147 451
158 446
148 455
158 449
151 448
163 442
155 442
147 445
147 450
144 458
143 456
149 456
154 453
153 458
154 459
147 457
152 452
150 452
145 459
159 448
175 438
166 437
183 428
186 421
181 421
183 421
179 424
170 426
176 419
177 421
184 423
164 423
162 433
169 432
166 441
167 435
172 435
161 436
158 434
165 438
165 440
170 437
162 442
166 437
172 435
168 432
174 428
165 428
157 438
164 434
166 440
157 442
167 438
158 442
162 438
151 440
147 441
156 444
162 447
154 451
158 449
153 453
152 456
160 449
154 452
165 444
165 436
161 435
165 432
166 434
163 433
157 439
172 433
164 434
169 437
163 432
165 440
132 448
160 438
163 441
156 443
159 445
163 442
173 434
168 430
169 431
182 423
168 425
179 422
168 427
168 427
165 435
173 421
172 425
162 435
165 437
165 434
170 438
156 448
161 443
159 435
163 437
166 445
152 452
160 450
156 444
161 443
151 450
156 450
152 454
151 454
151 454
148 455
146 455
154 450
149 455
165 446
169 439
156 439
171 432
169 431
170 435
176 431
172 429
168 429
177 426
176 427
171 430
171 425
163 435
166 437
162 436
159 435
153 437
159 434
165 438
166 438
166 443
162 441
165 441
161 437
160 437
168 432
157 439
166 433
159 434
151 445
155 439
153 452
145 456
154 451
152 449
152 450
142 460
144 462
139 463
151 455
149 447
158 444
164 432
186 421
173 426
172 423
174 427
168 429
166 433
173 426
177 420
184 412
182 415
185 413
188 406
182 405
190 408
170 420
160 434
166 437
165 437
164 442
167 435
152 441
163 440
153 447
158 444
164 439
166 440
172 439
165 437
172 443
173 430
175 424
178 420
187 414
192 413
190 410
174 418
186 418
176 418
186 410
174 413
177 414
170 422
164 429
162 424
168 419
185 418
169 426
174 422
172 434
162 442
158 444
148 449
150 446
140 452
142 449
135 449
153 444
149 448
148 450
143 455
151 457
145 464
151 456
152 452
145 455
156 447
155 443
160 442
161 439
153 441
158 442
160 438
156 436
154 440
160 443
175 441
164 434
166 434
163 437
159 444
156 443
166 439
167 437
165 439
160 435
170 436
159 440
167 439
161 439
149 447
159 444
142 450
152 449
154 444
158 442
163 444
155 450
158 452
149 455
145 458
150 458
152 452
148 453
163 441
168 439
170 432
169 426
170 428
172 425
171 424
181 415
189 417
194 411
199 402
189 414
176 415
174 420
178 421
172 420
175 421
173 420
179 421
175 426
167 427
173 429
165 427
170 425
176 420
174 421
176 420
184 412
168 424
174 423
175 422
180 422
178 422
176 417
180 413
175 421
177 421
175 421
157 428
173 425
174 427
171 433
173 440
147 449
162 449
156 449
141 455
148 453
138 454
144 451
152 447
141 453
140 455
154 457
155 459
139 464
162 452
160 445
156 445
160 444
159 442
160 444
167 439
168 433
168 437
172 432
175 425
167 427
171 430
177 423
174 423
187 417
190 415
198 412
178 414
189 412
185 417
181 423
173 422
173 431
175 436
177 428
179 425
178 434
178 425
166 429
172 431
169 434
171 431
177 424
176 424
177 420
163 423
176 417
182 418
170 417
177 425
170 437
171 435
169 431
172 432
179 423
170 425
176 426
165 436
167 439
178 429
174 431
177 427
180 423
165 422
187 417
173 419
169 422
167 425
167 429
159 439
171 434
169 431
165 435
179 426
177 427
159 438
169 442
178 438
166 445
164 443
168 442
158 449
164 445
146 447
152 447
154 447
163 443
153 453
163 445
151 448
164 447
157 448
150 451
144 452
143 456
137 461
149 451
141 457
145 457
161 455
162 446
156 442
157 446
157 446
164 439
170 438
173 437
166 437
167 427
163 426
180 423
173 421
176 415
183 414
176 417
185 416
175 418
171 422
169 426
169 424
173 426
172 423
172 426
176 428
172 437
178 437
173 428
186 424
187 419
196 417
199 410
185 416
181 417
188 413
187 415
187 417
189 418
185 414
174 424
166 423
178 414
190 416
175 423
168 428
168 431
173 418
177 417
180 422
180 422
184 420
181 429
174 429
176 432
163 439
164 434
171 433
168 433
162 438
164 444
162 443
170 440
160 436
165 432
158 436
169 431
157 438
162 436
152 440
166 441
157 441
144 449
157 453
149 451
159 450
154 454
157 453
153 450
150 453
158 443
160 441
164 436
150 442
145 446
161 437
164 436
155 434
159 440
165 436
172 441
160 442
159 439
163 439
165 438
171 425
181 419
174 425
184 415
182 418
190 413
192 407
194 402
193 407
182 411
176 414
168 420
168 425
166 425
171 424
182 418
165 431
162 432
169 429
169 430
170 433
174 430
167 433
165 430
166 427
188 419
185 423
180 425
186 422
171 436
172 434
168 438
170 434
164 432
176 431
179 420
175 428
181 422
185 419
186 421
184 420
176 424
174 425
172 426
163 436
162 439
169 431
170 433
160 443
160 442
166 446
141 457
156 453
144 461
141 461
148 450
148 448
156 444
163 439
163 438
169 432
169 429
176 426
164 427
168 429
167 426
184 425
165 435
163 433
165 433
169 435
164 435
164 436
169 438
166 434
164 440
164 441
166 440
165 443
157 440
165 439
166 436
181 420
174 420
174 424
169 426
167 430
173 426
178 420
180 423
172 418
178 413
183 408
188 405
193 412
180 422
167 429
168 434
168 437
154 439
165 434
174 432
155 438
164 439
160 444
155 444
159 438
148 441
161 439
148 448
157 452
173 443
161 445
158 443
167 432
168 427
181 414
178 413
185 409
182 408
174 422
171 428
174 425
177 429
163 436
171 430
164 427
180 424
175 421
180 413
171 421
158 428
171 430
176 430
174 427
178 426
173 428
179 428
162 432
170 429
171 434
164 435
154 434
153 441
175 435
166 437
167 439
151 448
162 448
155 446
150 447
157 440
170 439
154 446
155 447
146 453
154 447
147 453
152 450
138 455
145 455
153 452
154 450
149 457
148 455
150 453
149 451
148 451
148 448
144 450
138 454
158 450
147 451
144 445
170 432
166 435
160 439
163 438
161 445
164 436
163 437
170 430
168 432
162 445
147 453
155 450
149 446
150 449
162 444
152 449
143 452
155 447
164 443
161 442
161 443
168 438
177 432
164 441
167 436
169 432
168 428
163 428
186 416
185 416
173 422
164 428
174 429
169 422
174 432
169 429
176 428
162 435
164 436
162 444
167 444
157 445
170 439
174 436
175 435
179 432
168 438
159 440
167 428
168 424
177 424
179 424
169 428
161 435
172 421
192 414
169 425
173 432
188 424
182 421
170 429
164 429
165 427
175 434
167 437
167 439
167 438
152 443
153 443
156 444
154 448
154 449
153 448
151 449
147 451
150 446
152 443
151 449
151 448
143 455
136 451
148 454
150 453
157 447
154 448
177 439
162 446
168 432
168 433
172 430
158 432
156 434
156 440
167 432
157 428
164 431
163 439
165 435
167 437
165 437
172 435
179 430
185 418
187 417
185 419
181 421
173 424
176 419
181 417
179 416
180 420
186 419
169 423
169 420
175 420
172 429
155 437
173 428
162 429
157 430
154 435
155 436
170 428
167 428
175 422
179 425
170 431
170 425
166 434
166 440
156 440
161 442
158 444
162 442
153 441
166 433
166 440
163 447
164 447
154 445
158 440
166 439
162 440
175 431
167 436
167 438
166 439
157 442
161 440
165 436
176 428
173 426
166 428
168 428
159 429
160 429
163 432
167 432
158 440
167 439
172 428
180 419
181 424
169 427
180 423
181 429
186 423
190 422
188 419
185 414
190 414
196 410
188 411
176 421
174 427
176 425
175 432
169 435
160 437
172 431
172 437
162 442
163 444
169 438
172 434
177 435
156 440
154 442
152 440
162 437
155 443
162 438
165 439
166 439
173 434
156 438
174 423
183 421
170 428
168 421
164 419
162 428
165 428
173 429
179 423
167 426
172 425
175 422
175 422
162 426
164 426
176 424
167 423
164 430
173 428
157 436
174 426
173 428
179 425
172 431
184 418
181 422
175 418
170 421
169 425
155 433
168 426
169 425
165 428
172 424
167 431
163 439
162 439
153 441
171 430
185 426
172 427
172 431
170 434
171 432
185 425
176 429
163 438
167 439
169 433
161 436
170 434
167 437
169 435
153 440
157 440
167 439
173 437
161 435
158 440
158 441
151 443
160 443
149 449
142 456
132 460
153 449
140 452
151 451
153 446
156 448
162 441
159 445
155 444
152 445
155 453
154 452
152 449
152 453
145 451
148 451
150 442
158 441
164 436
169 429
177 435
174 436
164 434
157 441
148 442
143 450
146 449
161 446
155 444
164 444
158 448
148 453
145 462
144 461
156 450
150 450
144 454
141 461
148 457
143 455
149 454
151 451
149 446
161 445
156 446
148 453
146 450
144 450
158 446
159 443
161 444
160 442
154 446
148 443
156 438
155 441
155 441
156 438
166 437
173 431
166 432
164 436
159 440
154 438
159 442
165 436
166 435
183 425
174 421
191 417
197 406
189 411
186 413
186 414
170 425
156 430
169 429
149 434
155 430
156 438
169 435
157 436
169 433
168 436
160 440
168 438
167 435
159 437
162 443
162 438
159 440
149 449
147 456
153 451
156 440
157 443
163 439
166 440
159 444
163 436
159 441
153 447
148 451
130 457
127 466
132 465
144 461
145 457
127 469
135 463
143 455
130 471
140 462
147 459
134 458
143 463
135 470
142 457
140 454
144 452
156 446
149 449
155 444
164 448
164 443
159 450
151 448
159 450
159 446
154 444
159 438
166 433
156 440
156 439
153 442
172 432
168 441
167 445
163 447
170 436
164 439
151 444
159 443
169 434
175 430
171 427
164 429
168 431
173 423
177 421
180 420
175 430
168 432
174 436
166 440
167 441
174 431
172 429
168 429
160 435
155 437
163 431
167 431
177 431
178 428
171 425
166 425
180 418
177 422
179 427
165 433
169 441
153 444
143 454
140 454
138 450
138 456
143 463
143 461
144 461
147 457
153 451
148 458
147 458
136 466
139 460
145 456
144 457
140 455
149 456
153 453
150 461
154 462
142 466
159 457
151 454
152 450
153 449
154 449
147 442
150 444
156 443
159 446
171 441
164 437
172 439
155 445
156 438
158 439
166 435
160 435
158 433
169 429
162 438
161 441
159 429
151 432
162 436
151 442
158 439
164 434
156 443
163 443
160 439
167 436
163 436
174 432
160 440
164 438
163 434
174 430
170 428
177 427
154 436
164 440
158 442
152 452
156 448
162 448
157 445
161 442
153 444
167 436
169 435
157 445
162 443
162 445
162 442
161 447
158 445
154 446
162 443
151 445
157 441
151 443
149 455
153 456
156 453
161 443
167 443
161 443
163 446
164 445
156 444
157 441
167 436
165 446
164 444
155 441
168 433
165 434
159 433
162 439
182 427
185 420
188 420
194 415
178 422
177 425
180 428
173 430
183 421
185 419
190 408
182 418
174 424
192 409
190 406
184 411
189 414
173 421
182 423
179 418
177 418
173 424
184 416
172 425
177 425
181 425
180 419
183 421
170 427
172 423
175 420
166 425
160 421
166 428
155 436
154 437
154 443
156 445
162 435
164 438
160 442
155 441
166 435
159 440
163 436
156 439
164 434
166 434
167 438
172 428
163 437
163 434
149 445
147 447
148 451
155 454
152 454
141 464
150 458
147 461
141 458
144 451
166 444
167 443
157 450
153 452
153 447
162 444
152 447
147 452
143 459
152 456
148 457
148 454
153 451
157 454
152 450
160 449
157 454
159 450
155 448
154 445
145 452
150 447
153 449
150 452
146 455
146 452
150 450
152 450
148 456
145 456
157 449
148 448
148 452
156 452
150 447
158 445
154 440
151 444
145 445
159 439
146 449
156 441
149 443
158 439
154 443
162 437
161 430
171 432
160 438
166 430
166 436
173 428
181 423
176 427
179 423
177 422
183 422
168 434
167 433
178 431
171 429
178 428
180 427
168 430
161 435
171 434
164 432
165 432
177 427
178 414
183 416
174 423
190 417
188 419
176 420
173 422
173 420
172 428
171 429
173 424
170 424
170 427
185 422
183 423
168 433
171 430
174 425
176 428
162 431
155 443
143 454
155 453
159 453
151 458
153 452
152 449
147 450
153 448
153 450
152 442
169 438
166 438
169 439
173 435
164 433
173 430
168 437
157 447
165 434
169 435
159 431
165 430
168 427
158 428
180 421
177 423
166 426
171 422
164 424
167 425
170 428
174 430
159 437
171 436
164 440
159 442
163 442
162 439
163 440
171 434
170 431
173 424
169 427
171 424
170 429
164 435
161 436
169 439
179 427
172 428
170 428
166 432
172 430
175 433
170 434
163 430
164 434
166 432
172 427
162 434
163 430
168 430
171 429
169 429
173 428
181 420
177 425
167 429
155 438
161 437
170 430
162 432
171 425
185 418
176 421
181 418
177 421
184 421
174 422
167 425
163 430
159 435
151 447
167 439
167 440
173 434
170 435
164 439
155 446
160 442
159 440
155 446
153 450
159 447
152 451
158 439
149 444
162 437
166 438
159 439
168 432
168 426
164 436
160 436
174 430
168 429
169 432
178 427
177 426
169 431
172 430
174 429
168 432
180 423
178 429
187 423
180 418
190 412
185 418
180 416
185 416
175 417
170 423
180 422
179 420
188 412
173 415
179 411
175 413
191 402
188 403
184 400
195 400
189 408
182 412
178 413
182 411
182 415
181 416
179 418
173 422
178 417
172 418
177 416
162 431
160 432
155 437
159 439
154 441
165 439
164 438
164 436
159 437
154 439
156 443
166 443
167 445
145 453
154 455
158 452
165 444
165 437
162 438
165 431
170 428
167 434
159 431
165 432
167 441
169 439
158 440
157 440
155 442
159 443
159 447
146 452
153 449
166 444
157 439
155 435
152 443
150 449
161 442
165 432
159 430
171 425
169 429
161 433
162 436
160 434
165 434
153 442
147 442
162 430
166 431
167 424
168 423
169 425
161 429
154 437
139 446
147 434
158 434
152 442
161 437
170 433
167 433
171 437
174 432
169 436
167 434
163 431
182 426
176 424
183 419
185 419
168 424
173 428
163 432
169 433
159 441
158 448
151 450
158 441
150 446
154 438
155 441
154 439
162 432
160 425
163 424
169 428
170 428
161 432
164 434
164 433
157 432
177 416
180 417
181 424
165 424
153 433
160 431
174 432
163 440
160 438
158 443
162 440
159 439
168 433
157 433
162 436
167 436
163 434
172 434
164 437
160 444
152 452
153 453
158 445
160 442
159 440
171 432
176 432
180 426
159 438
171 436
170 434
163 436
163 440
166 438
161 442
144 449
147 452
147 448
148 453
148 455
154 455
148 458
157 453
163 450
149 457
152 460
151 456
150 451
147 452
163 442
162 434
167 431
173 428
168 436
165 439
160 438
152 439
156 442
171 437
159 443
152 444
169 432
166 434
150 442
160 436
165 436
158 436
160 439
168 439
168 435
171 430
166 431
161 435
155 438
157 447
157 445
169 437
164 437
166 436
167 438
162 439
158 439
175 432
162 437
165 441
165 436
174 426
173 425
177 427
181 422
161 430
170 425
168 434
155 444
172 438
164 444
164 443
153 450
144 453
148 452
154 446
153 444
145 449
143 447
170 436
167 434
169 442
162 441
164 444
167 440
174 428
173 427
167 436
165 433
155 436
157 431
172 421
165 422
162 428
164 427
171 430
158 439
174 425
174 421
166 424
167 432
171 433
163 435
177 433
163 433
162 440
172 432
169 430
172 423
176 421
175 424
177 418
169 425
166 432
163 436
173 435
161 438
168 438
175 427
177 432
177 428
174 429
167 429
170 427
177 421
171 419
172 417
168 425
173 427
185 423
188 416
185 411
199 407
189 412
191 409
191 415
168 419
178 416
177 419
185 426
182 423
185 422
181 424
164 426
176 427
174 431
172 434
168 433
163 438
154 442
156 437
162 436
168 433
173 428
154 432
170 431
166 433
171 437
160 438
184 422
171 422
177 420
169 422
167 427
177 423
177 427
176 429
171 435
167 437
153 443
146 441
147 441
149 439
164 434
167 432
159 435
159 437
157 441
150 446
162 443
149 445
147 450
170 442
157 446
165 436
168 436
173 437
172 439
176 430
174 432
181 422
178 424
185 424
168 429
173 423
171 424
166 428
154 436
163 436
158 442
154 439
158 444
149 443
154 447
152 448
142 450
145 454
152 451
150 444
149 449
160 442
151 448
161 439
162 435
166 430
167 430
154 435
163 434
172 432
169 433
167 433
154 444
154 444
150 447
153 445
151 447
163 441
160 436
157 441
152 444
156 446
158 444
168 436
162 438
165 434
158 436
158 441
160 445
159 439
168 434
165 438
158 439
155 441
146 446
144 450
145 448
155 442
150 448
168 438
171 431
163 438
159 440
166 440
171 431
173 424
169 428
169 426
168 426
171 421
171 425
164 433
154 437
158 432
157 434
165 435
171 428
177 429
175 425
162 428
180 421
174 423
183 422
182 420
173 420
157 423
177 415
170 423
169 425
173 425
174 428
153 439
143 449
147 445
167 436
157 437
154 434
158 439
153 449
163 440
150 447
160 443
152 440
169 432
170 436
164 436
169 431
172 430
186 422
181 427
167 440
162 448
160 450
156 453
154 453
163 443
153 445
157 442
166 433
158 432
165 436
175 436
169 439
157 445
152 448
149 456
158 446
151 452
160 448
153 448
150 447
152 445
157 441
153 446
168 445
148 453
148 451
151 454
158 449
163 441
169 438
165 437
164 434
167 436
164 442
164 438
176 428
178 423
164 429
163 434
176 430
177 429
172 425
178 423
172 427
172 429
178 427
162 438
168 437
171 436
156 440
155 444
146 447
156 450
159 442
157 443
160 438
161 431
171 430
171 433
159 441
157 440
157 435
169 433
161 437
166 433
166 429
161 432
160 431
154 441
171 433
180 428
175 428
165 433
179 425
182 426
183 426
186 414
183 416
188 412
183 409
171 412
175 417
175 425
169 428
176 422
160 437
157 436
162 434
154 435
166 433
165 430
165 430
171 430
172 425
181 422
173 422
158 432
156 431
161 426
162 430
177 424
160 431
164 429
157 434
161 440
170 431
176 428
173 433
176 431
165 439
163 436
166 444
148 454
149 459
144 465
154 455
141 456
146 457
145 460
146 457
143 456
141 457
146 451
144 451
152 449
150 457
147 456
157 447
166 442
147 449
152 448
143 449
144 446
158 441
153 446
147 447
152 445
163 443
179 435
159 440
157 443
156 440
165 440
168 442
170 440
167 435
164 432
175 431
171 434
173 432
173 432
168 429
169 431
176 431
163 431
175 423
168 431
170 437
157 436
162 433
166 432
169 432
175 427
178 425
179 428
180 428
172 425
175 421
182 418
172 420
183 419
178 419
176 419
176 421
181 419
175 421
168 421
171 420
179 424
155 435
157 439
172 433
176 428
166 432
160 437
165 431
176 429
172 430
176 429
168 434
165 432
166 431
163 430
152 433
157 437
166 429
158 433
162 433
163 432
161 433
164 431
162 435
162 428
164 429
160 431
168 426
159 432
168 431
154 440
152 445
156 442
167 434
144 445
161 432
162 436
177 425
172 423
167 423
166 431
172 428
172 431
176 433
151 443
158 436
164 433
161 428
169 432
168 435
156 443
159 446
155 448
159 448
143 456
154 450
150 448
141 456
155 450
150 448
147 454
154 448
140 455
141 449
143 452
143 447
153 445
162 435
157 436
171 429
168 430
174 431
172 427
177 427
173 426
175 423
166 427
163 440
152 446
160 446
154 447
151 453
150 453
158 451
157 442
158 446
161 440
149 447
160 446
171 439
165 441
154 441
159 439
162 437
158 439
157 442
164 435
164 435
156 443
160 446
155 449
154 450
152 454
143 458
139 457
144 460
134 466
137 463
144 464
147 454
156 443
140 454
144 457
163 446
157 443
170 436
168 431
172 430
167 432
165 433
159 435
176 419
175 417
178 422
176 423
181 422
185 418
177 417
190 414
180 422
176 426
181 424
170 430
170 426
181 425
183 424
185 423
176 428
176 424
177 427
170 427
176 424
175 429
181 423
187 407
175 415
181 415
177 415
183 414
162 427
166 427
164 427
162 432
157 435
155 443
157 442
157 439
156 444
158 444
163 449
140 454
154 446
153 444
162 437
157 439
164 439
155 441
156 444
168 436
172 437
162 437
159 433
166 438
154 440
162 431
154 435
158 442
160 443
155 444
157 439
170 431
162 436
165 433
160 434
160 440
160 444
151 449
149 444
160 441
162 440
159 439
162 441
153 445
156 444
157 438
158 445
156 449
165 446
155 449
167 446
163 444
170 441
166 435
152 444
148 450
134 458
150 440
153 446
153 450
157 440
151 447
163 444
155 444
166 435
159 441
161 442
164 440
170 433
164 433
165 439
159 446
159 441
151 449
158 451
166 441
164 438
153 448
150 449
156 446
161 447
162 439
162 437
176 438
166 441
176 432
179 431
162 435
171 433
166 438
162 438
157 440
161 445
154 437
153 443
170 439
158 446
162 442
164 443
162 438
165 447
168 438
173 433
180 432
179 433
181 428
178 421
183 423
181 423
178 420
178 420
182 426
178 422
182 420
179 420
186 415
179 413
183 411
175 420
183 413
190 412
188 405
194 402
181 404
189 402
187 403
186 408
195 406
177 414
182 418
175 424
173 424
176 431
172 423
177 416
174 420
172 420
180 422
182 419
175 427
167 432
176 431
176 433
165 439
161 435
167 429
182 424
182 424
180 419
175 427
184 425
178 428
175 434
171 437
171 436
163 443
162 444
162 449
158 443
161 442
164 441
170 443
165 438
172 434
174 435
164 438
153 448
151 444
149 444
168 436
162 434
156 430
155 432
159 436
159 436
164 438
149 445
149 451
144 450
159 449
167 441
162 440
160 437
156 433
148 440
138 445
145 451
148 452
143 461
146 462
149 464
145 458
154 457
146 454
159 453
164 447
161 446
149 452
154 440
159 439
157 440
154 443
154 449
151 451
146 455
146 457
154 456
149 456
151 456
147 453
153 456
139 458
164 445
169 446
180 434
169 439
162 436
159 437
157 441
150 446
151 450
144 449
152 452
149 455
142 456
150 449
148 448
162 438
160 431
164 428
162 426
171 427
170 429
165 424
175 420
169 422
171 419
181 415
181 416
182 411
188 404
189 409
195 399
184 406
170 412
182 414
187 417
189 421
177 430
178 429
175 428
182 423
173 422
171 425
167 428
175 420
172 422
171 422
172 419
155 428
168 430
167 436
172 432
172 433
162 435
167 428
163 430
164 433
164 436
159 436
169 432
169 432
162 440
151 443
161 443
167 439
172 430
164 431
168 434
159 434
158 437
166 436
159 443
154 442
157 445
155 442
162 443
158 441
155 451
149 451
163 439
153 437
170 431
166 434
175 434
154 438
162 441
147 448
153 450
156 444
157 443
166 441
167 433
165 432
163 439
165 436
167 435
158 439
176 428
166 427
161 437
172 431
179 423
179 419
181 416
193 412
187 413
182 419
174 428
185 416
193 408
189 415
183 420
165 428
173 428
165 427
165 429
162 438
167 434
167 438
155 441
162 443
169 441
157 449
161 448
160 442
157 442
166 439
172 433
172 435
176 434
168 434
171 430
179 423
167 425
164 426
172 422
166 428
169 434
166 437
164 443
169 440
161 442
155 442
171 436
176 426
162 429
163 426
175 423
178 424
177 424
171 426
176 426
176 421
168 423
173 421
172 423
167 429
165 432
163 435
188 426
177 433
178 429
171 427
186 428
177 433
163 437
172 432
174 432
174 432
171 435
178 429
168 434
165 433
179 435
169 431
166 432
160 439
159 441
159 443
158 439
166 432
168 431
172 431
173 422
173 424
171 422
168 423
165 428
167 427
164 426
169 431
154 434
163 435
146 439
166 438
164 436
161 435
170 427
164 426
176 428
169 426
179 424
175 422
182 417
176 420
180 427
186 422
170 423
168 429
173 422
167 425
170 427
184 424
180 421
170 431
174 430
165 437
162 443
154 446
160 447
143 457
145 459
139 466
140 461
138 458
155 450
161 441
157 446
154 442
161 445
175 436
170 434
166 435
165 438
173 438
178 427
169 428
186 425
174 427
173 424
178 423
177 425
176 425
177 430
180 425
172 426
161 428
169 429
164 425
182 422
154 432
157 438
169 429
183 419
182 420
174 419
180 418
168 422
178 421
172 418
176 410
181 410
177 412
188 413
185 417
180 418
187 418
187 420
182 420
188 411
182 414
178 416
187 418
182 414
180 415
183 418
177 425
169 428
174 433
170 433
165 431
176 426
164 429
180 419
170 426
153 438
155 435
166 434
152 443
157 446
150 452
143 451
136 459
146 455
146 459
152 462
143 462
139 466
136 469
130 471
150 460
137 463
134 457
133 462
140 464
155 453
154 451
147 456
148 455
133 467
137 468
131 465
138 461
147 456
161 448
164 442
151 446
158 445
158 447
147 453
165 449
156 446
168 443
144 452
163 444
159 441
149 447
159 444
151 446
153 446
166 438
162 433
156 435
155 438
145 442
137 454
153 453
145 453
140 461
155 454
149 454
147 453
150 457
145 460
147 453
139 466
140 466
152 453
153 454
153 452
160 447
164 443
160 438
156 439
163 434
168 436
151 440
165 445
150 443
156 438
167 440
159 444
163 433
168 429
167 426
178 430
172 429
177 424
169 433
165 435
169 442
158 446
162 441
158 443
159 438
159 442
173 433
159 441
159 436
167 432
181 423
176 434
170 431
178 420
186 417
189 418
174 427
189 420
181 423
179 423
184 421
180 417
187 424
177 425
177 420
176 422
169 424
172 429
159 427
177 425
167 432
177 429
170 432
168 433
176 432
174 427
174 431
171 424
175 425
176 427
173 432
172 436
171 433
174 433
177 425
175 429
174 427
171 431
167 436
167 436
166 439
163 441
165 440
168 438
168 437
175 433
175 431
180 429
182 420
180 423
185 417
185 419
175 422
167 421
171 425
161 436
169 430
162 434
175 432
160 430
167 422
167 435
156 443
170 441
168 441
167 442
153 445
164 434
167 431
170 427
165 429
166 431
165 433
167 433
156 436
148 442
154 436
163 430
166 427
168 431
169 436
158 442
166 436
175 439
187 427
170 428
169 430
167 429
175 424
168 433
174 432
164 435
180 427
169 430
175 425
179 422
170 421
175 419
181 413
183 410
189 406
185 415
183 421
178 425
175 423
187 421
174 430
169 430
163 426
159 427
165 429
155 435
160 439
159 437
157 440
157 441
150 436
155 436
154 438
158 437
174 433
166 434
153 443
167 444
154 443
173 433
163 443
161 444
156 445
154 449
163 445
154 445
152 443
157 441
156 442
155 447
154 447
150 449
152 447
150 445
162 444
159 441
158 448
161 442
163 437
168 440
155 445
160 441
182 431
185 421
192 412
178 413
183 418
184 411
181 418
179 419
185 418
179 420
180 425
168 426
176 424
170 431
168 436
160 444
161 444
166 442
157 444
171 433
168 430
178 422
175 417
184 420
166 432
174 434
164 435
167 434
166 433
169 431
174 430
172 428
179 420
178 424
196 410
190 410
184 409
189 411
188 407
182 412
184 419
168 425
170 431
178 426
176 421
171 417
181 421
171 424
187 416
171 421
171 421
185 417
177 418
169 424
165 430
169 426
162 428
170 427
171 422
177 422
169 429
161 436
157 434
155 440
148 445
157 449
148 453
158 450
149 454
149 451
154 444
157 447
164 441
159 444
163 436
161 441
157 443
155 446
162 438
172 437
163 436
160 445
155 449
151 454
146 454
150 453
137 459
155 449
151 447
164 435
156 436
162 436
169 435
172 429
181 425
168 432
167 437
173 427
167 424
165 429
167 433
176 425
179 420
184 413
179 418
182 419
179 419
171 422
168 425
159 432
167 437
165 431
155 436
160 438
150 445
164 443
159 444
153 449
157 440
157 438
168 437
160 440
152 448
156 455
146 455
144 455
147 454
137 453
143 453
139 453
148 455
155 448
165 450
162 442
165 441
168 440
167 436
172 434
178 430
171 427
174 423
170 421
189 415
190 419
181 422
179 419
176 422
185 421
164 429
167 433
161 432
163 428
162 425
159 432
168 424
167 425
174 419
172 422
166 428
160 431
166 429
163 432
168 431
169 434
169 433
170 438
160 440
168 438
153 446
155 453
143 452
147 451
150 452
156 443
163 442
168 440
159 446
154 449
147 446
167 439
175 432
170 435
182 423
184 420
173 425
163 425
176 421
177 428
170 433
156 430
168 427
171 432
162 435
173 436
162 436
175 427
172 421
167 427
167 433
156 437
156 439
170 431
164 428
160 428
176 425
167 425
171 433
170 434
181 427
170 434
167 433
157 433
165 431
169 437
162 437
168 437
159 437
158 440
158 441
165 434
162 432
169 427
182 420
176 422
166 420
164 421
164 426
176 425
153 434
168 425
172 427
169 423
168 417
162 419
160 426
159 431
162 426
162 429
169 429
159 435
161 435
164 432
163 433
178 431
164 436
159 435
152 442
158 437
167 436
156 448
161 444
148 454
155 454
159 451
159 449
156 449
166 442
178 429
172 431
184 421
183 418
178 421
175 425
170 427
157 438
162 441
170 440
166 442
154 442
165 440
157 443
161 443
173 436
158 436
159 441
166 436
165 440
157 442
143 452
147 449
150 458
157 452
149 458
141 457
156 445
170 437
168 437
174 433
174 431
169 433
165 431
167 428
171 424
170 429
155 431
168 429
159 427
167 426
172 428
159 431
179 421
178 422
163 426
160 436
160 435
166 432
167 435
154 449
146 455
152 454
155 453
155 456
137 462
138 458
148 457
158 452
142 458
166 447
159 443
153 445
151 442
154 447
154 452
148 461
149 454
158 444
160 445
168 442
161 439
158 439
163 440
171 436
170 432
167 435
157 437
155 436
151 440
155 448
163 440
166 430
178 425
172 425
168 424
179 419
172 421
170 427
162 434
145 438
163 436
164 431
165 434
159 437
168 435
176 427
181 420
159 424
163 425
165 427
173 430
173 430
177 427
163 430
154 436
156 437
165 435
148 441
149 442
154 445
155 449
151 450
153 447
157 452
156 454
152 457
157 449
153 450
143 455
156 456
157 454
154 449
146 450
157 432
180 421
187 417
178 419
173 419
168 423
163 426
169 429
170 424
163 430
182 425
171 419
162 426
159 425
163 425
165 430
164 428
158 432
176 425
174 427
173 431
175 431
171 433
181 425
179 427
177 424
177 423
189 421
179 428
177 430
181 427
174 430
180 422
177 424
175 427
163 435
168 431
153 436
147 438
144 451
150 448
129 457
152 451
148 457
147 454
156 450
159 447
164 444
169 440
170 438
165 437
171 429
191 418
173 416
174 420
175 427
160 428
182 420
181 415
173 409
171 423
158 428
171 429
187 426
176 433
175 431
176 430
153 440
175 430
165 432
168 431
168 434
155 439
162 440
159 446
159 446
161 444
163 446
162 444
163 441
170 441
167 433
165 432
163 438
157 440
164 444
163 445
153 446
161 446
173 439
175 438
166 438
162 438
171 431
177 425
177 424
181 425
188 414
194 412
189 414
193 415
191 419
180 423
184 416
192 413
182 411
184 419
185 423
191 415
189 414
189 410
186 413
188 412
184 414
179 416
173 420
180 417
194 418
183 420
176 424
170 423
181 417
185 414
188 418
186 418
173 421
168 430
174 426
167 432
165 435
169 433
175 428
170 422
175 424
172 420
184 425
180 424
171 427
173 421
173 426
170 422
172 418
169 428
160 441
158 443
170 437
178 433
173 432
172 429
172 429
174 427
181 417
181 418
179 423
186 420
179 422
184 421
178 418
178 416
192 412
187 414
176 417
173 417
173 426
163 433
157 444
155 448
155 442
140 443
158 440
156 447
151 444
162 440
161 442
162 439
159 438
156 438
163 430
170 430
154 437
172 429
164 435
164 435
162 434
165 436
162 432
155 439
159 435
149 441
151 444
159 442
158 444
151 450
150 446
153 450
151 451
148 448
160 445
160 444
155 444
160 447
155 449
159 445
162 441
151 453
149 461
156 456
164 451
150 456
152 453
165 443
144 450
155 442
155 444
161 439
154 439
160 442
156 436
176 431
173 431
168 428
163 427
168 426
188 412
176 419
