Actives Prisoners
0 0
295 15
283 33
266 55
260 71
253 88
230 108
217 124
206 135
186 154
167 171
163 186
155 199
152 204
145 216
138 219
141 220
135 225
127 228
119 234
124 234
130 233
128 231
122 229
124 229
125 234
120 235
116 238
109 239
111 242
110 248
120 251
100 260
103 258
105 261
109 259
105 260
111 254
105 255
103 254
112 245
108 246
109 244
116 248
105 255
107 256
105 253
111 254
115 252
125 247
120 243
117 241
131 234
128 235
124 242
116 243
116 243
106 253
102 246
111 242
117 237
119 238
121 234
122 237
117 244
118 243
126 239
128 234
132 230
127 226
148 216
148 217
140 218
143 217
147 220
146 213
144 214
139 213
133 213
123 219
122 220
125 223
126 228
123 234
126 233
129 231
123 234
123 234
125 235
124 239
126 231
120 232
124 233
125 240
123 239
124 238
128 234
117 238
138 232
131 232
132 229
125 233
124 233
123 239
118 239
111 240
112 244
111 248
119 246
106 250
110 251
118 239
112 244
113 244
109 252
112 253
117 255
124 248
109 253
115 249
109 255
101 252
104 252
97 255
111 254
121 245
117 247
119 245
116 251
124 244
116 247
109 251
109 256
112 256
107 252
105 254
115 249
120 249
122 248
112 246
114 247
116 244
115 242
118 240
122 233
125 237
134 233
128 235
120 235
126 240
127 229
126 233
119 237
110 240
115 237
122 233
112 238
114 244
112 249
115 244
127 241
125 238
127 238
123 240
125 233
113 239
118 242
115 240
123 240
122 240
125 231
121 229
124 231
121 238
120 237
119 238
120 235
118 236
113 238
128 227
127 226
127 228
129 228
125 227
128 227
128 230
138 226
129 227
128 230
141 224
141 228
134 230
135 232
122 232
124 235
121 240
119 243
115 246
117 245
118 246
121 246
119 246
123 244
116 245
115 241
106 242
118 240
120 239
127 236
131 234
129 231
128 230
122 234
122 234
122 233
116 235
112 234
118 238
113 241
111 246
119 245
120 245
121 246
125 235
121 233
128 233
121 232
115 234
129 236
126 235
135 236
128 235
131 233
135 232
132 228
123 232
120 234
110 236
123 230
130 234
124 238
118 241
116 239
120 228
127 220
147 214
138 220
136 219
130 223
136 227
118 235
126 235
119 238
120 241
123 238
123 242
133 231
136 223
132 224
134 223
127 230
120 238
118 244
119 240
119 239
112 245
114 246
122 242
126 240
128 241
129 237
124 240
113 243
111 247
107 252
110 250
115 251
108 252
112 253
117 252
111 254
109 260
102 261
111 254
103 259
104 256
100 259
103 259
106 252
104 251
117 240
116 247
119 245
118 243
126 237
124 242
117 242
113 247
118 246
122 241
113 239
121 239
128 237
113 241
120 239
115 235
122 235
128 233
119 236
121 233
129 235
126 234
128 233
126 236
114 240
119 238
114 247
112 244
118 240
125 244
119 245
111 250
113 248
106 249
119 242
120 242
122 242
117 244
121 241
127 238
127 238
128 234
128 235
127 238
128 231
124 238
121 235
126 237
126 239
127 234
126 237
125 238
121 234
121 238
121 238
131 232
126 238
119 243
114 246
113 243
115 240
112 240
112 239
122 237
141 224
138 221
125 224
130 221
133 224
136 227
134 227
131 228
134 227
130 227
116 231
113 236
116 232
116 235
121 236
120 238
132 232
133 233
140 226
129 222
122 225
130 224
124 225
136 222
129 228
121 233
118 237
129 231
126 230
130 224
135 224
125 231
125 235
118 235
132 229
129 233
137 228
133 225
137 225
130 228
124 228
122 227
118 229
125 233
116 245
121 243
120 244
122 242
117 240
122 237
127 235
135 237
127 238
124 239
119 239
117 237
119 233
122 235
112 246
110 248
112 249
102 252
116 245
121 241
134 236
121 242
126 236
127 236
127 231
131 231
132 232
140 227
137 227
125 228
121 232
121 231
125 231
134 223
132 227
133 219
134 217
136 215
139 216
136 217
137 218
124 222
134 223
120 225
117 228
129 224
131 229
131 225
121 229
118 229
124 229
127 226
126 228
124 229
131 223
123 228
123 230
128 231
125 231
119 232
129 231
134 222
131 228
125 231
124 230
120 232
128 221
138 217
130 229
127 233
134 233
122 234
116 234
121 233
123 229
133 225
137 224
134 224
123 227
113 228
121 229
125 225
121 228
133 228
129 232
133 228
131 223
126 230
126 228
124 222
133 220
134 218
132 218
137 217
141 212
137 211
131 222
132 217
137 220
136 220
133 225
134 222
143 217
146 210
141 210
142 209
120 222
127 223
133 224
127 228
130 231
129 232
121 235
126 232
120 233
116 235
124 235
131 229
121 233
118 236
113 247
123 242
129 235
129 234
118 233
112 238
115 235
128 231
135 228
126 238
128 233
130 234
118 242
115 242
125 239
128 241
127 239
131 239
120 240
116 239
117 236
116 238
115 240
112 242
111 244
109 248
116 253
106 254
114 246
109 247
109 245
114 241
121 235
117 236
114 239
124 234
120 236
123 234
125 238
129 232
125 233
122 236
114 242
108 245
109 238
111 243
116 244
125 244
117 245
120 238
127 234
140 220
135 219
137 216
138 222
135 226
126 226
121 228
123 229
127 228
130 228
137 224
131 230
121 234
133 232
126 234
122 234
128 237
123 239
112 246
115 241
125 236
130 229
131 230
133 228
123 232
122 237
116 238
115 245
124 239
122 237
120 241
126 241
124 239
118 238
127 230
123 232
124 236
113 241
124 235
119 236
126 235
130 234
140 228
133 230
123 233
126 232
126 232
120 237
134 234
125 233
125 235
122 233
118 229
120 231
119 230
125 231
115 239
118 242
137 234
133 232
127 238
119 241
114 243
116 245
112 242
120 241
131 236
129 240
122 239
131 231
129 227
125 227
128 224
125 225
135 226
125 230
124 233
132 232
123 239
114 244
111 246
121 240
120 243
113 240
114 241
116 245
117 246
128 238
130 235
132 234
139 230
136 227
125 238
124 239
120 238
124 233
124 235
125 237
119 236
136 229
133 229
124 237
114 240
106 246
104 251
106 253
108 252
105 252
110 251
116 252
117 250
113 252
110 255
105 259
95 265
105 260
109 253
110 251
121 244
120 241
126 242
117 241
127 240
116 242
117 239
123 243
118 243
132 235
137 231
128 231
131 223
126 226
128 226
125 221
128 224
127 226
126 231
126 234
131 232
122 240
120 241
120 236
113 241
112 240
109 239
119 244
122 241
121 240
125 238
133 230
131 229
124 231
127 229
129 229
130 233
126 235
113 243
115 246
109 245
112 249
99 258
113 253
113 253
118 250
122 243
123 240
129 235
125 239
123 242
121 239
120 239
114 242
117 245
115 244
124 243
122 242
121 239
122 238
124 241
116 239
117 237
121 240
121 245
115 246
123 242
133 234
120 236
119 238
112 241
109 241
110 239
107 245
118 243
131 242
127 238
129 238
114 240
116 239
117 238
122 237
125 232
125 230
130 232
129 235
130 233
131 233
127 232
125 232
120 236
123 236
123 238
111 240
124 233
134 226
138 224
131 228
134 230
137 229
133 228
134 226
137 223
131 226
130 229
125 230
124 228
115 234
118 231
127 231
119 239
114 244
115 247
116 248
117 249
119 244
125 240
119 245
122 238
120 241
119 238
119 241
115 245
119 240
119 242
118 241
123 240
125 243
128 242
127 239
120 242
126 238
119 238
118 242
118 241
113 239
125 235
130 229
132 225
130 224
137 225
127 229
121 228
119 230
126 225
125 231
119 237
117 235
123 230
129 233
125 226
131 226
134 224
138 228
129 234
132 230
131 230
121 233
130 229
130 225
140 218
132 222
141 218
133 221
130 218
133 218
143 216
136 222
136 222
133 220
134 221
138 224
139 224
136 226
122 233
125 237
125 241
120 243
119 245
111 246
110 247
115 243
118 241
119 245
114 244
112 241
119 244
112 245
113 247
114 243
116 241
119 241
127 239
131 237
122 244
112 246
119 238
122 242
126 243
115 246
115 241
117 244
122 247
121 243
121 238
116 241
121 230
119 236
124 232
124 232
123 234
123 235
127 235
128 233
126 230
120 235
132 231
135 229
121 234
137 229
130 230
122 232
123 232
114 236
123 230
127 224
129 226
131 226
136 227
139 226
132 228
128 232
126 234
125 231
129 232
130 229
119 228
114 242
106 245
120 240
115 239
114 238
122 239
124 238
119 246
116 247
114 251
126 245
122 247
117 250
112 252
109 252
105 259
107 260
102 257
112 250
116 249
118 247
116 246
118 244
108 243
116 241
117 241
123 238
122 240
121 240
125 240
129 238
124 242
129 236
128 230
129 233
124 234
119 237
120 238
129 231
127 235
130 229
132 232
124 230
128 230
123 234
119 237
117 234
118 235
120 238
122 235
127 233
132 229
128 227
130 231
133 228
134 225
131 234
126 233
124 237
130 232
129 229
126 230
133 224
126 224
130 226
129 231
123 234
129 240
123 240
118 243
114 238
112 242
123 240
124 238
127 239
132 234
122 236
125 234
119 239
110 250
109 254
107 258
101 259
92 262
95 260
100 263
100 262
98 257
104 256
105 259
106 258
107 252
115 246
114 245
117 247
119 246
125 242
131 235
120 237
124 235
122 238
121 239
119 242
105 244
118 235
125 233
119 237
125 236
127 237
117 239
123 236
132 233
139 234
138 237
128 239
117 241
124 237
117 238
111 243
115 245
123 245
126 245
120 245
117 242
119 241
115 240
120 239
126 241
118 242
128 235
126 232
129 237
113 243
111 242
104 245
110 242
118 239
109 241
116 241
127 235
123 236
125 231
130 227
136 225
135 228
138 226
145 220
144 219
148 219
141 221
139 223
126 225
125 231
119 234
112 242
117 243
119 240
125 234
120 240
112 245
115 238
114 240
114 243
120 239
120 245
121 237
123 237
126 236
134 231
129 231
127 232
120 235
134 225
127 231
128 231
123 232
129 237
124 233
125 233
124 234
126 232
128 235
118 237
128 233
135 224
137 220
134 222
127 226
131 226
129 229
124 232
127 234
123 236
125 228
125 229
128 236
117 242
114 243
113 243
109 242
112 238
107 236
120 242
116 242
125 240
126 236
134 229
137 228
138 224
134 226
121 230
126 233
122 237
124 239
116 245
113 248
114 249
114 252
119 246
119 242
125 237
110 245
115 241
114 239
108 246
116 244
111 240
135 229
127 229
119 233
118 238
128 231
128 231
126 228
123 228
128 229
126 229
125 232
137 232
137 237
130 235
130 233
131 236
130 229
127 227
133 227
128 232
124 240
124 240
119 239
126 234
129 232
125 231
128 225
124 231
124 235
132 227
132 229
127 231
127 235
127 237
123 235
120 240
115 237
117 240
108 245
122 242
128 240
116 245
127 242
124 240
129 240
121 235
118 231
120 233
123 227
130 229
125 232
133 229
130 229
132 233
133 233
122 237
116 243
106 249
114 250
118 245
114 246
115 250
112 254
111 251
112 249
105 254
110 250
112 248
114 251
118 248
118 248
116 242
125 239
123 239
119 240
121 237
123 241
124 235
128 228
121 232
131 228
120 229
124 230
115 236
116 238
111 237
117 237
124 234
124 229
118 235
108 242
119 238
124 238
119 237
117 238
127 233
127 233
126 229
126 234
123 238
124 240
123 239
126 236
123 231
124 233
125 227
119 235
107 247
117 250
116 251
115 251
121 242
114 246
108 251
101 255
102 258
96 259
109 252
110 253
120 244
121 241
127 233
127 237
133 237
122 241
123 240
125 241
117 241
122 238
123 235
129 232
133 227
135 227
140 225
141 219
142 215
138 215
144 216
138 219
136 224
130 229
120 233
118 236
121 239
119 240
114 240
111 242
127 232
131 235
127 232
121 233
118 237
117 237
119 236
125 230
132 226
132 230
131 234
120 240
124 237
125 233
135 229
135 223
139 220
143 224
137 225
129 233
117 233
115 235
112 245
118 245
128 235
123 239
111 248
114 244
114 240
109 247
112 251
107 253
114 247
118 241
116 245
124 243
118 244
118 245
112 248
107 246
116 244
117 243
122 240
116 240
100 240
120 238
118 238
119 236
120 239
122 232
125 232
124 227
138 224
129 225
133 223
139 220
135 223
142 216
142 216
131 221
121 233
130 232
125 238
125 239
121 242
115 239
120 243
113 246
119 244
113 249
120 243
115 247
117 241
114 240
119 241
122 240
121 242
122 242
127 240
126 239
128 240
119 241
121 235
129 229
120 234
126 229
128 226
130 232
131 235
118 238
121 237
113 242
113 248
114 246
115 242
124 245
119 242
117 241
117 238
117 241
113 244
114 243
114 239
124 234
124 237
124 235
129 230
124 231
117 237
116 238
118 238
121 237
129 234
133 235
136 230
143 226
135 227
141 223
136 226
128 233
116 239
116 240
119 243
116 245
116 249
126 239
121 244
123 240
122 240
111 244
114 244
110 241
114 239
121 245
115 247
126 241
128 241
125 238
128 236
128 233
136 230
124 235
124 239
120 238
124 239
121 239
116 242
116 242
119 239
112 246
115 249
113 249
117 247
113 245
113 244
121 245
113 248
111 253
110 255
110 254
108 256
113 251
111 254
111 256
106 258
108 251
106 253
113 249
112 252
109 249
103 251
114 254
120 247
120 246
118 246
118 247
115 242
124 233
131 231
125 236
124 235
128 235
123 235
124 230
123 230
124 230
120 234
117 236
116 243
114 244
116 245
123 239
116 244
107 251
116 242
115 246
121 242
119 241
118 237
124 233
114 234
124 234
127 235
141 225
146 218
145 218
133 217
128 217
130 217
136 219
128 229
128 228
133 233
123 233
137 224
138 223
142 219
136 223
138 220
133 221
123 227
120 234
120 236
119 238
117 243
116 246
120 243
125 235
124 232
114 232
126 230
122 235
128 236
134 230
125 231
127 235
123 236
131 236
129 232
128 230
132 229
119 241
117 245
116 247
113 251
109 246
122 238
130 230
127 226
129 229
133 232
133 232
137 227
141 224
133 230
130 230
137 226
137 227
130 231
130 226
123 230
131 228
123 232
135 234
137 232
132 240
129 234
119 233
127 229
137 225
129 230
121 232
131 230
128 239
129 239
129 234
124 237
115 242
116 245
114 246
107 251
110 252
121 243
111 250
114 250
115 248
111 251
111 250
109 248
116 248
106 252
102 253
103 251
109 247
107 249
111 251
118 248
115 249
116 242
117 240
127 240
124 240
122 237
122 239
128 234
128 233
128 229
122 229
125 228
126 227
125 235
124 232
131 226
139 217
143 215
145 210
142 214
136 219
150 218
135 222
136 221
136 225
127 231
127 229
123 232
128 237
124 239
118 235
116 239
124 235
130 232
129 224
135 224
127 230
127 235
119 236
126 232
116 235
111 243
106 247
111 241
115 238
127 236
125 232
124 237
134 234
130 233
131 237
132 234
120 243
113 243
117 240
121 242
119 247
115 244
111 241
117 242
125 235
117 234
122 233
122 229
121 226
113 237
119 234
124 235
126 238
128 235
120 242
113 239
117 241
119 242
130 231
137 230
128 229
127 231
128 233
122 234
125 236
133 233
135 230
134 230
123 233
125 228
123 230
127 228
118 228
131 227
133 230
124 233
120 238
127 240
124 241
125 240
126 238
126 237
123 238
120 245
121 243
123 237
127 235
131 229
131 230
131 231
125 234
122 234
121 234
114 232
113 237
121 237
120 242
112 245
121 244
122 240
118 240
110 242
127 232
129 228
131 229
136 229
137 226
127 227
122 232
132 224
140 220
133 223
133 226
126 231
137 226
127 223
119 232
118 238
131 234
122 235
123 232
120 238
124 242
119 242
119 243
112 246
115 244
120 242
118 238
122 241
118 239
128 232
131 228
127 231
126 236
118 235
111 240
113 238
121 234
122 230
131 234
133 233
127 238
123 237
114 237
128 229
125 228
128 227
136 225
136 226
125 229
127 226
126 229
124 229
123 234
120 236
117 237
127 229
126 229
119 235
123 237
121 241
122 240
120 237
119 239
116 239
123 236
120 235
120 241
118 242
120 241
113 242
124 234
127 234
124 232
125 236
122 235
125 232
130 230
129 225
125 225
125 229
129 227
131 232
122 233
123 233
127 235
130 235
128 236
121 241
119 245
125 244
119 243
119 242
116 242
114 243
115 246
119 246
114 250
103 249
109 245
112 248
114 244
115 234
119 231
120 237
118 245
117 245
115 245
113 242
112 244
120 239
126 237
131 235
126 236
123 237
122 239
123 239
118 242
113 247
118 246
121 247
121 245
121 245
116 247
114 247
108 255
115 250
118 241
115 239
119 240
110 242
113 243
122 239
115 240
115 242
120 245
109 249
113 247
109 249
113 247
130 241
134 237
128 234
126 232
135 224
132 235
133 236
127 237
119 237
110 240
108 244
113 242
114 241
120 241
114 249
112 251
110 250
108 247
112 246
105 248
115 240
121 238
127 236
124 240
123 242
121 245
131 240
128 236
130 231
125 238
126 238
124 240
118 242
131 231
126 236
117 239
114 245
105 250
105 248
108 255
110 252
110 253
119 250
111 252
126 243
122 243
117 241
119 237
118 237
111 239
103 243
108 241
115 240
130 230
123 238
135 231
138 228
136 229
125 232
131 226
127 228
123 237
119 239
124 238
123 238
116 243
117 243
119 245
118 245
115 243
112 243
114 242
117 240
120 240
118 241
116 248
120 249
121 252
122 247
115 249
119 245
117 247
115 247
113 243
115 245
116 246
116 246
116 246
114 243
119 240
118 234
119 235
123 234
128 235
122 234
133 225
129 227
131 233
125 231
126 229
136 226
138 228
134 224
128 227
126 233
126 228
118 239
123 239
119 236
112 244
109 247
114 244
119 241
124 240
128 229
136 226
130 224
131 225
140 225
141 222
127 232
133 232
122 234
121 236
125 235
124 232
116 237
116 235
118 237
113 241
115 240
112 241
113 243
116 245
126 238
122 239
119 243
123 235
120 237
120 239
128 234
118 239
113 242
113 243
113 248
116 249
115 254
103 263
104 256
104 255
104 249
121 240
122 238
129 239
137 229
129 230
117 233
120 235
122 234
122 235
128 233
134 232
129 233
126 230
116 235
115 236
125 234
123 238
135 229
132 231
123 236
123 235
125 238
129 232
119 237
121 237
124 233
116 237
117 239
119 237
107 242
117 244
118 244
116 242
127 235
128 239
120 250
115 246
116 246
121 244
123 242
123 242
125 240
123 240
114 244
108 246
108 244
113 246
120 242
110 241
104 250
110 248
112 244
109 244
112 242
123 240
125 235
128 233
123 235
124 237
129 232
137 227
139 228
129 232
135 226
132 228
132 233
123 235
127 232
133 228
129 230
124 234
120 235
117 241
122 235
128 229
128 232
129 232
125 233
129 233
125 234
128 230
122 237
123 243
123 248
125 241
132 235
130 236
129 235
129 235
129 235
123 239
126 232
122 236
115 237
109 244
116 241
111 244
112 241
106 249
109 248
111 246
108 250
116 245
109 248
114 243
108 253
119 249
119 245
119 238
119 240
130 234
125 237
113 242
108 253
113 250
117 245
113 244
109 246
115 244
110 249
117 248
112 251
105 256
108 257
107 255
99 258
104 257
111 253
118 247
128 241
113 245
109 245
116 241
105 245
117 241
117 240
116 244
118 238
124 232
126 234
124 230
126 235
123 238
119 236
109 242
125 236
124 236
125 236
114 243
113 248
114 249
112 255
115 249
119 247
116 248
108 250
109 245
118 241
122 244
122 241
133 235
114 239
122 237
111 242
117 242
117 238
127 237
119 241
109 244
117 245
118 248
110 247
111 247
106 254
106 258
111 255
113 251
119 246
115 243
116 239
114 242
117 241
116 241
115 237
127 232
131 233
128 230
126 230
129 226
130 221
133 222
131 225
135 227
132 226
133 223
128 225
123 232
122 234
111 241
113 244
111 248
117 244
114 238
110 236
118 237
129 234
118 238
112 238
126 238
131 235
131 236
126 234
125 233
126 236
119 239
116 239
112 242
105 246
110 246
116 243
120 243
111 246
121 239
117 243
123 243
117 244
135 239
114 249
112 249
116 242
115 235
123 232
122 237
116 237
113 244
116 243
119 247
123 242
132 235
125 240
127 236
126 235
117 240
120 237
118 239
121 241
117 247
116 247
129 238
126 240
124 241
112 243
115 244
109 244
103 246
124 235
121 233
112 238
116 238
113 237
112 242
119 236
125 236
138 231
125 235
123 240
125 239
119 242
127 238
128 240
126 244
115 245
112 244
114 246
118 243
129 238
123 236
123 242
111 246
113 245
114 242
111 245
110 246
125 243
123 244
124 247
124 240
117 240
116 238
122 235
128 228
127 221
126 220
136 217
149 205
143 209
137 217
130 216
130 218
133 227
139 225
131 230
133 233
137 224
135 223
139 221
140 217
137 215
128 216
123 214
131 222
133 222
126 226
130 226
130 226
122 226
122 230
120 236
128 236
130 233
135 231
125 236
122 232
126 229
124 230
123 221
126 221
137 218
134 222
129 225
123 229
128 227
128 225
127 224
122 232
133 231
132 228
136 218
130 221
138 220
129 226
138 224
145 222
138 228
137 230
131 228
127 228
125 231
112 240
115 243
108 244
122 238
117 235
124 227
127 228
122 233
120 237
126 232
128 229
128 225
124 227
139 223
134 230
130 228
129 227
128 234
120 237
119 237
117 235
117 236
124 235
121 238
125 236
127 236
137 228
140 218
141 216
141 216
143 220
141 223
130 228
126 233
122 239
123 241
123 234
126 231
127 230
124 233
123 232
123 238
128 238
125 238
130 235
124 238
127 233
123 234
126 228
116 236
125 233
127 238
122 240
123 237
118 238
118 239
117 234
128 224
135 221
128 228
123 234
122 237
130 224
137 225
131 228
135 227
127 228
127 231
121 233
124 236
123 236
126 229
131 224
126 229
126 230
128 230
126 230
122 232
128 230
125 237
116 242
116 241
114 240
118 239
121 242
116 239
115 237
110 238
123 238
118 236
113 239
115 240
130 233
136 231
135 228
126 232
129 226
131 231
127 233
120 244
122 245
116 246
108 253
97 252
100 252
106 245
109 248
109 247
111 250
110 254
114 250
117 251
106 253
109 256
103 253
118 244
114 241
115 236
117 237
126 230
132 230
129 229
115 240
117 237
127 235
125 234
129 235
123 237
113 236
126 234
124 230
122 234
132 225
132 226
138 220
134 220
123 225
130 224
131 222
124 228
133 225
129 230
140 223
142 221
135 222
131 225
133 224
133 223
135 223
132 224
132 229
139 224
130 227
131 226
134 223
124 228
115 232
120 239
115 245
104 251
111 247
121 249
122 241
126 242
113 246
108 245
113 242
119 240
120 242
119 242
114 247
117 250
120 243
123 239
122 241
116 245
109 250
112 248
124 241
125 245
121 249
113 250
118 245
123 244
128 241
122 236
122 235
120 240
119 237
125 235
119 239
118 247
123 244
120 247
124 242
120 241
125 236
120 240
119 245
125 239
124 240
124 234
125 233
117 240
113 246
114 247
117 245
116 243
114 242
116 245
107 247
107 249
110 247
114 244
124 241
126 237
126 241
116 249
115 254
109 250
121 244
122 245
123 243
121 243
126 236
130 234
129 232
128 231
124 233
125 236
125 232
131 228
126 229
136 222
138 217
134 221
130 220
126 220
118 225
124 227
126 228
124 230
128 230
127 231
132 223
121 228
125 226
131 226
129 227
125 224
124 227
126 230
119 233
126 231
135 226
133 225
122 227
119 230
126 224
117 228
114 237
115 239
120 237
123 238
120 240
119 236
129 235
118 232
121 232
121 236
116 239
122 235
117 236
136 234
122 236
122 239
134 229
128 232
126 234
124 236
115 241
120 236
122 233
124 235
131 231
118 231
119 236
130 230
128 226
139 220
135 219
139 215
134 220
134 223
143 220
140 225
132 226
127 226
130 227
130 230
127 229
129 230
129 233
124 234
131 232
136 232
123 235
125 233
123 235
125 234
124 231
122 232
117 234
127 231
134 229
119 231
131 228
136 226
127 233
128 227
135 227
134 219
130 221
131 221
135 225
131 226
132 227
129 230
125 232
127 228
127 232
124 232
124 228
136 227
135 227
129 230
129 236
127 230
134 226
129 228
132 226
130 224
127 223
121 229
121 234
120 238
112 244
117 239
122 241
121 246
124 244
118 248
125 245
120 249
110 252
113 251
119 244
116 248
106 251
99 257
111 254
112 255
113 255
113 253
106 255
109 254
105 253
108 257
100 259
97 260
109 257
111 253
110 252
111 253
105 257
109 256
110 255
102 259
105 251
108 256
105 253
101 256
106 252
113 247
117 246
122 247
128 239
127 231
130 227
127 230
133 234
121 238
129 233
119 237
120 242
122 240
112 245
117 240
118 242
116 240
113 245
110 247
118 238
116 243
112 244
114 245
113 246
118 247
120 246
114 249
109 255
100 255
109 253
117 253
116 250
113 251
104 257
102 259
113 251
115 247
112 248
123 237
122 235
120 239
117 240
113 246
110 248
114 243
119 244
127 239
116 244
114 246
117 248
114 249
120 243
122 242
122 241
128 238
111 245
123 237
119 241
120 240
117 246
124 245
124 246
122 244
118 246
118 245
127 241
124 239
119 245
120 243
106 247
107 251
108 253
107 250
110 249
112 248
120 251
108 250
108 255
110 254
119 249
126 249
117 248
116 246
122 239
121 237
129 231
127 236
119 237
126 233
131 224
126 223
128 227
125 229
116 235
116 240
116 238
126 233
132 226
132 227
128 230
130 231
121 228
132 225
123 232
128 232
126 236
127 231
129 225
127 232
127 231
129 233
128 227
125 225
117 233
110 234
110 234
119 234
113 241
120 243
126 243
124 241
113 244
105 248
111 250
118 244
115 250
119 246
115 246
110 245
125 236
112 247
108 250
113 249
117 249
103 251
109 248
121 245
114 251
115 248
116 248
116 248
114 251
115 247
130 236
134 228
135 231
125 231
126 231
124 228
127 234
122 236
128 238
116 237
112 237
124 238
119 237
122 231
131 229
133 229
127 230
130 233
125 235
126 232
134 227
133 224
133 228
134 225
130 223
127 225
131 228
131 232
131 228
128 234
130 232
137 228
128 225
130 227
136 223
125 227
128 226
129 233
130 234
120 242
124 237
119 248
121 244
122 239
115 240
117 244
112 246
117 243
129 239
128 235
118 237
122 240
117 240
121 241
117 240
120 244
114 248
112 250
117 243
127 237
132 233
130 230
133 225
130 235
130 233
127 232
123 236
121 236
116 241
118 240
122 233
124 232
121 225
127 232
126 233
132 230
128 230
125 235
123 237
131 233
133 233
132 231
128 230
125 234
130 231
133 227
124 234
120 238
126 233
129 231
125 232
122 228
126 229
122 233
125 230
125 230
124 232
132 227
122 231
122 233
123 235
127 236
128 234
120 246
113 252
116 252
116 247
110 249
111 247
113 250
105 254
113 254
109 248
115 246
121 247
121 242
118 241
125 235
120 238
115 245
122 245
113 251
104 261
106 263
108 263
101 267
95 267
95 267
93 267
97 265
106 259
109 254
103 257
105 249
114 246
122 235
132 229
130 232
125 237
123 237
126 233
122 237
123 235
118 233
121 231
130 229
135 227
139 224
141 217
145 221
130 229
126 235
118 240
105 244
106 243
110 240
107 242
118 238
115 244
113 240
118 241
119 239
114 238
115 243
112 246
117 247
122 247
118 246
112 248
121 247
113 250
120 245
116 240
115 240
112 234
113 238
126 240
129 237
113 242
106 248
115 244
113 242
118 241
123 233
137 227
131 229
127 228
130 228
132 228
126 224
124 227
124 225
110 232
115 230
115 233
119 242
122 240
130 236
122 240
114 243
121 243
125 240
124 240
128 241
126 234
119 232
118 234
130 233
120 242
116 249
112 249
114 245
115 247
108 246
106 251
107 249
110 247
106 254
107 254
103 250
105 248
113 246
114 242
126 242
124 240
121 237
127 238
121 243
118 242
123 237
123 235
115 243
107 250
104 258
107 256
106 256
103 260
113 253
117 248
120 245
123 239
117 238
112 242
109 247
112 249
104 256
113 250
110 252
110 251
103 251
107 245
104 246
107 247
105 248
112 239
115 236
128 229
129 229
131 233
129 235
133 235
128 236
129 232
134 229
131 227
124 230
124 231
134 229
124 230
128 227
127 233
112 238
122 231
126 232
129 233
129 231
136 233
117 236
117 237
122 238
108 249
118 240
112 243
106 247
115 240
111 244
120 244
119 242
130 238
122 238
116 234
120 233
116 233
120 237
115 240
118 245
121 242
122 243
117 242
119 242
121 239
121 239
118 243
115 243
117 245
115 245
123 244
121 244
116 239
119 235
127 231
128 230
125 228
128 227
120 231
123 235
121 237
118 238
121 235
128 231
131 231
127 233
115 236
122 231
123 230
125 233
132 229
134 223
137 220
135 221
133 225
127 225
129 221
137 225
128 228
126 226
122 227
119 232
125 229
129 232
135 228
127 228
132 223
146 219
143 220
144 221
132 222
134 222
135 220
130 220
128 222
114 229
120 230
122 226
117 230
121 231
116 236
115 238
117 237
122 236
117 236
124 236
128 241
123 245
122 250
117 244
113 244
113 250
110 251
122 249
122 248
128 239
121 241
122 241
122 242
115 243
120 237
118 240
116 245
117 239
103 246
104 242
108 240
122 240
124 241
124 239
119 244
125 236
131 233
126 231
122 232
120 239
122 238
128 236
120 240
117 239
115 239
118 236
113 238
116 236
122 238
123 233
124 232
123 237
119 237
113 239
122 235
127 232
125 236
129 230
132 228
138 232
143 227
131 232
127 231
125 229
121 230
128 232
119 234
122 233
127 237
113 246
120 240
112 246
112 249
105 252
116 248
123 243
113 246
112 251
115 244
114 246
112 251
107 253
115 247
118 243
113 241
117 238
126 230
131 231
128 234
115 238
127 228
125 232
135 232
125 237
120 243
116 238
123 235
115 237
113 242
115 244
118 242
115 241
120 241
115 241
110 243
111 244
123 241
118 241
119 242
120 241
126 241
134 231
132 231
130 229
136 226
135 231
127 237
127 237
118 242
118 239
109 240
112 242
114 237
121 237
116 239
110 244
118 242
114 241
112 240
119 239
119 240
120 238
112 239
114 239
124 230
124 233
127 233
121 242
114 241
115 240
124 235
125 233
126 236
131 234
123 236
118 236
122 242
122 242
115 245
123 240
123 241
121 243
118 243
128 237
118 238
122 231
129 231
126 230
129 229
129 227
116 232
118 231
108 240
121 238
135 228
139 227
140 226
134 225
125 231
123 236
120 242
118 243
128 237
121 239
119 246
114 243
116 240
116 241
113 242
116 247
114 247
110 250
113 251
106 253
104 256
104 249
110 251
108 252
108 254
107 252
101 252
107 254
115 250
108 252
115 247
114 249
107 255
104 250
106 248
119 242
121 244
127 239
121 238
123 239
117 242
115 246
113 244
105 241
113 245
130 238
126 237
120 239
119 240
129 233
122 236
126 236
119 237
118 243
118 239
118 237
118 237
118 233
124 229
124 232
126 232
120 237
120 238
122 239
124 237
127 231
132 225
139 228
128 230
129 224
130 224
124 227
129 227
126 226
127 225
135 225
129 228
127 226
139 220
140 221
134 223
140 224
133 225
124 227
133 226
136 228
119 231
120 234
121 236
117 243
115 244
118 239
117 241
111 236
121 235
119 237
120 235
126 230
126 231
132 225
127 228
126 228
125 231
117 234
139 223
130 222
133 225
142 228
124 238
123 236
119 237
120 241
104 245
126 235
122 237
124 236
125 237
121 241
128 236
127 234
127 236
122 234
122 235
119 239
124 236
120 235
118 237
123 239
123 241
127 240
127 238
129 230
129 230
122 231
128 230
116 235
119 234
118 236
126 236
125 237
132 236
124 235
117 236
123 237
125 237
121 236
118 241
120 243
122 243
109 248
109 246
112 246
112 246
118 243
114 242
124 237
124 235
115 240
117 245
123 239
125 239
137 234
133 233
134 226
131 228
131 227
122 221
126 221
134 221
126 227
118 230
118 234
124 235
125 235
124 233
120 232
127 231
131 226
140 222
127 230
131 228
132 232
133 231
139 225
130 228
128 234
118 241
117 235
120 239
121 236
117 239
124 233
126 239
118 242
122 238
120 238
127 236
126 234
117 236
117 236
115 242
112 242
116 237
122 238
124 237
119 240
119 244
124 242
132 236
130 235
121 239
119 237
130 232
131 235
124 238
121 239
115 247
115 247
107 252
109 252
103 255
109 253
113 253
112 247
115 247
119 243
114 246
122 247
119 244
121 238
123 241
114 243
116 242
116 244
122 240
133 238
121 243
114 241
120 235
131 233
120 233
130 230
125 235
127 232
126 231
130 226
134 223
132 222
130 226
129 227
127 230
129 229
134 223
136 219
138 218
137 216
137 219
134 218
133 222
139 225
146 220
147 217
145 215
145 208
141 210
150 200
145 205
137 211
134 215
133 222
135 223
136 223
128 223
124 227
119 232
114 238
117 242
112 245
125 240
125 239
126 239
115 243
119 242
120 245
114 243
119 242
121 242
121 241
126 237
120 242
119 238
118 236
120 233
124 236
126 239
122 246
111 250
112 247
112 247
117 242
123 239
121 237
130 235
118 242
115 241
120 235
115 237
111 243
118 245
114 241
116 240
124 238
127 230
122 232
126 234
136 231
132 234
125 234
120 234
118 240
117 243
112 246
117 242
115 242
125 238
133 235
130 235
125 240
122 237
115 241
124 233
120 232
116 235
119 236
132 228
130 226
137 226
134 229
133 227
131 235
121 241
117 234
125 235
134 223
124 227
124 229
112 236
118 234
122 233
115 239
118 242
127 243
119 244
120 244
119 242
122 237
133 230
126 234
128 230
128 236
126 243
125 244
118 244
112 244
116 234
120 234
123 234
121 239
111 242
120 240
116 239
117 241
125 240
121 236
126 229
133 230
131 233
121 241
108 247
111 245
111 245
117 241
118 244
114 247
116 239
128 230
124 235
118 240
114 246
110 246
112 245
119 241
118 240
127 240
127 240
116 241
122 238
115 237
122 237
116 238
122 241
117 241
124 239
124 241
122 237
119 236
131 230
127 233
130 227
125 226
124 227
126 230
127 232
136 227
127 228
135 229
136 227
139 219
121 229
128 230
131 233
133 231
127 233
130 232
120 239
117 238
127 242
116 249
110 252
112 246
104 248
117 238
115 239
122 242
106 251
109 252
104 256
112 253
111 256
111 248
118 243
113 244
130 238
123 243
120 242
118 240
117 241
125 235
125 233
119 242
116 241
122 239
117 242
130 235
126 239
128 233
126 230
122 234
122 238
122 231
120 236
119 237
119 239
127 237
116 236
111 239
111 240
111 241
117 242
120 240
122 236
124 228
124 232
122 234
113 240
124 240
119 239
121 239
126 239
131 232
121 235
124 234
124 231
138 230
131 230
130 233
123 233
121 232
115 240
117 238
116 241
116 238
125 238
119 240
125 235
125 236
122 234
132 234
128 238
127 235
123 239
124 235
138 229
126 230
131 230
128 226
121 236
139 229
129 234
130 233
124 230
122 232
119 236
123 233
121 233
129 236
119 240
114 240
113 243
115 246
114 249
117 247
118 248
117 246
109 250
109 244
116 241
126 233
124 234
118 235
119 234
125 232
129 227
119 234
114 235
114 232
112 236
119 234
127 228
129 227
133 225
134 227
131 228
134 227
132 225
137 224
139 222
139 217
145 213
135 215
140 217
133 224
127 230
116 238
121 232
124 232
124 230
121 232
121 236
130 233
129 235
123 236
126 235
115 239
116 234
125 229
117 232
111 237
120 232
120 238
123 240
119 241
126 235
125 232
127 233
126 231
120 239
115 242
114 241
115 244
126 237
120 238
128 233
123 237
124 232
123 238
116 240
116 240
115 241
124 235
123 237
132 232
134 231
141 228
132 230
122 233
122 229
123 225
122 226
124 230
122 233
138 227
123 233
121 239
126 229
126 227
132 229
139 225
136 226
133 231
140 230
134 231
128 229
131 231
127 235
127 232
124 234
119 234
119 238
122 233
121 238
116 240
122 243
114 246
120 247
127 238
127 235
127 232
125 232
124 233
134 232
130 235
126 231
131 231
128 238
124 240
125 235
121 236
120 240
117 243
112 242
124 236
122 241
123 238
125 236
124 238
116 241
123 233
135 233
129 235
123 235
123 236
119 241
114 248
112 246
116 240
119 240
114 237
119 236
120 240
126 237
120 240
119 241
110 249
125 236
119 233
129 231
123 232
132 219
132 217
125 220
133 218
138 213
139 213
133 215
138 217
136 218
139 214
141 217
146 211
143 209
142 210
134 218
138 224
136 219
128 224
131 223
137 221
130 221
128 228
125 226
128 221
140 215
129 223
136 223
129 230
128 226
126 225
128 228
127 231
130 226
129 224
132 225
126 227
139 226
131 230
125 233
124 233
124 232
107 237
116 236
106 246
109 243
101 249
105 250
116 246
115 250
118 249
120 248
135 233
123 244
119 246
118 248
120 245
107 249
115 246
116 246
119 243
116 246
115 247
120 245
114 251
124 245
114 244
108 246
100 252
104 257
109 255
115 252
121 246
119 243
131 237
131 240
135 232
130 235
128 236
126 232
125 232
119 230
121 232
126 233
123 233
117 240
110 242
118 240
112 240
120 233
126 232
128 230
127 231
130 235
125 236
129 224
136 226
126 229
120 235
120 235
110 242
113 245
118 244
114 245
118 244
114 248
119 242
119 239
117 240
125 233
125 231
119 234
121 236
123 231
129 230
125 230
128 231
125 228
131 229
129 232
125 237
123 239
122 240
118 246
118 246
122 240
122 242
122 237
121 232
124 229
116 233
119 237
119 240
110 242
113 240
111 241
113 236
116 235
123 235
124 239
122 242
130 240
120 248
120 246
111 248
110 242
119 242
127 239
128 237
123 243
110 249
103 252
115 250
118 244
117 244
109 247
113 249
105 255
107 253
110 255
104 252
111 245
111 247
112 246
114 246
110 245
120 239
119 241
117 242
119 244
125 244
123 245
112 246
113 248
114 244
110 248
110 245
116 237
123 233
119 236
118 236
116 237
131 230
120 234
101 245
114 244
114 250
115 251
113 252
113 254
110 255
112 253
112 247
114 237
116 236
113 244
115 246
112 247
104 250
106 251
110 252
118 251
120 247
126 242
119 243
114 240
116 239
116 239
119 240
120 244
113 248
105 249
114 242
111 242
108 252
103 253
107 251
112 248
114 250
112 253
117 253
120 249
108 252
110 252
111 251
113 252
111 251
116 251
117 249
112 250
110 249
108 246
110 247
109 249
120 239
122 237
120 240
127 232
123 232
130 229
128 236
126 235
125 241
118 240
121 239
124 235
112 241
112 242
108 245
114 246
113 247
115 248
124 241
119 239
114 242
118 241
117 242
117 246
122 245
114 245
115 246
124 248
118 250
111 252
109 252
120 243
116 246
121 243
114 243
115 252
119 250
120 247
110 250
108 250
108 246
112 249
112 247
117 245
118 240
124 238
118 231
113 238
115 239
110 247
113 249
111 246
119 239
128 233
130 234
140 226
129 226
125 229
122 234
126 228
126 227
123 228
133 229
123 231
123 229
120 231
117 237
123 232
122 232
116 238
122 237
125 236
116 240
126 240
118 238
115 237
110 241
118 238
103 247
106 242
121 240
116 242
113 246
119 246
125 242
117 241
114 242
115 240
123 237
111 239
109 241
114 242
120 242
120 241
118 244
110 245
113 240
113 241
110 244
114 245
114 254
117 247
117 252
113 255
109 256
110 249
110 242
122 237
128 234
135 229
132 227
125 233
133 232
133 232
134 232
133 232
131 229
131 222
123 225
124 229
125 229
124 230
126 229
130 226
128 227
128 230
125 232
121 238
121 241
125 242
121 245
129 237
129 238
129 232
134 235
124 234
126 235
130 233
121 239
108 244
117 242
119 243
112 252
119 244
108 241
113 240
111 241
116 239
113 243
114 242
120 239
126 239
119 243
117 240
117 238
115 241
119 243
112 243
108 241
125 232
117 236
127 234
127 232
113 236
120 235
127 230
125 228
132 222
125 227
131 228
122 231
133 224
135 228
133 230
135 225
129 229
124 231
123 231
126 230
135 221
137 225
142 221
142 224
141 225
123 232
129 222
125 228
122 234
130 232
136 228
130 228
126 229
123 233
123 231
112 233
117 237
127 234
122 242
119 245
116 244
122 237
117 236
113 242
121 239
119 243
118 244
123 243
116 241
115 241
120 241
115 236
128 233
115 235
122 233
122 238
127 230
127 234
136 227
125 226
131 227
125 233
118 238
117 242
120 240
122 243
108 249
100 253
100 251
122 244
118 243
114 240
114 242
113 245
118 246
109 249
116 243
118 242
119 242
120 242
129 233
134 231
134 230
125 231
127 232
123 235
127 237
124 237
117 235
124 238
117 240
109 244
111 245
118 243
111 246
115 244
110 247
113 248
114 248
115 246
108 254
114 256
113 259
119 252
117 254
114 251
110 250
116 244
113 247
117 247
114 248
114 246
114 245
113 248
111 252
108 255
108 256
115 250
114 249
117 252
122 250
120 248
121 248
120 242
119 240
122 238
120 236
115 246
115 240
106 241
111 245
117 244
113 249
110 247
121 244
114 248
115 247
120 242
125 237
132 235
129 239
133 231
129 231
133 226
129 227
129 226
127 223
127 225
129 230
124 231
133 228
130 226
129 229
139 227
139 225
135 223
127 229
138 220
131 221
133 221
133 221
131 225
133 228
137 224
129 230
120 230
123 226
126 228
132 225
122 228
130 229
123 231
118 236
114 240
120 242
126 236
121 237
124 237
125 239
124 245
115 248
116 247
119 246
127 244
117 246
116 247
121 244
120 240
119 236
127 236
126 237
127 240
124 241
125 239
120 242
116 241
124 241
122 243
114 245
117 243
117 246
108 250
109 245
110 246
113 243
113 246
106 250
110 249
111 253
121 246
110 248
104 249
118 248
111 257
118 250
112 249
120 246
117 247
114 244
128 234
126 237
129 232
123 236
119 234
119 234
134 227
133 228
128 226
118 227
128 227
120 231
128 228
127 229
125 233
130 226
138 221
123 230
130 231
125 233
126 238
112 240
121 233
118 231
128 230
129 232
130 236
136 233
128 234
126 235
122 236
108 243
119 240
120 238
112 241
119 235
128 237
118 244
115 249
109 249
114 248
114 246
118 242
119 242
125 236
127 234
134 231
135 232
133 231
134 231
140 228
129 236
126 229
116 235
100 238
109 241
115 240
117 235
122 238
132 232
127 230
126 230
127 225
130 221
126 226
129 229
126 234
126 234
129 233
117 240
119 244
118 244
112 245
113 242
125 234
130 229
132 228
120 233
124 232
122 234
115 238
124 234
121 240
115 247
115 245
105 253
113 249
117 250
128 243
118 248
122 243
122 238
116 235
124 234
129 226
123 230
122 231
126 237
131 232
127 233
133 227
131 231
132 231
136 228
122 233
114 240
110 240
131 237
121 239
123 246
130 239
126 239
127 240
114 242
100 254
106 251
106 251
112 245
110 248
109 253
118 252
115 254
117 251
115 250
123 246
117 243
116 238
121 237
122 238
119 237
125 234
121 231
128 232
121 228
124 232
117 235
127 232
123 231
122 233
134 228
139 228
147 224
134 226
135 220
145 217
141 219
144 218
131 222
123 228
121 232
122 231
125 234
128 228
134 227
133 225
131 228
130 231
138 226
124 233
124 234
125 234
116 238
120 240
112 245
112 241
115 240
112 248
118 245
113 243
119 242
126 241
121 242
117 243
121 242
115 244
121 247
116 247
111 250
118 246
119 245
115 243
113 243
123 242
115 246
110 245
115 243
117 243
113 244
121 245
114 247
116 244
116 247
121 245
122 243
122 240
118 242
115 244
111 247
118 247
111 250
112 251
117 248
113 248
107 248
103 252
112 250
109 248
114 243
108 248
108 248
113 245
122 237
125 233
135 225
127 227
128 236
117 247
105 254
101 255
108 254
116 249
107 251
109 249
114 244
111 239
115 235
112 236
115 235
127 232
118 239
125 240
120 242
127 239
124 243
120 244
118 242
122 241
128 231
128 229
122 236
119 241
112 245
107 246
110 244
105 250
108 249
114 248
110 255
120 250
118 250
119 250
115 248
124 241
118 242
114 246
112 252
105 256
114 254
106 256
106 257
95 262
103 260
97 265
98 266
107 259
111 254
119 254
115 254
111 256
112 256
110 256
95 262
95 264
102 264
92 272
86 274
91 267
97 265
91 272
99 269
101 265
96 266
98 263
99 258
111 252
109 255
110 255
116 248
116 242
127 235
123 231
127 237
128 237
125 237
135 234
134 233
132 234
138 228
133 226
139 222
137 222
138 221
137 220
126 224
116 226
125 226
129 229
126 226
124 230
125 229
117 232
120 231
119 234
123 234
133 231
131 230
130 232
126 230
125 234
134 230
135 229
120 231
121 238
117 248
110 250
114 243
113 244
120 242
115 241
116 242
111 244
108 245
110 249
124 234
138 233
127 240
120 240
116 240
118 239
110 246
102 248
112 245
114 244
112 239
110 240
118 242
121 239
123 240
119 237
120 244
114 248
114 242
120 243
120 239
119 237
120 233
131 225
129 228
130 234
132 228
125 236
128 230
133 231
126 234
124 233
128 231
126 229
124 233
130 233
128 231
133 226
126 230
128 231
128 236
121 239
117 242
112 245
114 244
117 241
119 236
131 231
125 232
121 235
118 238
115 242
125 235
123 238
119 240
121 238
127 239
129 236
124 237
120 239
113 245
116 250
117 255
114 254
118 249
116 242
113 240
125 237
125 231
139 228
134 231
130 232
119 238
117 240
110 244
129 239
124 235
120 238
126 234
130 230
127 231
122 234
121 239
126 238
119 244
119 242
114 245
119 245
122 240
120 238
127 235
128 239
117 242
114 243
118 245
115 248
113 247
116 246
115 248
125 238
109 237
115 232
128 227
130 226
129 229
134 234
129 231
132 220
133 219
129 219
135 216
131 220
136 218
142 216
145 219
144 217
141 215
137 217
132 219
129 220
133 220
137 222
143 221
140 220
134 223
135 223
136 225
130 229
136 225
137 224
129 229
127 225
127 228
117 235
124 235
121 236
115 235
108 242
107 247
117 236
126 237
126 233
127 234
126 233
124 235
122 234
117 238
129 234
126 234
125 232
141 225
133 232
135 230
137 222
138 227
137 218
143 218
140 223
124 231
126 232
125 234
113 241
116 239
116 244
120 236
120 242
126 235
120 241
123 242
120 239
108 246
122 241
125 247
125 242
116 243
121 238
122 233
117 236
124 236
119 237
118 244
121 238
118 241
118 237
121 236
117 243
116 242
112 243
117 241
120 238
121 241
118 242
124 238
135 226
146 223
133 222
132 223
134 227
131 230
118 235
125 235
123 234
131 234
134 236
126 237
118 237
121 233
122 234
119 228
130 222
129 219
128 221
127 223
130 229
145 217
143 221
137 226
134 232
135 229
130 234
126 236
122 238
120 243
125 243
124 239
123 240
114 239
116 233
119 231
117 230
123 232
115 241
118 242
111 237
119 237
127 236
133 232
139 223
132 224
131 227
135 226
125 234
120 241
119 237
115 234
117 230
111 237
106 243
111 246
116 247
117 247
113 248
123 243
118 243
125 235
122 241
128 236
112 244
116 245
108 250
109 253
117 249
121 242
116 243
116 242
118 241
111 251
109 257
117 247
119 242
112 244
115 240
126 235
120 235
135 226
132 224
131 231
116 240
124 235
121 239
119 239
129 239
120 241
131 232
124 240
111 243
116 248
108 248
108 248
108 249
109 256
108 258
108 255
116 256
109 256
121 243
124 240
130 238
115 242
124 239
136 230
132 232
125 234
122 237
120 238
119 242
120 243
113 245
113 245
115 242
118 237
107 242
112 246
105 250
114 241
116 241
119 237
129 234
114 235
120 228
130 225
126 222
122 224
121 229
121 229
129 231
137 232
122 237
122 231
123 228
132 222
129 223
125 219
129 223
133 222
139 224
133 225
131 226
132 228
132 227
138 225
131 229
132 227
135 228
128 229
133 228
137 225
129 228
125 225
127 225
128 224
118 234
120 233
129 230
128 230
125 235
129 233
128 238
124 236
132 232
130 231
134 226
130 226
130 227
138 226
140 220
139 221
132 218
135 219
135 224
138 225
132 224
126 224
124 227
133 223
137 225
127 227
131 223
130 225
131 227
140 222
143 220
139 222
137 220
124 232
123 230
130 233
125 242
124 240
116 240
122 236
125 236
121 241
120 241
127 233
127 228
136 223
131 225
128 231
136 234
121 235
111 243
115 244
112 247
120 241
128 236
142 231
132 231
124 232
118 233
126 223
140 223
146 222
140 220
135 224
137 218
126 229
125 232
132 234
128 238
118 238
115 238
105 249
111 246
103 251
105 252
110 250
111 248
111 252
113 251
108 253
105 260
105 259
106 256
103 263
101 262
102 264
100 266
110 261
102 262
100 262
95 268
93 272
94 273
99 267
94 266
111 254
112 258
115 257
110 258
112 251
107 245
113 239
123 238
126 239
119 239
124 243
126 241
121 243
130 234
123 239
120 244
113 243
120 241
115 244
108 243
112 242
111 246
109 242
116 238
117 240
130 235
134 229
133 231
126 230
132 231
116 238
119 237
118 241
123 238
119 242
123 238
111 243
113 242
111 241
116 239
115 240
118 239
117 241
115 246
110 249
107 249
116 245
121 243
123 239
120 240
119 245
123 239
124 237
130 231
131 233
122 237
128 233
121 238
134 228
133 227
126 232
123 233
124 237
129 236
111 242
109 244
120 236
124 231
130 231
129 233
133 230
122 228
119 231
123 234
123 240
120 235
131 234
124 235
122 233
123 232
132 228
130 233
130 235
123 240
119 238
118 244
117 248
120 243
120 242
129 240
119 243
124 242
121 242
125 240
127 241
113 245
121 243
124 240
116 240
121 236
120 238
120 237
119 239
108 252
111 248
114 248
121 248
117 250
122 246
111 244
113 239
117 243
123 241
132 234
125 233
123 238
136 232
127 238
128 233
134 229
121 229
124 233
122 232
125 233
122 236
127 231
127 233
133 233
132 232
120 235
127 228
128 230
137 223
137 224
129 230
123 233
123 235
125 236
123 232
124 232
117 231
127 229
127 230
123 236
119 241
109 244
121 237
114 243
115 244
119 242
116 248
108 249
106 250
104 249
100 254
108 250
106 249
117 245
110 245
117 243
117 244
119 247
117 248
121 248
118 249
124 245
118 249
117 243
112 246
113 247
110 251
113 245
120 241
116 244
124 244
125 240
121 242
131 241
117 245
124 236
115 243
124 238
114 241
124 236
120 235
125 237
122 240
118 240
119 238
115 243
114 243
116 240
118 233
127 229
125 230
137 233
129 239
127 237
122 243
127 235
120 238
126 233
122 235
118 242
106 255
113 246
111 248
110 248
109 245
106 249
111 246
115 239
114 237
120 235
128 232
121 240
126 239
124 243
129 239
131 232
129 236
139 227
127 230
124 231
119 225
122 230
118 234
127 227
119 230
130 227
136 223
136 226
126 230
124 235
123 240
123 237
123 240
119 239
116 243
119 241
128 234
129 233
133 227
140 222
135 228
129 229
121 232
121 237
129 230
119 231
129 230
131 229
135 224
137 224
119 232
124 232
109 244
116 240
124 245
126 239
126 241
124 235
121 236
124 231
121 231
111 236
118 234
134 230
134 231
133 232
130 235
128 238
142 226
129 231
123 238
123 240
129 234
118 238
117 237
116 242
113 246
116 245
123 242
116 241
109 243
113 242
115 240
115 239
122 240
114 247
121 247
117 248
120 246
112 247
125 236
133 233
127 234
129 228
132 225
124 226
126 229
129 233
126 233
117 234
119 227
117 230
123 234
125 235
126 238
127 238
118 239
132 231
130 235
126 234
126 240
123 235
121 233
130 230
126 228
120 233
127 231
126 230
130 225
127 230
126 228
125 229
123 230
131 228
123 236
123 233
118 233
118 232
122 239
124 237
124 237
110 251
108 250
111 248
119 246
108 245
109 243
120 237
119 236
120 234
122 232
127 229
126 222
133 221
124 226
122 225
129 224
134 222
135 222
142 224
140 225
140 217
137 217
142 216
138 218
143 215
144 219
130 225
132 220
126 221
122 217
123 222
131 226
133 221
131 224
131 230
130 231
129 233
133 229
125 235
126 234
126 231
121 233
116 232
120 233
125 233
118 240
114 236
122 238
121 234
113 238
119 237
110 234
123 229
129 225
138 222
136 222
141 218
139 224
137 222
137 224
138 223
137 229
133 227
134 233
128 231
135 223
130 226
138 223
134 225
130 222
127 221
129 221
128 224
133 225
127 228
128 224
126 222
119 222
122 222
134 225
134 227
134 225
136 234
131 228
125 231
123 230
130 223
133 223
130 223
131 223
123 227
123 233
120 235
124 234
120 238
138 231
130 240
133 239
136 232
127 234
126 234
130 231
123 235
120 237
119 237
122 235
127 234
134 230
119 238
132 226
114 232
112 239
125 236
126 230
130 231
125 237
133 234
132 231
124 230
126 231
129 227
129 231
124 232
120 237
127 235
130 231
129 233
115 240
115 246
120 241
113 241
114 243
116 241
116 239
113 247
118 243
124 239
125 234
129 230
137 227
128 234
125 233
130 235
126 234
123 235
133 233
134 229
132 234
127 241
125 240
115 244
122 240
119 241
132 230
130 229
121 230
128 226
120 234
127 236
119 238
127 240
131 237
127 244
127 238
126 240
123 238
121 236
123 234
123 231
130 229
125 231
126 238
118 243
116 243
113 251
123 245
118 245
121 245
117 250
115 251
115 256
109 258
116 251
104 259
117 246
113 246
112 246
124 240
115 248
121 239
103 248
106 244
111 244
105 247
108 247
110 248
112 248
116 246
117 243
118 239
122 236
131 231
119 237
122 236
127 234
130 232
120 234
121 238
134 233
120 231
127 226
129 229
114 235
111 238
112 243
110 242
113 250
115 252
119 249
114 244
106 245
115 245
106 251
104 249
114 250
118 241
128 229
138 227
129 229
135 221
139 222
131 225
144 215
138 222
128 224
129 224
125 232
128 229
124 224
138 218
128 229
128 234
131 225
132 228
133 231
122 231
119 234
131 229
122 239
119 240
127 235
129 234
122 233
114 230
121 234
118 243
127 241
112 250
113 252
102 256
100 256
119 245
121 240
122 238
111 242
113 243
117 241
119 243
113 247
113 246
116 248
108 248
112 247
109 250
117 248
115 251
116 251
123 243
116 242
131 239
130 237
131 233
136 232
137 224
132 227
130 222
124 222
133 224
137 219
135 226
134 226
130 223
130 220
131 221
128 226
126 226
128 228
128 231
112 235
121 225
126 228
139 222
131 228
135 228
133 226
127 233
128 230
119 230
129 220
126 220
128 226
126 230
115 236
114 236
124 230
120 234
126 238
129 233
139 227
140 224
146 228
123 238
131 231
119 238
119 243
122 242
113 244
111 247
118 239
121 240
107 246
112 240
106 245
117 241
111 247
121 246
116 246
120 245
123 242
123 239
120 241
131 235
126 227
121 231
116 234
121 237
126 231
125 236
121 233
116 234
122 234
130 229
128 225
122 232
128 234
126 234
111 238
122 237
124 238
124 239
124 245
120 245
121 236
126 236
122 232
127 231
119 230
125 230
118 237
117 241
117 233
122 234
122 243
117 240
114 242
110 245
116 243
118 244
114 246
121 244
119 240
122 237
126 235
125 237
127 238
127 232
119 242
119 246
113 249
110 249
113 246
113 244
117 243
114 248
113 247
114 245
117 243
115 246
119 247
115 248
111 250
109 254
109 259
112 254
116 249
115 250
115 252
114 251
105 258
102 260
108 255
114 246
114 241
108 248
107 252
97 260
97 262
108 255
111 253
113 255
110 256
119 253
116 254
113 251
108 252
108 251
106 257
108 254
108 247
114 243
127 236
136 233
127 237
121 232
118 240
115 247
118 242
126 237
128 237
120 237
121 235
117 236
119 237
119 236
123 237
131 237
134 230
131 228
125 229
120 234
114 238
106 247
108 245
108 250
118 249
109 248
118 243
113 251
113 250
120 244
120 244
130 239
122 238
123 234
130 235
128 237
129 232
125 224
130 222
134 221
134 226
128 232
122 235
124 230
121 235
116 237
124 236
123 243
124 241
124 240
128 234
130 237
117 243
116 245
112 248
108 247
109 244
104 245
115 243
112 244
113 244
113 243
115 247
115 251
125 239
126 241
122 240
120 245
114 250
108 251
116 251
111 254
111 250
109 248
100 253
100 253
104 248
110 252
120 249
129 243
118 246
123 237
119 237
113 233
126 233
119 233
131 230
131 228
121 229
124 231
124 235
132 231
130 233
134 224
135 225
138 228
137 227
125 228
134 221
131 222
136 219
130 228
129 227
131 230
126 239
114 250
112 249
113 251
116 251
105 256
105 256
115 251
114 250
113 249
113 252
110 254
106 248
112 242
119 237
131 232
132 234
129 232
125 237
118 242
109 244
107 245
122 240
127 241
132 238
133 238
120 238
117 235
122 232
126 227
128 223
131 225
135 230
130 238
129 237
115 244
113 252
112 252
112 253
122 244
117 244
114 244
118 239
119 241
116 240
116 235
121 241
123 238
127 234
130 229
129 222
131 230
125 231
124 238
118 239
106 246
118 241
116 247
120 248
121 242
111 247
116 243
117 243
113 246
114 247
125 247
110 247
111 245
115 244
120 244
114 248
117 240
118 240
122 234
119 236
118 233
117 229
115 232
123 231
128 233
125 238
113 242
120 241
128 232
121 235
127 233
133 227
136 224
135 225
136 225
126 229
126 232
140 227
133 223
131 221
141 218
141 221
134 224
128 226
123 230
125 225
123 228
116 232
130 226
134 226
137 225
132 226
132 224
131 229
131 232
120 238
117 243
116 243
120 242
124 239
120 241
121 239
125 233
121 237
120 237
118 233
130 226
121 236
129 231
129 230
132 229
128 231
121 226
123 229
122 237
126 236
123 236
121 236
129 232
119 232
114 232
116 231
133 230
134 228
129 233
131 232
125 236
120 239
118 240
121 241
123 242
131 236
126 233
123 235
124 234
117 237
115 238
117 241
120 243
118 241
110 241
108 246
110 246
119 246
116 251
121 249
109 252
108 250
118 247
125 249
124 240
114 241
112 244
108 247
114 249
107 251
112 246
113 243
119 238
125 234
138 228
132 226
136 224
134 221
132 224
144 222
146 217
140 215
149 212
148 214
136 217
130 215
134 217
121 225
128 223
126 226
130 233
123 237
120 234
124 237
128 232
127 238
123 242
133 235
117 244
119 244
121 243
120 244
117 244
118 245
108 247
108 246
112 247
112 244
107 244
123 240
116 236
120 242
121 240
129 231
119 235
118 240
124 235
116 239
107 249
105 250
117 244
120 242
117 248
111 254
113 253
117 253
111 253
109 248
113 247
108 252
111 247
114 245
123 238
127 232
137 230
137 227
133 222
131 224
129 225
124 227
129 231
138 224
130 226
125 227
127 231
122 236
126 233
122 234
117 235
126 233
127 239
122 240
120 238
126 232
119 234
106 239
117 238
126 237
131 232
129 234
128 229
124 233
126 232
129 228
130 227
130 231
135 237
123 239
130 238
137 232
134 226
129 229
115 229
118 231
121 229
115 233
121 231
125 233
113 238
117 238
118 239
113 247
120 245
120 244
124 239
129 239
122 238
127 232
128 230
119 234
122 237
121 242
123 239
124 238
125 236
119 237
121 238
119 240
122 236
123 234
120 238
120 238
115 243
122 240
121 236
116 241
120 241
132 231
126 235
124 238
126 239
127 237
124 240
117 250
112 248
110 250
109 250
117 247
119 248
115 246
110 247
108 249
119 245
114 248
122 244
104 250
108 248
119 244
117 240
118 240
129 226
134 226
138 221
147 215
156 210
147 209
139 207
136 212
130 214
136 212
136 220
135 220
135 220
129 227
130 228
116 232
118 237
128 239
129 233
134 227
136 228
134 231
139 223
135 227
125 230
125 234
128 238
120 244
119 241
125 236
130 232
128 232
123 231
120 232
112 238
119 235
107 235
114 238
117 235
129 234
133 231
137 226
135 225
127 227
136 217
134 215
126 218
128 221
130 225
134 220
129 226
131 228
135 226
136 226
134 225
134 221
143 222
137 225
123 229
124 229
131 229
137 225
130 229
123 238
125 236
125 237
109 237
108 238
119 234
117 235
115 239
117 238
125 232
119 238
125 237
119 240
119 237
115 238
121 236
115 236
120 235
123 237
139 224
137 222
143 223
140 220
131 227
132 224
131 226
138 218
130 223
128 225
139 221
123 226
131 230
130 230
126 231
131 231
118 236
126 232
128 232
121 230
123 228
133 225
139 228
129 227
128 225
126 228
125 237
126 233
128 234
119 234
126 232
129 236
133 232
133 223
128 227
127 228
125 225
130 221
131 220
130 227
127 227
135 223
128 228
133 227
123 233
118 234
121 236
123 238
122 238
122 244
116 250
114 249
114 251
117 245
115 239
116 243
118 240
114 240
113 240
118 236
121 243
123 239
123 237
128 231
134 230
136 226
138 221
134 222
128 222
134 227
122 231
129 227
138 224
129 226
126 221
126 222
129 226
128 226
125 232
117 236
124 239
123 240
122 248
124 242
128 235
121 241
129 238
128 237
125 235
130 226
128 232
125 227
122 228
137 221
136 224
132 229
123 234
127 230
129 222
130 228
132 223
132 224
134 227
134 223
131 221
145 214
136 216
140 213
126 223
135 219
131 222
133 223
142 216
143 213
137 219
138 222
133 226
130 229
128 233
129 236
127 240
122 243
118 244
122 242
123 239
126 236
121 238
113 240
117 242
114 247
115 249
114 244
112 248
114 246
122 247
119 248
118 245
108 252
114 249
114 249
119 242
121 243
116 241
122 238
114 241
125 239
128 240
120 238
131 235
129 237
131 235
118 241
113 240
115 233
118 233
121 229
129 232
130 237
121 237
122 237
128 236
124 239
119 233
121 228
133 224
132 226
127 228
130 225
136 224
134 221
135 221
137 219
131 221
121 225
125 227
116 238
125 235
128 235
121 241
128 236
122 234
108 240
118 240
113 245
103 248
110 247
111 254
104 255
112 252
107 250
109 251
111 254
112 252
110 253
106 248
120 236
125 234
123 228
128 230
133 233
119 241
125 242
123 242
120 240
124 238
122 242
128 234
130 229
125 227
130 224
131 223
121 227
128 225
135 223
128 225
134 221
123 227
126 229
130 225
131 227
134 225
133 230
135 230
127 232
136 228
129 230
126 231
121 233
129 232
119 239
119 239
110 240
115 244
125 243
123 244
123 245
127 238
121 235
123 236
121 240
123 236
127 233
129 228
129 231
124 232
124 232
131 232
124 236
127 237
125 240
116 246
111 248
121 247
115 252
107 251
116 250
113 255
109 257
110 257
108 259
99 262
103 259
99 262
97 264
98 264
95 266
105 263
103 261
102 258
105 250
115 245
108 248
107 250
103 252
108 252
109 248
113 251
109 253
119 249
124 246
116 251
114 250
118 246
125 238
138 230
127 234
127 231
126 235
119 234
124 234
131 226
134 221
130 223
139 221
138 220
141 217
144 219
133 224
122 226
137 216
133 214
132 213
131 218
142 216
141 224
139 218
129 222
128 227
131 225
133 227
123 234
116 238
110 242
118 241
120 242
115 243
113 245
114 241
109 247
109 252
112 247
112 248
113 249
114 249
112 248
121 247
114 246
120 237
117 240
123 235
121 234
115 234
119 240
114 244
112 243
109 247
111 245
111 248
111 247
129 243
115 249
112 256
108 263
97 266
101 263
107 262
105 255
120 250
120 245
119 242
122 240
118 240
112 242
113 243
120 240
120 239
118 239
116 240
111 246
112 248
113 253
116 250
115 252
120 249
116 247
127 238
107 243
113 242
112 247
115 246
121 241
120 241
119 237
127 229
119 232
126 232
126 233
133 236
127 236
115 245
116 248
120 248
118 248
119 245
115 248
121 246
117 241
118 238
113 240
120 244
114 244
113 240
120 235
122 237
117 233
126 229
132 221
118 227
128 228
124 233
126 232
130 231
129 231
129 234
129 234
123 231
127 234
123 237
124 228
123 230
123 231
131 231
119 237
120 234
120 237
125 230
124 227
123 231
121 239
131 233
122 235
129 234
130 231
125 231
134 231
129 232
132 228
129 228
125 229
125 232
121 235
130 230
132 226
125 230
121 231
123 230
121 236
116 243
107 246
109 246
118 238
131 232
129 231
136 230
133 230
138 224
135 225
131 228
136 224
127 223
123 229
129 225
125 231
125 228
128 228
121 230
137 221
143 224
141 224
130 228
131 229
141 224
133 224
131 229
139 229
136 230
127 236
123 243
124 241
110 252
111 253
106 262
112 262
102 267
97 271
97 265
96 259
108 254
108 252
115 245
119 245
121 240
117 241
115 236
125 236
123 238
118 243
122 243
116 246
109 251
121 246
115 244
109 242
109 244
105 244
115 240
115 244
120 242
111 249
116 242
116 239
109 240
114 243
111 243
114 242
126 240
125 238
115 245
123 242
115 245
116 243
123 244
123 242
117 245
127 237
129 236
118 241
116 243
129 238
115 246
113 248
112 246
114 250
112 248
120 241
118 239
111 243
115 247
115 248
119 242
121 247
108 248
110 247
113 249
109 251
109 252
112 255
106 260
97 260
93 263
94 266
108 255
110 252
115 247
121 244
119 237
118 242
119 238
127 239
131 231
136 227
141 221
136 219
139 221
123 228
124 227
130 222
126 228
127 228
123 227
132 220
130 221
138 220
133 225
132 229
122 230
124 232
130 229
131 232
130 225
124 229
120 235
122 230
131 224
138 220
135 220
131 217
134 221
134 223
122 226
129 231
128 234
123 239
115 245
112 247
116 251
112 254
113 254
115 252
117 243
128 240
122 243
113 241
113 242
112 244
109 243
110 242
112 241
107 241
110 242
114 244
125 237
126 235
116 245
118 241
116 239
123 237
125 237
126 234
126 231
122 232
122 234
120 239
121 236
118 242
112 247
111 244
111 245
118 242
121 235
122 235
121 233
120 234
123 239
123 238
119 239
123 240
126 242
122 247
123 243
125 244
117 245
117 245
121 242
110 245
114 244
106 242
118 238
124 234
122 237
128 231
132 239
126 239
123 239
132 235
126 239
116 249
123 249
112 254
119 251
111 250
115 246
123 240
129 235
123 239
119 236
119 236
115 239
122 231
122 233
127 229
123 229
124 226
123 229
133 227
126 230
126 234
124 232
127 228
127 230
126 234
123 231
123 229
131 225
139 222
138 224
141 223
132 228
127 236
125 239
134 228
124 228
124 231
122 235
123 234
122 230
129 230
126 230
118 241
113 244
117 244
120 241
114 241
124 238
122 238
122 239
123 234
126 231
134 230
131 233
129 236
128 236
121 241
120 239
120 240
122 235
115 244
115 242
126 232
124 229
130 228
124 236
128 234
132 230
131 230
132 227
135 226
118 230
132 225
130 225
135 225
134 227
133 230
128 229
131 231
127 231
132 228
134 226
122 230
124 232
114 237
117 240
122 232
122 238
121 240
127 241
126 238
116 242
114 246
112 241
114 242
108 251
115 246
113 243
115 242
111 241
117 238
121 243
123 239
122 240
128 237
132 236
125 240
126 236
123 233
120 230
121 233
115 242
110 246
114 242
132 236
126 236
121 238
123 240
111 243
112 245
122 243
130 234
122 236
122 239
116 245
119 244
120 243
112 247
109 247
106 252
114 250
108 255
114 251
108 253
105 255
115 246
120 238
116 243
121 237
121 240
119 237
119 240
117 244
121 244
125 244
125 243
123 243
126 238
121 241
127 234
120 236
122 235
123 235
119 233
123 229
123 236
125 237
116 240
118 237
122 233
122 236
121 233
133 229
133 227
124 231
129 225
129 229
128 232
127 233
126 231
130 223
128 228
129 234
129 232
121 233
130 233
127 234
124 239
123 235
125 228
121 234
118 235
122 235
123 233
122 232
130 225
129 230
127 230
128 234
119 236
116 236
125 240
120 239
126 242
113 244
115 245
110 253
109 251
111 258
103 257
115 250
105 256
111 255
116 256
106 260
111 255
99 256
109 255
108 256
111 252
111 248
111 247
114 249
107 252
98 256
100 255
106 257
106 256
116 253
121 245
129 238
113 244
123 240
122 240
125 239
121 242
117 242
118 238
124 235
126 236
126 242
118 243
116 241
111 244
112 241
112 244
116 243
117 241
118 238
114 237
121 239
113 241
112 240
115 239
120 235
125 230
124 234
124 235
130 233
130 232
130 229
130 227
129 233
125 234
120 237
129 231
128 229
118 235
120 232
111 232
123 231
118 239
118 235
115 237
121 236
127 230
121 233
130 229
120 234
119 230
124 233
134 229
136 227
126 234
117 233
121 227
125 226
125 232
112 237
120 236
124 239
121 239
131 228
135 226
131 230
122 232
123 230
124 232
122 239
121 239
117 243
122 234
121 235
117 238
117 240
117 237
109 246
111 246
117 244
116 244
120 241
123 236
137 225
135 225
133 227
129 227
132 226
134 220
137 223
135 221
141 219
132 220
144 213
132 227
136 224
131 230
132 232
144 226
129 224
120 230
116 234
125 233
126 235
124 235
134 228
132 230
126 232
116 235
115 238
118 245
122 242
118 240
118 243
113 247
119 241
115 242
115 242
115 235
114 243
109 246
109 241
103 245
111 244
114 241
112 250
110 253
104 254
103 259
106 260
105 262
115 256
114 255
111 251
115 246
121 242
131 235
118 238
117 240
127 235
128 239
115 238
112 238
123 234
128 229
130 224
127 228
125 232
127 232
122 238
124 240
125 240
125 237
119 243
99 249
108 249
112 246
112 248
117 247
107 247
115 236
115 241
122 244
127 239
125 238
133 229
126 230
118 232
128 229
131 230
126 234
123 234
125 238
106 244
115 245
119 247
114 250
105 254
107 253
116 249
110 250
110 250
106 249
111 248
115 245
107 250
119 246
121 244
121 244
125 236
129 235
134 233
124 237
124 239
127 239
117 241
110 239
116 237
122 239
125 240
116 244
114 242
113 249
113 247
112 251
122 246
125 240
131 231
139 225
131 232
122 227
138 222
133 224
143 218
133 226
139 226
141 224
139 225
135 225
125 225
126 223
126 221
134 221
142 220
130 224
139 219
136 216
135 217
136 220
134 221
143 222
137 226
122 236
127 235
120 235
125 230
118 238
112 244
114 247
114 247
118 242
132 238
116 243
115 243
120 238
109 239
114 240
127 237
122 240
119 239
115 244
117 239
118 238
117 239
124 237
114 245
122 243
111 248
113 246
116 247
127 240
128 236
122 232
124 230
124 232
124 232
116 236
121 236
122 239
123 243
117 246
123 242
117 240
125 239
134 228
137 226
133 227
129 228
128 230
127 233
123 235
130 232
134 228
126 229
118 231
122 226
121 232
130 227
118 233
120 231
119 236
120 236
123 238
125 240
120 245
132 240
127 239
136 229
130 230
141 223
129 228
123 232
117 240
116 242
127 236
125 235
126 236
124 236
122 232
125 232
113 240
121 239
121 236
125 236
125 237
122 238
113 242
114 245
119 243
121 237
127 238
129 232
125 230
116 236
128 236
129 235
118 244
121 241
119 235
122 233
133 230
126 228
127 226
121 232
122 235
113 237
115 237
119 236
123 236
123 231
135 222
127 229
130 233
134 230
134 227
129 231
128 232
137 228
123 234
120 238
121 238
127 237
118 239
118 240
117 241
128 235
131 227
118 231
112 241
116 241
124 236
118 239
125 232
122 237
125 238
122 237
121 239
123 240
121 237
118 235
118 237
120 235
116 238
120 235
125 231
126 233
130 229
130 229
126 229
126 231
128 232
126 234
128 233
120 233
120 232
121 233
122 237
124 239
117 240
110 244
115 239
116 240
117 247
117 244
126 239
124 238
126 242
125 240
131 233
118 235
124 240
123 235
129 232
133 224
134 224
132 223
133 224
130 222
130 221
138 216
135 215
133 219
131 223
136 220
136 223
126 225
128 225
125 233
134 232
132 232
140 219
135 220
137 219
137 222
135 220
140 220
134 223
127 227
127 223
130 229
124 235
126 233
133 231
137 226
131 227
136 228
128 232
121 233
128 225
123 232
126 233
119 241
109 246
107 253
106 255
99 259
111 256
99 256
113 251
109 252
110 250
119 243
130 236
133 236
131 232
117 233
122 229
135 225
138 227
134 227
131 221
128 222
128 227
120 231
131 227
126 233
114 243
119 247
110 246
109 243
115 243
117 246
115 252
111 252
113 248
110 246
119 243
117 248
113 249
116 248
113 251
112 249
111 249
114 253
116 242
121 243
114 250
120 246
116 249
117 246
114 249
122 241
111 249
109 251
117 248
117 245
112 246
115 242
116 240
116 243
122 237
127 236
119 238
125 239
119 241
120 240
126 238
127 247
130 242
128 237
126 242
132 237
131 231
134 228
120 236
116 236
122 228
132 229
131 231
134 228
129 228
126 231
115 238
111 238
114 241
131 231
139 222
141 222
137 221
133 220
136 221
142 217
136 215
134 221
131 224
136 223
129 225
133 225
131 225
135 228
126 228
119 233
127 230
127 231
121 235
113 237
112 240
122 237
119 237
108 245
109 247
118 251
112 251
109 250
114 248
107 257
113 254
107 256
113 250
115 248
108 247
122 244
123 244
120 242
115 240
122 232
114 232
127 232
123 237
124 237
116 246
106 248
112 247
116 245
119 242
120 238
121 239
122 241
123 242
114 245
122 240
125 235
123 234
123 233
129 228
124 232
127 225
123 224
130 224
131 229
127 232
129 227
138 224
140 224
134 228
130 230
125 231
137 221
134 221
123 226
130 224
127 234
128 236
118 237
118 236
121 230
125 231
132 227
132 230
126 234
128 231
118 233
119 231
117 232
116 227
124 224
130 229
131 227
133 227
129 225
128 227
135 225
123 231
132 226
134 221
133 229
125 226
131 228
131 226
134 228
129 236
126 238
117 245
117 245
112 249
110 251
108 254
105 251
106 254
109 251
108 249
129 239
119 238
118 238
124 236
124 238
122 237
127 236
121 238
122 232
125 236
127 237
127 237
124 239
124 239
110 247
110 244
104 246
113 245
110 246
124 233
129 235
120 245
120 243
118 243
107 244
111 240
113 235
116 235
119 237
113 241
113 246
120 246
113 247
116 242
115 240
114 242
119 241
123 244
119 244
118 246
117 247
123 245
130 241
120 242
120 236
115 234
106 242
113 242
118 242
117 238
133 231
131 232
129 229
141 226
128 232
126 227
128 229
126 225
125 233
132 235
124 239
125 240
114 239
124 235
121 233
112 238
121 236
129 237
117 238
123 238
119 238
120 237
111 240
121 239
113 245
110 248
111 247
117 245
121 239
121 236
116 240
117 240
108 243
105 247
112 249
110 249
110 245
113 249
111 245
113 244
106 247
112 248
122 244
114 243
111 243
112 243
116 239
118 243
124 240
129 235
132 224
136 221
135 225
138 229
145 223
129 231
131 227
126 230
132 232
125 234
114 240
117 241
108 241
103 249
105 249
114 249
119 242
129 234
121 238
114 238
122 237
125 237
119 241
120 240
123 233
131 231
126 232
124 233
117 229
120 234
110 242
110 240
114 236
117 237
116 243
124 236
125 237
120 235
125 231
123 234
126 239
140 226
133 226
139 223
142 222
131 226
129 226
123 230
126 234
122 232
121 238
113 239
115 242
111 247
110 253
115 250
131 241
129 236
113 245
110 243
111 245
119 240
107 248
110 247
115 251
112 250
106 256
116 248
120 244
116 244
122 240
115 239
114 239
119 237
114 245
114 244
121 239
119 240
126 236
129 239
125 235
120 243
115 241
114 248
116 243
131 233
122 235
118 237
123 239
113 244
112 246
104 256
109 257
121 248
114 246
116 244
118 242
123 236
124 232
127 237
122 238
115 240
115 241
119 239
118 247
118 247
115 244
114 242
124 238
122 238
123 236
114 239
118 238
119 240
116 243
121 236
126 232
121 231
122 233
121 236
123 235
132 228
135 225
131 227
122 231
125 228
135 224
144 219
140 221
144 220
134 222
136 224
135 223
130 220
129 221
133 226
122 227
128 224
128 227
120 229
113 235
131 230
129 233
122 234
136 220
137 219
140 219
141 220
141 220
135 218
135 213
133 218
131 219
128 221
136 219
141 217
139 217
134 218
132 220
141 217
135 220
144 218
136 224
137 227
131 225
133 226
136 223
140 222
132 229
123 231
133 231
129 237
121 237
124 237
118 243
121 243
117 245
122 242
125 242
125 239
120 239
123 238
121 242
119 246
109 245
116 245
120 242
120 241
123 239
119 239
116 242
115 238
119 236
122 238
111 243
124 240
128 236
122 238
123 239
120 241
123 242
125 236
125 234
119 242
113 239
122 232
124 231
118 236
123 235
125 243
125 241
119 246
119 244
119 247
104 248
112 246
115 244
118 241
114 244
116 246
118 244
116 244
119 238
121 238
111 241
111 245
120 242
123 238
125 234
128 232
130 231
125 235
126 234
124 236
132 231
125 231
120 231
121 234
130 233
123 240
109 248
110 252
107 258
104 261
105 257
116 249
111 252
110 249
118 239
120 242
120 240
121 241
120 242
123 237
127 231
130 231
131 227
126 229
124 228
129 230
127 230
119 234
113 237
113 236
120 237
121 238
115 240
124 237
130 229
132 221
125 227
134 226
124 231
123 234
120 234
128 235
127 234
126 229
131 227
128 231
121 237
117 241
126 233
129 234
131 229
122 231
130 229
132 227
132 232
126 231
129 224
128 225
126 229
134 224
127 224
120 235
125 239
122 242
124 239
121 242
126 244
118 245
111 242
109 243
117 240
132 231
132 229
140 229
131 235
124 232
125 232
118 230
107 236
103 241
110 241
121 241
111 249
115 248
119 243
113 247
115 237
131 228
125 233
136 230
134 231
124 232
124 231
117 238
129 233
131 226
131 221
135 222
139 222
130 226
128 220
131 220
136 213
137 217
132 218
137 217
137 226
139 221
126 222
122 223
115 229
113 229
116 237
118 239
119 236
118 235
125 237
136 231
136 228
132 224
133 222
132 221
146 210
139 213
143 213
152 211
144 215
134 218
130 217
136 220
130 223
123 225
118 229
125 230
118 236
119 237
120 236
120 239
115 245
114 250
111 249
117 246
107 250
112 245
110 248
113 249
117 245
120 243
116 243
113 245
117 244
122 238
126 236
121 234
121 234
120 239
109 249
119 242
123 240
124 241
122 244
127 246
116 244
116 244
114 243
114 244
122 241
123 240
114 241
123 243
121 241
122 236
119 241
119 243
110 250
111 250
105 254
104 260
105 260
96 261
111 256
108 253
114 248
113 250
127 243
130 240
124 235
126 234
123 235
130 235
123 239
114 241
103 243
114 242
109 253
114 247
120 243
123 242
133 236
126 239
127 239
128 238
117 244
112 247
112 242
117 241
115 247
120 244
117 243
118 239
123 243
112 241
114 236
118 235
118 236
120 241
131 234
132 227
132 225
129 228
130 233
131 232
124 236
118 238
121 236
115 241
119 246
124 246
129 241
119 239
115 240
123 230
123 232
119 235
110 243
116 238
130 233
122 234
134 229
127 228
125 226
118 229
125 228
135 225
133 229
134 230
129 230
128 226
127 228
128 227
137 224
131 228
134 225
132 224
122 232
120 236
119 243
113 244
107 249
107 252
120 245
117 249
100 258
103 261
108 256
107 251
108 251
112 249
117 246
119 237
123 241
119 239
120 237
114 236
118 243
117 245
128 243
116 248
120 244
115 246
118 244
120 251
119 251
120 248
123 246
115 251
119 244
114 249
103 255
102 256
99 263
96 269
96 274
101 267
106 261
98 264
99 265
96 265
99 259
103 257
105 253
106 255
107 253
109 251
107 255
109 256
104 258
100 260
106 255
116 246
112 249
126 245
121 242
117 242
111 241
114 237
115 239
117 238
116 235
126 232
123 240
129 234
120 240
131 236
120 237
124 237
128 232
137 225
142 227
130 230
127 232
132 235
122 234
120 233
115 233
108 239
124 232
127 231
129 229
118 234
116 233
122 232
123 235
121 240
124 238
127 237
143 230
148 225
147 223
133 225
138 220
128 229
125 231
126 229
130 230
119 233
122 234
123 236
124 238
122 244
117 241
118 237
115 238
119 241
121 241
120 240
122 238
123 237
121 238
123 233
129 233
117 242
123 236
119 237
124 237
135 231
131 233
122 242
118 237
113 238
112 239
121 236
122 231
121 232
124 235
126 232
120 238
120 235
126 236
124 238
128 234
128 233
130 231
135 225
133 226
139 223
145 217
144 217
129 219
133 221
142 217
143 221
134 229
137 227
135 229
128 231
118 237
117 238
107 239
114 242
117 242
124 233
118 238
117 234
118 237
128 231
131 229
142 226
131 228
127 230
130 232
132 234
133 235
125 234
124 233
113 236
110 239
109 243
118 241
123 244
116 247
114 245
111 242
116 237
116 235
129 236
127 239
127 235
131 233
126 238
117 240
123 233
120 237
120 237
126 234
121 234
125 234
136 231
122 237
126 230
127 232
123 234
125 232
126 234
123 235
114 244
116 243
110 246
107 252
111 241
114 238
123 236
123 235
118 239
127 239
125 242
130 237
130 234
129 231
130 236
119 234
114 229
129 222
126 219
119 227
128 229
125 229
133 223
134 224
136 224
132 228
139 231
137 227
134 232
118 237
124 230
133 224
130 224
125 226
137 228
141 222
134 228
129 229
120 238
114 245
109 248
103 254
106 255
112 259
106 261
106 259
100 258
103 253
104 252
107 251
107 252
111 250
119 246
125 242
120 242
112 246
108 248
116 241
119 239
120 240
116 247
114 248
115 251
100 259
97 259
106 260
102 263
103 258
99 261
109 252
106 257
103 255
109 251
110 250
116 245
126 239
123 235
120 237
129 235
128 231
124 229
132 224
117 232
117 235
120 236
116 240
119 241
131 235
129 237
131 236
131 235
117 234
129 231
132 230
126 228
126 227
125 231
121 230
120 232
123 229
127 233
119 234
114 233
120 237
119 236
125 232
134 227
136 222
130 233
130 231
135 222
122 227
137 217
142 219
146 219
145 219
147 217
141 216
141 217
132 218
121 228
119 233
127 237
128 232
119 232
113 240
110 245
118 244
114 241
126 234
123 239
121 243
118 243
120 243
125 240
118 244
117 240
119 238
120 239
122 237
124 240
120 241
111 245
118 245
113 245
125 238
116 244
112 247
122 237
124 237
127 233
125 231
128 237
121 236
135 227
120 232
131 230
143 227
135 233
124 240
112 245
107 246
110 245
118 242
117 240
114 245
127 237
121 237
122 238
115 242
122 238
126 237
117 239
121 239
130 236
118 239
113 245
123 240
120 233
143 218
145 213
136 219
131 223
131 223
141 217
131 219
133 218
137 218
135 223
126 227
125 232
110 235
126 234
116 241
114 246
120 244
117 247
115 250
116 243
131 232
126 233
124 233
119 238
114 241
109 246
112 243
120 236
122 236
120 235
130 230
122 225
135 228
123 229
123 234
124 233
127 233
127 231
131 234
118 238
124 229
135 228
126 232
110 240
117 242
115 245
112 248
113 253
112 247
107 247
107 251
121 245
116 249
108 253
102 255
109 247
110 248
108 247
112 247
117 244
117 241
125 235
128 234
115 235
114 237
120 236
123 236
122 233
126 232
133 221
130 225
133 229
131 225
123 231
122 235
126 233
122 238
127 236
116 241
124 238
122 239
125 237
123 238
126 238
117 246
120 236
129 238
126 233
122 234
118 231
114 234
116 234
119 234
121 226
134 223
129 228
122 229
136 223
137 224
127 232
131 225
127 234
118 238
121 231
130 235
114 240
103 246
110 242
120 235
125 229
116 233
122 231
127 233
135 231
126 235
126 235
121 236
122 239
128 233
122 239
123 240
107 246
113 246
118 243
113 247
121 240
116 242
108 244
109 248
112 244
113 245
114 249
122 247
118 246
113 239
114 239
113 240
113 241
124 241
124 239
120 237
125 240
132 234
130 233
125 238
119 238
122 230
124 236
122 240
123 235
123 237
125 240
118 242
121 243
119 244
111 244
119 239
132 231
133 232
132 228
126 232
131 229
126 230
137 228
129 230
128 227
121 230
125 234
125 234
127 239
134 230
120 232
122 229
130 226
126 227
129 229
127 233
115 241
125 240
112 245
118 244
118 245
131 240
121 246
128 239
125 237
123 243
117 245
114 246
113 246
103 251
106 255
107 255
104 261
106 259
115 252
108 254
112 248
117 248
109 251
109 250
112 245
118 242
113 246
121 242
120 241
118 246
117 240
123 236
119 233
126 231
121 237
120 236
115 236
116 242
115 239
114 247
112 247
117 246
110 246
114 244
127 236
129 228
139 228
135 229
137 228
140 227
124 232
128 236
123 235
126 236
121 238
112 241
112 244
124 235
127 229
121 235
118 231
114 232
124 231
128 236
136 232
126 235
121 234
123 234
123 234
125 236
130 235
126 235
126 236
123 233
127 225
126 228
117 230
120 231
133 231
131 235
124 237
131 229
130 227
130 232
121 237
120 238
123 236
121 241
118 240
110 249
114 245
120 240
124 239
131 232
125 235
131 233
124 241
130 238
127 237
129 231
129 227
130 227
125 227
118 231
117 238
118 236
122 234
118 239
119 241
116 246
116 246
117 242
112 246
110 249
118 242
123 238
121 246
122 248
118 246
112 249
113 249
122 242
117 245
123 238
123 240
123 238
120 241
113 248
108 251
111 246
120 240
129 232
128 237
128 235
128 231
126 231
127 229
134 227
129 228
135 222
143 218
142 216
143 218
137 218
137 219
133 216
145 213
141 219
140 214
140 219
137 222
131 226
140 231
130 232
131 228
131 232
121 236
128 232
113 237
120 231
116 234
126 230
127 226
136 216
138 218
137 219
132 220
140 218
130 225
131 225
125 225
116 232
119 238
120 236
113 239
115 244
118 244
108 251
115 246
108 248
122 245
129 239
130 236
120 237
115 243
123 240
129 234
120 234
129 229
125 227
127 229
132 231
123 234
130 233
125 240
129 232
130 231
134 227
140 223
131 221
135 225
123 229
133 223
127 226
135 222
138 222
144 216
141 219
146 212
143 223
136 222
132 220
131 216
141 216
129 223
130 225
134 231
122 236
112 239
118 234
117 234
116 237
126 234
121 234
117 240
116 240
124 238
131 234
123 238
133 231
129 230
129 232
131 232
118 238
115 234
124 239
125 244
119 243
115 239
118 237
114 241
114 245
118 248
114 250
119 248
119 247
109 246
128 236
125 239
119 239
113 242
113 241
113 240
119 240
126 235
115 238
111 240
110 243
114 241
108 245
112 240
113 240
122 237
125 237
123 234
127 234
131 238
125 235
122 236
121 232
134 231
132 230
125 235
129 235
125 238
121 235
125 232
111 236
120 232
110 236
119 232
124 233
113 234
132 229
136 229
145 224
144 223
143 226
132 227
118 228
121 232
128 231
129 231
124 230
118 236
113 242
119 248
126 239
124 237
126 241
119 244
121 241
111 247
118 237
123 236
128 230
139 227
140 224
139 225
133 228
128 229
125 232
129 233
115 236
122 232
122 230
117 235
125 233
122 241
124 239
120 240
120 240
128 235
115 241
107 247
117 247
117 251
119 253
116 250
107 252
108 249
115 250
121 248
113 252
103 257
103 255
93 260
94 261
91 262
106 253
97 259
108 249
118 243
126 241
121 241
110 246
118 244
110 247
116 243
128 242
126 241
131 236
130 234
135 231
136 231
128 230
137 225
128 228
129 229
134 228
130 225
128 223
128 226
129 227
122 227
120 230
125 230
116 236
117 238
124 233
128 230
128 236
132 239
123 237
120 232
123 229
123 228
136 221
123 230
126 229
122 229
125 227
121 231
124 225
121 224
125 224
136 224
138 223
136 219
139 218
128 226
141 218
137 222
133 227
132 224
140 224
127 236
125 237
121 239
119 241
113 245
117 243
111 250
114 249
107 253
107 253
110 250
117 244
127 244
117 245
126 236
119 238
124 241
117 249
117 250
118 241
123 240
120 242
114 242
111 241
110 242
112 240
116 239
108 248
108 243
117 243
121 243
126 240
116 241
115 239
109 248
116 246
120 246
113 242
122 244
123 239
123 238
108 245
117 246
118 248
112 245
110 252
114 251
114 247
108 245
106 252
118 241
119 248
123 246
128 243
130 242
127 238
127 234
128 233
129 233
122 236
116 239
122 239
121 234
121 231
126 229
123 230
120 232
113 242
115 241
122 240
121 243
126 242
119 247
118 245
123 241
125 237
127 232
125 236
140 227
136 223
127 216
128 217
133 219
123 224
128 224
133 217
131 222
133 225
136 226
133 230
132 228
130 224
134 222
131 223
126 226
127 224
132 230
124 233
129 229
126 232
119 236
119 236
124 235
121 238
121 238
120 232
131 227
128 227
129 225
133 223
134 225
136 228
125 233
122 238
117 241
115 243
113 251
110 253
111 250
110 249
114 245
103 249
106 245
115 242
119 241
122 236
120 235
125 233
123 234
130 230
129 228
133 223
126 228
135 221
134 218
135 212
134 216
140 212
147 212
140 214
136 218
131 222
133 221
123 230
136 226
133 224
119 236
124 239
124 244
119 245
119 245
121 246
114 244
112 250
107 250
112 250
117 246
111 242
120 239
129 236
117 236
106 242
114 244
124 235
114 246
115 243
120 245
119 249
119 248
117 250
116 251
114 249
113 251
118 249
113 249
107 253
111 247
117 246
122 240
109 240
113 243
116 247
117 242
106 245
112 244
119 247
110 251
114 252
124 245
123 240
121 239
120 238
126 236
132 229
133 227
131 228
138 226
128 227
127 228
122 231
114 235
128 230
126 235
125 232
120 234
138 224
141 224
129 231
131 229
141 224
124 232
121 239
125 234
128 234
131 229
130 228
132 224
133 224
127 229
126 231
