Actives Prisoners
0 0
262 9
258 24
244 37
239 56
222 71
223 84
205 102
194 112
186 118
181 129
164 140
168 148
149 159
148 162
146 167
141 173
131 175
134 175
133 176
136 178
141 176
144 178
136 181
134 178
137 177
138 181
134 188
131 189
133 187
137 188
129 187
134 185
132 182
140 176
129 181
141 177
132 176
146 170
140 171
141 172
153 173
157 178
150 174
142 180
138 177
137 180
131 180
135 180
135 182
137 181
134 182
137 179
137 183
140 183
136 186
130 188
130 189
132 187
151 180
135 188
144 185
132 190
133 184
134 179
131 183
142 177
144 174
143 175
147 175
146 179
138 181
143 177
144 171
141 177
143 178
137 180
147 176
147 179
152 170
152 170
152 170
150 163
145 168
137 178
138 184
123 191
129 190
135 184
143 184
144 174
142 172
147 172
149 171
148 168
144 170
133 177
143 173
136 179
145 177
137 185
136 188
138 186
141 182
141 185
123 187
134 178
139 176
135 179
132 181
132 183
134 186
146 180
148 174
141 177
145 174
150 173
142 177
149 172
147 167
147 163
152 162
149 168
151 167
156 161
158 163
154 166
159 157
162 154
156 158
165 154
155 161
149 163
144 169
135 172
128 176
142 173
144 173
143 175
154 164
157 165
155 161
157 161
158 156
153 157
148 158
158 152
153 158
146 160
150 163
151 165
141 168
144 169
142 169
154 163
151 169
150 164
146 166
146 167
147 169
142 178
137 183
132 183
128 179
132 179
145 172
143 178
144 177
144 172
149 165
157 161
161 157
155 159
150 163
145 160
139 170
149 171
136 179
143 179
130 185
123 194
136 186
134 188
128 188
127 189
135 186
127 191
133 188
134 190
136 179
140 182
141 179
141 180
132 184
146 178
144 176
136 186
137 179
133 183
131 185
136 187
150 177
143 182
127 183
134 180
138 179
141 178
128 188
133 184
127 179
130 174
137 173
143 171
145 170
135 172
136 165
131 171
134 170
130 175
133 184
134 184
129 191
131 191
132 192
138 185
142 183
142 182
141 182
141 182
151 174
136 176
136 179
132 178
131 175
139 171
137 172
134 176
137 173
141 173
144 171
141 172
140 177
134 174
153 168
156 163
148 168
136 175
144 166
150 165
155 162
156 166
147 164
142 167
143 171
145 174
156 173
148 173
145 174
142 173
142 175
143 181
137 187
134 188
135 189
129 188
134 188
134 192
134 193
130 190
134 192
123 194
125 193
122 189
126 183
121 190
130 185
132 184
134 186
132 185
138 175
140 175
130 180
141 174
138 176
137 178
134 178
137 175
137 178
141 182
145 178
137 173
138 175
142 167
142 169
137 176
133 183
130 186
139 186
143 187
140 186
141 181
130 180
134 179
138 184
134 184
139 179
132 179
134 182
137 183
131 185
131 186
125 189
131 189
133 190
126 197
129 195
139 187
146 180
148 179
137 176
136 169
137 177
144 181
138 182
139 174
143 167
139 171
143 167
147 167
146 172
142 174
141 174
139 174
140 178
138 178
137 175
137 176
147 175
146 176
145 177
144 178
132 185
132 184
149 179
143 182
142 179
145 175
148 171
142 167
135 172
139 180
134 183
133 182
135 185
144 178
151 173
134 180
138 175
148 163
144 169
141 169
152 168
137 175
150 173
140 179
142 175
138 177
143 175
138 179
135 185
140 182
130 183
142 179
138 175
135 175
142 173
141 173
151 170
146 172
148 170
146 164
149 159
149 155
149 157
146 155
152 154
148 163
145 163
153 163
143 167
147 165
143 168
143 169
147 167
141 161
148 167
153 163
152 164
156 162
161 162
155 165
141 170
148 167
149 170
140 176
153 167
143 171
147 169
148 171
155 162
158 160
156 161
149 163
146 163
146 165
149 171
154 166
147 170
148 168
140 177
136 181
132 187
132 185
124 185
132 184
141 180
145 177
139 178
128 184
130 188
125 181
131 185
127 192
130 191
129 188
119 195
126 192
126 193
115 198
132 192
130 199
138 193
130 188
134 188
134 186
135 185
139 191
146 184
133 189
135 187
127 190
123 195
135 187
125 194
124 191
126 181
139 178
136 178
139 174
132 183
125 187
130 185
137 185
140 180
146 178
154 175
153 172
148 170
150 169
147 174
153 176
148 172
139 173
138 173
148 167
139 167
143 166
138 176
130 180
135 180
128 178
136 178
128 185
136 183
127 182
144 175
140 182
140 188
151 175
145 176
139 181
140 176
139 178
143 174
145 174
138 178
142 177
140 176
144 171
140 173
145 171
134 174
146 176
142 175
140 181
138 178
138 182
132 182
142 178
155 170
155 169
148 172
147 167
144 166
145 170
138 178
136 179
139 183
123 189
119 185
129 188
128 189
130 187
135 186
135 183
133 181
140 178
139 179
136 183
141 178
134 184
138 177
145 174
145 177
150 176
140 175
145 173
133 175
133 178
137 177
144 182
139 184
141 187
135 187
146 175
144 173
143 169
148 168
139 174
135 171
142 177
141 176
137 176
146 171
145 170
140 175
143 176
133 177
125 184
124 186
126 186
125 192
132 184
133 180
146 178
150 177
149 174
153 174
142 178
142 173
146 172
154 168
157 171
144 170
132 177
132 180
133 184
136 179
128 185
128 182
128 187
126 186
133 184
135 186
130 186
137 183
134 186
140 185
133 186
127 190
128 190
140 184
136 181
144 175
146 172
154 167
154 164
153 167
150 166
151 163
151 163
139 169
144 169
151 170
133 176
135 170
141 166
145 164
152 165
153 167
145 171
150 166
144 172
147 172
140 169
144 165
138 171
137 177
135 182
137 179
133 182
135 181
137 182
132 185
128 189
131 186
130 186
131 186
137 183
134 180
134 181
140 179
141 179
140 178
133 183
137 174
146 166
155 160
149 167
152 164
153 166
152 160
139 169
140 173
142 178
144 178
148 175
151 175
152 171
150 167
150 170
153 167
153 164
141 163
142 162
149 170
139 173
143 169
134 174
144 172
138 174
133 176
135 175
139 176
140 170
146 166
158 164
151 164
141 176
147 173
145 172
142 169
142 168
158 159
161 157
159 156
151 161
143 164
146 168
148 167
144 169
134 173
141 172
137 174
148 169
155 166
150 166
139 170
142 172
142 172
136 179
135 179
141 172
141 170
142 174
137 173
140 174
137 171
148 171
144 171
143 168
136 168
131 172
127 174
132 170
147 167
150 166
148 166
147 167
140 171
138 176
145 182
145 181
140 185
148 183
144 185
139 186
146 183
145 179
140 181
142 173
128 178
132 180
127 188
128 191
132 190
142 186
139 183
137 181
148 171
147 177
143 178
138 183
140 177
138 174
148 171
154 169
154 166
150 171
149 169
144 169
145 174
145 171
142 169
135 167
137 165
137 165
138 168
150 165
149 169
152 165
139 173
140 180
134 188
143 181
140 178
139 181
136 187
135 189
138 185
135 181
129 185
131 187
134 188
127 193
135 188
125 190
135 187
132 186
140 177
134 179
140 176
140 175
135 178
130 182
134 181
133 181
140 183
142 179
144 178
144 173
148 166
152 166
139 172
145 175
142 178
135 176
143 174
139 176
138 174
143 175
142 176
150 174
151 175
143 174
140 176
134 183
133 185
127 192
126 194
121 196
139 187
139 185
136 181
133 185
133 187
135 189
129 190
125 194
125 193
137 183
140 171
140 175
148 176
146 179
134 183
143 173
144 174
141 177
140 184
142 180
145 174
144 172
150 168
145 167
146 172
137 180
142 181
144 184
140 184
135 187
138 185
137 183
134 187
131 185
126 195
130 192
131 188
130 188
123 193
124 189
137 185
139 186
139 183
146 178
130 182
147 179
147 175
142 179
133 181
130 181
136 184
139 186
128 181
127 183
132 182
137 179
143 173
141 175
136 177
132 177
124 183
122 184
131 186
139 184
144 182
150 172
143 175
139 178
132 182
138 181
138 184
132 184
133 187
134 185
122 185
131 182
124 185
126 185
135 185
123 187
133 187
135 183
135 182
135 184
129 191
137 186
146 177
148 178
138 182
145 180
145 179
142 179
143 178
141 177
145 177
150 172
154 170
150 168
140 166
140 171
128 179
134 177
121 183
129 183
137 179
152 173
144 174
143 172
146 172
147 172
149 171
149 171
149 168
158 162
151 170
154 165
143 171
144 168
135 174
138 180
131 183
129 183
131 184
130 189
130 186
135 182
137 180
142 177
137 176
148 169
146 175
145 172
144 175
137 176
140 177
141 172
145 169
139 169
147 167
144 171
146 171
137 172
142 167
135 169
134 175
125 179
133 182
129 187
131 184
133 181
133 182
130 187
134 185
139 178
138 171
142 171
147 174
153 171
143 177
136 176
139 168
143 166
134 171
142 172
136 177
131 180
133 180
131 182
135 189
143 180
138 179
135 182
125 188
128 187
132 187
133 185
136 183
141 178
156 167
154 162
144 161
152 160
144 161
144 167
146 170
158 161
161 158
163 158
162 156
167 156
153 157
151 152
146 158
148 163
148 160
151 161
153 164
150 166
137 171
121 178
130 182
135 183
139 181
129 189
134 180
140 175
136 176
146 170
144 169
149 171
152 170
151 171
150 172
144 173
133 176
132 182
133 183
129 183
127 184
134 176
146 172
144 168
139 175
140 175
145 172
139 168
139 170
140 171
138 177
144 176
158 169
148 174
152 173
158 164
155 165
150 169
143 179
137 178
134 178
129 179
136 177
136 177
143 171
140 169
144 167
128 175
139 174
132 175
133 173
141 172
140 169
148 173
148 176
152 171
157 171
163 163
151 167
152 166
157 166
147 172
136 177
139 180
140 176
136 178
130 184
129 188
133 189
126 192
125 193
124 187
123 191
130 190
131 194
141 189
130 188
135 188
127 189
133 187
137 182
146 178
140 180
129 182
133 173
124 179
118 190
123 191
129 192
132 188
144 186
139 189
133 191
129 187
133 184
127 191
124 186
133 182
133 184
128 185
127 189
128 185
131 187
135 189
130 183
128 187
131 191
132 188
135 186
150 177
150 177
147 179
141 185
140 185
138 190
134 187
137 183
127 190
127 197
128 191
134 186
133 181
125 183
133 182
130 183
143 177
139 181
142 183
136 189
137 186
128 189
123 187
135 179
143 179
138 181
135 185
132 190
129 187
133 186
139 182
139 182
133 184
128 187
131 184
136 182
138 176
146 173
141 174
148 169
151 167
138 176
140 178
143 181
141 185
134 186
137 185
126 192
116 200
125 196
125 193
129 193
126 196
119 192
109 197
121 194
125 195
125 194
136 184
137 184
146 176
151 174
152 171
153 164
147 164
147 167
149 170
152 167
148 169
148 170
143 174
139 177
139 174
133 176
135 176
134 182
127 183
135 179
135 184
135 180
135 179
136 180
142 179
139 180
129 187
135 185
140 177
139 179
136 179
139 179
142 177
147 177
142 175
144 175
139 175
138 171
130 176
146 175
137 174
119 183
148 168
150 166
146 171
142 167
139 174
144 176
150 175
148 171
154 164
150 165
146 167
138 172
135 174
125 179
135 179
134 181
129 183
129 185
132 180
133 183
128 189
136 181
134 185
139 185
143 185
137 181
136 182
131 186
121 191
137 186
146 179
147 176
143 175
136 179
140 170
134 174
123 184
128 186
132 186
132 184
132 191
136 188
121 191
127 189
132 186
126 186
130 181
138 182
138 177
141 172
145 173
147 174
144 176
143 178
135 178
147 173
145 171
145 171
136 179
137 181
140 181
138 178
131 183
140 182
131 187
133 188
135 192
129 192
131 194
130 195
132 193
125 190
129 188
136 183
136 185
143 181
143 175
129 179
138 174
149 165
155 167
141 174
129 183
148 171
140 179
139 175
142 173
134 176
129 180
128 178
122 188
128 189
129 188
135 184
135 183
136 182
138 179
139 172
132 178
141 179
143 177
144 177
131 185
137 181
142 181
141 181
139 183
139 187
141 178
147 174
142 179
132 180
136 181
141 183
141 175
139 183
148 178
137 183
134 183
128 188
114 190
124 188
123 189
131 183
133 184
143 177
149 172
142 172
150 166
156 162
158 164
158 161
152 163
156 161
162 158
159 163
155 168
147 168
143 167
144 170
144 175
141 177
141 178
138 174
136 178
144 174
148 173
151 168
156 160
155 161
158 161
160 162
151 168
151 168
155 168
148 173
149 175
147 176
142 177
152 171
148 172
146 168
142 173
133 175
137 171
143 166
149 169
133 173
145 180
146 178
148 180
150 174
145 171
145 173
145 175
150 167
146 171
135 170
142 174
132 185
131 185
123 190
117 190
125 183
128 183
127 188
130 183
127 187
142 172
147 174
158 165
156 164
157 160
154 164
161 163
165 159
159 162
149 168
146 170
144 173
133 179
130 182
130 186
131 181
142 177
134 179
140 176
148 167
146 166
146 168
153 167
149 171
145 170
149 169
144 171
144 176
138 173
146 172
138 174
132 176
125 183
130 184
137 180
136 181
129 188
132 189
130 193
141 188
139 189
132 195
131 188
127 184
128 185
131 182
133 184
132 176
139 180
142 174
139 174
137 173
152 171
153 170
147 173
151 171
147 169
143 168
144 167
140 170
145 173
131 181
138 181
134 186
134 187
139 182
133 182
136 181
141 183
147 180
140 182
134 185
143 179
147 173
150 172
142 178
140 178
135 182
126 189
136 183
133 181
127 182
126 181
139 179
132 183
135 179
147 173
150 167
154 165
156 163
142 171
140 176
139 180
138 176
132 179
128 180
139 185
135 187
134 185
142 172
136 177
130 181
136 180
133 184
128 186
128 185
139 179
135 183
135 182
135 180
130 178
140 175
142 176
143 175
144 176
145 179
147 181
142 178
132 182
139 184
142 180
137 175
131 177
132 180
137 176
144 180
133 183
129 184
121 191
126 190
132 186
135 181
141 180
139 178
144 169
150 165
148 172
137 178
130 181
119 186
129 184
129 185
135 180
146 174
145 172
148 172
137 176
147 172
146 169
146 170
149 170
148 173
144 172
139 176
131 183
134 179
141 179
145 178
142 175
140 172
137 173
140 173
136 180
138 179
149 177
142 176
141 173
132 175
140 174
129 179
135 178
140 178
140 180
133 182
135 183
137 179
139 177
145 176
134 183
133 181
134 187
124 197
129 193
128 189
121 196
123 196
122 194
123 195
121 201
125 195
126 187
128 188
133 189
127 189
136 185
131 187
136 184
152 174
140 172
139 177
131 177
131 180
137 182
131 182
140 178
139 180
143 180
142 175
141 177
145 177
136 182
128 186
137 177
138 172
127 178
137 173
145 167
155 168
154 173
144 181
137 186
133 193
127 194
131 191
138 190
131 187
135 176
135 175
136 180
143 173
136 174
151 168
141 169
148 169
154 168
147 169
142 174
137 180
127 189
122 192
116 194
127 192
139 180
140 179
140 181
136 184
141 180
126 187
133 189
125 191
136 186
132 191
116 198
123 197
127 198
127 194
128 194
131 186
137 173
139 179
143 175
147 176
150 175
144 180
125 188
132 180
133 179
137 182
147 179
137 182
141 179
131 184
135 182
135 181
134 181
144 178
140 184
133 182
136 180
150 177
157 167
153 175
140 177
139 175
127 182
134 177
139 181
132 186
129 188
123 191
131 189
124 187
129 188
123 190
125 189
133 183
133 185
132 182
133 181
133 181
143 173
146 170
152 169
151 168
152 169
145 173
141 173
145 172
141 175
135 179
135 184
132 186
121 196
127 195
126 195
131 192
132 192
142 185
147 176
148 175
154 171
155 171
153 167
156 172
141 169
137 174
136 174
141 170
135 171
134 179
135 175
145 171
148 175
146 172
147 169
154 168
145 169
155 164
157 164
145 171
142 172
138 174
144 177
146 172
139 180
134 182
130 181
128 181
128 182
132 176
140 174
131 182
132 183
141 177
142 175
147 174
141 173
134 178
141 177
140 179
144 174
144 172
143 176
140 172
147 167
147 171
145 169
132 168
135 173
135 170
147 169
137 174
134 179
147 171
136 175
141 179
142 176
143 173
143 176
139 183
137 187
133 190
131 188
133 184
135 177
137 179
140 173
137 177
133 182
128 184
139 175
149 170
144 167
147 176
144 179
142 178
139 175
135 179
139 171
137 172
137 171
138 174
138 173
144 172
141 173
135 174
150 165
149 165
148 167
158 158
157 163
154 168
147 172
142 176
154 171
159 166
146 174
138 178
140 179
141 172
145 169
138 170
143 174
147 176
141 175
136 180
134 184
133 185
130 192
128 188
139 188
142 186
138 186
137 185
128 188
130 184
133 187
120 190
121 193
124 193
132 185
137 182
142 180
137 177
142 175
139 175
146 171
140 176
135 177
136 184
142 179
147 176
152 172
149 176
137 182
137 185
128 185
129 185
139 184
138 179
143 180
139 181
143 177
138 186
131 181
129 183
133 182
132 188
122 196
117 196
118 204
126 197
126 188
123 191
124 186
124 183
131 182
130 184
145 178
141 180
136 176
141 181
146 182
146 180
144 177
161 163
155 168
147 165
147 163
154 159
152 164
158 160
146 158
145 161
146 159
148 161
141 166
142 164
137 171
144 170
139 172
147 173
144 176
146 174
135 181
135 187
137 185
139 187
132 187
132 186
126 191
125 190
127 190
132 184
150 173
147 169
147 167
149 168
154 166
152 166
152 164
144 166
146 168
139 173
148 166
142 172
149 172
136 178
133 183
140 177
133 179
141 171
143 169
136 177
144 176
140 174
141 174
137 176
144 174
149 168
143 175
142 173
154 164
159 164
147 173
129 177
134 173
150 165
152 165
144 167
144 169
147 168
155 168
146 169
148 169
142 166
143 163
139 164
148 165
146 164
134 164
141 167
126 171
130 171
139 170
139 174
137 180
145 182
141 184
128 189
132 191
138 187
132 187
140 189
139 191
145 184
144 185
142 181
131 188
130 189
129 187
132 180
135 179
142 176
140 175
144 176
147 179
135 183
131 182
137 178
154 170
139 181
139 179
132 181
133 182
144 176
137 177
141 176
135 181
128 184
133 183
140 179
138 180
143 174
151 171
147 168
145 168
142 173
143 173
148 171
148 172
139 172
142 172
139 173
133 175
134 180
132 181
127 183
137 180
148 178
143 180
134 184
152 174
140 179
139 179
129 179
141 176
142 173
137 177
139 174
154 168
150 176
141 177
136 178
133 181
139 176
141 179
145 184
137 183
132 182
134 181
135 178
141 178
127 189
131 188
131 187
127 185
126 183
139 176
139 181
130 181
137 180
140 178
146 178
147 180
135 186
129 187
133 183
132 184
133 181
137 179
142 171
137 176
138 176
139 176
138 181
130 178
132 185
134 185
139 183
130 190
139 187
134 185
147 174
141 174
139 179
142 177
145 175
144 173
145 170
148 173
138 180
137 184
139 182
135 185
138 185
132 187
133 184
138 177
147 167
144 171
147 167
152 169
146 170
136 177
143 174
135 181
139 176
142 171
140 170
139 171
144 174
150 169
139 166
139 171
146 172
148 172
143 171
143 163
147 168
146 175
143 175
136 175
128 183
141 172
132 178
142 176
132 179
137 180
137 178
126 186
134 186
134 189
136 185
130 192
140 190
144 182
139 183
132 183
133 187
136 184
130 184
128 184
133 179
146 179
138 182
145 175
135 179
132 179
131 184
133 190
134 190
131 189
134 185
134 191
125 192
133 190
134 187
135 179
141 177
143 174
141 173
146 175
136 180
147 172
146 171
146 171
132 174
140 168
128 171
140 170
144 170
146 165
150 165
154 167
149 166
148 167
146 170
145 172
147 171
144 167
145 167
145 172
148 166
137 176
143 172
136 178
131 182
146 178
148 172
138 183
132 191
136 188
135 185
132 185
130 185
133 180
125 180
140 176
131 182
142 180
144 182
138 183
139 181
134 184
143 179
148 172
151 173
152 170
163 162
162 162
154 163
151 160
141 169
142 168
134 173
132 182
133 181
136 183
135 184
136 184
132 188
138 183
130 191
140 185
143 184
144 183
128 187
124 182
133 182
132 183
144 173
148 173
148 170
147 171
153 164
142 169
131 176
136 176
145 171
145 172
139 173
133 182
137 181
146 178
140 184
138 187
150 177
151 178
146 179
156 174
153 173
134 184
133 180
126 184
128 189
135 185
139 183
126 191
129 197
121 198
123 196
124 194
133 189
123 190
133 186
127 189
134 187
137 181
139 178
132 181
128 186
134 183
138 183
131 187
127 188
131 191
137 184
136 181
134 179
132 181
135 181
141 176
130 175
142 175
144 179
136 184
142 181
152 173
147 173
140 180
151 173
143 173
131 177
125 181
127 175
126 183
140 180
147 172
141 174
142 178
152 177
147 177
155 171
137 174
142 170
148 172
128 178
138 173
138 173
148 169
148 171
141 177
145 175
139 173
141 174
146 172
146 174
143 172
133 178
130 182
135 182
138 184
137 184
139 183
142 179
136 186
135 185
129 185
127 181
126 178
133 180
126 188
123 188
128 191
133 183
122 188
132 181
133 181
140 180
144 182
154 171
146 174
148 174
147 172
142 177
139 182
141 179
132 175
134 177
136 175
136 179
140 178
137 184
137 184
136 186
124 190
120 191
130 190
128 188
128 191
119 199
128 197
129 194
132 194
135 191
133 197
123 201
127 189
128 191
128 191
127 193
132 187
143 184
140 186
139 186
147 173
147 171
145 173
143 177
135 179
140 174
138 176
132 179
142 179
136 185
137 185
134 187
131 184
129 183
134 181
129 182
131 189
133 189
134 186
132 184
135 183
139 180
130 179
132 185
132 187
131 182
146 172
157 169
148 174
152 168
152 168
138 172
144 170
148 174
144 176
138 182
134 185
143 186
132 186
119 191
121 185
134 179
130 186
138 177
137 180
143 177
139 175
126 185
131 182
130 188
135 189
147 183
139 184
136 187
135 187
125 187
128 185
126 188
126 185
131 185
133 186
132 183
136 183
141 184
151 177
147 175
149 170
146 172
144 169
142 164
137 163
139 166
145 169
143 169
160 161
155 170
147 175
143 177
136 178
144 174
148 170
151 165
145 167
144 167
156 166
150 173
151 168
146 167
152 172
149 172
142 175
133 180
127 180
127 185
128 191
133 184
129 186
144 181
140 180
134 182
131 186
132 186
121 194
135 190
127 187
125 191
123 194
125 193
122 196
131 191
140 186
134 185
130 186
136 179
142 174
138 174
139 174
128 179
139 174
149 169
146 168
146 166
142 167
144 172
151 171
150 167
159 160
168 157
154 161
149 164
144 168
141 167
149 169
141 174
145 172
150 169
148 171
153 174
144 179
132 182
140 182
133 184
135 183
134 182
148 173
148 170
148 167
147 168
140 173
145 170
141 169
145 170
143 173
147 161
144 166
139 170
139 176
139 179
139 179
134 179
135 175
127 179
140 175
144 174
146 175
142 173
142 169
143 168
146 173
145 167
141 171
137 171
129 174
141 173
142 176
143 178
151 179
146 180
146 173
136 176
135 177
143 178
139 174
136 182
133 183
144 182
133 182
136 184
123 190
129 186
134 184
142 180
146 175
150 170
153 169
148 169
145 169
142 171
139 166
141 170
134 178
125 184
123 184
126 182
128 184
133 177
137 172
149 172
142 170
141 176
138 179
135 182
142 174
139 171
139 172
141 167
150 170
146 172
155 172
144 174
148 171
133 179
145 174
147 176
139 181
149 177
141 180
131 184
137 176
137 179
131 184
131 183
137 178
147 177
137 180
133 179
137 178
148 176
144 179
138 175
144 171
150 170
155 164
154 169
140 177
141 177
141 178
144 175
143 175
137 177
149 172
138 177
139 179
136 182
140 177
136 177
143 171
133 181
135 183
130 184
129 184
129 180
130 181
144 174
146 174
138 174
156 164
144 170
152 165
132 173
134 178
131 178
136 176
138 178
141 178
142 174
143 175
144 179
138 180
130 179
131 180
129 185
132 186
121 191
133 182
145 178
143 179
142 177
139 178
135 185
133 185
136 185
135 188
130 186
134 186
132 185
142 179
141 177
140 177
133 184
136 182
127 189
129 191
125 193
126 189
133 188
141 183
130 184
137 184
144 181
137 187
140 183
142 182
131 183
134 179
137 180
130 182
133 180
134 180
140 175
138 175
148 174
143 179
138 181
143 177
149 172
144 171
146 166
143 168
134 176
141 175
133 182
135 184
129 185
137 184
138 184
132 186
142 180
143 177
151 172
154 172
149 169
151 167
154 164
153 163
147 168
149 165
139 172
129 177
130 181
143 178
133 185
142 184
135 187
135 186
142 175
139 174
138 174
142 174
132 176
144 175
146 181
145 181
136 183
133 188
127 192
124 197
124 198
124 193
131 192
123 199
122 200
124 201
120 203
120 202
132 193
134 190
143 185
138 185
139 187
132 187
133 182
140 180
145 179
147 179
135 185
131 186
132 183
135 185
137 184
143 181
145 174
149 169
146 172
156 168
152 166
136 172
146 165
152 168
149 168
150 171
144 172
148 171
145 169
141 161
150 161
145 168
150 167
146 172
145 170
144 171
142 172
143 170
154 167
158 167
150 174
152 173
148 177
149 175
151 174
149 172
142 174
136 180
126 187
133 188
134 187
138 184
133 183
134 188
131 186
128 188
129 194
123 197
126 195
132 189
136 191
138 187
133 188
137 188
142 185
135 187
131 188
131 188
133 186
135 182
137 179
143 178
134 187
129 190
140 188
133 191
129 190
123 198
115 196
117 190
128 185
133 182
136 183
134 181
139 181
140 175
147 168
143 166
149 168
154 158
158 158
148 163
146 160
158 156
158 157
155 163
154 167
153 168
155 164
153 159
153 158
154 155
150 160
144 164
148 166
152 173
144 177
143 176
146 177
143 177
150 173
151 171
143 175
135 178
141 175
134 181
138 187
141 184
139 182
134 183
141 178
137 178
132 183
129 179
126 181
126 178
129 178
127 185
130 183
131 184
136 179
131 182
131 179
140 174
154 167
158 160
163 154
157 152
156 157
145 161
144 164
148 161
150 163
142 172
144 173
138 176
136 179
152 172
151 169
141 172
134 180
131 181
136 173
139 174
146 167
143 170
141 174
145 171
144 169
147 165
146 172
145 175
135 174
127 182
124 184
129 188
139 184
138 185
135 189
135 185
139 180
139 180
142 179
142 178
142 175
136 179
143 180
139 182
145 175
148 174
148 169
150 170
147 172
144 175
153 165
143 171
141 171
139 169
140 173
144 168
145 169
145 173
142 174
136 177
138 178
132 184
139 184
125 192
131 192
126 194
130 193
129 191
122 192
124 195
130 181
135 177
129 179
126 182
135 178
138 176
143 175
148 173
149 169
155 165
142 175
140 174
134 178
132 176
140 174
141 177
142 177
146 180
139 183
147 179
145 175
147 172
153 171
135 175
133 179
134 179
139 180
139 179
143 180
135 183
137 180
137 181
144 172
143 173
138 176
129 182
138 175
141 176
145 177
144 177
146 180
142 181
141 175
133 179
133 181
146 174
134 181
143 173
147 171
145 176
144 177
140 176
141 179
147 174
144 173
136 169
149 168
136 178
138 174
132 176
138 172
138 175
135 172
139 179
140 177
150 168
146 176
152 174
154 174
156 170
147 170
144 171
142 181
144 180
142 182
148 176
144 171
138 172
125 176
127 172
140 165
142 166
135 167
141 169
138 175
138 175
145 169
139 175
145 178
143 177
148 177
138 181
131 184
134 185
135 186
131 180
140 173
137 172
140 170
137 172
140 175
134 186
128 181
125 190
129 188
128 188
137 189
133 186
139 187
139 184
147 176
137 183
148 177
164 173
150 172
149 174
150 172
145 169
143 167
136 172
138 171
136 174
138 183
134 181
126 187
125 186
139 186
140 182
135 185
142 180
139 178
138 179
143 175
136 178
127 184
132 187
137 184
125 185
142 178
141 180
134 180
133 182
135 180
133 178
142 178
148 171
142 167
139 170
149 172
150 175
139 174
137 183
134 189
132 187
131 186
126 187
126 188
132 185
127 188
133 183
129 181
140 178
141 177
139 173
142 175
142 178
142 179
134 185
129 184
140 176
148 170
141 172
155 171
154 168
161 163
153 164
141 172
143 172
150 174
137 179
138 177
132 179
141 177
145 176
151 176
137 177
142 178
148 174
153 170
143 176
141 181
134 184
135 179
144 174
147 174
143 175
140 172
142 175
148 168
146 169
139 168
145 169
143 172
138 175
143 175
142 175
136 175
144 175
133 182
140 180
139 174
141 170
141 172
148 170
147 171
150 170
139 173
142 174
136 173
143 170
134 176
142 170
132 176
134 180
135 175
140 173
142 176
152 165
155 159
152 161
149 159
149 166
150 163
153 160
146 166
149 167
142 169
142 177
155 169
152 169
143 168
136 176
141 175
138 175
134 179
135 183
130 190
135 184
134 187
133 186
134 187
129 191
130 191
128 193
129 195
119 194
129 188
138 181
136 177
145 172
137 175
143 177
133 183
128 188
125 191
125 190
126 188
132 188
131 181
141 177
137 175
135 171
135 170
143 167
144 163
154 155
161 157
149 166
149 165
150 164
149 166
140 172
143 168
148 168
144 173
145 174
149 176
140 177
140 180
136 179
136 183
129 187
137 184
134 189
138 187
129 191
129 190
137 186
133 188
137 182
131 185
129 188
144 177
137 178
136 175
134 176
133 176
134 178
139 179
138 182
142 181
148 177
146 179
137 178
144 175
135 179
145 174
147 171
150 171
142 172
142 169
150 164
148 168
141 167
149 159
143 171
145 173
152 170
159 165
160 161
156 158
144 161
150 161
154 159
167 151
159 155
149 156
144 165
137 170
146 165
134 174
135 174
137 175
129 172
133 172
143 170
151 166
152 165
139 169
136 172
134 179
141 177
147 177
151 173
143 182
137 182
133 179
127 185
135 185
133 181
148 171
143 174
147 166
156 163
145 170
136 173
126 176
134 178
134 183
142 185
142 181
140 181
145 183
136 181
137 179
135 178
136 174
139 175
137 183
144 180
137 184
139 181
133 179
128 185
128 182
138 182
143 179
145 180
139 178
141 176
134 181
134 181
134 180
123 182
137 177
139 178
143 177
143 176
134 178
136 183
130 190
131 192
131 191
147 181
137 184
133 188
133 185
137 181
134 182
132 187
137 180
145 179
149 172
145 170
158 166
161 163
162 159
156 158
155 159
161 155
149 161
157 159
150 163
148 163
153 161
147 167
152 165
158 163
152 166
146 166
144 169
146 170
144 175
137 174
140 171
142 173
147 173
150 170
148 169
139 168
141 168
153 163
156 168
152 171
139 176
139 175
131 176
141 179
144 173
142 174
142 171
134 178
144 175
136 180
135 180
143 176
142 174
139 175
141 177
131 183
125 189
123 190
126 191
130 187
132 187
126 194
127 192
128 193
130 190
128 189
130 190
126 193
130 192
126 190
129 191
133 189
129 193
125 193
118 194
122 190
124 190
133 189
132 180
137 180
146 175
146 174
152 168
154 163
146 167
144 169
151 167
154 163
155 162
148 167
150 164
139 170
141 169
147 167
152 170
147 172
151 166
142 173
143 173
144 176
148 171
149 165
152 168
155 170
139 174
133 178
134 176
131 181
125 185
128 181
125 188
139 185
140 179
149 171
151 169
147 169
145 164
140 169
141 174
142 176
151 170
149 169
148 166
152 160
154 156
156 158
148 163
155 158
163 160
155 166
141 173
130 181
132 179
134 181
132 186
139 179
137 178
135 182
150 171
148 173
138 177
140 173
145 166
145 165
139 168
145 171
137 178
134 184
137 185
140 184
145 182
141 182
138 179
134 178
133 181
132 181
136 180
144 183
136 183
134 186
136 187
129 187
129 186
143 180
141 179
149 175
155 168
148 173
138 175
150 168
140 167
137 171
142 166
139 171
146 169
143 171
141 170
144 170
151 166
140 173
146 169
142 172
141 180
125 189
130 185
131 186
131 189
132 189
138 190
133 190
137 191
131 187
129 189
130 188
130 192
133 194
135 192
128 194
131 189
135 186
128 187
129 189
137 183
132 188
121 192
124 194
130 191
130 191
136 188
132 184
143 175
154 170
152 166
149 172
140 173
132 172
124 177
129 177
131 182
138 183
139 181
132 180
139 180
143 178
139 179
145 176
154 169
144 175
143 175
146 173
158 166
142 172
139 174
143 168
150 167
150 168
142 171
150 167
151 169
148 173
139 181
143 179
139 182
135 181
143 179
142 181
144 184
138 184
131 184
125 187
134 179
137 183
139 183
134 186
143 187
145 181
137 180
136 179
136 179
131 186
135 179
137 171
138 170
142 175
139 181
137 183
139 182
143 179
136 178
134 179
133 183
121 187
114 192
124 190
134 184
130 184
133 181
141 180
140 187
136 194
129 197
126 199
127 198
134 188
133 186
132 181
143 171
145 170
156 161
156 162
147 167
134 178
135 181
140 175
138 177
143 171
140 176
137 180
140 179
149 172
136 174
151 171
142 174
137 176
135 178
141 174
140 175
147 179
141 181
150 179
145 182
140 181
139 178
142 172
132 170
134 173
129 182
136 176
154 174
146 175
148 174
138 178
133 180
132 184
132 185
133 184
133 181
126 183
127 184
133 178
155 171
153 181
142 184
150 171
148 172
138 178
135 178
133 181
130 184
120 186
125 183
130 179
138 174
144 172
147 173
139 178
138 180
138 183
146 175
140 175
143 177
144 176
146 176
132 181
135 183
137 180
138 180
130 188
137 186
120 191
117 195
122 191
121 189
117 198
129 193
136 191
134 193
131 192
131 187
134 187
140 182
140 181
144 177
150 179
144 181
139 180
133 183
135 178
138 169
142 169
139 170
146 174
136 179
137 176
142 176
132 179
138 174
133 181
140 177
150 171
147 175
135 185
136 180
136 176
134 173
129 175
134 177
147 172
150 175
147 173
149 174
146 173
146 171
147 172
143 173
151 170
134 176
147 171
152 168
152 168
144 169
140 170
146 168
147 168
152 166
147 167
150 167
142 169
139 171
154 167
149 167
145 168
144 168
145 172
143 171
148 173
141 170
149 167
146 171
140 171
150 163
155 161
142 169
135 172
141 167
154 164
145 168
142 168
144 172
141 176
141 180
133 184
141 180
138 176
137 176
138 178
134 178
133 184
131 183
142 177
143 178
130 180
129 180
136 177
134 183
140 176
138 180
152 175
161 170
155 174
150 171
152 169
151 173
145 175
140 177
129 181
127 185
114 193
128 185
135 181
133 181
140 182
144 179
150 177
149 178
135 181
135 177
132 174
139 175
142 179
141 178
147 172
152 167
133 172
131 178
128 183
125 187
122 189
139 181
134 189
138 186
144 181
143 182
142 179
149 171
144 175
142 174
140 177
145 169
143 172
141 173
149 170
148 172
143 169
141 173
137 171
143 164
139 165
144 169
138 172
151 172
146 175
140 177
136 183
130 182
141 176
138 186
131 190
135 188
135 183
139 184
142 179
144 172
149 163
165 156
164 155
166 152
160 152
167 154
166 151
157 153
166 151
161 152
160 155
147 159
145 167
136 173
139 171
143 171
141 170
139 172
136 175
132 178
146 167
144 175
151 172
147 174
148 174
145 171
145 168
147 171
145 170
153 164
141 168
139 171
142 167
135 172
145 162
152 157
158 159
161 154
155 161
157 162
155 164
155 160
148 168
140 174
150 176
148 168
147 168
152 163
147 163
154 165
154 169
151 168
137 174
135 177
149 168
135 168
146 169
153 168
150 169
152 163
154 161
146 164
158 153
151 163
132 170
140 170
140 171
145 174
151 175
141 179
134 179
139 177
146 178
144 176
140 177
130 179
142 176
146 170
142 172
143 170
149 168
146 171
148 174
150 171
146 171
149 168
149 165
152 171
151 175
151 171
140 172
141 171
141 170
149 167
139 177
143 169
146 175
144 176
136 182
147 175
145 172
147 171
138 174
146 173
140 168
147 162
143 165
146 165
142 170
144 170
148 168
146 173
132 179
138 177
142 178
141 182
135 184
141 185
133 191
131 189
127 191
135 184
137 180
143 179
149 175
145 177
143 178
146 177
141 182
138 178
135 183
135 185
130 184
138 183
136 186
134 181
123 181
127 181
140 182
151 177
141 180
137 178
130 181
133 179
130 179
134 172
143 170
139 178
145 173
143 178
148 180
145 181
142 183
139 189
130 186
132 185
135 184
129 187
133 190
142 179
145 177
143 178
145 173
146 174
134 182
128 181
129 181
131 187
134 182
140 182
136 184
137 182
140 179
136 173
138 172
146 171
152 171
138 175
141 168
154 163
152 162
151 164
141 170
143 173
141 173
137 177
144 177
151 168
156 165
143 170
142 174
145 169
148 170
143 169
138 175
140 173
148 166
141 166
145 167
141 169
153 163
143 170
132 176
136 175
140 177
147 171
145 172
135 175
144 178
132 184
140 178
138 177
145 179
138 177
134 177
139 174
136 174
141 173
143 170
149 171
139 176
144 173
142 174
147 173
139 175
140 174
137 173
140 177
141 177
132 180
135 177
141 174
133 176
145 165
146 166
140 171
146 175
143 179
136 184
131 186
129 190
134 185
127 188
131 185
137 183
146 179
148 177
143 180
131 187
141 176
133 177
133 182
141 173
147 173
149 167
155 166
145 174
135 183
137 183
133 187
130 189
137 186
129 193
139 188
147 178
141 174
136 175
150 170
142 173
143 178
145 176
135 178
136 173
141 175
143 174
137 175
137 175
137 172
146 174
138 170
138 168
141 171
144 171
142 172
152 162
158 161
149 159
149 163
159 159
144 163
141 165
153 160
153 153
146 160
148 163
145 173
146 174
140 172
136 175
141 174
142 172
142 173
139 176
146 174
147 175
144 176
129 181
129 181
122 188
123 187
130 189
138 182
139 174
142 176
143 179
132 180
134 176
137 174
131 181
121 191
118 191
125 189
132 185
134 182
130 186
130 186
142 185
139 177
141 178
145 173
134 179
131 173
143 170
138 177
137 180
134 184
137 182
133 182
141 176
140 174
136 178
139 173
141 170
145 174
146 174
144 171
140 178
131 177
135 181
135 183
147 174
141 181
128 185
130 185
140 176
135 177
136 176
139 178
141 180
147 177
145 181
144 179
132 180
134 180
132 187
137 182
142 179
143 169
145 164
141 170
153 169
155 171
140 174
141 174
137 179
142 177
144 179
138 181
134 187
137 181
134 181
134 180
130 183
133 179
135 172
149 170
142 168
143 166
152 165
154 168
140 172
145 175
148 178
143 179
138 176
135 174
149 167
143 168
134 172
134 172
148 170
135 173
133 176
141 178
138 178
135 175
145 169
151 167
145 171
165 166
158 165
163 160
153 167
150 169
148 170
137 170
134 170
138 172
131 182
138 187
132 187
134 184
128 186
129 184
137 182
131 185
126 188
128 188
132 186
134 189
137 187
129 187
138 183
143 179
145 174
147 173
142 171
129 172
143 172
137 181
136 179
137 184
132 182
139 174
143 168
145 167
140 171
135 177
132 178
143 169
157 161
150 164
154 162
156 164
154 160
158 155
155 157
161 162
155 164
154 158
149 155
148 162
147 166
155 173
145 174
140 171
141 166
140 169
150 169
145 176
135 182
124 189
122 194
132 193
141 190
140 187
144 181
150 177
144 176
150 174
146 173
141 174
136 176
148 169
148 169
139 174
141 169
137 180
136 181
145 176
133 185
140 180
147 179
135 183
131 183
129 186
139 177
126 181
135 180
130 183
137 185
131 185
145 174
132 178
132 182
146 174
147 173
154 164
156 160
161 164
158 166
153 168
148 163
142 166
139 171
144 169
141 175
142 174
142 174
141 174
136 174
141 175
140 178
145 176
143 173
152 172
150 175
148 176
149 178
138 182
142 178
138 176
136 178
136 178
123 183
128 184
128 193
128 192
129 191
139 184
137 178
135 180
132 174
148 170
147 170
139 176
138 178
139 177
127 178
137 178
143 176
141 178
141 178
134 176
134 180
132 183
137 183
139 183
140 180
137 176
140 173
145 171
141 170
146 171
145 166
152 168
146 170
142 174
139 179
138 178
139 182
127 178
130 183
138 179
141 181
139 179
131 179
141 176
141 178
141 178
139 176
135 178
135 177
132 175
145 170
145 173
143 171
152 168
140 174
135 182
135 182
140 180
135 184
142 182
144 181
133 185
135 180
142 176
139 179
139 176
131 181
149 174
137 181
137 178
130 181
138 179
140 176
139 174
140 171
140 168
136 175
135 180
137 178
137 181
131 185
137 188
131 184
138 183
132 185
131 186
126 183
142 187
135 191
139 187
141 179
141 178
130 181
133 184
129 184
132 182
134 179
143 174
147 172
141 175
148 174
147 173
145 174
144 172
145 172
144 176
142 177
134 181
125 184
133 186
135 184
136 183
137 184
130 181
138 179
132 186
132 183
133 185
137 180
133 178
129 179
136 174
131 174
140 173
150 169
151 169
148 174
146 170
142 177
142 177
140 178
138 178
148 172
150 172
151 170
146 175
142 176
135 177
126 184
137 178
142 174
150 164
149 166
148 168
150 166
144 168
142 176
145 178
142 179
138 184
135 182
126 190
129 190
134 187
139 186
135 192
115 196
121 200
116 207
120 205
120 202
126 191
131 187
128 188
131 189
127 194
126 200
121 192
125 193
123 194
124 193
125 190
124 190
127 191
121 195
128 197
127 191
141 185
133 189
134 185
138 179
146 172
139 177
138 178
143 176
133 175
132 173
147 169
152 169
156 170
154 166
149 175
159 166
144 180
137 185
137 184
126 186
140 179
142 175
133 176
129 174
130 175
134 175
136 177
134 177
143 180
160 175
159 171
157 173
148 177
144 179
145 177
136 173
138 172
134 175
144 173
144 171
138 175
139 173
147 170
150 173
138 180
137 180
134 185
135 181
135 177
139 171
140 173
143 167
147 165
145 165
147 162
148 167
150 163
151 169
148 172
145 174
141 175
139 172
133 178
129 178
148 166
153 161
149 164
149 163
158 159
162 160
153 165
155 162
140 168
140 167
149 168
150 169
155 165
156 162
145 164
145 162
147 163
155 157
141 165
139 165
144 163
152 168
146 170
142 171
141 174
156 172
144 172
146 173
144 175
145 177
145 176
144 172
144 167
145 169
141 169
151 173
149 173
144 177
137 178
131 181
130 184
144 179
131 182
130 184
136 180
137 178
147 179
137 187
133 189
142 182
148 175
141 179
140 179
142 174
150 172
135 181
141 177
138 172
140 172
157 158
154 159
154 160
154 159
146 166
146 172
147 172
150 174
144 171
141 176
135 177
138 178
137 179
142 179
146 175
143 177
143 173
136 176
134 183
135 181
136 179
139 178
142 181
138 181
132 185
126 182
143 173
138 176
140 174
138 179
145 176
144 175
145 174
148 173
150 169
142 166
145 160
142 163
141 162
150 160
161 157
156 162
149 168
150 169
144 168
147 168
139 173
141 174
137 176
144 178
140 181
149 174
155 170
154 171
143 176
148 174
139 177
140 177
135 180
134 176
138 174
123 178
141 175
140 174
146 174
137 180
137 179
141 178
139 178
134 178
132 178
143 171
141 173
138 173
143 171
138 173
134 175
145 169
144 170
152 171
149 167
150 166
144 173
142 175
132 182
128 181
140 178
136 183
146 182
143 183
124 183
132 177
137 176
139 179
133 182
133 187
139 185
135 186
135 183
149 175
141 178
145 176
131 180
134 180
142 177
149 171
146 177
153 172
147 178
131 186
137 183
129 188
134 187
128 195
136 194
136 192
125 199
126 197
131 192
125 192
126 187
124 181
128 184
128 190
133 183
130 183
130 183
134 179
131 179
125 188
120 195
131 195
127 192
122 193
119 199
123 195
136 187
134 190
133 189
121 192
121 192
131 186
134 183
129 184
130 181
131 181
130 180
143 176
149 174
144 175
138 177
142 176
144 174
143 179
138 177
134 177
141 174
143 173
144 172
149 175
140 176
133 178
121 186
125 192
114 189
127 182
138 182
133 190
126 193
131 193
130 188
129 186
134 189
137 190
142 185
140 187
132 188
133 183
127 179
133 182
129 186
148 176
134 182
142 175
136 180
132 182
125 189
123 188
134 182
137 182
135 181
129 181
138 181
132 186
137 185
138 180
137 184
142 182
140 184
143 185
141 184
134 184
139 182
133 179
136 176
124 182
129 185
132 178
142 170
150 169
159 164
153 163
134 169
153 161
151 164
152 161
153 163
158 165
154 161
153 158
154 153
154 158
154 160
156 159
159 153
160 149
156 158
151 164
144 169
144 170
138 174
146 168
143 169
140 175
147 173
152 170
149 169
150 166
150 173
142 179
141 181
145 173
144 176
137 179
123 184
120 189
130 189
124 192
129 186
129 186
128 190
128 187
134 185
142 183
137 181
129 180
135 177
135 175
140 176
142 179
140 181
142 184
136 186
142 181
147 173
141 178
152 170
154 165
160 157
156 160
155 160
146 166
149 172
145 168
143 169
142 168
144 170
148 169
144 172
134 175
141 174
145 169
140 175
143 178
146 176
138 179
138 175
147 170
136 173
137 174
152 168
158 166
148 163
141 171
134 175
136 172
139 175
142 178
144 172
143 172
139 176
134 177
130 179
146 174
144 171
139 175
146 175
143 174
142 176
136 184
145 178
132 191
130 191
134 190
125 184
132 185
131 189
131 193
131 189
140 181
142 183
140 177
140 176
138 174
133 182
144 178
139 179
145 173
150 165
144 166
143 167
150 166
151 168
151 164
144 162
148 159
153 158
153 158
142 161
150 162
163 157
162 157
164 152
158 159
168 155
163 154
160 155
162 151
142 159
148 159
144 165
150 162
145 168
143 168
145 172
138 178
140 179
144 178
140 180
136 186
135 187
143 179
144 179
142 182
144 178
131 184
131 182
128 180
127 185
121 192
128 188
131 188
146 173
142 179
143 179
143 180
142 181
134 184
140 176
136 173
151 167
146 169
141 169
150 168
142 172
134 177
146 174
145 177
146 176
152 173
141 177
139 176
147 171
146 170
161 165
152 166
145 165
146 164
149 159
162 158
168 155
160 163
149 171
139 176
139 178
143 178
132 182
135 181
133 184
125 193
130 196
125 197
124 198
126 195
127 191
137 188
131 193
132 189
136 186
126 189
128 188
126 195
131 189
141 179
145 175
143 176
141 175
140 173
134 170
139 173
139 176
138 181
140 176
132 182
133 182
141 180
141 180
133 184
132 186
127 185
129 188
130 189
131 192
123 201
124 200
122 203
121 200
124 196
125 199
125 195
128 196
129 193
132 192
133 192
136 188
129 185
130 183
138 180
147 177
139 177
139 174
140 171
126 174
137 172
144 168
147 169
145 165
151 168
140 180
140 175
141 176
150 172
142 177
155 169
158 166
146 166
146 167
145 170
139 179
130 185
126 186
123 185
132 180
133 181
138 182
139 183
148 176
144 178
148 170
142 171
144 174
151 172
149 176
142 182
136 181
128 183
120 191
124 183
140 173
144 174
144 171
141 174
139 175
140 173
141 174
135 174
139 175
145 173
140 172
143 169
152 170
145 171
144 166
148 166
143 174
142 177
141 172
140 170
133 180
138 181
136 182
142 178
152 168
152 169
141 171
138 175
146 176
150 175
140 181
146 174
142 176
138 177
130 179
120 188
130 184
132 186
125 193
128 187
141 183
142 181
135 184
129 184
137 182
130 182
132 179
136 177
140 175
145 175
142 175
138 180
144 179
139 176
142 175
142 170
153 161
150 159
143 164
143 173
139 173
146 168
153 169
146 171
150 167
142 176
142 181
147 175
143 181
145 176
137 182
131 182
134 180
144 178
127 180
132 178
144 177
145 180
138 180
142 170
141 170
148 171
141 174
148 171
144 171
144 167
138 172
147 167
148 170
148 171
135 175
144 173
134 176
135 179
140 178
138 180
140 180
141 179
140 181
131 183
143 182
129 186
136 183
139 183
136 186
127 188
131 184
127 186
142 180
137 178
146 176
139 186
131 188
138 185
133 185
141 177
132 183
127 197
121 202
118 202
121 199
128 197
126 196
134 191
139 188
142 183
149 174
140 178
141 179
138 181
130 174
139 168
141 166
145 167
140 171
142 175
142 175
151 170
145 165
145 170
154 166
156 169
148 172
146 168
137 169
148 170
134 175
133 179
138 173
138 176
133 176
135 174
140 175
132 174
142 174
141 173
142 169
150 169
149 171
145 175
140 182
144 179
144 177
157 174
147 172
135 181
127 185
126 192
132 188
135 192
134 189
139 186
145 182
134 184
126 190
135 187
133 187
118 195
121 193
130 187
128 188
139 182
143 180
130 182
134 186
147 178
145 178
142 178
142 174
135 173
135 178
144 181
142 183
148 173
148 174
143 173
139 176
141 175
146 172
144 174
149 176
149 172
143 174
147 169
140 170
130 172
125 178
123 183
125 186
134 178
133 183
140 171
132 174
140 172
138 173
151 173
147 175
147 175
140 173
147 171
141 172
131 179
134 175
141 173
137 176
137 178
140 180
148 176
151 174
150 174
148 170
146 166
141 164
145 162
150 159
140 157
155 156
151 161
153 158
149 165
150 164
151 165
141 168
145 176
145 178
138 177
137 177
133 179
138 175
145 172
137 173
157 163
138 175
141 178
131 189
125 190
130 186
138 182
137 179
138 182
137 181
140 183
135 184
131 188
133 188
127 193
137 188
134 183
141 180
135 186
133 184
129 189
122 192
124 187
122 196
129 195
133 190
137 183
143 176
142 174
144 175
133 178
146 181
140 179
146 176
138 176
138 176
147 177
139 178
144 179
143 178
151 169
155 166
153 164
148 173
145 178
151 173
143 169
145 164
152 166
138 169
140 167
143 168
139 170
139 170
147 172
135 181
137 184
136 186
133 187
133 186
144 177
139 175
138 178
138 179
150 170
139 172
141 172
138 174
140 176
138 179
141 177
135 178
138 181
131 184
133 183
133 186
132 191
137 189
134 188
129 188
131 189
128 188
138 188
138 183
123 190
115 193
123 187
127 193
127 193
130 188
135 189
135 189
125 187
131 188
122 190
117 195
119 192
128 191
135 186
129 191
133 187
138 181
133 179
136 184
142 181
133 185
143 174
153 166
142 170
148 176
152 179
130 188
128 186
131 184
132 186
133 182
155 171
148 173
138 176
137 179
143 178
134 182
135 177
135 172
141 172
137 175
144 169
156 162
153 165
149 168
139 167
136 174
143 169
148 168
151 163
150 161
150 161
151 162
154 158
146 162
141 165
140 169
142 177
151 167
146 169
150 166
151 161
146 169
135 179
148 172
139 176
143 169
138 171
141 170
143 174
131 181
129 190
126 189
124 188
128 189
136 184
135 182
137 184
141 179
135 177
123 186
130 189
139 185
125 191
130 192
129 190
141 187
142 180
135 183
129 187
139 185
136 184
141 179
150 171
160 167
155 164
151 166
156 160
153 161
144 164
151 162
146 163
138 174
143 176
146 176
136 174
144 174
151 172
145 174
151 170
140 170
143 169
132 178
141 177
133 174
135 178
133 180
138 186
143 187
135 189
133 184
137 180
136 183
142 180
130 183
129 184
135 184
128 189
144 185
131 187
132 188
131 187
115 193
118 191
112 196
128 190
130 193
121 195
128 189
131 190
125 197
124 197
129 193
130 186
125 190
137 184
140 186
133 188
132 186
140 180
137 175
146 170
139 173
137 172
142 172
148 170
137 178
144 180
131 186
131 188
141 187
132 189
129 187
130 184
141 178
143 176
142 181
142 176
135 183
135 183
140 183
161 168
156 170
160 166
149 164
146 162
143 170
136 176
138 177
129 177
136 170
137 172
141 172
134 177
138 180
139 178
140 175
139 179
148 171
149 168
151 166
154 168
147 169
140 165
136 168
132 171
133 174
145 168
147 164
145 166
146 165
150 160
152 160
150 158
152 162
155 156
153 158
145 164
138 172
145 168
146 169
146 171
133 174
140 172
148 171
149 169
139 170
144 172
139 173
134 172
138 176
142 173
139 176
144 174
138 183
137 185
134 187
134 187
133 190
133 188
135 184
153 174
148 172
144 176
143 172
144 172
150 172
142 174
134 176
136 176
145 175
141 185
137 184
142 177
138 177
148 173
146 168
142 170
142 173
139 177
148 175
144 171
141 171
138 171
135 174
146 173
144 174
142 175
140 179
134 174
148 167
135 169
138 172
140 177
141 171
150 171
145 176
139 177
146 177
144 173
150 172
142 173
138 175
132 179
130 187
125 190
124 188
122 192
121 190
123 197
125 199
135 192
133 190
140 186
129 190
133 186
128 184
130 186
137 183
130 183
130 185
130 186
133 187
145 182
143 177
147 174
152 172
142 170
145 174
138 176
141 181
139 179
147 175
141 170
144 172
148 171
154 166
159 161
149 170
143 174
135 179
142 178
134 180
140 177
141 174
135 178
148 171
143 173
141 181
141 181
140 178
139 182
130 190
124 189
124 192
128 189
134 184
141 178
138 179
143 181
129 187
133 179
137 178
148 172
153 170
150 165
140 167
136 173
138 172
142 169
146 173
143 170
144 174
141 173
141 170
137 173
127 176
133 177
141 170
151 162
159 152
161 148
155 146
157 148
151 149
154 153
152 157
150 166
150 170
144 178
135 182
141 185
142 184
137 182
131 184
133 184
140 177
132 180
135 183
141 177
132 183
130 187
151 174
147 172
141 174
150 166
154 161
139 166
129 176
130 179
133 182
142 182
145 181
133 187
127 190
133 187
131 186
125 184
132 180
142 182
138 181
125 185
136 187
142 187
146 183
139 186
130 186
137 185
129 182
136 179
139 176
144 172
141 172
135 171
143 170
143 175
151 170
146 176
148 176
139 181
133 183
135 186
125 192
128 185
126 186
128 187
127 184
139 176
138 177
135 179
139 184
137 181
129 187
129 189
129 187
137 188
142 183
146 178
137 178
140 179
134 181
135 179
136 177
138 173
128 174
136 172
142 171
149 165
143 172
136 171
134 176
140 180
146 176
147 175
142 175
155 173
151 172
144 173
143 174
143 174
138 176
135 176
137 171
137 173
142 171
141 182
138 182
133 181
132 184
132 186
128 188
129 190
127 194
121 198
112 197
115 192
121 189
135 187
136 187
137 184
134 191
132 186
135 181
148 177
146 181
142 182
150 174
143 180
142 180
139 178
137 174
142 177
135 178
134 179
126 184
140 175
133 176
130 183
137 182
132 185
135 185
140 183
141 179
145 178
146 174
154 173
145 174
144 174
144 175
137 173
139 172
141 174
152 167
151 170
153 165
147 170
138 176
138 180
137 181
131 184
135 185
134 185
134 189
142 177
149 169
140 173
142 177
136 175
141 176
126 185
126 181
137 175
139 176
146 173
140 181
138 173
143 166
140 169
145 172
145 177
150 168
145 173
132 180
145 179
138 177
134 182
140 179
131 184
137 186
130 188
131 189
133 184
129 182
129 179
141 176
137 176
143 176
147 174
144 175
137 177
128 185
141 185
139 186
149 182
152 178
150 176
148 173
143 171
141 171
154 164
146 166
153 161
150 162
155 162
156 158
152 156
156 154
145 160
150 158
149 166
152 167
154 166
151 166
145 165
142 170
144 172
147 170
146 173
149 173
138 175
139 172
141 174
140 176
134 180
133 176
135 173
134 179
125 184
127 189
131 185
125 189
123 186
126 191
130 192
145 186
142 190
151 181
137 184
135 184
128 186
135 185
133 186
126 187
133 184
143 175
142 176
139 176
130 184
131 187
130 184
134 185
138 184
144 185
134 187
130 189
134 180
150 169
139 175
139 174
143 174
143 176
140 178
140 178
130 184
121 190
132 187
128 188
129 189
131 194
138 191
132 193
136 185
141 181
151 176
140 183
136 181
133 181
133 182
132 187
130 187
130 188
131 182
133 181
137 182
134 179
131 179
132 182
141 181
142 181
145 174
132 179
131 182
130 186
139 188
140 181
132 182
139 183
134 185
132 186
133 185
120 195
116 203
118 196
122 191
131 182
129 184
133 186
135 180
139 181
133 187
137 183
142 185
131 185
146 173
152 171
152 170
149 165
150 163
150 167
147 169
140 167
151 165
150 166
158 168
147 172
149 169
150 165
144 171
150 170
153 171
142 173
140 176
148 175
138 179
140 177
139 180
138 184
133 190
133 192
124 193
133 192
131 192
128 192
122 192
132 183
127 185
136 181
134 182
139 179
130 189
139 188
151 179
158 170
154 165
144 168
151 163
154 167
153 168
157 168
148 166
143 167
154 162
152 166
154 164
154 160
138 171
136 176
141 175
137 183
140 183
141 182
137 183
132 183
130 186
128 188
139 182
141 176
134 180
143 177
138 179
144 177
140 179
155 168
152 175
158 168
150 165
145 168
150 167
139 170
146 170
156 160
151 164
160 161
155 165
156 158
144 169
140 172
138 176
143 176
143 177
141 175
140 173
143 169
140 174
135 179
137 177
132 179
146 169
142 173
136 181
149 171
145 172
139 176
140 174
143 174
141 174
135 176
146 173
142 176
131 182
135 183
138 180
151 172
145 179
140 178
138 181
141 180
138 188
143 178
135 183
128 186
138 182
138 183
138 183
131 187
123 192
123 194
125 196
134 186
130 183
141 178
136 177
139 176
148 172
149 169
147 175
133 182
134 188
131 190
132 195
124 191
126 184
140 178
140 177
131 183
129 184
125 185
141 175
148 169
149 173
150 169
151 171
146 168
152 163
154 169
152 167
145 170
130 177
130 176
131 178
130 180
135 183
133 181
125 183
125 185
132 189
139 181
141 178
146 175
148 175
144 177
148 172
137 177
134 181
136 179
130 182
137 181
135 178
126 180
138 179
143 180
146 173
145 169
138 172
141 174
142 172
147 172
147 168
145 171
145 167
142 174
146 168
142 172
139 176
138 177
132 179
145 173
149 172
148 171
146 168
138 177
143 177
136 184
144 181
139 187
136 184
136 189
131 188
137 179
135 180
128 186
120 196
128 197
123 192
129 188
137 184
132 184
129 184
128 189
133 190
133 188
135 186
128 185
137 178
133 177
139 172
143 173
139 174
140 176
138 178
153 170
139 166
141 162
149 158
152 157
151 157
143 163
154 157
159 155
156 157
151 158
146 162
156 164
140 169
143 170
148 165
150 161
144 166
141 167
146 172
145 177
149 173
145 169
147 171
148 174
146 170
151 170
139 174
146 173
146 172
156 170
148 173
150 167
141 169
146 168
145 172
125 179
136 183
140 178
137 178
142 169
149 167
156 162
147 162
156 165
140 169
138 176
148 174
150 168
147 166
151 166
146 173
154 167
150 168
158 161
146 164
145 165
136 172
141 167
140 167
143 169
133 175
147 172
141 175
139 172
146 171
141 172
137 171
143 176
136 182
151 176
150 174
145 173
141 170
147 168
152 165
153 170
148 166
144 169
141 171
140 171
137 181
124 186
126 188
128 182
126 185
135 186
132 184
143 183
143 178
146 174
141 181
154 175
136 182
127 184
122 187
138 180
135 183
139 181
135 185
137 184
145 176
137 179
125 184
128 188
126 189
133 182
145 174
136 176
144 173
136 181
143 182
138 185
133 184
133 187
127 192
130 186
125 190
130 190
126 191
127 192
129 181
132 181
125 183
143 181
136 185
145 181
129 192
137 187
143 182
146 185
143 182
149 178
141 184
136 181
140 178
148 170
151 164
132 171
144 167
132 175
139 176
138 178
144 175
145 182
139 184
138 184
139 182
133 183
139 179
139 186
134 183
150 175
146 171
150 167
150 168
136 174
138 177
141 170
143 169
134 175
145 170
152 166
146 171
141 173
137 184
133 192
129 189
129 183
133 179
141 176
139 175
145 175
137 176
146 175
142 174
138 174
134 171
144 170
137 174
129 176
129 183
133 184
135 189
139 185
142 187
145 182
138 181
142 177
139 175
139 174
141 175
146 173
153 166
150 169
142 175
141 175
135 177
128 176
132 178
134 185
146 173
143 175
146 173
134 179
135 182
139 178
135 176
140 173
154 166
149 169
145 169
137 173
141 175
139 181
138 179
147 177
142 180
141 182
138 180
139 180
142 176
139 180
137 180
133 182
131 187
138 181
123 190
136 181
129 181
135 180
130 185
131 183
142 177
143 176
149 168
155 166
165 161
158 164
162 162
156 161
152 163
148 165
159 157
157 154
148 163
141 166
152 162
152 165
148 170
145 174
135 184
130 188
125 183
132 187
135 188
147 186
141 184
132 191
126 192
128 195
130 188
132 185
146 177
150 179
143 179
137 180
127 180
127 184
133 187
133 184
137 181
131 185
139 183
140 179
137 177
131 180
130 182
132 181
136 177
142 171
143 172
144 174
143 169
140 174
143 176
139 178
141 172
151 168
152 165
141 165
147 170
152 167
153 171
143 173
143 171
154 172
136 176
141 173
135 175
130 180
133 184
137 180
139 179
129 180
134 179
141 171
141 170
146 170
143 167
139 164
136 170
141 173
142 175
136 175
140 174
149 172
152 167
160 163
156 164
149 172
144 175
135 181
127 181
128 183
124 188
113 197
99 206
111 210
106 215
113 208
126 202
133 197
140 192
141 189
135 192
132 189
140 179
136 179
133 179
134 174
135 181
129 185
136 184
127 184
133 182
122 187
129 176
145 170
134 178
142 178
140 181
144 178
145 179
150 168
137 178
130 182
146 173
150 172
154 166
149 164
147 165
143 164
142 167
134 170
141 169
138 177
145 169
143 173
142 174
142 172
141 168
138 173
149 169
140 173
154 170
150 174
153 168
147 172
146 176
140 176
143 173
143 167
148 163
154 162
137 171
137 178
133 181
134 179
145 175
150 171
151 171
153 172
154 173
142 180
131 181
126 187
131 183
129 182
140 174
137 176
133 176
130 177
130 184
131 189
115 203
126 197
130 194
128 196
130 189
138 188
140 184
140 179
147 167
151 166
150 170
148 170
150 169
147 168
148 167
145 166
143 164
150 162
154 162
144 167
136 168
140 170
149 173
143 171
137 177
131 186
137 189
131 190
131 187
139 187
132 190
133 186
143 185
132 189
135 187
136 183
129 184
127 189
132 190
130 196
123 203
130 199
125 191
128 191
127 188
133 183
131 189
135 189
131 187
130 187
146 175
134 178
132 182
128 184
128 185
129 185
140 181
137 182
134 185
127 187
132 184
140 180
140 176
154 167
145 168
151 166
156 165
154 164
152 159
154 160
135 167
139 171
137 172
137 173
146 172
144 173
142 177
145 176
146 180
136 182
140 183
146 178
134 178
137 179
130 183
127 184
139 178
145 177
135 182
135 181
131 178
131 180
132 181
145 176
137 180
145 172
146 168
138 168
130 171
125 180
142 173
147 174
153 175
142 176
145 175
145 177
147 174
142 179
144 180
143 179
132 185
123 188
124 188
117 195
130 189
131 185
132 186
128 187
145 174
136 177
139 177
136 173
145 176
148 174
147 173
147 175
139 175
139 173
137 169
139 173
134 175
135 180
138 180
142 180
136 181
130 181
138 174
143 176
151 172
148 168
144 170
152 172
151 166
153 172
155 167
151 165
145 173
140 173
136 176
145 173
143 172
141 171
141 171
144 182
138 182
133 183
141 176
139 176
140 173
137 175
140 173
137 172
146 170
140 182
144 179
146 174
136 180
136 177
135 180
145 175
137 181
138 176
145 175
155 165
132 174
133 178
139 177
144 175
146 176
139 177
147 176
141 174
143 175
150 173
141 178
141 174
144 173
145 173
147 175
143 178
139 179
134 176
133 174
135 174
134 175
146 174
143 176
143 179
146 179
137 180
130 180
132 177
130 176
126 181
132 186
139 185
139 183
128 190
142 180
152 178
150 173
146 173
145 177
150 170
152 172
147 174
146 167
142 170
140 174
131 176
134 182
134 185
131 191
129 190
125 192
133 184
135 186
136 185
133 186
143 180
140 182
145 182
147 178
138 185
135 183
134 180
141 177
131 183
146 178
144 179
135 184
139 177
131 181
129 181
125 183
130 185
136 183
140 183
135 188
132 188
139 187
131 188
137 181
141 181
138 182
138 183
139 186
149 183
148 181
133 184
124 192
132 188
128 186
133 193
140 188
132 193
130 189
139 185
132 190
129 186
133 187
132 187
134 182
140 184
132 191
128 185
132 183
136 186
134 189
131 184
134 181
131 185
136 185
136 185
132 186
134 190
133 187
132 185
130 185
132 187
132 188
129 195
120 199
121 201
134 190
131 190
131 186
140 186
138 186
140 182
144 176
141 179
140 179
143 175
149 168
153 165
147 167
143 169
144 165
134 170
132 176
145 174
155 167
141 171
138 169
158 160
159 157
151 163
141 169
144 170
157 160
163 157
153 156
148 162
152 159
154 157
152 163
146 167
147 161
136 166
140 167
136 168
137 171
136 173
142 168
147 168
144 168
149 162
150 161
146 165
154 165
158 161
149 165
148 172
141 178
153 172
144 178
145 180
136 185
123 188
119 193
121 187
130 180
132 180
137 177
132 183
130 186
128 189
134 192
123 194
141 184
136 185
137 185
129 191
134 187
141 188
144 186
148 178
152 171
144 174
130 178
139 171
144 172
145 170
142 174
135 183
138 180
131 181
130 178
130 174
145 173
144 176
143 173
149 169
147 173
149 174
145 174
140 174
132 177
129 181
140 183
139 183
135 184
136 181
136 183
128 185
134 185
139 188
129 196
133 192
138 188
136 185
143 185
149 173
145 173
147 178
146 175
144 172
140 174
138 171
143 171
136 175
133 177
131 176
140 170
146 163
154 168
153 168
147 169
150 167
147 173
139 177
142 179
137 179
134 178
135 179
131 187
135 183
137 180
128 185
124 184
125 183
132 182
142 179
146 177
153 173
154 171
143 174
146 171
143 174
133 178
137 178
142 179
149 178
140 177
149 169
145 168
139 169
136 172
145 166
140 171
150 168
148 171
152 171
152 166
146 172
145 172
145 173
151 175
142 178
157 163
152 162
146 165
143 172
134 179
134 179
128 184
132 182
139 184
132 179
131 179
133 181
135 183
145 179
142 179
147 174
146 170
142 175
149 174
149 176
146 173
147 169
143 172
139 178
134 185
131 185
132 184
137 183
139 181
150 174
148 177
151 176
150 165
155 160
160 160
163 161
156 162
156 160
151 165
154 167
148 174
140 176
126 182
129 185
139 182
143 179
135 185
134 184
140 183
140 178
142 172
154 167
142 169
151 165
151 167
153 165
155 160
153 163
154 165
148 167
142 170
138 168
147 160
142 169
134 171
144 164
140 172
144 175
152 170
146 169
150 169
154 168
143 169
150 166
148 165
158 163
154 167
151 171
146 169
152 168
142 174
132 181
136 179
139 181
142 178
136 178
125 185
121 191
127 190
132 185
131 186
132 184
132 180
137 184
141 187
144 183
137 181
139 180
133 187
127 190
134 187
136 186
143 182
135 189
132 185
138 181
147 178
139 176
145 183
138 184
133 184
129 185
130 181
136 183
139 175
131 185
140 185
135 187
139 189
135 190
131 188
134 189
135 191
131 191
135 187
127 191
139 186
127 188
132 184
135 184
138 184
130 186
129 184
137 182
128 190
124 189
124 187
128 183
129 183
129 184
133 190
131 189
124 191
131 188
138 185
133 189
136 183
140 182
136 182
142 179
139 180
141 179
150 170
153 172
146 178
140 177
138 178
133 178
144 171
147 168
162 161
153 166
149 165
139 169
146 163
150 162
135 169
136 173
137 172
134 171
136 177
141 177
131 178
141 176
142 175
136 179
142 181
135 179
140 182
141 180
138 181
132 182
129 185
131 189
119 198
124 199
128 199
121 200
111 203
121 202
125 198
120 203
114 205
123 196
115 191
125 190
130 192
133 188
132 187
136 187
137 189
137 195
132 201
127 203
126 196
122 195
128 187
133 186
136 184
124 191
122 190
114 191
128 187
133 184
138 181
134 186
135 179
135 179
144 174
144 177
148 172
149 173
141 180
141 180
142 180
146 177
137 179
139 174
141 176
138 178
140 179
135 176
123 184
129 190
122 197
127 194
130 188
130 188
127 187
141 181
144 180
151 172
145 170
144 170
151 164
141 166
142 170
140 173
147 166
153 163
150 172
146 173
153 171
151 171
155 168
157 164
166 156
156 163
147 168
149 169
145 171
141 173
140 176
135 179
143 177
140 175
122 183
115 190
124 193
131 188
133 188
132 188
137 184
136 188
143 182
141 178
142 181
139 183
142 185
139 184
148 176
134 178
132 181
140 180
133 182
133 185
134 183
135 181
131 178
131 186
134 188
143 183
121 185
129 185
125 187
131 186
139 180
130 192
133 192
134 186
140 178
141 180
143 180
138 175
145 172
148 170
141 176
150 171
143 172
143 173
135 173
144 173
138 175
138 178
148 174
143 177
145 176
142 171
143 173
137 176
137 179
141 178
133 177
136 174
146 171
153 165
153 163
142 172
159 164
148 175
150 176
134 182
143 171
132 170
138 174
142 175
140 177
147 171
147 171
148 165
153 164
140 167
147 166
144 170
148 166
144 170
146 172
140 179
133 179
135 180
139 179
130 189
138 179
133 179
134 179
144 178
142 177
142 177
141 177
139 175
140 176
147 177
140 177
142 179
142 184
133 186
132 190
125 188
128 192
133 186
127 191
142 181
144 179
136 184
136 185
135 181
140 182
135 184
139 175
136 182
144 179
139 180
132 179
140 183
139 183
134 188
131 188
127 189
128 191
124 193
130 189
128 189
125 192
128 193
138 186
127 187
129 184
130 184
132 184
126 184
146 179
153 178
145 180
143 181
135 178
142 177
136 184
138 180
141 173
144 172
137 170
132 170
133 169
144 167
140 170
143 169
136 177
132 181
137 179
135 183
136 186
140 186
144 178
137 179
136 177
141 179
138 179
150 178
143 177
134 178
129 183
132 182
130 177
139 171
139 167
135 168
153 164
146 173
149 172
149 168
148 172
137 173
144 171
143 171
149 169
155 166
161 163
146 169
155 161
158 164
151 164
154 162
153 166
145 165
142 166
141 170
139 177
139 180
135 186
133 188
127 192
137 185
139 184
137 184
138 180
138 182
132 185
132 194
126 199
128 195
118 201
113 201
128 192
130 199
138 188
121 194
132 184
133 192
126 193
132 196
123 200
129 199
120 196
131 187
134 183
135 180
140 178
138 175
141 173
142 176
146 171
138 171
144 168
141 169
140 176
137 178
148 170
152 168
151 170
143 180
140 179
142 178
138 179
146 174
144 178
147 173
136 176
133 174
139 176
142 178
131 181
142 171
137 179
135 184
134 187
133 182
134 184
135 185
133 188
128 189
129 195
133 190
134 195
137 186
127 188
128 188
136 185
140 185
146 181
142 180
150 171
144 174
143 170
133 170
136 175
138 173
146 170
156 170
147 168
140 174
129 179
132 186
133 187
131 189
136 186
130 190
133 187
133 190
136 189
136 187
132 189
133 181
132 183
139 180
141 180
135 182
141 176
140 177
143 175
135 177
140 173
141 175
141 178
144 178
145 173
147 174
140 174
145 170
157 165
152 165
154 168
150 167
155 167
145 168
136 168
140 166
141 175
138 181
143 182
135 184
136 187
139 183
140 184
133 183
138 185
140 179
132 182
130 188
127 189
134 185
127 187
138 181
136 185
146 179
134 182
141 175
149 176
148 177
132 181
134 179
131 181
139 179
143 174
142 172
148 163
134 173
144 168
148 165
150 166
149 167
148 170
146 172
152 171
151 174
147 175
145 176
142 173
130 180
125 180
142 175
146 179
135 184
135 185
127 186
122 187
121 192
117 193
121 195
122 191
132 184
138 179
143 184
149 177
144 178
135 183
134 184
143 178
137 180
137 180
141 175
139 174
134 180
131 186
125 192
124 189
135 177
134 177
143 174
136 175
143 170
136 174
145 179
150 179
136 185
143 175
152 172
145 176
140 179
150 172
139 177
140 179
141 177
144 180
140 180
135 177
127 175
131 178
130 181
141 177
138 180
141 177
149 170
135 176
138 172
134 175
137 174
141 174
148 173
149 175
145 174
141 170
149 163
145 162
147 164
147 161
141 173
145 176
139 175
139 178
132 180
139 171
144 168
150 170
147 173
143 178
133 186
130 187
132 181
135 186
151 175
148 176
145 175
136 169
139 168
140 173
138 176
137 172
134 178
143 175
153 168
136 174
135 177
146 173
141 176
144 173
146 174
159 168
154 173
143 180
132 183
136 179
144 173
132 181
135 184
131 185
139 185
135 185
134 184
136 185
137 181
138 184
134 182
135 182
147 168
153 160
141 167
155 161
148 170
146 172
146 171
144 177
140 182
144 176
143 175
142 178
145 172
147 168
145 171
150 167
154 166
156 164
154 165
151 164
151 166
144 174
130 184
131 188
127 194
130 193
130 190
129 195
124 197
124 194
137 183
135 178
133 185
123 188
130 186
123 191
125 190
135 188
128 197
127 199
129 196
119 194
127 187
134 185
141 184
147 179
145 171
151 167
156 165
151 161
153 158
151 162
152 163
150 168
153 165
145 167
134 171
139 175
133 189
131 189
133 189
134 186
126 189
135 189
134 193
132 192
134 189
125 192
134 182
135 180
141 179
151 172
137 174
141 176
150 167
150 167
145 169
144 168
136 177
137 182
136 186
144 181
140 182
137 187
133 185
136 190
142 182
137 183
143 179
138 178
136 180
142 175
138 183
139 180
136 182
126 185
133 182
146 173
145 171
138 172
142 177
149 168
141 173
133 182
133 181
131 178
133 177
136 177
148 171
144 175
140 173
144 169
144 163
151 162
154 163
158 159
155 155
150 161
150 164
151 163
147 168
150 168
141 171
148 169
144 172
149 172
158 166
156 164
152 156
158 154
157 160
149 162
155 161
147 163
140 165
135 168
137 171
141 172
144 175
139 174
143 170
151 168
159 158
159 153
157 151
159 152
150 158
149 159
147 163
146 165
140 176
147 177
143 176
143 179
135 183
132 182
136 179
141 170
140 170
142 175
141 183
132 187
130 189
132 182
130 188
141 181
130 189
125 194
131 190
134 186
133 178
140 172
134 176
135 175
139 177
146 169
153 163
148 167
161 162
150 164
151 167
157 163
152 168
142 165
148 165
160 162
153 166
147 168
148 168
147 170
142 174
142 171
150 168
147 168
145 170
136 173
138 176
151 168
144 174
148 173
144 174
135 173
144 168
155 169
148 173
140 180
129 188
135 188
142 180
141 180
131 186
136 184
134 183
135 185
139 180
141 179
133 181
136 184
145 177
149 168
150 167
160 166
154 171
151 172
139 175
149 176
149 178
145 179
143 181
132 180
127 183
123 183
123 187
123 187
125 183
133 179
131 185
129 186
133 183
135 184
141 179
137 184
139 181
142 183
137 187
135 191
130 189
124 187
126 185
135 183
130 182
131 186
139 182
132 183
129 187
132 183
131 183
140 182
133 183
132 184
131 188
133 186
139 175
137 181
134 182
142 180
131 184
136 185
133 185
138 183
132 188
138 185
136 181
141 172
142 170
149 165
145 163
148 168
153 168
142 166
138 171
147 166
152 163
150 161
153 160
143 169
141 174
143 180
146 177
154 172
143 176
147 168
150 172
137 176
139 180
130 185
130 186
129 183
130 186
137 180
136 184
133 190
122 192
124 189
132 189
139 184
138 186
145 189
131 186
133 179
133 180
139 176
145 172
145 171
151 171
151 167
149 168
149 171
157 166
149 164
149 161
142 164
138 167
143 169
150 165
152 166
144 168
151 164
149 165
145 168
149 169
153 172
163 170
150 168
141 167
148 165
140 171
145 171
142 170
140 169
138 169
136 172
142 178
127 186
133 182
139 177
134 182
130 186
132 188
133 189
125 195
127 189
126 191
122 195
131 193
128 191
133 185
146 177
138 180
141 171
146 171
146 170
138 170
149 162
147 162
149 165
145 165
142 169
149 169
148 168
141 168
149 165
148 170
141 172
145 170
138 175
136 178
144 174
145 178
147 177
143 179
135 177
141 179
136 182
135 184
133 185
142 179
141 176
145 179
143 181
138 186
131 187
133 189
132 185
120 185
128 187
128 188
130 190
127 195
131 193
133 184
122 189
126 192
130 181
141 185
136 184
140 182
134 190
142 184
143 181
133 184
128 188
124 190
124 192
113 195
123 187
132 188
127 188
126 189
127 187
132 190
127 196
122 201
140 181
140 179
144 176
139 175
138 171
133 172
148 174
144 174
143 184
143 180
130 185
131 185
125 186
120 185
116 192
128 189
129 184
136 181
136 181
137 182
139 186
133 186
127 188
131 179
135 181
140 176
148 170
139 172
146 171
151 166
155 164
161 158
149 164
154 165
160 162
153 160
142 169
142 164
148 171
139 175
140 175
146 177
140 177
132 183
130 189
131 184
142 182
139 182
130 189
135 187
141 182
138 184
143 177
146 180
151 171
130 182
130 179
146 174
149 182
143 181
133 188
135 189
127 196
128 195
118 192
124 185
123 191
126 185
130 185
129 189
128 187
129 187
136 187
135 185
140 188
137 189
136 185
147 178
141 176
147 174
149 178
150 176
149 170
139 174
144 170
141 176
134 175
140 178
146 170
148 165
142 165
148 162
158 160
155 162
157 164
150 171
148 176
150 171
155 170
145 175
140 176
136 174
141 165
144 162
141 162
143 155
145 161
144 166
151 166
158 165
153 165
156 166
155 163
159 161
163 163
145 169
137 172
136 176
141 177
138 179
142 182
140 174
138 167
149 173
149 174
141 174
129 179
129 180
134 183
145 178
145 180
142 179
137 179
139 178
133 181
140 180
135 188
125 192
130 191
125 186
129 185
123 187
133 178
139 178
136 179
126 182
140 173
143 174
137 179
143 169
142 171
146 171
149 173
140 175
146 173
138 172
148 168
150 161
143 166
142 176
144 178
141 182
143 177
133 180
133 176
132 176
147 174
146 174
145 182
137 184
139 181
136 186
140 185
131 188
120 190
113 196
124 194
125 188
135 185
122 191
128 188
129 192
130 188
124 188
134 183
139 181
144 177
139 177
138 180
145 183
137 190
135 192
137 181
138 179
139 182
137 183
138 177
150 171
155 168
142 179
144 178
139 173
142 170
140 168
145 167
141 173
154 167
160 158
155 163
152 164
136 166
140 167
147 169
156 165
148 169
151 166
149 169
137 174
141 177
139 184
137 184
134 181
139 178
134 179
132 179
134 178
136 183
135 181
136 175
147 171
141 174
146 170
143 171
141 174
140 178
133 176
141 178
149 176
137 181
142 175
138 179
138 173
135 178
137 177
145 171
156 165
152 168
157 165
162 157
162 159
149 164
147 171
133 179
143 175
143 177
142 179
145 178
136 177
130 186
119 187
129 187
118 191
118 190
125 187
127 184
139 184
130 192
125 196
139 187
135 186
137 187
141 182
144 179
147 177
153 166
144 173
153 168
152 160
147 162
146 162
156 163
157 159
152 164
148 165
154 158
150 161
147 158
152 154
160 156
159 159
159 162
155 166
151 169
153 171
146 173
151 169
146 168
144 169
138 175
135 174
135 175
140 175
140 178
135 181
136 179
130 181
136 177
132 179
125 187
129 187
138 187
142 182
145 185
139 184
138 183
135 183
129 186
138 179
139 177
146 179
140 179
138 180
137 179
135 180
132 183
132 181
135 180
134 183
135 185
131 187
127 189
136 183
141 181
139 180
147 169
146 171
146 172
141 170
144 171
142 169
155 164
151 166
154 171
154 165
148 164
148 167
142 170
141 174
122 180
132 176
133 175
139 177
138 178
141 179
148 176
145 177
137 180
126 186
130 183
135 183
134 183
139 176
159 163
149 165
139 170
144 168
153 161
147 166
142 170
144 171
137 174
154 169
148 172
139 171
150 168
143 168
140 171
147 173
142 176
150 171
152 166
143 172
145 173
139 176
136 182
136 184
131 185
144 180
137 180
137 187
142 179
142 180
131 187
122 191
125 194
118 200
122 196
140 188
145 180
143 180
141 183
147 178
139 178
141 183
130 180
133 181
125 184
128 179
130 181
139 176
151 162
149 160
157 153
152 158
146 160
149 161
154 159
156 156
159 159
157 161
154 163
149 170
153 171
144 171
138 178
143 176
142 173
155 164
139 168
138 172
136 170
141 173
136 167
134 175
126 180
128 187
140 176
148 171
150 168
157 166
156 165
152 165
141 173
136 170
138 172
149 171
138 172
143 178
133 178
135 183
129 185
133 185
134 181
152 177
147 175
147 172
144 173
151 166
148 165
142 174
146 173
139 177
130 187
132 189
139 184
122 186
142 174
141 174
149 167
143 173
149 170
157 170
150 171
140 169
138 172
136 176
130 179
144 171
148 172
139 174
143 172
147 176
140 182
128 193
124 192
123 189
122 191
127 188
133 186
137 183
138 184
150 172
137 173
142 172
135 176
141 174
143 180
148 174
151 170
155 167
155 165
158 165
152 169
146 167
142 165
145 164
147 167
134 176
147 171
138 173
144 174
129 184
132 187
127 185
133 189
135 187
140 184
144 183
141 182
144 176
147 168
143 168
150 167
142 175
143 173
144 176
135 176
147 175
149 173
137 177
142 176
142 180
139 180
134 182
135 178
137 176
137 179
130 183
133 186
137 189
136 188
132 189
136 186
129 191
134 189
129 178
135 179
137 177
138 176
137 174
147 173
144 170
148 170
142 170
141 175
134 177
149 168
147 165
153 163
158 165
155 166
155 163
145 164
148 161
142 167
142 169
143 173
142 174
135 180
140 180
142 171
146 165
155 164
145 168
149 172
138 178
130 183
134 186
137 186
128 186
138 182
146 178
133 179
132 184
136 184
133 183
123 189
119 188
130 181
140 180
137 186
136 185
136 184
137 182
143 178
145 175
139 179
146 172
145 168
152 168
140 177
146 172
152 164
143 169
144 174
147 172
141 175
132 176
141 174
146 168
145 170
146 174
141 179
135 191
136 189
136 188
144 182
130 190
131 185
136 182
129 186
131 181
130 178
122 185
123 188
130 184
130 185
142 183
124 187
126 187
123 185
132 185
135 186
139 185
143 176
147 178
147 180
139 180
140 177
134 186
131 186
129 187
126 189
120 194
113 194
118 193
128 196
126 194
130 192
125 197
126 195
124 198
126 195
141 184
131 185
143 184
139 184
133 181
134 179
135 183
134 180
132 177
138 179
139 176
141 172
143 174
134 178
133 180
134 175
141 174
140 183
147 180
133 185
135 187
132 183
140 183
131 183
134 182
138 183
139 186
132 182
128 181
130 187
130 189
138 187
142 190
131 192
153 176
150 167
144 167
134 172
138 177
141 177
129 183
140 180
142 177
154 168
157 168
162 160
154 164
148 164
152 167
152 166
155 165
156 161
155 160
159 160
151 164
141 165
143 170
152 167
149 170
146 170
141 166
138 172
143 167
149 165
152 161
147 167
146 172
146 168
148 173
148 168
143 172
134 174
135 180
139 183
133 188
139 183
142 183
144 179
125 186
133 184
132 179
135 175
142 173
147 173
131 177
138 181
136 184
130 188
133 189
129 193
121 191
137 184
136 184
140 182
140 183
135 187
139 185
146 180
140 179
137 176
130 179
131 188
140 185
146 182
139 185
140 179
130 185
131 186
125 189
133 185
140 183
149 179
142 182
147 177
143 172
148 167
140 170
138 178
140 174
149 177
141 177
137 181
136 178
132 184
135 180
129 187
127 193
127 191
134 187
139 181
136 180
138 173
127 179
136 176
134 177
133 177
142 177
153 170
148 169
141 174
149 172
143 169
137 176
136 176
148 171
141 171
130 178
138 171
140 171
145 172
145 174
146 178
141 176
155 172
145 176
141 177
142 175
135 183
143 181
139 181
126 185
133 188
137 185
135 184
133 180
129 184
130 187
135 185
128 187
127 181
130 184
132 184
125 193
125 197
129 197
121 194
130 186
131 184
132 188
137 182
139 181
141 178
138 185
139 183
133 185
136 187
138 182
139 179
149 177
145 175
145 175
139 175
144 172
149 174
147 172
144 169
144 165
142 169
140 176
142 178
143 175
146 177
145 178
150 174
149 172
138 175
137 177
136 179
133 180
148 178
152 173
151 170
145 176
149 175
151 177
143 180
135 182
136 184
134 179
142 178
137 176
146 172
144 165
149 164
149 166
143 168
148 173
139 179
143 175
148 172
142 175
138 179
148 172
139 176
143 172
139 175
143 174
146 166
138 174
135 176
140 172
127 178
135 179
143 178
144 177
139 177
152 171
142 175
146 175
148 173
139 173
133 177
127 177
133 170
150 167
144 171
134 177
147 177
140 180
143 178
150 174
139 175
150 170
151 166
151 170
150 171
156 169
152 170
139 177
133 183
135 182
136 182
135 180
138 175
145 173
148 174
147 174
137 178
139 176
137 177
148 171
154 170
152 171
151 168
141 168
146 168
136 175
125 181
126 185
125 189
133 183
138 181
134 175
140 172
138 174
140 178
140 180
143 178
142 184
139 185
136 190
124 192
130 187
134 192
123 197
125 192
132 193
136 186
138 180
126 187
128 188
124 192
125 196
129 188
132 188
133 182
136 176
148 169
158 160
159 162
166 160
155 162
151 160
147 161
143 160
152 163
143 169
136 175
134 175
132 179
135 181
136 184
137 187
132 189
138 184
138 182
134 185
138 178
148 170
141 172
150 168
149 164
147 172
144 179
144 181
137 181
129 186
133 177
134 187
135 186
142 185
140 179
143 174
141 176
132 180
145 175
138 178
136 174
136 177
134 176
141 175
142 172
141 177
138 182
129 183
132 182
133 184
129 183
132 186
139 183
137 186
144 180
137 179
146 174
139 182
141 181
133 182
140 177
130 183
125 183
128 184
136 185
147 170
146 175
136 176
140 174
142 177
135 182
132 183
138 185
138 179
140 181
147 179
135 184
133 183
144 176
133 182
128 185
135 183
137 179
138 179
139 179
146 171
144 169
146 173
152 164
148 175
140 173
130 171
140 166
142 166
150 169
152 173
130 186
128 186
124 188
124 191
126 193
127 188
135 182
140 183
139 189
143 183
137 181
134 182
140 181
135 188
139 180
138 177
139 172
143 169
139 174
149 166
146 167
149 159
155 162
153 164
145 168
134 173
146 173
140 173
140 171
144 176
152 176
143 177
147 172
151 172
150 175
143 177
143 177
142 172
141 169
148 169
147 167
135 169
144 167
148 162
150 162
159 157
157 158
159 150
161 148
156 151
156 153
163 153
170 153
155 155
149 157
145 158
137 163
142 168
136 173
143 174
135 176
143 170
138 175
138 175
136 169
141 174
133 177
135 181
129 186
126 186
130 191
134 194
127 198
132 192
133 194
131 190
135 183
134 179
137 173
143 180
140 179
128 184
134 181
124 190
118 192
130 188
136 180
134 187
143 181
140 188
135 186
128 190
127 189
133 191
133 191
132 187
131 191
132 191
136 189
128 183
128 183
126 181
128 185
126 183
130 185
140 177
128 187
142 180
139 182
140 178
132 182
139 180
148 172
154 169
147 170
143 178
151 173
156 167
153 166
161 160
149 160
146 164
144 169
142 175
142 174
141 169
133 172
138 172
136 173
138 174
147 174
143 171
145 176
144 176
141 174
149 170
153 171
153 173
149 177
143 178
144 180
144 176
135 179
134 177
130 177
134 172
140 174
134 183
134 182
128 191
134 184
129 180
145 169
149 162
157 159
145 168
149 171
149 162
153 160
160 156
165 153
154 157
140 168
144 165
145 170
142 178
145 174
140 175
142 174
132 175
128 178
129 177
131 178
134 181
133 184
127 187
125 189
129 184
131 186
145 182
145 183
137 185
132 186
133 180
128 178
131 180
128 189
122 186
133 184
125 185
129 183
131 180
137 177
145 177
142 180
138 181
136 180
141 175
137 179
139 178
139 181
144 171
138 173
133 173
137 173
139 169
140 170
142 171
146 168
158 160
151 161
154 164
153 172
149 173
148 172
146 174
138 176
147 172
138 178
139 183
147 181
141 182
132 186
134 180
131 183
128 177
132 180
122 188
127 190
143 184
129 190
129 186
137 184
132 181
128 178
135 182
142 172
140 176
144 174
150 173
149 172
145 182
142 182
143 180
130 185
127 187
139 181
137 182
133 184
137 181
137 181
140 179
136 187
136 190
126 197
114 201
119 197
122 195
137 187
143 183
142 178
148 182
153 172
163 166
161 163
158 161
164 155
157 158
159 153
143 156
150 158
149 160
145 163
145 167
149 171
141 175
146 172
140 176
145 171
150 173
148 176
142 171
132 178
129 182
136 181
132 180
134 185
130 187
131 186
130 189
129 190
132 185
142 182
145 177
137 180
143 177
140 176
136 181
139 181
135 183
129 187
143 182
145 178
143 181
144 184
142 177
138 183
140 185
135 190
123 198
124 194
131 187
130 190
130 192
132 191
137 185
132 186
134 180
141 178
143 174
142 170
139 174
142 177
140 181
141 175
140 178
144 177
150 176
145 180
146 180
148 173
147 170
135 171
136 172
132 180
127 185
135 184
130 186
128 182
127 178
126 179
135 175
143 175
145 176
149 177
143 176
133 180
141 179
142 174
141 175
143 175
140 177
143 175
145 172
150 172
152 169
147 169
140 172
144 171
139 184
135 188
132 187
129 190
129 190
124 187
123 186
121 188
131 183
139 182
135 186
129 188
132 187
135 188
129 191
123 199
119 200
124 200
109 209
109 206
120 198
123 196
120 197
113 201
116 198
129 194
128 191
132 188
136 184
132 184
129 187
132 189
140 178
141 180
137 182
134 184
129 186
132 184
130 184
134 183
143 173
136 176
140 176
144 169
146 167
136 172
141 172
153 165
145 168
145 172
139 182
142 175
138 177
140 180
134 180
136 178
134 180
144 173
141 174
152 173
154 172
141 173
143 179
125 190
131 187
134 187
129 191
132 186
125 188
129 190
133 186
132 184
134 180
139 182
137 181
139 177
130 184
126 189
133 188
131 187
132 194
138 192
138 187
130 188
132 189
132 185
131 193
132 190
136 185
135 184
127 189
127 193
127 196
134 194
141 191
134 191
132 185
132 190
136 189
141 189
127 195
128 196
129 192
119 199
124 196
120 196
119 191
119 187
125 190
128 185
133 185
130 190
131 186
133 184
139 178
138 178
137 178
146 171
