Actives Prisoners
0 0
323 12
313 22
307 26
297 33
286 39
280 42
265 52
266 60
260 73
253 85
248 89
249 99
245 104
240 113
226 123
218 128
217 133
209 137
197 148
188 157
182 166
177 173
169 177
157 181
158 190
151 202
138 208
138 209
135 211
132 218
134 216
129 219
119 234
115 239
106 235
105 239
105 241
111 240
111 244
111 248
109 247
116 240
118 235
116 237
125 231
125 230
126 230
127 231
132 228
136 228
144 217
146 211
148 210
146 208
150 203
150 199
150 200
150 200
151 202
147 200
150 204
142 212
142 213
139 215
138 216
138 214
139 217
125 226
126 222
118 226
119 230
123 228
122 229
117 231
115 238
107 241
109 241
111 242
118 241
125 235
132 226
147 217
148 209
156 204
161 200
169 194
166 193
170 189
180 185
174 185
178 184
183 178
182 175
179 176
176 176
182 173
174 173
170 180
169 180
160 188
154 190
159 192
153 199
147 201
141 208
140 213
131 219
126 223
114 230
115 233
107 236
95 245
92 256
90 260
82 265
90 259
94 258
96 254
94 256
103 247
101 248
112 240
114 239
117 241
124 235
126 233
127 231
132 225
136 218
144 216
137 217
139 216
149 209
150 208
159 201
156 201
160 198
159 198
151 197
156 197
153 201
148 205
142 206
149 207
133 211
133 214
132 217
133 216
134 214
122 221
121 223
110 227
115 229
110 240
118 234
107 240
107 244
104 249
96 256
104 250
106 249
114 242
111 242
118 235
123 233
129 229
129 231
133 227
138 220
133 222
134 220
135 219
135 216
140 216
138 218
145 212
147 212
143 216
139 215
136 214
138 215
136 217
133 213
131 215
128 218
122 222
116 224
120 225
126 218
121 226
113 231
114 238
104 247
101 251
102 249
98 255
103 249
111 243
106 246
111 242
121 235
123 232
120 236
115 236
120 240
111 243
120 237
118 239
125 232
133 228
124 231
135 232
133 230
130 232
124 236
134 224
130 225
129 224
124 226
129 222
130 224
132 223
129 227
125 232
118 233
117 242
109 247
104 252
106 252
101 254
92 258
90 257
91 261
90 268
90 261
92 265
98 257
101 256
104 253
108 250
117 240
121 236
121 238
112 243
117 235
120 234
127 230
129 226
121 230
128 228
127 226
131 224
129 225
136 225
134 225
132 228
136 222
140 217
146 211
145 211
142 209
139 212
136 217
134 218
131 218
141 211
136 214
132 219
120 225
122 229
124 234
113 235
109 240
101 245
99 246
103 246
101 248
105 248
107 244
105 245
104 252
100 251
98 254
106 244
111 244
115 241
115 241
113 245
123 236
119 235
120 231
116 231
120 228
131 225
116 230
117 231
113 234
119 235
123 230
109 238
109 247
104 250
102 253
102 256
106 250
105 248
114 242
109 245
117 241
112 241
118 235
109 240
110 240
116 238
119 238
121 233
120 235
116 240
115 240
114 239
127 230
119 234
124 232
126 231
125 228
130 230
133 227
130 229
132 225
131 228
123 230
127 223
128 223
125 225
133 221
124 226
124 224
126 225
118 233
122 227
118 234
117 235
114 234
109 237
109 235
116 232
121 230
106 239
110 238
105 242
111 241
112 243
94 249
101 252
103 251
100 255
107 251
101 256
96 257
97 255
97 259
106 252
108 246
108 247
108 242
115 242
116 241
127 233
119 239
117 237
119 234
119 232
124 228
128 226
132 220
129 222
126 220
128 219
134 217
119 224
120 224
125 223
104 233
108 232
106 239
105 237
111 240
98 246
107 248
102 247
106 244
103 246
100 251
97 251
95 254
98 251
96 253
99 251
101 251
103 252
113 245
112 247
104 255
98 257
98 255
100 253
100 253
99 255
92 256
100 250
98 257
97 254
98 253
88 259
101 254
97 258
106 256
104 253
98 253
111 246
112 245
112 240
115 239
109 246
108 246
101 255
105 253
99 253
100 250
105 248
96 250
97 253
91 254
89 259
97 259
86 265
79 270
83 267
85 264
94 261
94 266
91 266
92 269
96 266
101 259
105 256
110 255
110 252
116 245
109 246
119 242
118 236
123 232
116 229
124 232
123 231
125 229
115 235
107 238
111 239
106 245
105 242
106 241
103 244
112 238
99 243
105 245
96 248
104 247
109 244
111 242
106 243
104 243
108 241
104 243
109 241
113 242
107 246
104 247
104 252
110 245
115 245
114 248
115 246
123 240
118 240
126 235
111 238
117 238
112 240
123 233
117 239
117 236
120 235
118 232
108 240
113 240
112 239
107 250
113 247
106 249
109 252
112 251
97 255
107 252
105 250
104 249
105 250
103 250
111 243
112 245
105 243
111 240
112 238
116 236
117 237
117 233
113 233
122 227
112 237
121 235
115 239
115 241
119 239
117 236
123 234
122 237
117 236
110 245
106 251
112 245
111 245
110 242
109 240
111 241
109 245
106 245
108 241
122 230
123 231
117 236
114 238
114 238
109 240
118 240
111 247
112 246
99 254
103 254
92 261
96 258
95 257
97 255
101 249
110 247
108 247
108 244
111 242
107 244
100 245
101 243
107 249
113 245
111 245
116 245
116 245
123 238
125 232
121 233
127 232
115 234
122 232
114 233
120 235
122 233
110 241
104 245
110 244
112 239
104 246
112 243
115 242
117 235
112 238
106 242
107 245
104 248
107 243
115 244
106 248
105 250
106 251
101 251
98 259
98 259
97 260
94 263
106 250
109 242
109 243
112 240
116 242
112 246
103 250
110 245
111 247
103 249
110 246
118 240
114 236
118 238
120 238
115 241
110 249
105 245
107 247
109 250
104 251
104 248
101 253
100 250
104 245
101 250
111 244
108 248
111 243
108 243
107 244
113 240
118 239
113 243
117 238
118 239
118 240
115 243
107 249
103 251
105 248
114 246
101 252
93 256
94 255
100 250
102 248
105 249
97 250
103 249
102 251
103 252
99 254
104 253
107 252
106 250
110 244
108 249
117 243
111 245
112 241
107 239
107 245
112 242
107 245
117 236
109 245
115 241
106 249
106 245
101 247
108 245
101 251
98 250
102 249
103 248
101 248
98 254
99 254
96 254
100 253
100 254
95 257
100 258
108 250
101 254
89 261
94 260
88 262
94 257
95 260
99 255
94 262
93 266
102 261
99 261
98 259
96 257
92 257
104 253
105 251
104 249
103 251
105 252
99 255
99 252
100 251
105 249
102 251
100 252
99 257
104 251
108 246
103 246
103 249
116 240
107 242
104 245
99 248
105 248
101 246
108 242
110 240
107 243
110 240
111 239
108 242
111 242
103 248
98 248
97 248
90 256
90 255
91 254
104 245
111 244
114 248
102 252
113 243
120 234
116 236
114 238
119 231
117 233
117 233
113 237
116 240
104 247
113 249
102 253
100 254
99 256
102 252
104 251
107 249
107 244
117 238
111 237
108 243
104 244
110 238
120 231
122 225
113 234
115 232
109 238
98 248
100 253
108 248
108 250
96 258
96 260
92 262
88 267
94 263
100 264
97 266
94 266
93 263
97 258
89 256
102 252
105 251
111 245
111 245
108 249
108 249
109 250
111 245
99 252
106 250
103 249
111 245
106 245
113 241
118 233
126 233
118 238
121 237
117 239
107 242
106 246
99 252
101 252
99 252
108 250
99 251
110 242
107 248
103 252
95 259
98 257
102 253
97 258
98 252
106 245
101 248
107 247
107 244
107 238
104 243
110 242
103 245
106 245
109 244
104 245
99 253
107 245
101 245
106 244
91 257
92 260
91 263
97 262
103 256
89 263
89 263
86 263
92 259
88 263
82 268
84 270
80 273
84 274
84 274
76 279
80 276
80 276
81 279
84 275
73 284
83 281
83 277
85 278
87 273
92 268
97 266
99 265
103 259
91 264
95 255
98 256
103 252
109 246
100 250
104 253
100 254
98 256
88 260
95 259
101 250
91 255
94 256
93 257
90 258
99 255
100 257
92 259
90 263
93 259
107 243
108 245
112 243
111 247
113 244
108 248
106 251
108 250
111 247
109 247
106 247
108 244
111 240
107 242
111 242
109 241
111 243
114 239
111 243
110 244
118 239
110 244
115 243
116 247
124 239
118 239
121 238
117 240
116 240
109 241
119 232
106 240
113 236
109 237
106 240
107 237
101 239
114 233
118 233
112 239
116 239
105 242
106 242
99 241
109 241
107 246
107 244
106 251
109 250
105 249
118 242
115 244
113 247
115 245
112 244
105 250
108 250
104 254
111 246
112 242
115 244
118 238
120 239
121 234
128 229
121 231
122 231
121 232
122 234
118 238
125 232
118 232
121 232
122 233
118 235
117 234
116 236
117 236
113 237
117 234
113 236
111 234
111 234
114 230
118 232
107 239
112 238
111 242
111 247
118 237
111 239
123 232
119 235
118 238
124 234
130 231
119 237
114 241
111 241
115 245
109 247
113 242
114 242
112 240
122 236
127 228
119 233
119 232
126 226
129 224
123 223
119 235
122 234
120 237
122 236
116 236
116 236
117 234
118 238
116 236
118 237
116 239
124 237
122 232
127 234
117 237
107 242
109 238
117 231
111 235
118 232
112 235
117 236
114 236
112 236
116 234
115 233
123 228
132 223
129 225
128 225
134 222
137 220
131 222
135 219
132 219
138 215
135 216
132 220
129 217
135 215
134 221
124 228
116 237
118 237
119 240
121 242
111 247
115 247
111 244
119 238
105 243
107 244
103 248
111 246
115 241
108 248
102 249
96 251
108 243
112 243
110 243
113 239
113 235
118 241
119 235
123 231
127 229
124 229
126 230
123 232
114 238
119 232
124 228
123 228
131 223
131 225
132 229
133 225
121 231
118 235
128 226
124 231
113 236
111 241
111 241
110 239
107 242
109 240
111 238
113 239
107 240
112 238
109 245
97 253
97 261
91 263
93 262
91 264
83 266
91 266
80 272
89 266
87 268
88 267
92 265
94 259
92 260
96 259
104 250
112 245
113 244
112 242
113 237
119 234
119 233
117 238
116 237
124 236
116 239
125 229
125 227
120 231
116 232
113 233
107 232
115 229
106 241
115 233
113 239
100 242
109 242
111 240
116 240
115 242
104 247
105 250
108 242
117 237
125 230
119 231
116 237
122 239
118 238
119 233
125 233
120 236
123 233
127 233
133 225
120 231
119 233
118 232
115 233
122 227
118 231
112 235
114 232
114 237
113 240
102 245
103 244
112 239
103 245
103 243
108 244
104 245
105 246
106 247
103 250
97 254
105 254
110 250
105 256
98 263
97 262
90 265
96 260
101 258
103 254
107 251
106 256
108 255
105 256
106 255
103 253
113 248
115 245
114 242
120 237
125 233
115 232
110 239
110 241
102 245
96 249
104 246
108 248
107 251
105 253
106 253
110 248
106 250
98 248
100 246
90 253
94 256
96 258
93 264
94 268
99 259
103 257
108 248
112 244
110 243
106 243
101 249
105 247
106 247
103 249
107 244
107 244
112 243
104 244
103 244
105 248
108 243
105 249
103 249
114 245
105 244
110 243
108 244
102 248
107 245
109 245
100 251
99 252
108 244
110 243
115 244
103 247
105 243
98 251
92 255
89 260
99 259
97 256
99 256
95 260
89 263
91 258
95 258
92 258
95 257
99 257
102 253
92 259
101 255
99 254
96 252
111 248
102 246
111 243
109 248
107 248
102 253
103 255
100 260
103 257
101 256
102 253
109 245
119 239
114 239
114 242
108 245
110 243
107 248
105 251
88 263
89 262
94 264
95 265
97 263
95 263
92 262
100 253
106 249
105 246
112 249
111 251
115 245
108 243
108 240
115 238
111 246
99 248
96 253
99 254
94 259
96 263
94 265
86 265
95 260
96 256
95 261
100 256
100 255
106 252
104 249
107 249
98 255
101 250
98 249
108 246
112 245
107 248
107 250
110 247
104 250
105 242
102 247
93 254
96 254
92 260
95 260
89 262
94 257
95 258
94 258
99 259
99 259
90 261
89 262
93 261
97 263
91 264
88 264
83 271
85 266
89 266
92 260
89 263
93 265
92 262
95 257
95 259
93 262
97 257
99 253
107 247
108 248
104 254
105 249
105 254
108 252
105 245
114 239
111 241
115 242
106 247
105 252
100 251
98 257
94 259
101 258
95 262
96 259
97 261
94 263
99 258
99 257
104 253
100 254
98 253
93 256
90 256
99 252
101 250
96 249
97 254
93 260
94 260
98 256
93 259
96 257
103 254
105 251
106 250
115 241
111 244
108 244
116 247
107 250
113 248
113 247
115 236
105 241
115 238
114 241
115 237
116 241
118 241
123 236
113 239
116 238
128 231
120 237
116 240
112 240
113 240
103 247
103 250
104 248
99 253
99 251
93 255
96 255
91 260
96 259
91 262
98 258
92 263
94 262
95 257
101 250
107 247
98 253
105 256
112 247
109 248
112 248
108 247
110 250
111 246
116 242
113 244
107 248
110 244
115 241
117 242
117 245
115 245
110 245
113 239
111 239
116 240
111 241
114 240
115 238
113 239
108 240
116 241
111 244
115 242
113 241
109 242
113 239
115 242
117 241
101 246
103 246
105 248
108 251
102 256
93 261
96 261
99 258
103 255
107 250
114 244
110 242
121 241
124 236
117 234
124 233
127 230
125 229
129 226
129 227
133 225
123 226
118 235
112 236
114 238
112 242
112 241
109 246
110 246
101 255
105 255
105 253
109 255
108 253
100 258
97 258
100 253
98 257
97 259
91 255
96 256
89 257
92 254
95 257
95 259
95 259
99 259
103 252
113 245
123 234
120 236
116 238
115 237
118 241
114 243
112 240
119 235
117 234
116 236
106 238
111 236
107 243
108 247
103 251
108 249
111 244
111 241
111 237
114 238
119 232
115 239
108 240
112 243
111 239
107 239
115 234
113 236
102 245
103 251
91 258
86 260
93 254
95 254
97 253
99 252
93 254
91 253
92 254
95 251
101 251
96 252
104 248
101 247
101 249
103 248
108 243
114 242
107 244
109 244
112 240
114 237
110 237
113 233
116 242
122 237
122 239
116 243
103 251
107 249
103 251
97 257
105 254
101 253
95 258
102 249
115 243
111 244
104 245
109 243
116 233
104 240
107 242
102 240
108 241
113 239
113 234
119 231
114 236
105 241
115 243
117 240
115 240
116 242
115 239
114 238
114 238
120 231
120 230
116 238
114 240
125 235
116 240
115 238
119 236
114 238
120 236
118 234
117 236
112 240
103 245
101 249
109 245
105 245
98 250
96 250
97 254
91 255
101 248
108 244
95 252
96 252
105 253
99 251
96 251
105 250
104 251
102 252
99 255
94 259
99 258
94 258
91 261
91 264
99 257
95 261
92 260
96 262
102 259
95 260
99 257
100 252
108 247
117 239
122 236
125 227
130 230
130 229
121 234
118 236
124 234
121 235
107 240
117 234
115 231
111 240
114 241
108 242
100 248
98 253
94 255
92 258
97 259
86 269
92 264
96 260
100 260
103 253
107 249
103 254
104 254
93 258
96 256
93 259
92 258
85 261
92 257
101 251
100 247
109 245
112 246
110 246
118 241
117 237
117 235
114 243
109 241
119 238
125 235
112 240
117 240
104 250
110 242
107 239
111 240
115 240
112 245
103 245
111 245
104 246
101 249
111 241
115 246
107 248
105 250
99 255
98 255
106 248
98 253
110 244
115 241
117 235
128 228
125 227
124 227
129 223
129 220
123 230
112 238
115 237
110 241
113 240
115 236
113 236
109 239
116 239
127 235
111 239
113 241
114 240
125 237
125 232
119 238
123 234
113 237
120 233
119 234
120 233
113 238
118 240
107 243
114 239
120 240
125 236
119 236
120 236
114 236
109 241
108 245
118 236
118 239
117 236
111 236
118 237
114 242
120 240
115 241
107 242
110 246
108 245
113 243
107 245
104 243
117 236
120 232
130 225
125 230
121 228
119 229
115 231
109 240
107 246
104 245
114 242
106 250
102 253
111 249
114 247
111 249
112 247
106 251
110 248
108 249
109 246
101 252
99 257
101 250
95 255
100 251
93 248
95 251
94 249
92 257
95 256
91 259
90 261
95 256
100 255
106 246
112 240
116 239
107 245
102 248
100 252
102 248
112 244
106 250
113 245
119 241
116 243
121 236
114 242
115 241
113 245
104 251
103 253
104 246
104 249
100 250
100 250
105 252
101 252
103 249
105 246
104 246
109 238
110 242
103 244
108 246
108 244
114 242
111 245
114 243
107 247
103 249
102 248
109 240
109 241
104 245
107 242
107 244
103 247
103 244
112 239
111 238
118 236
126 232
125 231
121 233
131 228
126 234
135 227
121 233
121 235
116 235
115 238
107 238
116 235
117 234
116 238
121 231
114 235
117 236
112 239
112 239
98 245
89 254
90 252
100 252
105 250
97 254
92 262
92 261
89 265
83 273
84 274
83 274
89 271
98 264
84 274
98 270
84 278
84 276
88 270
90 269
93 267
99 263
108 251
105 251
107 251
104 251
109 247
105 252
106 246
116 239
108 240
109 242
114 240
113 239
119 237
115 239
116 239
116 235
119 234
121 235
117 238
115 237
123 228
128 227
128 224
125 232
113 237
122 237
110 243
112 245
110 248
108 248
100 252
96 255
101 248
116 243
113 243
108 248
109 243
100 243
115 243
107 246
105 244
102 248
109 245
113 243
91 253
95 258
101 252
103 250
109 245
108 243
106 240
118 234
109 243
97 251
109 247
118 246
107 251
113 246
104 250
108 247
112 244
108 245
114 237
109 241
107 242
119 238
108 242
106 242
103 241
102 244
112 242
102 247
110 239
106 241
103 246
103 248
99 252
97 255
98 253
98 255
98 260
103 257
105 254
106 248
100 252
103 256
110 247
105 247
113 245
110 250
110 245
109 246
104 251
97 257
105 250
100 253
101 252
103 251
122 238
126 236
122 240
116 244
109 249
103 251
107 249
109 248
113 246
106 245
115 242
118 243
106 250
108 250
110 247
105 244
100 247
100 253
96 256
101 254
105 257
99 255
98 259
98 257
102 253
90 258
101 251
106 247
104 251
108 242
114 242
112 244
115 236
116 238
116 238
114 237
116 236
121 239
108 242
111 240
113 242
117 241
124 235
129 230
131 225
131 223
128 223
125 224
121 227
118 230
115 236
111 238
115 245
106 249
97 248
104 245
107 245
107 241
111 241
111 238
108 239
106 240
106 242
115 239
109 240
102 246
110 240
109 239
110 239
104 243
93 249
101 245
101 248
99 252
95 251
95 252
96 251
97 254
101 254
98 251
110 247
109 248
106 247
101 253
94 260
98 256
97 256
107 250
107 249
116 246
112 246
112 243
122 237
115 236
121 230
120 227
120 229
117 233
121 230
121 233
119 237
124 232
120 235
118 237
114 234
116 236
117 240
111 245
106 246
105 251
105 253
106 250
105 249
103 247
105 247
107 252
102 254
111 248
113 247
115 244
114 241
106 246
104 249
99 252
104 250
111 248
106 245
98 249
104 245
111 246
116 237
121 234
118 234
121 235
124 234
129 232
133 231
127 234
120 234
123 231
124 232
116 238
113 240
110 242
105 246
100 249
100 252
106 248
113 243
108 242
117 239
113 239
106 246
99 246
98 250
96 252
99 251
97 253
100 254
97 255
94 255
100 255
110 246
114 243
115 236
119 237
130 229
120 230
128 228
131 224
130 223
127 225
130 224
128 220
138 214
138 212
131 216
142 209
137 216
134 222
129 224
136 219
133 224
123 232
121 233
121 232
122 228
118 228
110 235
101 240
112 233
117 234
112 241
117 235
119 239
118 238
108 242
108 245
106 244
95 252
104 248
102 247
106 246
103 255
99 258
107 256
107 255
105 256
98 259
104 249
108 243
115 240
118 233
130 225
128 226
129 222
124 227
125 224
123 221
123 222
125 222
124 225
126 227
125 226
117 227
121 232
117 228
106 237
100 243
107 246
104 247
106 247
104 247
106 242
113 241
111 240
114 240
113 243
107 246
110 247
100 247
104 247
101 245
102 250
96 251
98 252
105 249
101 254
106 248
105 251
104 255
106 251
99 253
98 256
98 257
104 251
100 249
109 241
111 240
111 236
111 236
105 242
112 240
117 241
111 245
103 247
108 245
109 244
105 249
97 256
106 253
94 263
100 259
100 260
98 254
97 256
103 248
109 243
99 252
111 244
113 242
113 245
110 246
107 247
109 240
112 242
116 241
117 238
112 240
115 242
115 240
110 242
110 244
111 244
113 244
115 243
103 247
105 245
109 241
106 248
104 248
95 253
106 248
100 252
103 255
102 252
101 250
107 245
113 240
118 237
118 229
107 235
112 241
103 246
110 241
110 242
110 237
107 241
113 239
110 239
104 241
107 243
106 246
103 248
105 247
111 243
102 251
106 248
107 243
114 244
110 245
106 246
104 249
98 247
103 248
104 251
106 247
101 253
100 252
106 254
107 251
108 249
107 246
104 246
107 244
116 240
104 246
114 244
105 247
103 250
103 250
102 253
106 250
100 253
101 250
99 250
105 251
106 252
101 254
101 249
95 252
94 251
91 253
107 248
102 251
102 254
97 253
96 259
97 257
97 254
101 252
105 250
104 247
102 249
103 248
109 248
110 249
113 247
113 244
110 245
107 248
111 241
122 234
118 235
113 235
122 232
123 229
119 233
106 241
102 243
101 240
112 236
105 238
121 232
117 238
111 244
107 241
111 240
109 241
107 246
97 252
97 252
104 251
95 257
97 258
94 259
102 256
94 260
96 260
98 259
99 257
97 261
99 259
98 257
108 247
116 246
111 248
117 245
108 246
118 243
107 244
119 237
121 235
121 239
121 235
121 231
126 227
131 223
138 220
134 219
137 218
134 219
130 222
124 230
125 229
123 230
121 232
123 232
122 230
120 223
119 225
125 230
117 237
114 239
114 240
113 239
113 242
113 243
112 243
109 250
115 242
105 246
110 244
109 244
103 245
107 244
107 245
105 247
108 246
103 242
111 243
109 244
108 247
103 250
107 248
98 253
90 259
105 254
95 258
91 258
97 257
103 254
98 255
92 263
88 266
84 271
92 266
87 271
91 265
93 263
103 255
97 259
99 256
101 256
97 257
92 261
105 251
102 255
108 250
102 251
111 245
106 248
106 250
106 248
107 249
107 251
102 251
106 251
99 254
93 255
91 253
102 253
104 250
96 255
91 254
93 255
105 245
103 248
96 248
108 246
101 251
102 249
106 246
101 247
105 253
95 257
99 256
99 257
101 253
94 254
102 247
97 249
100 249
112 245
104 245
99 250
99 254
94 255
94 255
107 253
103 257
100 261
94 263
93 258
100 255
101 257
100 254
92 259
99 259
90 265
92 262
87 267
97 257
99 255
91 261
108 250
110 246
112 241
101 244
102 244
110 244
98 249
105 247
105 248
94 255
96 255
97 251
96 250
96 256
92 257
88 263
86 261
90 262
94 259
90 257
99 252
102 244
108 249
108 248
101 251
106 250
99 255
96 253
106 251
94 253
95 259
105 250
110 248
112 242
107 242
111 245
114 242
107 244
105 249
101 246
103 249
94 254
93 254
97 258
94 257
88 263
88 265
81 269
78 272
82 268
88 271
92 265
85 274
78 276
87 275
87 274
84 276
91 272
93 267
90 262
93 257
105 253
112 244
103 249
100 249
105 247
96 250
113 243
113 243
107 245
99 253
108 249
97 255
88 260
96 254
102 251
102 253
99 258
100 258
101 255
100 255
102 247
113 242
106 247
100 250
108 247
105 249
103 251
104 250
100 253
93 254
102 254
101 252
103 251
99 253
100 251
104 250
105 253
113 244
98 255
94 255
92 267
87 271
86 270
85 270
88 269
80 275
81 274
89 272
92 268
93 267
90 265
89 263
93 258
88 260
92 261
89 257
99 250
99 252
98 253
102 254
99 254
105 252
103 251
106 250
100 252
101 254
109 253
101 251
105 253
104 252
105 249
106 251
97 258
95 261
97 261
100 258
94 259
97 258
95 257
100 258
104 255
110 254
104 255
104 258
105 259
108 249
118 241
123 236
124 232
123 230
120 233
122 236
122 232
113 237
113 238
107 240
110 235
121 224
119 225
105 236
105 238
98 245
101 249
78 262
86 255
89 254
95 252
100 255
89 258
97 257
103 248
104 245
102 247
97 251
97 255
102 253
100 255
91 259
92 259
93 254
102 254
92 261
91 259
96 259
92 262
79 271
85 268
81 270
87 267
86 269
88 271
87 271
84 273
87 271
87 273
93 267
91 262
89 264
88 265
90 266
83 268
85 266
90 261
96 252
102 248
109 245
103 247
104 248
100 253
100 251
102 257
99 256
92 264
102 256
101 257
101 253
100 259
99 260
100 262
96 264
99 257
102 254
112 244
111 239
114 239
114 242
110 239
106 247
113 245
115 240
110 244
111 246
113 239
108 243
110 238
117 235
111 240
111 245
105 246
109 245
112 241
114 243
114 245
109 249
109 250
109 250
113 247
114 247
111 249
115 243
123 241
115 248
108 250
112 246
118 237
112 238
116 234
115 236
111 238
111 240
119 239
107 246
118 241
123 231
119 236
116 239
109 245
113 243
115 236
107 243
115 242
110 240
106 243
110 241
110 241
106 244
101 245
98 245
98 244
101 248
98 246
97 251
94 254
98 254
98 249
100 248
101 251
102 248
99 251
97 252
102 251
107 250
111 244
104 249
98 250
104 245
103 247
109 243
110 241
108 243
110 247
108 245
115 240
115 240
124 236
119 240
127 237
127 233
124 233
117 235
124 231
134 226
130 224
127 227
117 234
110 243
107 242
107 244
118 234
116 234
106 237
102 240
104 242
89 251
91 254
92 256
96 249
97 252
87 263
93 259
83 267
88 264
88 258
96 258
94 259
84 267
88 265
88 263
88 266
81 270
84 272
89 268
87 271
86 271
90 270
90 269
86 264
92 261
98 255
100 253
102 251
103 253
110 248
107 247
107 246
106 252
112 252
105 250
107 247
102 250
105 252
102 254
100 256
98 254
90 260
104 252
99 253
101 254
101 247
100 248
101 248
105 246
112 244
110 248
92 254
94 255
95 256
92 254
97 254
95 255
95 253
93 256
105 251
114 246
114 240
109 244
106 243
113 246
108 247
114 244
103 251
102 248
104 251
100 254
101 256
92 261
90 263
98 259
98 258
95 259
95 256
95 258
92 261
92 264
96 259
94 259
92 259
89 260
95 258
93 255
93 257
98 249
111 244
108 249
103 249
105 249
104 248
106 245
104 247
104 249
108 246
115 238
111 241
112 241
115 238
118 233
120 232
103 239
107 239
113 238
115 234
121 231
109 237
113 240
108 247
107 250
110 247
109 250
110 248
102 250
109 242
113 238
108 238
101 243
95 245
89 248
100 247
101 247
94 252
95 255
102 254
103 255
90 262
86 265
86 269
99 259
95 260
103 257
97 256
93 256
89 261
96 258
92 257
88 262
92 263
93 255
100 253
96 256
100 261
97 257
96 258
100 257
114 244
116 240
112 242
110 242
108 242
110 245
116 241
101 247
111 245
117 243
118 234
114 236
109 240
115 238
110 242
104 247
98 248
100 249
93 259
100 252
94 252
98 253
95 253
93 254
102 253
100 255
93 259
97 255
95 257
93 260
89 259
82 264
95 259
96 257
100 250
103 248
99 260
88 261
100 251
101 250
93 256
97 253
93 254
94 259
96 257
102 255
101 255
95 260
93 262
102 255
93 259
90 259
91 260
89 263
92 261
99 252
101 256
94 259
96 259
106 253
106 252
99 256
97 259
94 258
99 256
98 259
92 264
84 268
88 268
89 265
85 266
100 256
98 256
94 254
90 258
93 261
105 251
107 249
104 250
101 251
101 250
103 250
99 255
90 261
89 259
90 261
86 264
86 272
84 275
87 273
86 273
100 262
107 254
104 253
108 246
107 246
110 247
105 250
98 254
93 260
89 259
88 255
100 254
95 260
92 263
90 267
92 266
96 262
93 267
81 271
80 275
87 269
86 267
87 266
92 263
89 266
93 262
91 264
91 266
92 261
97 258
102 256
108 252
99 252
96 250
99 251
101 249
106 247
94 255
103 251
102 248
105 247
112 239
108 242
108 241
109 246
106 248
110 247
106 249
101 250
104 248
96 251
100 246
106 251
97 249
106 243
95 248
95 248
91 255
93 253
97 254
100 254
100 255
105 252
106 255
101 252
105 247
110 245
103 250
109 248
109 247
114 243
117 236
113 238
112 235
111 241
114 240
110 242
111 242
109 243
120 240
116 244
115 243
118 241
111 241
113 245
116 237
117 238
129 232
118 235
121 228
114 235
106 242
101 245
95 252
100 250
93 254
91 260
103 254
95 252
95 253
91 259
92 262
93 263
87 267
87 265
87 261
95 258
94 261
91 262
90 266
102 259
89 262
97 255
102 255
92 259
101 253
105 251
103 252
102 253
103 253
99 254
101 251
109 250
104 249
112 243
108 246
116 242
116 244
107 245
104 245
100 249
102 247
101 249
97 253
102 253
103 252
111 249
105 248
102 254
104 246
106 244
107 243
105 245
122 232
123 234
118 233
105 243
109 246
110 242
112 243
110 247
102 249
99 249
104 247
106 248
102 247
101 245
108 245
98 250
103 248
107 245
114 238
115 235
112 239
114 237
109 241
104 242
107 242
103 245
105 242
98 242
103 240
99 241
101 249
98 249
96 250
106 248
101 251
105 247
109 246
109 239
114 239
110 243
110 247
99 250
98 249
99 252
100 250
90 253
101 250
103 246
99 252
109 246
108 246
103 251
105 251
98 258
103 251
95 257
99 256
102 251
109 246
101 253
95 255
96 256
97 253
108 250
105 252
104 256
101 253
95 256
91 255
84 262
90 261
90 261
81 264
82 263
86 265
90 265
99 258
92 258
98 252
104 244
105 246
102 246
106 246
107 251
106 251
107 253
98 258
103 256
99 261
104 256
103 253
106 251
110 242
111 241
108 245
103 249
100 252
99 250
99 254
97 256
107 247
104 251
104 252
104 254
103 249
108 247
104 251
107 252
103 255
102 249
112 245
112 248
109 249
112 244
106 246
108 246
109 247
111 240
108 245
111 244
105 247
114 241
119 235
117 237
113 239
104 250
111 248
110 248
106 249
113 248
112 247
108 246
110 247
112 244
106 245
109 239
109 242
101 244
100 246
97 252
99 251
94 258
96 253
98 256
97 259
94 258
93 259
99 254
102 251
109 245
108 243
107 243
111 240
113 242
115 241
110 246
105 249
105 249
104 247
102 251
103 251
101 252
95 258
94 258
100 255
101 253
105 255
99 258
105 255
108 258
99 263
97 263
98 257
97 260
98 261
101 252
100 255
105 251
98 262
90 263
85 269
89 265
91 258
96 258
91 263
93 261
97 261
95 261
94 258
97 257
104 252
104 254
104 252
106 247
111 243
110 243
103 244
96 252
96 256
94 259
97 255
88 260
90 260
91 257
92 259
92 255
99 252
96 254
100 253
94 259
104 253
101 253
103 251
101 251
106 244
97 251
100 252
99 254
101 252
94 261
93 262
93 262
97 256
103 253
99 254
94 257
98 251
97 255
105 249
100 252
98 254
95 258
94 256
91 264
91 263
91 264
91 260
90 263
88 263
90 266
93 266
91 263
76 272
82 264
80 268
93 256
96 252
102 253
98 255
95 258
86 262
83 268
86 268
84 269
86 271
86 271
93 268
93 267
92 266
86 270
92 266
92 268
103 260
105 257
105 257
103 252
109 247
104 249
104 249
104 246
109 244
112 243
104 243
111 230
114 233
116 234
121 230
123 229
125 228
126 227
123 236
121 235
118 236
112 235
119 233
119 238
116 244
106 243
105 243
101 243
106 239
111 238
115 233
119 232
115 235
117 237
111 242
111 242
118 238
112 239
103 240
106 241
107 243
101 248
106 251
117 239
110 240
113 239
117 238
114 241
111 238
110 240
113 240
102 242
109 237
107 237
116 232
117 234
128 223
123 234
125 230
123 232
123 232
121 229
123 228
123 230
119 231
120 229
124 232
111 238
110 243
107 244
112 241
107 246
108 249
102 256
105 248
107 246
104 244
113 241
91 247
98 250
89 253
100 248
100 249
104 248
108 246
105 248
100 253
96 254
100 250
90 254
105 248
98 253
108 249
109 246
105 252
100 252
104 253
102 255
98 256
99 258
95 262
94 262
110 249
100 252
104 243
101 246
108 241
106 244
115 241
113 243
114 245
119 241
121 238
118 236
124 232
120 236
122 240
108 246
114 242
106 245
111 236
120 235
117 233
116 234
119 232
115 229
118 236
112 240
116 240
107 243
111 243
109 242
111 244
112 243
115 241
106 247
117 242
111 245
104 250
114 243
111 246
110 243
116 241
112 245
112 243
119 236
109 240
115 237
118 231
117 229
125 224
117 226
123 227
127 225
127 228
121 231
112 238
120 235
109 243
119 238
118 238
115 237
111 243
108 245
110 242
118 234
115 234
108 240
113 241
108 241
106 244
116 240
112 242
115 237
111 241
111 243
106 247
93 252
103 252
102 255
107 251
112 246
114 242
119 241
120 239
118 238
117 239
115 239
110 246
112 245
107 250
102 253
100 256
105 254
103 248
112 239
116 237
118 237
112 240
117 240
102 245
112 236
112 238
109 240
116 241
101 249
100 254
98 251
102 246
100 251
101 250
101 250
100 255
106 247
109 247
106 249
113 241
112 240
111 233
130 222
129 219
130 218
127 217
127 223
129 224
126 226
121 233
111 237
116 237
116 235
110 241
119 235
108 240
113 240
105 246
100 247
107 241
101 250
87 260
84 267
84 270
86 268
95 263
90 265
94 261
89 264
99 257
101 254
101 254
108 251
107 251
115 242
108 246
121 240
117 240
116 240
122 235
130 231
128 231
125 234
125 233
119 235
127 229
134 222
129 223
126 228
126 233
130 231
126 231
123 235
123 232
115 239
115 241
113 241
110 242
112 239
102 244
110 240
105 244
107 247
116 241
113 245
109 250
111 246
102 253
100 254
99 258
95 258
98 257
104 251
103 253
105 252
103 252
111 249
105 251
115 249
120 242
115 246
119 241
121 239
117 235
120 230
110 239
113 237
110 240
113 241
106 243
106 243
114 242
108 247
111 241
112 243
110 242
100 247
109 242
101 251
102 248
106 249
106 248
103 248
101 251
104 250
100 254
103 258
93 259
105 253
103 258
103 256
97 261
98 257
110 249
104 254
106 255
104 255
109 253
107 250
108 248
110 247
103 247
118 238
116 241
115 237
116 240
109 245
109 242
110 242
113 239
117 238
119 236
111 243
116 236
113 241
112 242
104 244
107 241
100 243
101 241
114 240
113 238
124 232
114 236
118 233
118 232
129 226
131 220
122 226
125 229
120 233
112 243
105 251
104 251
104 249
103 251
97 255
96 253
98 254
106 251
102 255
99 256
103 257
113 252
104 249
111 245
104 248
110 244
104 248
106 248
110 244
113 240
109 245
111 247
106 251
99 250
100 247
99 245
109 243
99 248
101 248
91 254
96 251
98 251
108 252
114 250
104 254
103 253
105 253
102 254
92 259
104 252
108 244
107 240
109 239
115 240
117 236
116 236
119 236
114 237
120 232
110 242
107 246
109 245
115 243
113 238
113 235
113 230
125 226
118 227
123 225
120 229
109 235
104 239
105 243
110 241
119 239
117 236
116 236
119 234
112 241
105 245
102 250
95 255
109 244
103 246
105 247
108 246
113 242
112 239
110 240
111 238
110 241
116 237
105 245
115 245
109 243
107 245
106 250
107 247
115 244
118 236
124 236
115 239
124 237
123 236
130 235
131 230
132 228
125 231
130 230
120 233
116 234
121 232
114 235
111 234
106 239
103 247
98 248
95 248
100 248
92 252
95 258
91 259
80 266
83 275
80 276
78 277
77 282
75 282
76 283
85 278
81 278
79 276
77 279
80 279
77 282
76 282
78 279
78 282
92 274
85 272
85 272
95 262
95 263
94 265
97 260
103 256
109 248
122 236
126 227
120 226
128 222
124 231
123 235
112 232
115 237
116 231
118 230
109 235
119 233
111 236
115 236
107 237
113 238
114 241
103 244
106 246
100 244
105 245
101 250
100 249
93 251
95 255
99 253
92 252
91 259
96 256
92 255
97 254
104 249
100 251
103 250
105 248
103 249
107 246
111 246
108 244
116 244
109 245
105 249
111 246
116 242
120 234
122 233
128 229
119 234
110 234
117 230
108 231
110 238
116 241
111 242
111 241
106 249
106 253
106 251
100 253
106 257
100 261
97 263
100 263
99 259
97 260
102 252
90 258
104 253
93 259
96 261
95 257
98 258
105 256
105 251
108 248
109 243
109 244
108 247
112 245
107 248
105 246
106 247
107 249
112 251
108 248
109 244
106 241
110 240
114 235
113 238
115 235
116 235
127 230
122 235
113 239
111 243
121 235
116 235
116 234
105 239
107 240
111 238
112 240
115 232
116 237
120 238
111 238
112 236
107 246
97 247
110 244
102 246
105 245
101 247
96 252
94 254
100 250
99 256
110 251
103 252
101 253
96 250
95 257
94 257
97 259
99 256
90 262
99 256
106 252
105 249
110 249
104 246
107 248
103 246
104 246
105 250
105 251
87 264
89 261
94 264
95 258
102 254
94 254
100 247
106 247
113 245
110 246
103 250
112 245
116 241
118 239
120 234
114 237
112 239
120 235
119 239
116 239
116 239
112 234
121 230
121 232
125 232
123 231
125 233
124 238
122 237
126 231
119 238
124 233
114 237
110 241
116 243
111 246
106 246
102 246
101 244
111 235
114 241
107 246
108 249
107 249
104 249
104 252
106 253
101 251
112 243
110 246
105 247
104 253
98 258
107 254
101 257
95 257
89 262
87 264
88 266
88 265
97 260
95 261
111 250
111 245
107 252
105 250
108 250
104 252
106 254
110 249
106 250
104 253
109 249
105 252
105 250
103 246
112 247
112 250
111 249
105 249
111 243
106 245
105 247
109 243
110 243
107 246
104 249
103 251
99 255
92 255
93 257
76 258
73 266
78 274
87 272
87 270
82 268
87 266
90 264
84 269
81 268
75 276
75 276
81 273
73 276
80 281
91 270
89 273
83 277
81 276
84 274
81 279
84 274
87 270
89 269
90 269
92 266
102 262
106 259
102 258
104 255
113 246
106 248
103 247
103 247
92 251
100 244
106 240
105 240
99 247
95 257
94 259
92 261
87 267
97 260
103 258
107 252
102 253
100 255
104 254
107 251
115 245
125 236
110 244
110 242
110 242
105 242
110 241
108 245
107 249
99 253
99 255
110 248
108 248
105 248
106 250
111 249
113 248
106 254
106 252
98 261
94 267
98 259
91 262
93 261
88 264
91 263
87 265
91 264
87 265
95 264
89 265
86 265
91 259
94 254
91 256
87 259
95 256
99 258
105 252
106 249
100 250
102 248
104 248
105 245
110 244
109 245
109 245
108 246
105 246
107 248
115 240
111 242
105 246
102 250
105 248
108 247
106 246
116 241
116 237
111 240
114 239
110 240
107 242
113 239
113 237
113 238
116 242
106 246
109 246
108 247
103 249
110 250
110 245
102 247
104 252
98 251
103 251
111 250
105 254
109 250
119 241
121 238
117 239
123 234
120 236
117 234
123 232
131 229
124 230
114 238
121 237
118 237
126 233
122 234
118 236
117 237
115 241
116 240
116 241
120 241
119 237
119 235
114 241
112 239
119 238
111 245
107 242
108 236
102 244
102 244
106 241
94 250
87 260
96 255
96 256
96 254
102 255
102 255
100 257
100 251
110 245
102 249
103 245
103 249
105 248
107 244
113 240
109 245
103 248
107 247
99 250
99 247
102 250
103 247
102 244
104 248
113 244
114 244
107 244
105 250
116 244
107 249
104 252
94 254
92 254
94 251
93 253
92 254
106 247
102 252
98 255
99 256
103 250
102 250
109 244
111 243
115 239
112 239
115 238
119 235
122 231
122 229
116 232
119 234
117 234
117 236
105 242
105 243
105 243
110 238
112 236
106 241
105 244
110 242
111 242
114 243
116 239
117 239
116 236
111 238
127 229
120 229
121 235
115 238
112 239
107 241
108 243
108 244
106 246
95 260
88 263
86 265
92 261
88 264
92 265
90 268
95 261
90 264
94 261
93 265
99 264
106 257
97 256
102 256
103 253
106 255
97 259
110 249
104 253
108 252
107 251
106 249
112 246
119 242
117 239
112 241
119 238
120 236
119 236
119 238
115 237
120 240
114 241
111 240
102 245
101 249
101 249
103 247
100 252
97 256
97 251
99 252
110 251
109 251
102 253
97 252
94 255
95 257
101 257
99 255
103 258
92 261
92 260
95 259
94 257
89 263
90 262
86 265
93 258
92 260
91 262
92 265
89 261
87 263
87 266
97 258
89 258
100 252
95 257
102 254
109 250
109 248
104 251
104 247
102 250
102 245
107 242
100 247
111 236
118 228
124 227
123 227
120 223
128 221
138 215
132 216
136 215
128 222
121 229
125 224
127 228
119 236
125 234
122 231
116 228
126 227
124 230
115 229
122 230
127 228
122 231
127 233
110 239
123 234
122 234
129 229
120 232
123 230
132 221
129 218
133 222
127 222
124 225
130 222
131 223
127 222
120 228
124 226
123 223
111 228
112 236
117 233
106 241
103 250
98 252
100 250
98 255
95 259
95 261
95 261
99 262
89 272
83 272
85 269
85 272
81 274
88 273
92 266
95 262
96 260
99 258
103 255
101 259
100 258
102 257
100 261
103 257
105 251
108 244
116 240
114 240
115 243
106 251
104 251
100 250
100 250
105 249
107 244
101 251
98 252
101 248
101 245
102 245
102 250
102 249
98 252
97 251
103 250
104 252
105 250
107 254
113 248
104 253
97 258
108 252
110 247
113 246
114 242
118 240
110 239
109 243
112 242
107 245
107 248
107 251
104 248
107 245
114 243
109 246
105 248
96 249
98 255
101 253
103 255
97 259
93 261
94 263
94 265
98 264
94 264
100 255
98 254
94 256
102 252
99 259
96 264
95 266
92 266
90 271
95 267
94 265
90 266
89 268
90 265
95 261
95 260
100 259
105 255
107 256
106 253
103 258
109 247
111 243
109 240
111 242
102 250
108 242
95 243
106 237
112 233
117 233
111 241
119 239
122 233
118 234
124 232
117 238
103 244
101 247
105 249
101 253
112 245
112 243
107 249
98 255
98 258
103 255
100 257
100 255
103 257
99 255
98 252
109 253
102 259
107 254
109 249
104 254
100 253
100 253
98 256
101 259
103 255
111 251
109 247
114 242
118 236
116 232
118 233
113 236
115 233
117 228
118 229
118 229
113 234
110 238
117 235
112 243
105 246
114 242
106 246
100 251
100 253
103 251
105 249
97 252
101 249
109 243
110 241
111 240
114 235
119 237
119 239
116 234
110 238
98 249
96 252
99 253
104 250
98 251
99 255
91 262
88 264
84 272
77 279
73 280
81 277
79 277
78 277
80 274
89 268
84 267
80 272
86 271
90 264
89 267
99 263
89 266
101 260
98 258
97 258
98 260
101 255
99 256
108 256
100 255
102 252
104 249
102 249
109 246
111 244
108 246
110 243
116 238
113 245
108 246
107 250
102 247
107 248
110 247
109 245
107 245
107 244
102 240
112 239
112 237
109 236
104 243
108 240
105 246
101 251
96 252
96 256
97 252
98 253
97 254
99 255
101 254
96 255
87 258
92 256
99 253
103 250
96 254
96 261
93 264
91 267
99 260
96 261
93 262
101 256
98 253
103 249
106 253
103 254
107 252
102 253
107 249
107 256
98 262
103 257
102 252
101 253
101 253
100 253
95 256
100 255
93 261
101 257
93 258
94 257
97 256
99 257
97 257
94 259
99 255
105 251
100 253
97 258
97 258
105 254
107 250
107 248
101 251
92 255
95 259
92 258
104 248
102 250
101 248
102 249
112 245
106 246
104 251
105 248
118 237
107 244
108 248
110 254
104 254
108 251
102 253
104 254
99 259
104 255
107 252
99 256
99 256
95 255
105 255
107 255
100 258
99 254
102 250
103 250
103 249
97 252
99 251
98 251
90 255
90 261
89 263
93 262
94 262
88 263
94 261
91 260
95 261
96 256
97 258
97 255
96 256
104 246
99 247
99 248
107 245
108 240
109 242
109 241
108 245
111 246
113 242
117 239
107 243
109 240
112 243
115 240
113 239
108 243
108 245
111 239
108 242
109 242
116 239
113 236
108 243
112 243
106 249
104 251
101 251
98 252
98 254
102 253
103 253
96 257
97 258
94 258
98 255
97 254
100 251
102 250
106 251
101 252
99 253
103 250
103 248
107 250
106 248
103 252
102 256
101 252
105 248
106 253
115 245
108 246
105 251
110 247
112 245
102 248
109 239
97 246
92 251
95 255
97 257
98 260
93 257
88 258
82 262
90 263
85 268
85 265
82 268
79 272
79 271
88 263
84 267
94 260
91 260
92 259
101 256
97 261
101 258
96 261
94 265
103 255
103 252
96 254
102 250
113 248
110 251
109 249
109 250
110 245
117 243
112 241
110 244
112 244
108 245
100 250
100 247
107 249
100 249
102 249
102 252
106 249
108 249
110 248
109 244
108 245
105 246
106 251
95 257
100 258
98 256
91 254
106 250
101 253
105 253
101 255
100 255
108 248
104 253
102 257
99 258
100 259
101 254
103 257
103 257
111 249
110 245
110 247
108 247
113 247
106 248
110 249
103 249
106 246
103 249
106 244
112 240
117 236
121 233
121 232
116 237
113 245
107 245
105 249
100 253
101 252
87 256
86 259
96 255
86 258
95 254
96 256
86 259
95 258
92 258
89 263
92 262
93 259
90 260
97 262
91 266
88 267
92 261
104 253
102 253
102 255
105 250
105 248
117 242
113 244
107 244
119 239
106 240
114 236
114 238
113 237
116 233
116 230
122 228
117 229
123 233
113 238
124 235
122 234
123 233
112 239
108 245
100 247
89 251
101 249
99 251
104 247
100 250
104 253
110 249
103 248
115 239
114 242
108 242
102 252
113 246
113 242
116 240
118 235
121 234
123 230
119 232
116 237
112 237
122 234
121 234
116 238
111 239
109 238
106 242
113 239
111 245
120 239
115 238
114 239
114 239
115 235
107 237
109 243
112 239
103 243
95 250
92 255
99 253
99 252
96 255
96 254
100 251
95 254
101 249
99 250
102 252
101 251
100 258
102 258
96 259
98 260
101 257
101 254
100 257
103 252
98 258
105 250
106 247
118 239
108 246
105 248
101 257
101 256
99 252
109 248
117 245
109 247
97 255
106 250
111 246
104 250
106 247
111 246
115 240
109 244
110 244
116 241
102 246
101 249
93 257
97 254
96 255
96 257
102 252
94 255
93 261
97 258
106 254
94 258
107 250
112 246
116 239
110 243
111 241
110 244
118 239
129 231
120 236
124 232
130 229
128 229
122 227
127 221
125 222
109 230
113 226
112 232
120 233
110 237
111 237
113 237
114 236
115 234
108 235
112 240
108 243
106 246
101 249
107 243
102 247
101 252
104 251
107 249
107 246
109 249
111 249
118 239
115 241
112 240
128 232
129 233
129 228
135 224
124 224
122 228
123 228
126 229
117 228
119 230
119 230
111 228
108 235
105 240
106 237
106 238
112 238
114 237
117 235
105 241
119 234
117 236
116 239
115 239
110 237
119 234
119 236
119 233
118 234
118 235
116 241
114 243
109 247
113 244
120 242
111 250
104 252
107 251
105 253
114 249
108 250
113 242
109 246
107 248
115 244
119 239
114 240
124 237
117 240
112 246
113 245
110 246
105 247
104 249
95 259
97 257
93 264
99 259
96 257
96 258
99 253
93 258
101 253
96 256
99 255
103 254
99 256
95 259
92 261
95 258
97 254
107 247
100 253
100 254
104 251
103 248
115 238
111 242
118 238
116 236
124 230
124 233
126 232
133 227
128 224
129 223
126 224
124 230
111 233
118 231
126 226
125 224
125 229
114 236
115 235
111 238
106 240
118 238
108 247
104 253
105 250
101 254
96 259
93 261
90 263
90 262
93 259
98 257
96 259
93 259
100 259
101 256
101 253
95 256
86 264
99 260
106 251
106 250
110 249
109 249
107 243
105 248
104 248
112 244
113 247
113 247
112 243
120 239
124 232
125 230
128 225
128 227
128 222
135 219
126 224
125 229
124 230
131 230
134 225
131 222
134 224
119 231
119 231
114 235
112 235
118 233
117 236
107 244
109 249
110 250
113 246
110 245
108 245
113 240
116 243
122 239
127 233
124 225
122 229
121 231
118 232
128 230
127 230
130 231
139 226
127 231
134 225
129 230
121 233
122 236
116 238
123 235
120 233
115 239
118 240
120 241
122 237
118 237
114 241
113 239
111 244
119 241
117 239
121 228
128 225
128 228
123 231
121 232
116 237
112 238
110 237
110 242
99 247
99 250
106 245
108 245
105 249
99 252
106 252
107 249
101 251
104 248
110 248
110 247
109 248
111 244
119 238
123 231
120 232
121 228
122 230
122 231
129 226
120 226
125 222
120 226
118 228
114 231
115 234
112 243
110 242
106 242
113 239
106 241
115 233
111 234
112 233
111 233
116 237
107 244
99 250
104 249
107 252
101 254
96 257
100 254
104 251
110 248
118 241
113 243
115 241
116 238
122 236
113 238
120 238
121 234
125 232
126 231
124 231
126 231
117 236
122 240
115 245
116 241
120 239
125 232
126 234
115 239
111 237
116 236
125 228
130 228
127 230
118 232
117 237
110 238
116 233
112 234
115 243
108 247
109 241
106 244
105 246
106 246
106 247
106 245
110 248
111 247
113 244
110 245
108 243
109 245
99 246
103 246
100 250
103 246
107 246
103 252
104 252
105 247
112 242
112 240
110 240
106 244
110 239
109 239
112 236
111 241
111 241
108 248
112 241
112 246
108 245
102 246
102 249
98 250
101 243
100 247
108 246
104 251
98 254
107 247
106 244
107 242
101 243
103 247
105 247
119 238
103 241
117 236
112 237
107 241
104 243
103 247
102 249
103 251
102 254
107 245
117 237
125 230
118 236
116 238
117 238
114 244
108 244
108 243
105 248
113 242
117 240
110 242
118 238
112 236
112 238
107 244
105 246
107 244
102 248
104 251
107 246
106 248
103 245
106 245
104 245
102 247
103 252
100 250
96 253
98 255
103 252
89 257
99 253
98 255
92 255
103 248
103 252
102 253
108 248
109 246
107 247
111 242
106 241
121 235
119 235
116 235
112 237
117 234
119 233
123 234
109 241
103 244
111 241
112 245
113 243
115 241
114 247
118 241
118 238
111 241
117 238
112 240
113 240
107 242
92 250
90 255
82 257
84 262
79 265
90 259
94 261
99 257
110 250
106 249
107 246
110 248
108 245
99 254
111 250
115 245
117 242
111 247
114 242
113 240
116 243
110 242
117 238
121 232
122 229
120 229
128 232
119 237
125 231
128 226
122 229
121 228
108 236
121 232
115 227
120 230
112 235
116 239
105 245
108 246
108 248
96 251
91 258
94 260
89 263
98 260
99 255
94 263
91 267
90 265
88 267
94 262
88 261
95 259
97 258
90 262
95 260
93 259
100 258
102 253
101 252
106 245
105 245
106 247
104 248
109 250
108 249
101 254
106 252
101 252
109 247
110 248
103 255
101 256
92 260
94 258
97 258
93 264
93 259
92 261
95 257
94 259
96 257
91 261
93 259
88 262
106 248
106 248
108 246
113 241
111 241
121 239
104 242
112 240
101 247
101 248
98 252
103 250
98 256
100 255
87 263
80 273
82 269
78 274
82 278
84 271
83 270
89 266
88 264
94 258
98 261
93 258
93 256
110 248
105 247
110 242
109 245
115 237
110 246
107 247
106 246
107 246
115 236
114 238
123 230
120 227
120 229
128 229
117 231
115 233
114 232
112 234
109 242
106 242
98 249
97 250
103 249
110 246
101 253
94 258
90 263
86 264
94 261
94 255
100 257
101 258
104 254
101 257
94 261
101 253
100 253
101 253
104 248
103 247
102 254
94 258
95 257
89 258
107 248
95 256
97 263
89 266
92 266
90 263
83 266
79 274
90 267
85 272
81 277
85 275
89 272
85 274
79 278
80 274
84 270
88 263
96 254
97 253
96 258
99 260
86 262
90 261
98 259
92 262
91 265
101 259
98 258
103 261
97 267
97 262
95 261
89 263
96 258
104 255
100 256
100 255
104 255
97 255
96 256
85 256
90 255
107 244
106 245
101 246
105 245
96 247
97 249
104 246
97 250
94 256
96 257
103 252
91 261
86 261
86 259
85 264
84 265
97 261
103 253
105 253
104 253
112 246
108 244
116 243
116 245
111 246
118 240
116 242
107 248
112 246
118 239
107 244
112 245
108 248
107 251
97 258
96 262
99 258
104 254
103 255
98 255
89 260
92 260
92 258
87 263
87 263
84 263
80 267
86 261
95 252
99 254
96 257
99 254
90 262
88 263
93 267
89 270
86 268
92 263
100 256
106 251
107 248
105 247
104 256
95 256
108 250
108 249
110 250
102 247
106 247
104 246
104 250
106 252
104 252
102 247
106 246
116 237
112 241
111 244
100 252
104 249
99 253
101 253
96 257
95 257
102 256
98 253
102 252
105 252
98 255
95 258
91 262
87 262
88 260
85 264
93 261
94 260
96 262
92 263
92 259
99 256
107 249
105 253
101 253
99 257
107 253
101 255
106 253
100 254
105 250
100 252
109 245
111 248
108 247
96 258
103 254
95 258
93 263
97 260
89 264
88 266
92 262
95 262
85 265
91 263
96 260
100 257
93 258
99 257
90 261
95 257
89 261
94 264
93 260
94 261
94 264
106 258
112 253
109 251
101 259
104 254
100 251
105 248
103 251
111 249
108 252
111 247
113 246
110 246
108 242
109 245
119 239
109 243
108 246
105 251
111 245
115 240
110 239
111 240
115 239
108 240
108 243
110 243
106 248
101 253
103 249
93 256
93 254
91 258
96 255
99 259
91 264
101 261
103 257
103 257
94 258
92 259
98 254
97 259
101 257
109 251
111 246
119 242
114 243
109 245
115 242
117 239
109 240
114 236
118 237
118 239
110 243
117 238
122 238
113 238
108 242
109 245
106 246
105 246
109 241
109 243
106 243
104 243
111 235
110 236
115 235
109 241
101 244
108 242
121 233
106 242
104 248
96 250
99 254
104 252
107 252
107 250
98 257
99 255
94 255
98 256
94 261
95 260
102 252
106 251
95 255
112 249
112 244
107 247
107 243
108 243
107 242
115 239
114 239
107 247
113 238
110 238
112 242
112 244
121 232
122 232
121 236
119 234
118 237
110 241
105 243
106 250
105 255
100 257
107 252
110 247
113 244
111 243
113 244
111 241
107 245
109 245
110 241
102 243
109 242
102 246
109 245
102 253
95 259
97 256
101 259
99 257
99 260
103 257
98 260
97 264
98 261
114 245
100 253
103 249
109 247
117 239
112 240
110 241
105 249
106 247
109 245
99 251
105 246
111 245
120 239
118 240
106 251
101 258
99 254
98 258
91 261
92 259
84 263
92 261
92 262
100 255
108 250
108 248
105 252
105 248
111 250
104 249
106 249
103 250
102 252
99 254
103 249
104 252
109 251
115 240
115 238
116 243
118 242
119 238
114 235
123 233
117 237
116 235
124 233
132 225
132 227
128 228
118 231
125 232
124 228
123 228
116 232
118 233
116 231
116 234
111 238
109 242
113 236
110 240
110 240
113 240
109 245
104 246
108 244
101 245
110 244
102 251
107 247
106 247
110 244
112 242
109 247
121 236
119 237
117 239
108 241
111 246
114 247
110 247
107 245
111 245
112 245
119 242
113 244
113 243
110 243
103 250
102 252
97 256
91 261
102 256
100 258
102 252
100 254
100 256
104 252
100 250
102 252
106 251
104 247
111 238
117 238
110 241
105 241
112 240
119 236
118 238
126 232
121 236
129 237
120 241
115 243
115 242
127 233
129 229
130 230
127 229
127 227
118 233
124 230
122 236
106 244
115 243
118 237
111 241
105 244
107 244
107 244
109 242
107 242
100 248
96 256
99 254
97 257
95 260
94 258
96 258
93 255
99 256
99 255
108 248
99 253
102 254
103 250
101 248
109 246
114 244
105 248
110 247
115 243
107 247
103 249
111 243
113 237
107 243
101 244
108 244
112 243
107 245
103 247
105 243
103 242
110 236
116 236
113 239
111 240
116 237
116 236
116 237
118 234
123 233
119 241
118 240
120 238
125 241
123 242
113 250
114 248
109 253
110 251
105 250
104 250
103 243
109 241
113 239
119 233
124 230
124 233
116 234
113 237
116 234
113 237
116 234
128 222
130 223
134 216
133 218
129 218
131 218
128 224
127 223
130 223
123 224
134 217
128 217
121 225
123 226
130 223
136 220
138 219
138 219
124 225
127 223
127 226
123 230
123 230
124 234
120 238
112 247
117 239
108 241
115 237
118 235
115 240
119 235
120 236
121 235
114 241
119 243
116 241
118 240
115 236
114 240
116 241
119 242
117 244
122 239
120 236
121 236
108 246
106 253
105 251
108 246
108 248
108 249
107 249
104 246
110 243
112 245
108 248
108 246
107 251
109 247
113 242
113 239
116 239
112 243
118 241
114 240
121 232
125 227
125 228
121 229
128 223
128 223
129 228
126 233
129 230
128 229
129 228
128 233
117 235
108 239
123 231
116 236
112 239
127 233
121 233
121 233
121 232
114 233
118 229
124 223
113 227
124 227
119 229
123 228
123 227
122 232
118 236
121 235
112 240
106 243
105 250
104 250
104 254
102 253
98 255
103 257
108 253
109 250
111 242
107 245
113 243
115 245
114 241
112 238
115 241
113 241
117 239
121 234
123 234
123 233
117 234
121 235
114 239
120 237
113 241
112 241
104 250
106 244
103 247
106 248
101 249
101 251
102 247
101 253
105 252
96 255
100 253
92 250
93 247
100 241
104 244
99 247
100 254
102 252
96 253
104 250
110 248
102 246
107 247
105 251
98 256
105 254
109 254
110 252
116 247
105 254
116 247
112 243
110 249
110 249
101 251
104 252
101 251
102 251
94 257
104 255
98 255
104 247
99 253
100 255
106 250
96 254
100 257
93 260
98 256
99 257
97 257
106 254
101 254
103 256
111 246
107 242
103 246
107 247
108 246
103 248
109 247
106 244
103 246
116 236
109 240
112 239
119 239
117 239
115 239
118 238
114 238
109 237
110 241
106 244
116 238
111 240
116 240
112 243
113 239
116 236
115 233
105 241
107 244
110 248
108 249
98 248
101 244
99 249
108 243
108 245
117 242
115 241
117 246
105 252
109 252
113 250
109 251
100 256
103 253
99 250
105 249
110 244
104 244
100 247
96 251
104 247
103 248
113 239
104 247
114 241
108 242
99 246
112 240
112 240
108 244
109 242
107 241
117 240
119 239
112 242
105 246
102 250
100 249
102 248
96 254
101 255
102 252
99 259
97 259
98 256
104 247
94 252
104 250
104 253
102 253
97 256
110 252
107 255
107 250
109 250
118 243
109 247
106 250
100 255
98 258
105 256
96 257
92 254
98 255
101 256
100 258
104 257
100 258
101 253
99 254
101 254
106 250
105 250
104 250
103 250
104 251
101 251
91 255
88 258
92 261
83 267
91 262
100 257
94 258
100 255
102 253
100 251
90 261
89 263
88 266
88 263
94 262
98 259
100 254
107 249
108 247
107 242
101 250
106 247
104 248
109 245
114 246
110 252
102 254
108 249
115 245
110 247
114 243
113 241
110 244
95 254
102 253
106 255
101 254
102 254
97 253
97 258
99 256
100 259
100 258
97 260
95 257
91 259
95 261
104 251
100 253
90 255
96 252
98 254
87 261
96 258
92 263
89 266
96 263
101 257
102 257
101 258
101 256
106 250
113 246
116 240
119 236
120 236
119 234
119 237
116 238
107 244
106 247
100 252
100 248
111 246
111 243
118 238
115 238
115 236
123 234
112 240
113 241
109 240
105 238
117 231
116 234
109 239
110 242
103 247
111 238
117 231
110 236
107 240
107 245
110 237
110 240
105 241
107 246
103 248
104 251
106 249
115 247
116 244
112 244
105 251
108 247
116 239
122 238
115 238
122 233
122 231
123 229
115 233
125 230
122 227
123 232
127 232
125 230
132 226
123 227
122 232
126 231
119 238
106 248
107 247
102 250
96 251
95 252
83 257
96 250
100 251
104 248
105 248
108 241
103 246
97 253
102 252
103 250
105 246
105 247
109 246
101 250
98 249
104 245
106 242
121 237
120 236
120 234
123 233
121 232
115 235
115 235
113 233
114 238
114 238
123 231
127 231
123 230
118 231
111 238
107 239
112 238
99 240
104 237
107 230
104 236
113 231
121 231
116 232
113 237
106 235
98 242
102 244
106 241
116 240
109 238
108 242
106 244
105 251
110 249
107 252
102 255
103 259
99 259
102 262
102 258
99 259
101 256
104 255
108 248
113 247
101 256
100 255
98 258
109 249
108 251
104 253
101 256
95 261
97 260
96 257
102 255
101 253
104 253
94 253
102 246
115 241
108 246
108 247
96 251
99 249
100 251
94 255
92 258
94 257
94 262
99 257
101 256
96 261
99 257
98 260
91 260
94 261
102 258
95 260
103 254
113 246
108 245
112 242
114 242
117 244
117 241
113 243
111 240
117 240
108 244
112 242
107 248
106 246
116 239
115 236
118 234
116 233
114 241
112 242
107 245
116 242
111 242
110 243
114 244
114 237
124 235
113 239
108 242
114 241
118 243
113 242
103 248
105 252
112 247
115 247
109 245
108 248
104 252
107 252
99 253
95 260
99 255
113 245
117 242
118 240
112 245
112 246
110 245
114 244
109 247
116 244
112 245
116 239
113 237
113 239
111 242
100 250
107 249
103 247
108 245
116 241
110 244
110 239
110 242
99 248
103 250
98 249
98 255
101 249
102 253
93 261
93 263
91 264
84 266
92 271
99 263
106 255
100 253
101 254
109 247
105 249
108 246
111 242
114 241
120 236
116 241
116 239
123 236
117 233
116 235
116 236
120 236
119 233
117 232
127 230
121 225
132 225
122 229
127 227
124 229
119 233
121 228
120 231
117 234
102 243
96 248
96 249
81 261
90 263
87 264
86 268
89 264
89 263
92 264
84 273
96 263
96 266
100 262
107 249
107 246
108 246
123 233
117 238
122 237
113 237
110 240
106 240
106 246
104 248
108 248
103 251
108 249
100 251
107 241
103 248
107 248
111 244
116 242
110 243
119 240
111 244
110 245
102 243
98 250
105 245
102 246
101 248
97 252
96 254
95 261
92 259
94 259
104 248
97 255
104 252
104 254
97 252
105 248
110 243
110 243
109 242
110 243
109 242
98 254
99 247
92 252
101 251
103 255
103 253
104 258
95 268
97 264
86 268
87 270
94 266
106 261
100 263
98 264
101 262
96 263
102 256
94 259
92 262
98 258
100 257
103 254
103 249
91 262
99 259
94 254
99 253
101 255
98 252
99 250
93 254
101 253
107 250
106 246
107 244
100 251
104 249
105 250
98 252
104 247
99 254
92 258
87 264
102 254
101 249
104 250
102 253
100 251
101 251
109 245
105 251
104 247
113 243
102 244
107 242
105 243
105 244
112 244
108 243
108 244
107 246
107 240
109 245
117 242
108 246
107 241
108 239
109 245
109 244
97 251
96 255
96 257
94 252
90 257
99 254
100 252
97 252
106 247
109 244
106 247
106 250
103 253
99 254
100 253
93 257
88 262
95 258
95 256
98 258
94 259
95 260
88 261
91 260
88 265
93 263
102 259
104 255
103 253
107 251
108 246
106 245
107 245
97 248
102 245
98 246
95 249
101 248
97 253
101 254
100 254
100 253
109 249
111 244
106 245
105 243
117 237
106 247
110 240
111 237
108 237
109 238
107 240
111 237
106 244
105 245
103 240
113 239
119 235
128 232
120 238
120 237
112 247
107 248
108 244
113 242
111 242
110 240
117 235
116 236
115 236
117 239
118 236
117 235
115 236
114 235
107 237
110 240
105 243
99 249
92 258
93 256
98 254
97 259
101 256
105 250
100 252
98 256
99 253
100 249
101 247
100 246
97 250
96 250
109 245
106 251
97 251
99 254
96 254
100 253
93 260
89 262
87 262
95 255
91 262
97 257
99 251
97 253
93 253
102 251
99 250
101 252
103 246
104 245
99 248
103 245
105 246
109 247
110 245
114 244
116 241
114 243
111 247
116 244
114 246
102 251
96 253
99 257
91 257
91 255
103 254
99 256
99 258
86 266
96 259
104 256
98 259
93 262
98 260
103 255
101 249
95 258
101 249
100 257
102 257
103 255
101 255
97 258
101 257
102 254
105 250
107 252
106 251
103 248
103 250
109 248
106 253
102 256
103 254
100 255
106 254
106 243
113 241
107 250
103 255
99 254
105 249
109 244
108 245
106 249
108 251
111 249
98 251
97 255
98 250
98 250
101 248
99 252
85 254
89 257
105 248
110 246
107 250
106 247
107 243
102 246
99 252
94 257
99 260
96 262
88 268
87 272
83 272
87 269
86 273
90 265
90 263
94 263
90 263
103 256
106 246
110 248
107 246
108 239
108 243
103 252
106 251
102 253
104 253
104 254
116 242
124 233
123 233
116 234
120 236
113 242
111 240
112 244
109 241
106 248
103 251
100 254
102 252
102 255
102 252
101 259
99 262
93 263
100 259
102 254
105 254
98 259
101 258
93 263
84 270
81 275
82 275
85 275
93 266
101 260
107 253
109 251
107 252
108 253
108 253
119 243
126 238
128 232
134 225
132 227
122 233
120 230
125 228
122 231
116 236
106 245
107 243
112 243
107 242
112 246
112 246
101 250
95 250
96 254
95 253
94 258
94 255
101 250
105 249
99 250
107 246
101 249
98 250
90 255
93 255
95 260
96 254
95 255
94 259
95 255
96 258
94 260
93 262
93 264
104 255
114 247
107 247
113 245
118 240
119 241
120 238
113 242
121 234
109 240
125 226
120 225
120 222
126 225
120 229
120 228
122 232
124 229
123 230
115 233
111 236
114 236
98 242
91 247
98 247
96 252
93 254
93 255
92 255
86 263
95 261
90 262
75 268
90 267
93 263
98 260
96 263
94 265
96 265
101 258
95 257
93 257
87 264
93 261
94 263
88 263
93 258
101 253
95 256
97 254
112 242
110 240
106 244
110 243
99 249
102 254
106 249
105 250
105 248
97 252
100 255
100 257
97 256
107 247
98 255
101 253
98 255
98 258
107 253
105 253
107 251
102 252
104 250
102 253
113 244
105 245
108 246
101 252
104 251
107 250
110 247
113 245
114 245
116 245
105 250
113 246
110 249
112 245
119 235
117 236
126 229
129 226
125 225
128 225
127 226
120 227
122 229
117 231
116 231
122 231
120 233
118 231
120 234
116 235
116 233
113 239
108 243
109 245
100 250
102 249
94 252
91 253
97 249
94 250
98 247
97 248
111 239
111 240
115 242
119 241
112 245
113 247
117 240
110 244
99 252
108 251
106 250
106 249
105 250
114 242
127 234
122 236
116 235
110 237
117 234
121 235
116 234
121 231
113 238
111 245
97 254
98 252
102 248
95 255
97 253
102 248
95 257
98 259
99 255
101 252
104 253
98 257
103 252
106 247
105 248
103 251
112 248
107 252
111 250
109 249
118 243
125 233
129 229
128 229
120 234
119 235
113 236
119 231
125 229
121 228
123 231
115 234
125 227
119 228
116 231
116 230
121 230
120 231
123 223
117 224
120 227
129 225
119 228
117 235
110 239
105 239
106 244
100 246
109 242
110 240
109 243
106 241
127 232
121 233
119 235
119 234
114 239
120 233
119 237
109 242
108 249
112 249
109 250
103 252
103 253
110 250
110 245
110 245
118 240
124 231
120 237
122 233
129 230
117 237
113 237
116 231
113 231
123 226
127 219
116 226
119 227
129 223
127 227
111 233
113 233
110 237
111 234
116 235
108 241
112 243
111 240
109 240
125 230
118 235
116 237
112 243
115 242
111 242
118 238
125 233
123 229
135 225
130 226
133 224
125 230
133 224
131 222
126 221
124 221
121 225
124 227
127 227
121 233
119 238
119 240
120 239
116 236
117 238
116 238
113 239
108 239
113 239
114 237
109 238
107 237
117 231
120 231
117 237
109 237
108 243
109 241
103 246
101 252
98 257
99 257
96 259
101 259
99 261
99 260
105 256
99 259
106 255
101 254
107 249
114 243
122 237
119 235
125 233
129 229
134 224
128 224
130 221
129 223
131 222
127 228
123 231
121 235
127 227
120 228
115 228
124 224
122 223
120 222
123 223
121 224
117 228
109 239
95 245
99 245
114 238
104 237
103 241
98 249
96 251
108 251
107 253
107 247
106 248
103 246
101 250
94 254
96 256
108 250
104 254
103 254
100 251
100 250
108 247
116 243
115 236
122 229
120 232
127 228
128 229
128 226
127 228
123 234
117 238
115 239
115 241
113 242
108 239
114 238
115 239
109 242
107 242
109 242
110 240
91 248
101 242
114 238
112 238
106 240
105 243
100 240
101 245
102 247
98 248
93 250
93 253
89 258
96 253
90 256
99 249
103 247
98 250
108 242
107 242
112 243
113 242
106 241
114 241
119 241
116 237
117 238
110 240
115 238
110 242
117 237
110 242
113 239
121 233
112 240
109 235
111 234
118 229
109 239
103 248
113 242
105 247
105 248
106 245
104 249
97 252
102 252
98 262
88 262
87 263
86 260
86 264
84 265
80 269
88 261
83 261
90 256
101 250
104 251
102 250
110 248
101 251
100 251
99 248
102 252
103 243
101 250
97 247
102 247
99 252
103 249
98 251
104 247
109 242
108 242
109 237
101 243
109 240
108 244
107 246
103 248
100 253
108 247
105 251
109 250
99 255
100 255
98 258
99 260
98 266
86 270
91 264
92 259
103 258
106 252
111 248
98 252
100 248
105 246
102 246
102 249
115 244
117 239
111 239
110 240
116 239
113 242
109 246
110 247
109 244
110 243
110 246
106 249
103 249
107 246
98 251
94 253
97 250
92 257
92 256
95 255
90 254
90 255
100 255
95 260
96 262
94 263
98 258
96 257
95 254
99 252
103 249
102 251
105 248
114 243
109 244
109 242
114 244
116 240
125 234
127 233
133 227
131 230
141 222
136 223
139 223
139 226
128 233
119 233
122 237
118 240
120 236
114 238
109 242
122 235
109 233
110 233
105 237
109 235
112 238
108 240
102 246
109 244
106 246
98 251
102 252
98 253
101 249
87 259
93 258
105 252
97 258
94 254
98 252
100 249
101 252
101 247
109 245
107 247
107 247
100 246
112 241
119 235
107 239
116 236
121 233
122 233
120 235
127 232
119 235
118 234
114 234
119 234
124 232
127 230
115 237
121 234
113 240
114 236
116 240
120 238
120 234
111 238
108 238
106 239
110 238
105 246
88 257
99 253
111 252
107 250
111 248
111 247
112 241
104 245
113 240
116 238
110 244
108 249
98 254
100 252
94 253
103 253
105 252
110 249
107 254
107 249
104 250
114 244
108 249
112 249
103 251
103 249
103 252
102 249
95 258
103 256
92 260
94 258
91 256
100 253
106 243
104 244
99 253
88 257
98 257
97 252
104 249
117 239
113 236
103 243
101 243
103 244
109 244
110 249
99 254
101 251
104 250
113 241
112 245
108 247
111 245
111 248
105 252
105 249
112 243
103 248
115 239
116 239
123 236
120 237
123 234
128 227
127 225
123 222
128 224
128 225
124 230
123 234
122 234
115 237
110 240
111 240
107 245
112 242
105 249
103 250
106 253
101 255
101 251
96 252
97 254
91 259
97 257
91 262
89 267
86 267
89 261
91 264
86 267
94 259
94 258
88 258
83 263
93 265
92 269
88 272
86 274
86 278
96 270
103 261
95 261
99 254
103 252
99 250
101 247
103 247
104 243
103 248
104 248
102 249
99 252
103 249
103 245
106 246
106 245
99 250
99 249
102 247
94 256
96 257
96 253
103 243
100 245
95 245
103 244
104 245
100 249
113 242
119 236
117 240
118 236
127 231
128 228
130 225
127 224
133 220
132 223
132 221
128 220
132 221
137 218
132 220
131 219
126 220
129 228
132 227
126 230
124 229
118 234
114 236
111 237
117 233
121 225
121 227
123 230
127 230
117 234
121 232
130 232
122 231
130 226
125 232
119 234
114 239
104 246
101 255
96 259
94 264
94 265
92 260
93 258
105 247
103 250
106 252
105 252
104 250
115 243
111 243
113 241
113 238
108 239
122 232
113 232
108 237
122 228
117 231
120 232
124 229
124 224
124 228
119 230
115 237
118 234
108 244
103 246
106 248
100 248
108 248
105 254
99 257
103 256
107 251
106 249
106 247
109 249
107 249
105 253
104 251
114 246
108 247
114 242
112 242
115 240
115 238
115 236
124 230
128 224
132 225
128 229
125 231
136 225
130 225
130 230
133 226
130 225
135 225
127 230
126 227
123 226
128 229
121 224
118 226
123 222
124 227
128 227
124 230
122 228
120 231
107 236
105 247
113 239
103 242
107 245
113 245
112 246
107 247
102 251
105 250
110 245
100 247
105 247
103 246
105 247
111 247
103 254
106 256
107 249
112 251
108 251
115 245
114 243
116 244
116 242
114 244
111 247
117 239
116 237
118 235
117 236
111 235
120 231
119 230
122 233
121 231
121 226
122 227
132 221
121 225
128 225
121 227
121 229
130 228
129 226
121 227
128 228
130 229
124 237
122 241
123 240
111 242
120 238
121 234
117 240
109 247
115 241
115 245
112 249
116 240
117 238
113 234
122 236
123 232
124 227
129 223
137 218
125 226
125 230
122 232
118 232
118 234
128 230
125 231
136 226
131 228
125 231
120 234
121 237
112 243
112 243
122 237
118 242
104 247
103 247
104 244
97 250
99 247
97 251
90 254
93 255
99 252
99 248
94 253
89 255
100 251
106 248
97 257
95 253
99 252
94 255
103 246
104 247
114 239
115 239
114 241
110 245
99 250
106 252
109 250
107 249
111 249
110 252
115 245
111 245
120 239
116 242
116 242
110 242
111 247
107 250
114 242
116 241
111 243
112 244
114 240
114 239
111 238
110 238
103 247
104 249
99 251
112 245
107 246
110 241
111 243
108 246
102 250
109 245
115 241
109 248
109 245
105 248
108 249
112 244
115 239
117 237
117 236
109 243
117 241
112 240
120 236
121 232
127 229
127 229
128 229
122 234
121 230
121 237
119 239
118 240
115 240
113 242
114 242
110 241
115 242
107 244
113 237
116 236
119 234
117 236
119 237
112 241
112 236
115 236
113 240
112 242
108 249
113 240
119 237
117 236
116 234
111 237
119 238
112 245
117 236
127 230
126 230
128 227
123 232
120 233
113 237
114 242
119 236
116 239
107 242
114 242
113 245
113 248
118 244
114 245
110 245
109 246
113 244
112 244
109 242
102 249
100 252
96 258
112 246
118 243
106 244
105 247
102 249
98 252
101 252
103 251
111 241
102 242
104 245
103 248
109 246
110 245
103 251
104 254
115 247
109 248
112 248
115 245
106 249
111 248
111 247
106 239
113 238
120 238
115 238
112 239
113 241
115 244
123 235
121 233
125 232
125 233
127 231
113 237
121 235
115 232
127 228
115 234
114 236
112 235
102 249
99 253
95 258
92 264
101 260
93 263
100 258
103 255
99 258
100 255
115 245
116 245
113 242
115 243
113 240
112 244
116 237
111 238
108 244
107 245
110 246
109 249
103 250
105 252
103 253
108 252
107 254
104 255
106 251
102 254
100 255
99 257
100 258
91 261
96 257
100 255
89 257
90 257
84 263
86 263
94 259
96 258
104 248
104 245
109 242
113 243
114 245
117 245
111 242
113 244
99 255
99 257
105 253
123 236
124 239
123 238
118 239
111 245
112 246
114 241
109 246
106 247
112 239
114 239
120 233
114 233
116 229
118 233
121 235
116 229
113 228
115 230
112 234
114 236
108 239
118 238
113 241
110 245
107 246
101 249
96 258
97 257
99 250
92 254
97 256
92 255
90 254
102 252
99 253
100 254
94 257
95 254
95 251
104 249
107 247
110 241
110 242
117 241
109 243
105 246
106 247
115 240
110 242
108 243
110 242
114 241
117 241
109 245
115 242
113 243
105 248
112 244
106 240
105 242
110 244
99 253
96 254
90 259
89 260
96 252
90 258
89 261
98 259
97 260
96 260
93 264
98 258
102 256
102 254
107 253
102 254
105 249
104 252
100 253
101 254
102 254
104 249
105 247
107 246
111 245
106 247
98 257
101 254
97 255
101 255
104 250
108 248
102 253
96 261
92 263
93 261
86 267
88 269
100 263
100 259
102 258
101 255
99 254
93 257
97 256
94 257
90 263
100 258
95 258
106 257
99 261
98 259
92 261
89 262
78 268
86 269
99 261
97 260
103 256
102 256
99 258
96 263
92 263
100 259
104 252
101 250
108 251
100 254
116 244
113 246
118 242
111 244
107 246
109 243
117 244
120 236
115 238
100 243
104 246
99 243
104 248
100 250
100 250
95 256
94 256
98 256
107 252
100 253
101 253
97 253
98 256
102 252
98 259
90 267
88 270
90 269
94 265
97 262
94 260
97 257
102 256
97 257
93 264
95 264
101 259
104 252
100 254
110 244
103 249
110 247
108 247
112 244
109 241
110 247
111 242
103 243
109 240
115 236
113 240
118 230
126 227
123 231
118 235
110 240
113 239
113 243
108 243
112 241
112 244
122 234
120 237
121 234
124 234
116 239
121 235
133 222
120 231
117 232
111 234
107 237
114 237
107 246
102 248
98 250
97 252
103 250
105 245
107 246
111 244
111 247
111 244
117 242
121 236
117 241
114 240
109 241
106 242
112 244
109 248
100 252
98 252
106 245
116 242
109 244
108 243
104 244
109 242
102 245
104 247
105 246
103 251
102 247
101 245
114 239
108 247
97 254
101 256
94 258
96 260
95 260
89 265
90 265
89 267
95 266
80 271
92 266
90 267
87 268
91 267
95 263
98 261
96 261
98 256
97 256
107 249
109 248
114 239
121 231
112 238
120 232
125 234
121 238
114 242
122 239
121 237
106 245
108 245
106 249
98 253
102 251
101 251
98 252
96 257
98 257
96 258
89 262
91 262
91 266
100 256
101 255
105 254
101 251
105 252
112 247
106 246
111 239
109 244
106 252
102 252
111 245
104 253
107 252
105 252
107 249
106 251
115 249
106 250
107 251
105 248
110 248
108 252
115 246
118 239
112 242
114 242
116 239
121 237
121 230
110 231
121 229
118 232
118 236
124 231
121 234
121 236
121 233
118 232
126 227
123 224
130 225
124 228
126 224
114 230
122 230
123 228
120 231
126 229
114 240
110 244
102 252
99 249
103 251
98 252
97 256
88 260
96 260
99 258
94 258
104 255
105 253
111 244
107 243
120 232
111 229
118 231
117 231
116 228
113 238
107 249
98 253
96 256
94 258
91 255
101 250
110 246
102 252
100 252
98 259
94 261
81 265
90 263
88 261
88 269
100 259
99 260
98 263
94 257
97 259
103 257
95 263
93 263
92 260
95 264
93 263
94 265
89 270
91 270
94 265
99 263
96 261
95 264
101 260
104 262
107 255
108 251
110 247
115 241
109 248
117 240
128 233
126 234
121 236
115 244
112 241
121 236
121 235
123 231
131 230
116 235
122 235
120 230
117 231
112 236
114 240
116 240
114 240
113 237
118 234
117 231
118 236
109 237
113 238
111 244
105 248
107 247
112 244
106 243
106 245
109 242
109 241
103 246
99 252
100 254
108 250
100 252
102 249
98 251
104 247
110 239
115 240
114 241
115 241
107 243
108 246
107 249
103 252
99 256
106 258
100 259
97 266
93 271
98 265
93 264
94 263
99 257
95 255
102 252
103 252
101 256
98 258
103 255
102 251
105 251
111 248
111 246
115 241
109 243
111 245
104 248
112 246
109 249
108 251
117 243
112 243
121 231
115 236
113 237
109 238
115 235
113 232
117 232
112 234
112 239
107 240
96 244
103 245
112 244
108 241
105 244
114 238
110 241
108 246
112 241
102 246
103 250
101 251
104 251
102 248
107 250
112 247
108 251
100 254
111 249
102 255
105 250
107 247
106 245
103 249
98 249
105 248
98 250
100 255
102 250
102 253
101 254
100 260
94 263
101 254
93 257
97 258
94 258
100 251
107 250
106 247
112 248
104 244
115 242
105 253
98 256
102 255
110 248
112 245
115 243
111 241
105 244
112 242
116 240
111 244
118 239
120 237
115 245
106 251
106 252
104 257
104 260
101 262
106 254
107 253
110 251
107 251
101 249
102 251
100 252
105 253
96 256
106 249
98 255
99 253
104 248
105 248
107 248
99 249
93 251
93 254
98 254
94 256
94 258
97 260
105 255
106 252
98 253
105 249
100 257
97 262
103 255
101 258
106 254
113 249
111 242
117 235
114 235
116 234
111 236
115 235
117 237
119 237
117 243
108 244
94 252
106 247
111 247
115 242
115 237
111 235
112 235
116 238
112 243
110 246
108 249
103 245
108 246
112 249
103 254
99 251
112 241
118 237
110 247
100 251
98 252
97 255
101 252
101 253
99 252
105 249
101 251
110 247
114 239
114 241
111 240
107 247
109 247
105 247
113 243
108 245
105 249
97 254
96 257
97 254
100 253
103 247
104 247
109 248
110 246
99 249
109 246
105 244
108 244
110 239
112 242
114 240
111 239
108 240
110 240
108 246
109 249
105 250
108 246
110 246
108 248
111 249
111 245
107 249
98 253
97 255
96 259
97 253
104 250
96 251
97 254
101 252
99 249
103 250
108 243
106 242
118 237
113 240
112 242
100 246
101 243
104 240
108 246
106 250
98 255
94 258
99 256
106 252
101 252
99 253
106 244
114 239
119 236
111 245
106 247
108 246
116 244
108 239
114 236
116 235
106 241
118 236
108 244
110 243
120 235
119 243
118 240
113 242
115 242
112 246
113 243
115 238
113 235
102 243
108 244
114 242
115 241
124 232
110 238
116 238
113 240
103 244
110 241
117 238
124 232
121 230
124 227
120 226
131 216
142 204
136 214
119 225
129 223
112 227
117 230
115 232
120 233
113 237
106 244
101 253
94 258
95 255
94 256
94 252
102 256
97 256
97 257
96 257
91 262
96 261
96 264
91 264
87 262
94 260
91 258
87 260
92 259
92 257
96 259
94 260
97 258
87 264
85 268
88 261
88 263
92 263
83 267
92 265
93 267
93 266
87 269
94 267
95 261
104 253
110 251
100 253
93 261
95 260
100 255
103 253
106 249
111 245
112 241
105 248
106 247
112 239
113 242
111 239
102 242
107 240
103 246
104 245
109 246
108 247
105 246
104 245
111 241
110 240
111 246
109 248
108 247
108 245
106 247
104 249
102 250
100 250
93 253
99 246
103 243
105 241
92 249
92 254
96 252
97 253
96 262
93 261
88 266
96 260
99 255
96 255
107 248
102 252
102 253
105 249
107 250
110 249
105 247
107 248
103 251
99 257
95 258
95 258
102 253
105 254
105 253
108 249
111 247
115 243
126 237
113 239
113 238
116 238
120 240
114 241
111 246
110 243
95 255
91 257
97 255
94 254
93 260
89 266
92 264
93 266
90 269
92 268
90 269
93 266
96 260
98 259
94 257
96 257
103 257
103 256
99 262
96 258
94 259
95 258
99 258
101 255
100 255
102 251
108 249
104 250
107 247
111 241
114 238
108 247
104 253
103 257
107 251
114 249
116 246
103 248
115 244
114 244
115 238
109 240
112 238
111 239
114 242
104 245
104 248
108 242
111 241
108 242
104 244
96 249
105 243
98 251
104 248
97 254
102 251
109 248
106 243
113 238
113 239
113 237
111 242
104 244
110 241
106 242
105 245
108 246
112 242
118 239
116 241
119 239
113 242
115 242
112 239
116 236
116 238
117 241
111 245
101 250
107 248
116 241
110 244
109 242
104 250
107 247
102 249
94 259
89 257
94 259
87 265
98 254
97 253
103 245
104 245
101 243
102 246
104 250
102 248
100 249
102 252
104 247
109 244
110 249
109 251
104 255
95 257
94 257
91 261
96 257
89 262
86 265
90 264
93 263
101 259
95 262
88 266
91 267
93 268
89 267
86 272
90 269
91 266
92 259
91 260
94 256
84 260
90 261
93 258
91 255
87 256
93 255
81 262
90 255
106 246
111 240
103 242
109 241
117 236
116 237
111 241
114 238
114 238
115 236
120 236
107 247
112 244
103 247
109 247
107 248
109 244
107 245
104 249
101 251
110 242
112 243
114 238
115 238
112 244
108 244
113 241
118 239
114 236
112 239
115 235
114 235
110 236
110 241
114 242
111 240
111 239
115 237
110 244
103 250
114 243
107 247
105 249
100 250
103 251
110 245
111 239
106 243
117 242
118 237
109 243
109 240
107 242
106 244
97 252
99 255
100 252
95 252
103 249
99 252
103 253
97 253
99 251
104 246
100 244
106 243
103 246
95 257
94 257
101 255
113 246
105 243
111 246
102 245
100 251
94 254
98 255
90 264
92 264
99 252
100 254
99 256
107 250
109 247
112 242
111 242
115 242
105 247
106 243
109 243
103 246
117 242
104 250
97 257
107 248
98 251
107 248
115 243
101 249
105 252
107 252
113 249
107 252
106 255
99 259
97 259
95 258
94 256
91 257
91 263
89 259
93 258
95 257
102 252
108 245
105 244
107 244
97 251
94 255
97 254
98 252
95 254
97 252
92 249
95 252
101 250
98 250
100 245
106 244
102 243
109 242
115 236
110 243
105 248
104 246
115 236
122 234
118 240
108 244
98 247
106 248
110 247
115 239
116 239
123 233
110 240
103 244
111 244
102 253
108 250
105 256
100 257
97 254
96 258
103 256
96 260
97 261
97 258
99 259
103 257
110 244
106 245
111 243
105 244
106 242
110 243
106 240
119 238
116 238
110 244
109 246
99 255
102 248
104 247
110 242
106 245
101 247
97 247
108 243
104 241
107 244
110 244
114 241
115 238
113 239
111 246
113 243
116 240
108 242
103 247
108 245
96 256
98 255
102 250
101 247
113 242
106 248
109 243
104 245
107 247
104 246
105 251
99 256
103 256
101 251
99 256
108 246
100 249
95 256
95 258
112 251
106 255
99 251
104 250
109 249
107 251
105 255
105 255
101 259
99 259
97 261
91 263
94 259
94 262
94 263
97 261
96 256
102 255
93 260
98 258
105 252
99 253
102 251
104 250
104 246
105 249
106 251
104 256
100 258
89 259
98 256
97 256
106 253
101 253
103 251
111 246
113 244
114 242
113 244
113 244
120 241
119 237
115 236
113 236
103 246
104 247
111 247
108 246
121 235
117 243
112 241
108 243
111 241
108 246
104 249
99 248
108 247
106 245
107 247
114 247
113 241
115 240
118 244
115 246
109 245
110 243
112 248
100 256
103 253
109 248
97 255
100 259
99 261
94 264
98 268
99 263
96 266
96 262
92 264
95 260
100 261
93 262
91 260
99 259
87 262
95 259
90 260
95 258
99 257
97 256
102 252
112 242
113 242
108 244
108 244
114 242
107 246
109 247
110 250
106 249
112 245
107 246
118 237
115 241
123 238
111 244
113 239
113 239
106 239
120 231
120 228
112 231
110 237
107 237
105 242
110 238
104 243
107 241
106 244
104 245
106 247
110 246
100 255
106 255
98 256
102 254
107 247
102 250
103 250
99 254
102 247
100 249
96 251
106 251
107 245
116 238
116 241
115 237
109 244
120 234
123 232
115 236
120 238
110 242
99 256
103 248
101 244
100 245
98 252
102 250
97 252
100 252
103 252
102 253
99 258
96 258
94 259
98 255
101 256
97 262
92 261
90 263
96 257
90 261
95 258
96 255
107 247
111 245
100 250
107 248
101 255
97 264
94 263
101 262
91 265
93 264
100 261
104 257
105 255
94 259
102 257
101 258
102 257
97 254
94 255
102 248
104 244
104 248
110 248
101 253
100 257
99 260
106 253
101 251
102 252
98 253
105 251
100 257
102 256
99 257
101 255
91 261
100 259
94 259
99 261
97 263
98 263
93 265
97 261
89 267
86 268
89 261
86 260
101 254
99 255
102 254
105 252
105 249
106 252
100 250
103 248
99 250
105 250
114 245
111 243
112 242
110 244
111 248
117 246
111 245
108 250
104 257
96 258
100 254
100 254
101 254
101 251
101 251
103 247
104 244
98 248
103 247
109 241
110 242
115 235
107 241
116 240
107 245
105 248
93 261
95 257
102 256
108 249
102 250
91 254
99 251
93 255
97 250
99 252
100 256
99 259
104 256
105 253
106 247
109 243
107 247
110 241
122 232
110 244
105 244
102 247
112 238
114 237
112 240
105 242
112 237
118 233
128 231
118 236
109 244
114 242
113 242
106 243
111 248
115 245
114 242
110 243
106 248
111 246
103 247
99 255
95 260
106 255
103 254
104 252
103 252
110 252
109 252
102 253
108 245
114 243
109 247
103 250
116 237
113 238
117 240
114 245
110 244
111 241
114 243
122 233
121 232
121 229
115 234
117 235
114 236
115 235
121 235
116 235
114 239
98 246
95 251
108 247
110 244
112 245
104 255
105 254
99 255
103 258
102 257
113 246
109 242
111 243
103 250
111 244
110 239
115 241
114 242
114 240
112 244
114 242
111 242
113 240
114 239
116 239
115 242
112 242
119 240
122 239
109 244
117 240
113 240
111 240
107 243
109 248
104 253
94 258
105 252
100 254
98 255
99 258
104 257
106 250
113 245
107 244
107 249
105 248
104 248
114 245
105 246
102 249
112 243
115 236
113 240
119 237
121 240
124 238
115 246
105 248
100 252
105 248
105 250
112 246
106 247
108 247
117 244
112 245
108 247
109 245
104 246
108 247
109 246
105 246
106 241
101 243
111 239
104 248
101 250
104 250
109 247
105 250
112 246
100 254
116 248
109 249
