Actives Prisoners
0 0
299 6
287 9
280 14
278 24
267 36
259 50
245 66
235 73
228 85
223 93
218 98
205 109
196 119
185 131
173 142
162 150
141 165
142 164
153 162
169 159
173 157
169 154
161 160
163 160
158 166
168 160
169 160
169 162
162 159
158 162
162 166
146 177
138 180
146 178
134 185
128 190
120 196
121 198
133 193
141 190
154 177
156 171
161 169
162 170
163 174
163 172
161 172
161 172
153 171
145 178
148 174
153 173
156 170
156 172
146 176
140 173
134 174
133 178
139 179
158 174
171 167
169 163
161 164
169 163
172 164
171 161
164 162
164 163
157 165
149 172
149 172
146 175
153 177
153 169
161 166
147 175
137 180
135 185
146 185
154 182
165 173
169 165
162 171
168 168
160 171
159 173
160 172
160 176
155 179
145 183
139 186
134 188
131 189
132 191
130 195
120 201
123 201
119 204
127 204
141 198
148 192
151 185
157 183
151 180
150 181
151 178
144 182
143 181
150 175
151 177
150 177
146 184
149 180
144 184
141 186
137 182
136 182
127 188
139 185
149 182
159 178
152 178
151 180
155 176
161 171
166 169
165 170
152 174
159 165
159 165
160 164
159 161
159 162
149 169
137 177
130 176
124 182
128 185
133 189
149 186
158 178
150 176
154 167
150 171
160 169
161 169
168 168
165 163
158 162
151 166
163 162
166 161
165 168
154 170
148 172
144 175
137 179
132 184
149 181
156 178
169 167
169 166
166 166
162 163
164 169
161 173
159 172
156 175
152 182
147 179
154 174
138 180
131 186
130 186
128 191
121 195
113 203
117 208
123 205
134 199
145 190
146 184
151 183
154 180
147 181
156 178
154 180
148 185
152 183
144 186
143 186
137 189
124 194
122 198
121 197
126 193
115 197
112 201
117 200
132 196
147 182
145 180
146 179
143 179
150 178
152 178
150 183
149 183
148 185
144 189
138 188
135 185
134 185
140 185
136 185
132 189
134 193
132 199
142 193
151 188
155 185
154 181
150 183
144 188
147 187
147 188
147 185
150 181
155 177
153 179
143 183
133 192
133 193
125 198
125 197
122 198
122 197
114 197
125 194
132 193
137 191
143 185
135 187
136 187
144 184
143 179
149 176
160 170
158 171
152 175
148 179
135 185
141 181
142 183
141 184
134 183
134 187
132 186
148 178
161 174
168 169
168 166
168 166
167 168
167 168
168 168
167 169
160 172
157 170
152 172
155 173
147 176
139 182
127 186
132 183
126 189
123 193
118 200
130 190
142 182
156 173
163 168
158 165
159 166
166 168
156 171
152 176
153 174
150 178
146 184
141 188
142 186
142 184
142 182
134 186
129 187
131 189
123 191
137 188
156 178
161 176
163 168
159 169
158 175
157 176
160 174
155 176
151 177
147 176
148 175
148 175
154 172
154 171
155 172
145 174
151 173
138 179
143 178
150 174
157 176
168 167
166 166
162 168
168 169
160 172
161 173
152 175
155 176
160 169
166 168
162 170
156 172
153 176
148 175
146 173
132 175
132 184
127 183
141 178
148 179
153 175
148 175
145 175
154 178
145 180
153 178
154 177
157 174
148 180
148 185
146 183
141 180
135 187
130 182
136 180
131 184
140 182
125 188
142 185
141 185
149 181
152 179
155 172
164 167
166 169
162 169
159 174
159 172
153 171
154 172
148 174
142 183
137 186
134 190
129 192
126 189
127 189
123 194
132 195
145 188
146 183
149 178
151 177
152 176
163 169
166 168
155 170
150 172
147 169
154 168
145 177
149 176
138 182
141 179
144 183
142 180
129 190
132 189
144 183
155 181
164 175
163 174
162 172
161 170
162 170
165 169
156 169
150 174
147 178
138 180
140 184
128 191
134 190
130 193
132 192
121 193
123 193
126 193
130 192
144 185
153 178
153 175
153 167
147 170
154 171
156 176
146 179
140 183
149 182
144 184
131 192
132 186
133 190
136 188
136 190
138 188
137 195
135 194
144 188
157 184
160 182
165 176
166 174
162 179
156 183
153 182
152 184
154 180
152 185
140 186
135 189
123 193
125 193
127 187
127 184
129 190
126 198
122 200
124 200
137 196
145 193
148 186
151 183
148 181
149 176
145 177
146 179
138 182
145 183
144 177
150 173
153 171
153 173
144 175
136 174
138 175
146 176
146 177
149 175
157 173
159 174
162 169
163 167
162 169
156 172
155 172
156 170
151 176
156 175
156 178
148 182
144 184
140 182
143 178
133 183
128 186
129 183
114 192
123 193
136 186
145 181
146 174
148 173
157 172
162 170
160 169
157 170
161 164
160 166
154 172
153 167
144 171
150 169
137 178
140 178
141 179
148 176
145 180
149 177
161 171
169 167
166 164
163 168
165 170
156 172
160 168
162 165
160 165
163 165
165 165
151 175
146 174
146 176
148 176
144 179
134 187
128 188
124 189
130 189
143 185
152 178
154 176
153 179
148 182
150 182
150 185
145 184
148 180
145 186
139 190
138 192
134 190
134 191
129 191
127 195
128 196
127 196
128 195
139 198
145 192
158 181
159 178
158 176
159 173
163 168
160 169
151 173
151 175
145 180
143 179
146 175
147 174
147 170
144 172
145 173
141 181
134 185
132 186
137 182
147 178
150 176
149 176
142 179
155 177
158 175
157 175
154 174
157 176
150 176
151 178
145 181
145 183
141 186
137 191
128 197
138 189
134 195
128 196
134 193
151 182
154 180
154 176
150 176
158 171
154 175
165 171
161 175
159 174
166 169
160 175
151 177
145 180
149 181
156 173
153 171
142 172
141 174
139 173
147 173
157 171
162 167
161 166
166 164
161 162
170 161
157 165
162 167
152 175
158 174
151 172
151 175
153 174
148 177
146 175
137 180
124 191
128 191
119 196
128 191
140 187
142 180
145 175
139 176
144 175
146 179
161 169
155 173
156 173
162 167
154 167
153 171
145 173
141 173
139 177
144 177
150 181
147 178
142 180
154 174
168 167
182 157
186 154
180 154
180 155
173 158
175 158
174 162
171 160
164 162
154 166
148 170
146 175
147 174
139 187
133 190
129 188
126 190
118 191
134 188
147 184
154 179
150 178
151 175
154 173
154 174
153 176
150 180
154 178
153 177
136 188
133 187
133 189
126 187
131 192
125 191
123 197
125 199
124 204
129 201
143 197
153 186
154 183
154 180
158 174
157 177
158 179
156 174
164 169
158 169
156 167
166 163
162 159
159 162
154 160
158 160
145 171
144 175
131 182
141 180
149 177
167 166
162 169
160 169
161 168
168 166
168 170
161 172
157 176
150 180
146 180
145 178
134 183
132 185
130 192
136 187
131 190
130 190
122 195
131 193
145 189
156 181
159 177
154 174
153 173
160 170
163 167
161 171
158 167
145 172
144 175
147 174
141 174
140 177
140 174
144 176
134 185
131 190
133 188
146 181
159 175
167 170
167 168
176 159
174 157
167 158
169 159
179 156
169 160
162 165
155 167
156 169
150 170
146 172
137 177
146 173
143 178
134 179
138 181
141 181
158 171
166 163
173 157
171 153
171 157
168 158
174 154
167 161
159 167
154 168
144 167
148 171
149 173
146 175
145 178
138 184
141 182
137 188
135 191
136 191
153 184
164 175
169 171
164 169
165 170
164 171
165 174
162 176
155 178
158 170
159 164
159 165
152 173
160 169
157 170
160 169
147 172
139 176
141 176
145 174
159 173
164 172
164 164
161 160
166 159
160 165
158 170
161 168
164 167
159 168
152 170
157 172
154 176
152 181
146 182
147 183
137 191
125 194
122 196
132 191
143 190
145 188
152 179
151 181
156 177
160 174
157 175
157 177
155 179
164 175
162 173
158 174
146 177
145 177
136 180
129 179
126 187
122 190
120 191
133 187
150 182
156 177
156 172
147 175
155 172
153 176
149 179
150 180
146 180
151 178
146 182
142 180
144 176
147 180
140 180
139 177
144 176
132 181
137 179
146 181
154 179
160 176
153 175
152 173
156 175
160 177
149 181
157 174
149 178
150 178
147 179
144 181
139 186
138 187
131 191
128 190
125 196
127 193
124 198
133 193
152 185
156 181
161 173
162 170
169 166
166 164
164 166
162 167
156 171
152 178
141 179
145 178
157 173
148 176
150 172
150 174
149 178
136 180
149 168
157 165
168 163
173 160
176 156
175 154
184 147
182 147
186 144
183 149
184 145
184 147
169 149
167 150
158 153
164 153
159 158
153 162
145 169
147 170
139 174
149 171
161 167
164 164
165 163
161 161
163 166
157 165
162 157
163 158
170 155
173 155
169 155
157 163
147 171
137 174
139 180
139 186
139 193
132 200
121 204
124 202
135 195
140 191
150 183
152 183
159 180
157 181
155 181
151 182
148 186
149 184
148 186
139 193
140 193
124 202
125 205
131 196
123 205
121 206
117 210
127 210
139 201
149 194
142 193
143 190
146 192
145 191
140 190
152 182
146 186
151 180
143 181
137 182
130 190
143 183
141 186
137 186
137 186
141 187
128 193
131 195
146 188
150 187
153 181
157 176
156 179
156 179
157 179
157 177
154 172
158 167
163 163
165 161
154 163
151 172
147 179
140 185
132 193
123 197
126 196
132 193
138 192
151 187
147 188
146 186
146 184
148 186
152 185
150 182
151 182
146 186
140 191
131 194
138 186
138 189
139 190
134 192
129 192
126 189
123 193
129 191
148 181
156 175
154 171
153 168
156 171
157 171
158 171
151 173
161 166
159 165
156 168
151 168
152 167
157 167
148 175
140 183
143 184
136 184
142 183
144 183
155 177
166 168
162 167
166 166
168 165
169 166
168 166
162 173
158 177
151 178
147 179
145 179
145 178
136 184
125 190
131 188
132 187
128 188
126 190
131 188
149 182
153 175
153 177
152 176
158 177
152 180
151 179
146 179
151 174
146 179
143 179
142 179
134 188
136 191
133 193
124 201
123 201
120 198
108 212
124 207
133 203
136 201
129 201
128 202
129 203
134 194
140 189
146 186
143 183
151 179
147 178
141 181
138 182
141 181
146 180
139 180
145 178
139 178
144 181
152 178
167 169
176 160
177 156
184 150
175 160
167 163
164 168
155 174
151 175
149 172
151 171
148 173
148 178
149 183
141 186
127 190
132 190
140 188
132 192
136 193
144 192
150 188
154 184
163 175
158 179
158 177
151 175
150 179
148 178
145 181
144 181
141 184
139 181
139 185
130 188
131 187
127 187
129 186
127 187
133 189
150 181
155 177
164 166
166 163
168 160
167 165
161 168
158 173
146 176
153 173
156 171
152 173
143 177
132 182
135 186
139 186
137 190
124 189
126 189
142 185
154 182
162 176
166 172
163 173
164 171
165 169
168 167
159 170
159 167
159 169
158 170
146 181
149 179
150 175
147 180
136 187
133 189
132 190
132 192
136 190
147 188
155 183
154 176
153 175
161 173
163 170
159 171
160 163
152 174
157 174
160 173
147 181
150 180
144 181
140 186
135 193
130 190
124 195
115 202
120 200
135 195
143 188
146 186
142 186
147 181
149 180
150 174
145 177
155 176
153 175
149 179
146 178
138 179
144 178
152 173
151 176
141 180
129 184
130 184
142 180
151 179
158 174
154 175
163 171
159 173
150 181
146 183
155 178
159 174
160 173
155 174
153 172
145 174
143 172
138 178
142 175
127 181
130 183
123 192
135 185
154 174
164 166
164 163
160 161
166 162
159 167
155 170
150 174
143 179
141 184
145 183
138 186
138 186
132 190
139 186
137 187
138 183
134 187
137 185
159 172
167 167
175 161
174 159
181 155
174 154
173 153
168 154
172 153
174 148
166 150
156 155
153 161
153 166
151 168
155 169
147 176
137 183
137 177
129 178
132 184
155 170
167 164
161 164
161 166
156 171
163 169
172 167
177 163
174 163
169 162
166 165
168 165
160 169
157 169
150 171
144 180
138 184
132 183
127 183
137 181
148 177
164 167
157 164
160 163
159 164
164 159
170 162
161 168
158 174
159 170
157 167
156 169
153 176
148 176
147 171
150 170
139 177
140 184
137 188
142 187
150 184
160 180
157 176
161 175
163 174
157 174
157 173
149 177
151 174
154 175
147 180
149 185
145 185
143 178
139 184
136 187
138 183
119 194
117 198
120 198
134 192
145 184
149 178
141 178
153 175
156 173
153 174
158 172
161 169
166 166
163 167
162 168
153 171
152 170
155 166
150 167
146 173
143 176
130 177
142 174
152 173
158 171
156 169
163 162
173 157
172 156
169 157
175 152
174 156
169 159
168 160
166 159
168 160
154 171
144 180
134 186
124 188
118 195
115 198
129 191
140 186
145 183
148 173
149 174
151 172
153 174
155 175
153 177
157 174
160 174
153 178
147 185
138 185
140 184
138 180
131 182
132 179
138 183
129 185
136 186
144 182
154 179
153 178
148 179
145 182
144 186
136 189
145 184
139 187
147 179
155 172
162 165
153 167
153 166
158 168
155 168
150 173
151 167
148 165
151 166
168 162
176 157
175 152
168 152
176 150
174 154
173 151
171 155
170 151
171 152
170 156
156 160
153 165
148 169
137 175
146 173
144 176
137 183
134 185
138 180
147 178
155 173
155 169
149 174
157 174
157 174
164 172
157 174
154 179
145 187
140 187
135 190
139 187
134 191
129 194
125 196
125 199
125 200
124 204
130 202
140 201
150 190
149 188
150 188
147 192
150 190
144 185
149 180
154 175
149 181
140 188
146 185
142 191
134 195
122 195
122 193
129 193
123 198
122 197
131 191
144 186
149 182
146 179
150 176
157 175
152 177
155 176
157 178
146 187
145 187
142 184
147 182
141 190
137 192
127 197
135 191
137 183
136 187
132 191
136 190
150 184
150 183
152 179
159 175
159 175
164 174
154 175
157 174
155 172
151 172
145 177
142 179
146 177
136 178
148 174
150 172
146 180
146 179
146 179
152 176
162 171
167 168
165 165
162 170
160 173
155 173
156 175
161 177
158 176
154 177
142 182
136 187
139 188
125 199
122 196
122 196
124 197
125 198
127 192
142 182
155 178
159 172
161 168
157 168
162 171
160 170
161 167
155 170
156 175
145 181
147 179
145 178
146 181
143 183
139 184
135 188
128 195
130 193
129 187
142 183
155 175
160 169
164 164
163 161
164 162
165 168
159 178
159 177
156 175
160 170
155 169
160 168
164 163
157 170
154 171
149 174
140 172
135 178
135 182
146 183
159 179
162 177
166 173
166 173
170 171
169 170
175 167
165 165
158 163
154 163
157 161
154 170
146 177
143 181
137 190
133 185
125 193
122 195
120 198
125 195
136 192
146 183
150 178
152 180
153 179
155 178
151 180
153 184
150 185
153 182
153 176
149 177
148 174
135 179
134 182
130 182
133 186
128 190
130 194
136 192
142 195
145 193
147 187
144 190
155 184
150 187
145 186
147 182
145 178
142 183
136 183
133 186
138 182
137 182
145 184
137 184
135 179
133 183
131 185
140 181
158 176
170 166
172 162
166 162
165 162
176 156
171 161
168 160
159 164
156 173
143 183
142 186
131 190
133 195
136 191
133 196
131 197
134 194
129 199
126 200
146 191
152 185
156 178
151 180
159 176
154 179
151 175
152 176
150 180
153 179
152 179
142 184
141 185
137 188
123 196
118 193
121 191
122 196
126 201
132 200
147 194
149 191
146 188
144 190
145 189
144 184
141 189
141 188
146 183
152 176
152 175
148 176
146 178
142 176
143 178
145 184
133 188
139 179
145 179
149 181
164 171
177 162
173 160
172 160
169 160
169 162
172 158
172 160
167 160
170 155
165 163
161 164
158 172
154 175
146 176
144 178
136 181
129 183
135 183
142 183
161 175
161 173
162 169
160 171
160 170
167 170
169 166
171 164
162 168
155 172
151 173
154 173
144 183
135 187
132 189
131 199
126 198
130 193
123 200
134 197
146 190
153 188
153 184
151 182
155 176
153 183
149 183
152 180
151 178
147 183
146 182
147 179
150 179
138 189
130 189
127 195
121 199
118 202
115 206
113 210
130 203
138 197
145 190
150 182
149 181
150 180
146 182
145 187
144 185
144 186
136 189
132 191
137 194
136 193
135 191
139 186
132 191
130 195
135 192
132 195
150 188
153 183
153 180
156 178
166 174
166 174
175 170
162 175
156 178
156 176
147 183
145 181
150 179
147 178
148 175
141 177
133 177
130 183
138 180
137 186
142 184
148 181
151 178
147 174
157 169
153 176
157 175
150 175
149 174
148 176
143 180
144 180
139 182
142 180
141 180
142 181
141 178
133 188
138 186
143 186
149 184
163 175
164 172
164 169
161 169
161 169
154 168
154 169
166 165
165 170
155 176
155 175
151 178
149 177
140 181
137 181
136 190
127 194
119 198
132 192
145 189
153 186
155 181
152 178
151 177
154 178
150 177
159 170
147 173
157 172
152 173
141 181
141 183
137 187
131 199
125 198
116 199
116 200
122 197
131 201
148 193
158 188
160 181
156 177
154 179
161 173
161 179
156 176
152 174
157 172
149 171
142 173
138 176
141 175
136 189
130 193
130 195
129 191
121 194
132 193
140 190
151 183
154 180
144 185
147 186
149 185
148 186
147 189
145 190
149 185
145 184
147 184
142 181
143 184
138 189
131 187
125 193
122 193
118 194
131 187
145 184
150 179
152 178
157 171
152 176
153 173
158 172
154 170
154 170
157 164
153 168
163 164
153 172
151 174
150 174
149 174
153 170
144 177
141 177
146 176
159 174
157 174
160 167
165 161
168 161
172 156
172 161
170 164
166 167
170 163
158 166
152 166
157 162
157 161
150 168
151 167
146 171
133 181
124 188
133 188
143 181
152 177
149 176
146 175
147 181
155 178
161 175
159 171
153 173
154 172
142 177
142 173
132 184
132 187
134 190
130 196
133 198
122 204
126 203
131 198
145 196
157 186
150 188
153 182
157 176
158 174
166 167
162 174
163 167
163 169
164 167
157 166
149 170
142 181
139 182
140 178
133 179
141 174
134 180
141 181
154 175
159 173
162 168
160 163
159 163
168 162
162 164
157 166
154 168
157 163
153 167
164 162
167 166
164 168
154 171
147 173
148 175
143 181
130 187
138 186
150 179
159 173
172 158
165 161
172 157
172 158
173 160
169 162
166 167
164 164
160 167
151 168
145 174
134 178
134 179
132 181
127 183
128 185
126 183
134 182
147 179
148 180
150 176
148 176
155 173
159 170
157 171
154 167
157 169
148 176
147 174
147 168
145 175
138 173
140 179
143 180
139 185
139 183
137 189
136 191
151 189
162 180
158 178
155 174
158 172
156 169
150 178
144 179
145 184
144 185
148 181
140 185
142 182
139 186
144 185
132 190
129 195
120 201
119 202
122 203
130 200
145 192
140 194
138 196
133 199
133 197
145 187
150 176
147 177
147 178
149 172
154 165
157 166
148 171
147 178
133 187
145 184
140 187
137 191
151 182
162 177
172 172
175 167
174 165
167 167
160 166
163 167
168 166
173 161
168 164
153 168
150 174
146 176
144 178
142 179
132 187
130 189
124 190
121 189
137 185
146 180
157 171
158 172
150 173
154 178
146 181
144 183
148 187
152 187
133 193
136 193
129 193
130 195
131 197
127 197
120 201
119 204
126 200
129 199
136 196
146 192
155 184
162 175
159 175
166 171
167 174
162 177
160 176
156 174
156 174
159 173
145 180
146 180
139 183
134 185
129 190
122 191
114 196
118 197
128 196
138 192
146 187
148 185
143 187
144 185
150 185
141 195
146 190
146 187
142 189
145 188
146 186
138 185
140 183
142 187
140 189
136 193
131 191
132 189
136 190
149 186
156 180
154 177
151 176
163 169
164 166
161 172
163 171
162 177
162 174
159 173
155 175
153 175
147 180
140 183
138 187
128 186
129 188
130 189
128 192
142 185
151 182
147 182
139 184
150 180
151 178
150 179
151 177
152 173
149 172
147 178
142 180
144 176
155 173
151 171
155 167
154 169
143 175
135 177
140 180
156 171
169 162
164 161
161 162
163 165
165 166
160 169
163 166
160 165
166 162
167 167
156 167
151 171
152 172
149 171
154 167
141 177
135 181
144 175
150 176
162 172
165 170
172 162
162 161
161 164
166 161
163 164
166 165
161 163
159 166
157 164
156 165
147 169
137 177
131 185
131 184
138 182
124 191
124 197
139 188
151 181
153 181
157 177
149 178
160 168
163 168
157 169
158 170
149 177
149 172
151 170
149 171
145 166
148 166
155 164
156 163
152 165
147 168
137 176
146 178
160 174
159 174
158 175
156 171
170 163
167 164
173 161
164 165
166 167
162 168
163 157
167 152
157 156
152 164
151 163
139 168
140 165
144 175
144 177
150 178
162 173
170 166
175 163
170 166
166 165
165 167
152 170
162 164
166 162
164 160
168 163
163 162
160 166
149 169
155 166
153 170
150 167
147 171
144 174
149 174
157 175
160 173
157 170
167 164
171 163
168 167
164 168
154 173
159 166
152 170
155 174
153 170
147 173
146 176
139 187
143 187
139 186
130 190
120 198
128 192
138 189
150 178
154 170
154 167
156 173
153 175
152 179
148 186
148 184
148 185
145 185
140 185
139 190
143 193
134 193
145 185
139 187
137 185
124 192
141 188
143 188
155 182
159 176
152 178
157 176
153 181
151 186
149 187
147 188
145 185
150 179
142 184
144 177
142 176
140 176
134 184
126 186
120 195
127 198
134 196
149 185
153 181
157 174
156 174
157 173
156 173
154 181
154 176
158 170
155 172
152 172
163 166
148 172
139 176
133 175
133 176
137 177
137 182
129 186
145 180
155 177
164 171
169 166
166 165
158 174
171 169
158 177
161 174
155 172
152 181
146 180
141 180
135 184
133 184
128 185
125 186
125 188
130 189
126 188
133 186
144 184
145 182
148 179
147 177
152 177
155 176
156 176
150 179
148 183
149 181
150 180
143 184
140 185
133 186
127 192
125 194
118 195
126 193
124 200
134 192
144 190
152 184
148 185
149 186
145 193
151 188
151 185
155 181
148 185
148 183
150 176
143 172
141 176
142 177
145 176
132 188
127 190
124 194
119 198
128 194
133 196
143 190
142 186
143 183
147 181
144 185
151 182
151 180
146 184
138 190
139 187
132 186
130 194
128 196
133 196
133 193
130 195
129 189
130 189
142 185
153 180
164 173
162 167
161 165
157 167
161 164
168 164
160 169
171 161
177 157
172 157
166 160
156 160
156 164
148 167
145 171
149 172
144 175
139 177
158 170
166 169
168 165
175 155
174 154
172 155
171 158
169 161
162 162
163 165
155 168
162 162
160 162
162 159
164 164
149 172
147 173
144 177
142 185
133 190
138 189
152 182
159 180
158 178
157 175
158 172
150 177
157 176
157 174
150 175
152 177
147 177
138 179
140 179
131 187
136 187
142 187
132 192
127 193
119 198
124 198
140 193
145 186
152 180
148 182
153 179
149 183
156 176
162 172
167 167
161 171
152 176
151 178
136 185
130 186
129 188
131 194
130 193
122 194
118 193
136 187
156 181
168 172
162 171
158 170
154 173
158 167
155 170
155 168
152 168
153 166
149 174
148 175
143 179
137 180
128 186
131 190
120 196
130 195
133 193
136 193
150 187
160 177
162 175
160 174
158 178
158 175
151 178
154 175
147 177
147 177
140 179
139 181
132 190
130 195
120 194
118 200
126 201
121 211
122 210
123 210
135 205
138 203
133 205
133 203
137 194
142 194
141 190
137 194
134 196
140 190
142 194
137 195
134 199
126 199
117 200
122 192
122 197
125 192
125 194
140 188
148 186
158 179
156 180
146 181
146 181
156 174
155 174
152 176
158 173
146 175
149 178
151 178
149 176
155 173
148 175
150 177
142 179
132 182
131 177
136 175
159 169
164 167
165 162
161 167
156 175
160 167
165 166
160 168
161 166
165 161
161 159
162 163
153 168
149 170
147 174
137 178
147 176
133 182
138 175
142 177
148 177
154 172
158 165
160 164
157 164
166 163
162 166
158 164
157 168
155 166
151 172
156 167
151 168
153 175
146 176
133 184
135 180
136 182
133 184
144 179
155 175
157 179
156 173
162 169
164 172
161 172
155 175
159 172
159 171
156 174
152 178
151 178
143 183
144 184
142 185
134 190
131 192
127 195
119 197
122 201
137 194
145 188
147 185
152 180
149 183
153 180
151 178
160 179
155 178
157 178
161 177
158 175
152 180
149 178
139 179
135 177
133 180
124 186
123 188
131 185
155 171
159 172
158 166
154 163
163 163
160 170
152 175
156 171
157 168
156 173
153 176
143 183
143 184
137 187
140 186
148 182
138 183
139 188
138 187
140 187
154 181
159 179
159 172
160 169
162 172
158 174
160 172
166 167
163 165
156 170
158 166
163 164
158 169
159 168
157 169
151 173
137 177
138 179
126 184
138 182
147 180
159 174
152 178
158 176
147 181
157 177
150 179
146 179
145 180
151 180
152 173
157 171
158 172
154 171
146 172
156 167
157 164
151 169
139 179
145 179
154 176
161 172
164 168
159 167
161 170
165 170
165 170
154 173
158 175
153 181
152 176
151 180
139 186
135 183
135 185
136 189
128 191
124 189
123 189
136 187
148 182
156 176
158 174
148 177
148 178
153 181
149 188
148 189
151 187
148 185
147 187
149 182
148 176
147 181
140 182
138 185
131 187
133 190
117 195
124 192
142 188
148 185
141 183
144 182
150 179
156 173
149 176
156 174
157 170
150 178
149 181
150 183
148 182
145 181
140 183
139 183
136 189
138 192
124 197
138 192
148 188
158 181
162 174
159 173
168 167
167 164
172 165
166 167
160 170
165 166
162 166
157 169
159 168
150 170
155 165
149 164
129 178
131 181
138 181
146 180
161 173
166 169
168 164
159 170
155 175
162 172
158 173
160 171
157 171
150 173
155 177
151 178
148 175
147 173
140 180
137 181
132 190
128 196
131 196
145 189
153 187
164 177
165 176
162 173
159 171
156 171
153 170
155 168
162 165
166 163
167 167
164 167
154 175
155 172
149 178
146 177
151 174
138 177
140 178
152 176
163 171
168 168
168 162
161 163
163 163
166 162
167 160
163 167
156 172
160 172
157 174
156 175
154 173
150 179
146 179
143 180
145 181
134 187
126 193
136 186
146 188
154 184
155 180
166 168
160 171
159 172
165 169
164 168
159 170
157 170
158 174
151 172
150 173
145 177
136 182
129 185
132 183
135 192
123 198
133 193
144 189
153 183
153 177
157 175
150 180
143 183
133 192
139 194
135 193
146 189
145 192
151 181
144 184
143 183
146 182
143 185
137 185
133 188
127 193
135 192
148 185
155 178
152 173
158 173
161 171
165 166
161 171
166 168
174 163
170 165
165 165
159 163
147 165
140 173
137 179
143 171
141 172
134 176
137 178
138 183
152 179
163 170
165 165
164 166
169 162
176 158
172 156
165 163
161 164
155 165
144 168
144 171
140 175
134 179
131 181
130 188
137 185
136 188
133 190
143 185
148 189
153 186
160 177
160 175
161 174
157 176
158 178
153 178
152 177
147 182
142 180
141 185
139 187
136 180
144 178
143 181
134 188
133 185
138 180
140 181
152 176
166 168
162 170
164 163
167 164
162 165
160 168
157 171
158 166
158 163
160 164
155 173
154 178
151 180
137 186
125 195
125 195
123 196
126 199
133 198
144 197
151 193
157 182
155 184
152 184
153 182
150 181
150 184
143 187
139 191
127 196
130 191
135 191
137 186
127 195
127 199
111 209
104 215
100 215
109 211
131 205
135 201
140 198
140 195
137 195
135 197
128 200
129 202
125 201
130 204
125 202
121 205
121 209
127 200
129 198
125 200
131 200
129 199
124 207
137 199
139 198
150 192
152 190
158 181
158 180
157 181
159 180
148 184
153 176
146 177
139 175
127 182
130 179
134 179
141 184
140 186
133 190
129 193
124 199
132 195
142 194
153 185
151 182
155 179
146 188
145 184
147 184
147 181
142 184
138 181
143 182
143 183
139 190
140 189
132 196
130 195
122 198
116 202
113 208
125 204
140 199
145 197
144 192
146 186
138 188
144 188
143 190
148 187
139 190
143 187
142 184
138 188
140 188
144 194
138 193
122 199
112 204
105 208
104 212
115 210
130 202
134 195
141 189
139 188
140 191
157 182
154 183
146 186
147 179
152 180
150 176
147 172
145 172
147 179
148 175
151 176
143 178
148 179
139 185
144 184
157 183
161 178
159 175
166 166
179 157
171 160
168 160
170 160
162 158
165 159
160 165
160 167
154 166
155 169
145 171
141 170
136 177
128 179
137 178
147 174
161 170
164 171
162 167
152 172
147 175
154 172
160 169
159 168
159 169
159 169
160 167
167 164
162 162
161 165
160 164
152 166
143 170
144 166
140 168
136 172
153 169
158 168
158 169
157 170
156 170
160 172
158 170
158 171
157 173
156 167
165 164
159 157
159 159
150 166
146 174
141 181
127 191
130 192
123 195
126 195
135 193
141 191
145 185
146 181
156 173
156 172
154 176
156 178
158 179
153 175
151 174
142 177
155 177
150 176
147 176
137 183
137 182
134 182
134 185
141 185
151 179
159 177
159 172
158 171
164 172
162 171
167 171
165 171
161 172
156 172
149 173
147 178
145 176
143 177
136 184
131 188
121 190
108 198
101 205
115 205
127 201
135 200
145 189
144 185
144 187
141 187
143 188
137 187
138 187
142 180
146 185
147 184
138 191
129 193
132 192
124 200
118 201
115 200
120 206
130 201
138 195
141 193
149 182
151 177
159 175
156 175
153 177
150 176
146 179
150 178
141 185
146 181
147 181
143 184
142 188
134 189
134 187
133 188
131 192
137 185
158 176
172 167
172 162
172 163
166 167
166 169
164 165
156 170
157 171
147 175
147 177
153 169
142 177
140 179
144 182
142 183
131 192
136 188
131 189
140 188
156 182
165 175
162 175
166 170
161 173
161 171
162 169
158 172
155 169
153 172
144 180
144 179
137 184
128 189
123 195
117 197
121 193
119 200
112 208
122 206
142 193
143 194
145 188
145 184
150 183
155 172
154 169
143 172
145 176
140 179
135 187
137 187
136 186
144 184
136 190
130 192
122 199
125 200
122 204
138 196
141 196
150 191
157 182
160 175
160 176
158 178
157 176
156 174
151 176
145 181
139 183
132 192
125 199
133 186
127 195
114 197
116 201
108 206
116 205
126 202
142 191
145 188
151 185
144 185
148 183
147 186
136 187
136 187
138 190
142 186
149 182
151 182
150 183
153 179
139 184
134 187
127 189
126 192
115 194
121 194
133 191
143 185
140 184
138 184
144 185
141 188
146 182
145 180
141 183
151 177
153 179
155 177
162 169
153 168
150 169
156 170
153 174
138 180
128 186
143 179
161 173
164 166
166 159
163 158
168 161
169 163
170 167
171 163
162 170
155 174
151 177
138 179
145 175
148 173
143 176
141 180
143 182
143 182
130 192
136 191
146 186
153 181
154 180
154 179
152 177
147 178
148 179
151 172
149 176
154 178
149 181
153 176
151 174
152 173
165 163
156 169
147 174
152 164
140 172
154 164
168 159
173 154
175 149
173 150
172 155
173 159
171 163
164 169
154 174
159 171
147 176
146 181
141 181
134 182
140 178
136 179
138 181
130 186
126 194
133 196
144 192
148 188
149 182
148 185
150 188
153 185
146 192
156 184
149 179
150 178
140 181
146 176
141 182
138 183
138 182
133 191
141 186
143 183
137 187
147 182
157 180
168 172
171 162
166 166
172 161
168 158
155 162
153 169
156 169
153 172
155 171
149 180
141 181
138 183
139 186
131 187
137 182
128 191
123 192
133 192
143 186
149 182
152 182
157 178
158 176
153 179
144 182
142 187
139 190
142 188
130 192
129 192
130 188
134 185
127 187
121 195
118 193
126 199
124 199
134 199
142 194
154 187
152 183
156 179
156 179
154 179
160 174
147 179
144 182
147 182
139 187
143 182
146 183
139 186
128 193
133 187
131 188
128 196
122 201
137 192
146 185
154 182
155 175
156 170
158 166
158 171
160 170
159 171
158 173
150 174
143 177
143 178
145 181
148 181
143 181
141 180
138 181
133 185
132 187
139 183
153 175
166 165
166 160
166 159
171 165
182 160
178 160
182 157
175 154
169 155
167 156
163 164
155 167
151 169
144 176
139 178
139 177
123 182
129 182
142 180
149 179
156 179
158 175
153 176
157 173
151 176
154 176
152 180
147 181
144 183
141 179
144 178
141 181
134 180
137 178
137 181
135 184
135 188
130 188
145 180
157 175
161 174
158 173
161 170
157 175
153 175
155 180
154 182
150 178
151 178
149 181
143 184
136 186
134 187
129 190
127 195
126 194
127 195
126 194
130 190
145 185
144 183
150 173
152 168
156 170
162 173
161 172
158 176
158 179
144 183
145 180
141 181
137 181
140 184
132 188
125 194
126 188
134 187
141 184
152 181
161 174
167 169
170 163
155 168
174 160
167 164
170 159
165 161
164 161
170 153
166 154
164 165
161 167
160 168
143 171
143 174
134 183
133 193
133 193
138 193
152 186
153 186
157 180
155 181
149 182
153 179
151 176
149 178
147 181
148 185
147 186
141 190
134 192
132 195
130 197
124 200
117 203
113 206
113 212
127 204
143 196
150 190
150 187
149 188
149 188
155 186
152 186
155 182
155 179
157 178
149 183
145 188
135 194
135 194
129 193
125 197
120 200
118 205
117 201
126 198
135 199
137 195
134 195
140 192
138 196
137 197
136 197
137 198
146 187
152 182
145 185
141 184
141 185
139 187
132 187
139 184
142 181
139 178
136 191
136 194
150 189
155 183
167 173
157 179
158 179
171 165
174 161
173 155
172 157
166 158
168 157
157 165
154 163
149 172
140 177
137 182
132 188
130 193
123 198
135 192
153 178
161 173
159 172
160 167
161 165
168 165
165 165
163 166
153 174
150 179
145 180
138 183
138 181
140 182
139 182
132 189
124 192
128 192
127 193
135 190
145 189
153 181
155 178
157 177
161 176
156 180
151 179
150 181
156 177
163 169
153 176
149 178
147 175
150 173
140 183
134 185
132 186
121 193
116 202
133 193
144 189
154 185
154 179
157 178
149 184
152 183
151 177
156 173
152 173
151 172
144 174
135 177
136 182
127 184
125 192
119 198
117 202
112 212
121 207
123 208
138 197
148 192
145 187
149 187
149 183
147 184
139 187
148 187
141 185
135 186
132 185
135 185
133 185
136 190
133 190
129 191
135 189
129 188
137 186
142 185
151 180
157 177
159 172
159 169
158 163
166 164
169 163
170 161
163 166
162 166
163 165
164 168
167 161
163 163
150 166
149 166
140 166
143 171
134 177
144 179
150 182
159 175
156 176
160 178
149 175
147 183
144 188
135 191
141 192
139 190
139 187
133 189
127 192
134 189
135 189
125 196
120 203
124 201
120 203
122 203
140 192
143 190
150 185
150 184
142 186
157 179
158 174
154 176
143 179
154 172
152 169
149 171
155 172
162 170
148 177
146 178
146 178
143 181
134 191
138 190
154 182
167 170
166 166
167 167
166 166
164 166
163 170
161 167
155 169
161 165
152 173
147 178
145 182
142 186
143 186
136 184
138 183
140 185
136 187
137 190
148 184
151 183
154 182
156 178
158 179
165 174
163 173
155 175
154 173
156 174
169 165
171 164
162 167
154 171
143 171
137 176
132 180
120 187
104 194
117 192
128 188
138 183
139 179
136 183
137 189
140 188
144 188
143 189
142 189
150 181
151 179
150 177
158 171
141 179
139 188
132 193
122 196
124 196
128 194
131 193
139 189
151 180
145 182
145 181
155 182
148 187
153 180
142 181
144 182
152 179
148 182
143 184
141 183
130 184
133 180
133 185
134 185
128 191
114 194
130 188
143 182
153 175
150 171
156 165
162 159
167 164
162 168
163 166
159 169
154 174
152 173
152 174
143 181
134 186
133 189
134 190
139 184
144 183
145 183
154 179
164 172
175 164
176 161
170 164
177 161
174 162
166 164
162 165
162 168
157 176
150 180
151 177
145 182
143 181
132 185
135 187
132 189
123 192
118 201
124 196
140 188
149 182
147 180
144 184
143 185
155 184
154 180
154 179
162 175
156 178
148 177
146 181
141 184
135 182
134 183
133 184
137 182
126 184
122 189
134 185
156 174
167 166
160 171
153 172
158 169
158 169
154 173
162 168
157 173
147 178
147 178
140 186
135 185
132 185
142 180
140 182
141 184
136 190
132 191
133 194
146 191
153 185
150 181
149 183
148 182
153 182
157 180
164 175
155 173
149 176
142 179
140 183
139 186
135 185
133 185
136 188
136 185
134 180
128 179
139 173
148 171
166 164
159 162
159 163
159 168
161 170
151 177
155 176
161 168
161 168
152 173
159 171
152 174
147 175
145 173
137 173
138 178
140 177
143 176
146 179
160 174
163 174
160 173
148 181
147 183
149 184
145 185
156 178
156 174
149 172
159 168
151 173
153 178
144 181
142 180
134 185
130 186
134 187
127 186
144 180
158 172
174 159
177 152
177 153
176 158
170 161
164 165
157 166
164 164
156 166
161 169
157 177
145 183
137 184
143 184
148 180
142 185
134 189
125 190
135 187
139 186
146 183
138 185
145 176
149 175
152 175
155 180
150 186
144 183
150 182
151 180
149 177
150 179
139 181
138 182
138 181
138 179
144 180
139 184
139 185
157 175
166 167
165 163
170 160
172 156
179 153
177 150
171 155
169 157
176 156
177 154
173 154
169 158
163 165
153 170
146 170
132 172
130 169
134 172
142 172
158 170
155 171
154 170
155 169
155 175
149 179
156 179
155 180
147 183
147 180
147 180
154 179
153 175
139 178
144 175
147 175
139 182
132 184
129 191
133 191
150 184
154 180
155 176
157 176
156 178
157 175
150 178
144 178
148 171
145 177
152 175
142 177
143 175
135 183
139 181
136 181
138 188
130 194
122 200
142 188
155 186
164 176
165 171
160 168
159 171
158 171
165 170
158 171
150 173
149 167
144 174
140 178
139 178
133 182
132 184
131 186
130 187
135 187
135 185
147 181
157 178
160 177
164 170
164 167
164 169
159 169
161 171
163 166
165 163
161 164
153 166
147 177
143 182
133 190
133 195
131 197
123 200
113 208
119 202
119 205
138 196
141 192
141 192
139 188
141 188
139 193
141 192
134 198
132 193
143 190
149 186
140 186
137 185
132 184
130 184
129 188
113 200
115 200
117 201
130 194
142 196
145 192
146 189
152 183
149 182
150 185
141 189
135 191
135 192
124 200
121 201
128 202
127 198
131 192
136 187
134 188
129 193
119 196
124 196
129 198
149 187
154 184
153 179
153 178
146 183
148 181
142 188
136 196
138 194
144 188
143 191
147 189
137 192
132 195
123 201
119 201
115 204
123 204
122 204
138 192
152 185
161 179
158 175
160 175
167 169
160 169
152 175
147 177
150 180
152 178
140 181
143 183
139 189
136 193
132 190
135 188
142 188
139 187
135 187
144 182
157 175
166 168
166 168
162 168
162 169
155 174
151 180
165 172
161 171
162 170
150 176
148 173
149 174
147 180
144 186
133 191
131 189
129 193
127 194
127 195
136 193
146 190
140 187
143 181
141 185
151 179
144 185
146 183
140 181
145 178
147 179
144 182
143 178
136 185
131 185
126 188
131 189
127 194
132 196
138 192
156 186
162 179
164 172
167 167
167 162
159 168
156 166
160 169
154 173
146 173
144 178
140 184
127 192
126 197
129 195
135 192
126 193
135 189
128 192
131 194
142 187
150 181
154 176
160 166
160 162
166 157
161 162
156 160
161 160
153 165
153 166
154 169
150 175
149 176
151 172
150 170
144 175
146 179
142 180
157 173
170 165
171 167
174 156
171 157
169 159
165 163
171 162
168 166
169 167
163 170
153 174
155 176
154 180
139 184
138 182
125 189
117 190
123 190
123 191
130 190
143 186
149 184
147 182
149 180
150 181
155 177
156 178
154 182
162 171
162 170
156 174
145 179
141 183
136 187
136 191
121 197
122 203
127 196
129 195
137 195
144 192
155 183
156 177
159 173
164 171
164 166
163 168
166 169
166 167
169 162
162 171
144 178
146 181
146 178
140 178
142 181
142 184
132 192
128 192
131 195
147 185
149 185
155 178
153 176
151 174
157 172
158 170
167 162
166 161
166 159
157 164
156 163
161 163
169 160
155 170
152 172
151 178
134 187
133 186
137 185
146 182
157 176
157 174
158 176
165 172
167 170
169 169
164 166
158 174
153 174
154 175
159 175
145 182
147 177
145 180
146 177
142 180
138 180
139 182
142 188
154 181
155 181
155 176
159 175
160 176
151 175
155 174
156 171
157 167
152 175
147 176
148 175
151 171
144 179
145 177
140 177
139 183
134 187
130 191
140 184
150 181
161 174
162 168
165 165
158 168
151 177
150 180
150 183
151 183
152 184
146 183
147 182
141 179
145 181
133 187
135 189
134 189
131 184
126 189
138 187
149 182
160 175
156 173
154 169
162 166
156 169
157 172
153 172
160 172
167 169
157 170
152 166
151 166
155 169
156 169
159 171
146 178
149 176
153 178
151 181
162 179
165 174
165 171
166 168
164 170
162 175
149 177
149 180
146 181
150 178
156 175
149 181
136 182
130 189
135 185
132 190
140 185
135 186
126 187
135 186
142 185
149 181
146 181
154 174
160 175
160 177
157 181
156 176
153 175
155 176
151 174
141 179
150 172
147 172
143 171
131 177
134 180
138 181
126 188
138 185
152 185
150 185
150 181
152 175
151 177
149 176
151 178
159 174
164 165
166 166
167 161
155 170
150 172
147 170
136 177
138 178
137 177
128 180
122 183
127 184
146 180
150 177
150 174
151 170
145 176
140 185
139 189
138 189
143 187
146 182
142 183
150 176
145 180
146 178
151 174
144 179
138 183
139 184
137 188
149 181
163 175
168 171
172 164
174 159
179 158
175 162
174 163
169 166
164 167
156 169
160 168
157 170
147 175
144 172
149 174
141 178
131 187
119 195
120 196
127 191
150 186
159 178
154 178
151 181
150 178
153 177
155 178
151 179
153 174
142 182
148 174
141 177
140 175
135 181
134 183
131 186
126 188
133 189
124 191
134 186
154 179
166 171
160 166
151 168
150 170
160 170
150 177
149 175
141 174
142 177
132 184
139 188
130 199
121 202
114 206
116 205
132 194
131 193
139 190
146 185
160 175
166 172
166 172
165 171
163 175
159 173
156 175
160 169
154 173
150 175
152 173
149 176
132 181
121 191
114 201
113 206
113 203
113 207
115 208
120 208
133 204
145 196
144 191
144 189
137 191
132 195
131 197
128 198
130 195
136 192
143 189
144 189
141 189
138 191
141 188
129 194
137 193
132 195
128 198
137 194
151 189
153 188
151 188
147 187
148 185
155 176
153 177
163 164
158 164
161 162
165 161
169 163
152 170
144 176
150 173
136 180
135 181
130 187
122 191
133 191
147 185
157 178
160 172
162 168
156 171
156 170
153 174
150 175
155 170
154 167
157 164
149 169
150 170
149 171
146 177
136 183
138 187
138 190
136 191
148 184
151 184
161 172
159 172
159 173
155 174
160 164
156 165
157 173
162 171
158 172
162 166
154 169
151 179
148 184
136 188
135 185
133 184
135 187
128 192
139 190
148 186
159 174
158 167
158 167
165 170
163 174
155 177
150 175
156 175
159 180
158 177
158 173
148 172
149 175
141 181
137 182
137 177
133 182
133 184
135 189
150 181
155 178
163 169
160 167
164 171
158 174
160 175
159 176
166 167
165 168
168 168
158 171
157 171
152 176
149 175
143 177
139 175
130 181
122 184
138 181
147 181
157 180
150 176
148 172
156 174
145 183
151 183
156 180
160 183
158 184
154 180
150 182
150 180
147 181
142 182
133 188
125 197
112 202
116 202
134 198
141 193
149 186
152 182
149 182
146 184
146 187
146 183
141 187
143 187
143 190
137 194
131 193
133 191
123 195
121 198
117 204
118 202
111 207
107 212
116 209
125 203
137 197
134 195
134 195
139 187
141 190
143 191
142 194
144 190
140 189
138 191
136 184
132 190
135 193
127 197
126 200
128 198
120 201
118 199
121 199
130 194
134 187
140 181
147 179
154 180
155 179
158 175
155 179
156 179
157 176
166 169
165 168
160 171
149 175
135 182
135 184
128 189
124 192
126 188
130 192
137 190
150 182
149 179
151 178
151 182
144 189
149 187
145 189
136 191
141 191
144 190
145 189
146 188
145 183
141 185
130 189
126 193
122 199
120 200
134 193
147 185
153 181
158 172
151 169
155 169
158 170
157 167
169 161
163 165
164 164
164 166
158 166
163 171
146 177
142 176
149 172
133 176
136 179
133 184
136 184
151 181
156 180
155 174
156 175
158 178
154 177
161 173
155 180
149 183
145 186
138 192
134 193
135 192
127 193
124 196
121 204
124 203
134 203
133 200
144 192
152 187
165 175
169 167
169 162
169 158
160 165
157 162
160 166
167 165
168 167
167 167
168 167
162 165
151 172
148 176
138 176
139 180
130 190
122 192
137 186
153 179
159 174
161 168
154 169
149 173
162 168
158 166
165 169
169 164
164 163
165 161
163 160
160 160
151 166
154 169
150 175
138 181
139 180
133 180
139 182
144 181
153 178
147 178
150 173
153 176
151 175
157 172
157 170
154 174
149 177
158 172
153 173
144 173
145 170
135 180
147 173
147 171
142 174
137 185
144 181
158 174
162 172
165 168
157 173
160 171
156 175
154 178
148 181
151 178
144 185
146 182
150 181
146 176
145 176
147 173
138 180
144 181
133 181
140 178
148 179
159 179
165 172
166 166
166 161
170 157
167 160
163 160
163 160
161 162
166 160
156 166
149 169
152 169
142 175
140 178
134 180
131 182
124 188
125 192
143 188
150 187
164 176
160 176
163 173
161 167
163 164
165 160
163 166
168 164
167 164
160 162
160 158
166 156
159 156
151 162
154 163
147 168
149 166
146 168
152 164
163 162
172 159
170 157
161 159
163 158
166 161
165 162
153 170
157 166
162 166
152 168
157 169
157 164
155 167
149 170
154 169
147 174
146 178
142 185
136 189
145 185
155 176
153 177
166 166
158 170
167 169
165 167
167 167
161 166
155 170
154 166
156 166
155 167
150 171
144 173
146 174
133 183
121 188
112 189
128 185
141 186
148 182
145 175
144 173
157 165
154 171
148 179
152 180
157 176
163 169
157 174
158 176
146 173
143 174
141 178
137 183
130 190
127 190
129 194
138 191
147 188
156 181
160 173
158 170
157 173
166 165
167 164
167 167
160 170
157 171
155 173
155 171
155 170
146 171
145 175
130 185
134 183
130 185
136 185
142 184
152 182
156 179
160 175
159 176
151 181
152 181
160 175
156 178
150 182
149 180
144 186
133 189
132 187
134 188
131 191
122 193
126 192
132 191
129 189
132 189
146 185
152 184
157 178
148 182
152 179
151 179
153 177
152 176
149 185
146 190
145 188
143 185
139 184
139 181
146 172
154 167
154 165
140 172
138 177
144 179
153 176
158 174
160 171
156 173
152 177
157 177
153 179
153 180
150 179
150 181
146 180
139 187
136 189
124 189
134 181
139 177
135 182
133 183
136 182
142 181
153 178
156 175
155 174
159 170
155 176
161 170
157 173
152 180
144 177
151 175
154 174
155 175
150 174
145 171
147 173
138 178
142 178
134 182
133 187
141 182
158 174
163 171
168 163
166 167
158 170
164 170
164 166
160 168
159 171
157 172
162 168
155 176
161 170
153 173
150 176
146 175
127 184
125 186
124 189
139 188
151 184
153 179
148 181
150 177
150 176
143 180
141 182
147 181
146 182
142 183
152 183
151 181
144 179
139 181
137 187
142 187
134 188
127 188
127 184
126 191
143 186
148 182
152 173
146 178
160 171
155 175
151 179
158 175
150 176
149 184
151 176
154 170
154 174
156 178
146 178
146 177
149 174
145 181
137 180
144 176
158 172
160 170
160 172
162 168
159 173
158 174
158 175
163 174
161 170
161 171
151 171
156 170
159 170
158 171
153 171
149 172
145 173
139 181
142 182
143 186
162 175
160 175
155 174
159 173
157 176
154 178
158 174
153 176
150 174
151 177
144 178
143 184
145 180
138 185
135 191
124 197
125 196
120 194
110 197
118 200
128 198
136 191
137 191
132 190
144 187
155 183
151 182
150 179
155 173
150 172
145 172
149 172
147 173
148 172
146 175
154 175
140 181
136 187
134 188
143 183
158 175
168 165
168 162
166 164
168 166
174 161
169 158
160 164
162 166
157 168
156 168
145 170
150 170
153 173
146 176
143 179
136 186
134 184
127 189
141 182
150 181
158 176
153 177
156 171
160 169
164 169
157 172
159 170
160 165
160 167
160 171
166 171
166 170
166 166
155 168
162 164
138 174
139 174
134 183
145 179
151 178
164 170
158 172
157 169
162 168
152 171
154 173
159 171
154 174
155 175
153 177
146 178
150 173
149 174
141 174
144 172
138 178
125 183
132 186
142 185
157 178
166 170
164 170
157 172
153 172
161 168
160 174
160 173
159 175
156 177
147 181
155 176
153 178
143 179
134 187
135 186
125 191
128 191
129 195
142 193
152 186
165 173
169 164
171 162
169 162
169 160
159 161
159 165
152 169
158 168
150 172
159 171
151 178
146 180
149 176
141 182
145 179
128 188
131 179
144 174
163 166
165 162
167 155
163 160
164 158
169 159
167 164
159 168
166 167
159 167
163 164
160 168
163 167
149 174
153 174
157 174
150 176
138 179
130 182
138 178
158 164
162 162
163 159
169 157
168 161
169 161
173 154
166 161
169 161
162 162
150 166
151 171
147 173
147 174
148 174
136 185
134 187
123 191
122 190
142 179
153 182
156 178
151 174
154 176
153 181
158 179
158 179
149 176
152 175
145 177
152 170
155 167
154 167
160 168
153 167
142 177
137 187
127 189
127 189
123 192
139 186
141 183
141 182
137 179
141 178
142 180
152 177
153 174
156 176
160 173
153 177
156 174
149 174
147 177
148 170
142 173
146 178
132 188
137 183
142 182
151 183
155 176
157 172
166 162
169 158
170 157
172 161
171 161
164 167
163 165
161 169
162 166
160 169
151 174
140 179
126 180
129 182
119 195
116 199
125 197
140 191
141 190
138 191
139 186
142 190
142 194
145 187
141 189
144 188
140 189
141 190
142 192
142 189
142 189
130 192
133 192
130 193
128 195
125 190
141 180
152 178
161 170
158 169
163 165
165 172
165 167
159 172
167 166
163 164
166 164
160 163
157 164
147 164
151 169
149 175
147 175
143 174
134 182
130 186
133 187
154 179
160 173
159 173
150 174
157 172
166 163
166 161
169 155
165 160
165 157
158 163
155 167
146 168
148 168
142 172
150 166
146 174
141 179
140 180
158 173
161 175
165 175
166 174
162 172
155 177
153 177
153 177
151 177
149 183
144 184
137 183
136 182
140 182
139 183
141 181
127 191
122 201
121 200
127 195
136 192
147 190
151 187
154 181
149 180
157 175
148 179
154 173
151 172
155 173
150 176
150 178
145 179
145 182
141 185
136 186
130 188
129 198
131 200
119 210
123 209
136 203
138 200
142 194
143 192
143 190
154 183
159 179
159 180
156 181
144 184
148 180
140 180
140 186
135 188
130 196
135 194
125 201
122 200
122 200
129 193
145 183
154 178
149 177
155 172
157 170
152 172
146 176
152 173
150 176
150 178
148 181
141 182
149 177
144 182
146 184
150 183
138 186
134 191
131 192
134 192
152 180
159 176
156 173
164 167
161 172
151 176
154 178
156 176
152 182
155 182
166 171
160 170
153 173
156 170
152 167
135 178
133 182
123 193
124 191
132 189
146 185
146 188
141 185
144 181
142 183
152 177
159 172
153 182
151 184
150 185
152 182
147 186
137 191
136 191
126 193
119 204
125 199
117 198
127 196
125 200
144 189
147 187
153 180
150 176
157 179
153 183
157 179
156 178
156 181
147 185
153 177
149 180
144 186
133 189
129 193
130 188
137 186
125 194
121 198
126 197
145 189
156 180
147 184
146 180
155 180
152 179
152 178
150 176
150 178
143 179
144 174
140 175
140 182
144 183
134 184
127 190
122 197
117 195
123 200
133 198
146 192
151 190
147 190
149 186
149 186
152 181
147 182
146 179
148 182
141 183
143 180
144 176
154 172
134 181
128 184
127 185
122 188
130 191
131 189
140 186
154 178
157 174
159 169
154 171
162 174
153 175
155 173
152 175
153 172
146 178
157 176
155 171
149 167
154 171
152 169
142 171
137 176
138 178
139 178
140 180
160 170
164 169
160 168
161 166
160 166
171 161
172 158
171 157
167 158
173 161
164 163
164 162
162 160
156 167
156 168
149 174
142 177
138 182
135 187
144 187
150 187
164 177
167 169
165 168
163 169
160 176
155 176
152 183
144 186
144 186
140 185
138 189
144 187
137 186
127 192
129 197
126 201
121 203
111 205
120 204
135 194
143 192
147 185
145 187
146 185
145 187
135 193
140 194
128 198
133 195
129 197
134 198
134 196
137 196
129 202
121 204
121 206
115 210
117 209
124 204
139 195
148 191
156 183
156 182
161 177
158 179
157 176
153 177
151 179
141 180
140 181
149 178
151 181
141 186
136 187
129 192
121 196
123 198
113 201
116 199
129 194
132 195
134 192
135 192
137 193
144 191
146 187
148 186
145 186
156 173
151 172
142 178
139 186
155 177
150 178
144 185
140 186
133 189
128 195
138 189
150 182
160 176
163 168
160 169
158 172
161 171
166 166
158 170
156 173
152 172
153 171
147 176
147 176
152 176
151 172
152 175
135 177
134 173
136 177
145 177
158 174
167 170
164 168
166 168
163 172
165 170
162 170
151 178
146 179
144 181
141 178
144 173
137 173
147 177
146 176
143 177
135 183
136 187
135 185
142 184
154 180
165 171
166 168
164 162
168 159
166 161
163 165
153 175
157 172
155 174
156 172
154 172
147 180
152 177
137 185
139 179
136 182
124 183
128 181
140 184
147 182
147 181
146 178
148 177
153 179
152 178
155 178
151 179
151 175
150 179
149 176
141 180
143 178
147 179
142 177
135 186
127 189
123 191
135 184
144 184
154 181
164 175
169 168
163 169
159 172
158 174
155 175
154 173
150 174
147 171
152 172
149 171
153 174
142 180
147 174
144 181
134 185
137 185
136 186
147 183
152 180
160 174
163 171
163 169
163 170
166 167
164 169
159 171
154 170
151 173
153 170
153 168
152 171
152 170
161 166
154 164
149 173
146 172
135 177
137 180
145 179
155 172
153 167
152 169
162 164
163 167
164 165
156 169
155 172
158 171
153 176
150 177
145 179
137 184
130 186
124 187
134 178
131 184
122 193
138 186
144 186
150 185
156 179
154 176
152 179
148 175
145 180
136 187
135 184
132 188
131 188
129 194
132 192
128 194
123 199
121 203
130 197
132 195
125 197
132 194
151 185
163 175
167 169
167 167
165 165
169 162
170 163
159 171
150 173
149 171
152 177
153 175
153 171
140 177
141 178
132 184
135 184
128 191
121 199
136 197
148 186
156 179
159 173
155 174
152 178
155 178
156 175
153 175
146 182
140 189
138 192
141 192
138 196
129 198
124 199
118 206
114 205
111 204
107 206
114 204
127 203
138 200
143 188
143 187
147 183
155 182
155 184
152 182
154 176
152 174
153 172
154 170
155 167
155 170
152 172
147 174
143 175
139 177
135 182
141 181
162 177
164 172
165 167
163 167
161 171
159 171
151 172
157 171
152 177
155 174
138 185
138 188
135 191
136 194
144 185
136 188
133 192
136 191
124 195
132 193
143 193
151 187
141 189
149 187
150 186
146 184
150 182
147 185
152 184
146 183
145 184
150 183
148 187
147 187
142 186
133 188
130 188
132 189
122 190
127 190
151 180
158 177
150 175
148 174
148 174
152 172
151 176
149 175
148 174
146 178
143 182
139 185
141 187
146 176
143 182
139 183
130 192
128 195
129 194
145 184
155 178
159 176
157 177
157 173
155 173
159 171
162 175
161 176
149 180
151 175
150 177
152 173
148 173
142 176
143 174
140 179
131 181
128 189
128 193
136 194
149 190
154 184
159 179
159 176
156 175
158 174
154 174
153 171
147 176
148 175
137 182
141 181
146 179
138 186
140 188
132 190
136 183
136 185
131 186
135 183
149 180
158 173
158 168
152 170
157 169
158 169
156 171
150 179
157 177
154 179
156 175
153 178
153 179
155 175
132 183
134 184
128 186
132 190
130 193
137 190
146 189
150 186
147 183
158 174
157 173
155 177
150 180
143 181
139 187
141 184
140 185
136 190
133 193
131 192
131 190
136 187
129 192
128 191
137 185
142 185
158 178
162 175
165 167
162 167
164 170
164 165
162 166
166 167
163 164
169 159
162 161
163 163
151 168
146 176
141 179
139 176
133 177
136 180
131 184
138 183
158 171
164 167
167 163
167 162
171 158
167 162
173 166
176 164
164 165
167 164
158 168
152 171
155 169
144 174
133 179
135 184
129 186
119 194
121 197
138 190
150 183
158 175
156 174
161 172
155 173
160 172
156 174
166 168
160 171
159 164
158 167
158 165
163 160
165 159
152 157
147 164
139 176
135 177
136 178
138 179
151 174
159 170
162 167
161 169
161 165
169 164
162 167
159 166
157 170
163 167
152 175
147 175
148 176
143 177
142 180
138 189
127 190
122 190
122 192
141 185
151 181
165 172
163 173
157 174
159 175
157 174
153 176
149 179
151 175
158 175
149 177
152 172
155 168
150 167
157 163
154 171
143 180
139 185
138 182
144 183
150 180
161 172
164 168
172 161
167 160
165 161
165 161
153 166
158 164
154 167
157 163
149 173
152 175
141 184
139 188
132 192
128 194
127 195
126 195
137 190
150 183
159 177
155 176
162 169
168 164
161 168
158 171
159 170
162 172
156 172
158 171
146 179
147 177
147 177
142 187
143 185
135 189
128 197
127 196
131 196
147 188
155 182
158 178
160 177
157 180
161 179
164 172
158 174
158 171
156 173
144 178
134 186
137 181
131 187
139 186
134 186
132 183
129 185
124 192
132 188
145 185
152 181
148 179
143 176
147 176
153 177
150 180
150 181
149 182
145 181
151 178
153 175
152 178
137 188
134 188
132 187
132 189
127 191
124 197
134 194
140 192
148 186
149 183
146 187
142 191
146 191
147 186
144 186
147 186
140 189
139 190
130 196
126 202
127 201
134 197
132 194
134 192
134 189
127 198
133 195
150 185
157 184
158 178
163 171
165 168
166 164
157 166
155 165
155 170
148 173
146 181
142 183
139 186
139 188
137 190
136 190
125 194
128 191
128 190
135 188
147 183
156 178
149 180
149 177
159 169
161 164
158 169
164 167
160 170
159 170
151 173
148 175
157 167
150 171
142 171
137 174
154 164
145 167
146 170
149 170
162 164
169 162
170 160
170 158
172 161
172 160
176 157
171 160
153 168
154 170
149 175
155 176
156 174
151 180
139 187
137 186
128 194
124 199
120 204
119 205
139 197
146 189
145 186
149 179
145 178
148 180
143 178
136 186
142 186
142 185
142 186
136 187
132 190
141 190
136 192
137 189
128 192
139 186
143 183
151 181
157 179
169 172
166 171
175 161
179 159
170 163
180 157
175 159
179 157
167 156
161 154
159 161
143 168
141 171
130 180
132 183
126 181
123 184
136 183
144 185
157 181
163 175
162 174
163 176
157 172
150 171
155 171
145 174
149 174
141 180
141 188
136 184
135 181
131 189
138 182
130 187
131 191
134 191
140 187
145 187
157 184
162 182
159 182
164 176
162 175
162 171
161 169
157 170
158 171
160 173
152 178
152 180
140 183
139 179
128 188
129 186
126 193
117 195
112 199
122 196
139 195
146 191
145 189
144 184
138 188
137 185
145 189
143 189
144 188
148 184
145 184
149 179
141 184
145 184
143 185
133 195
132 193
130 193
130 195
133 196
148 192
155 185
156 181
156 176
152 176
161 173
156 174
165 169
152 175
148 176
152 175
147 182
144 187
147 184
140 181
141 181
136 179
142 177
137 179
144 176
154 172
162 169
159 169
163 166
159 170
162 169
154 173
154 174
156 177
151 178
149 179
139 184
137 183
135 187
138 187
136 187
131 190
126 191
122 191
141 182
154 182
158 177
160 171
160 169
157 173
154 176
143 180
153 173
147 178
143 176
148 176
145 178
145 178
142 180
131 182
136 185
130 187
131 190
141 187
148 183
162 175
164 173
163 171
168 166
166 164
166 160
168 156
170 156
162 162
153 166
159 166
152 171
146 177
141 188
134 193
135 198
130 197
132 193
115 199
124 198
134 193
149 185
147 186
142 189
147 187
157 183
153 182
152 180
148 180
148 182
145 185
139 185
148 184
137 187
134 190
130 188
130 189
131 192
127 198
146 189
157 183
163 178
158 177
159 175
161 173
160 169
155 168
149 177
145 181
148 180
151 175
154 174
142 181
141 182
135 183
127 189
131 191
130 193
116 199
128 193
140 191
151 182
152 181
151 181
154 178
153 173
148 180
148 181
141 183
140 184
143 181
145 184
145 190
143 184
143 189
139 192
141 193
137 191
129 196
131 194
139 193
148 185
151 180
147 182
155 180
157 176
168 168
169 166
167 168
159 171
157 173
151 181
143 185
136 191
130 189
130 196
127 198
132 195
130 196
130 195
145 187
156 179
159 173
151 175
152 175
155 174
163 171
159 173
147 177
145 182
147 179
148 180
142 181
141 180
144 184
140 191
137 192
131 194
124 197
129 197
139 193
146 191
143 189
149 186
150 186
150 190
145 191
139 199
135 200
140 192
143 189
145 188
142 187
140 192
129 199
134 192
125 192
122 193
122 195
128 196
142 189
149 182
148 183
154 176
151 180
148 181
145 182
149 177
156 169
150 170
156 168
149 168
155 166
156 166
155 171
156 177
141 182
141 178
140 181
150 175
162 169
165 169
168 164
170 159
170 160
168 160
163 169
151 177
155 171
155 165
149 163
161 164
153 172
155 171
149 177
138 179
134 185
133 189
119 194
136 187
152 185
158 183
157 175
157 178
151 186
151 187
149 186
149 184
152 177
156 172
154 173
154 174
152 180
149 178
142 184
142 188
140 184
134 185
136 187
145 184
156 180
164 175
156 178
160 173
159 170
157 173
152 174
153 176
150 178
148 179
143 185
143 184
141 187
145 181
147 180
146 180
131 187
138 182
135 176
146 170
158 166
166 159
166 155
162 156
166 160
179 155
166 164
167 162
162 163
156 169
151 179
151 177
139 181
143 179
144 181
137 185
126 190
126 187
116 196
130 192
139 190
149 181
147 179
146 176
150 172
150 174
159 171
156 172
157 169
158 168
152 173
147 174
144 177
140 183
133 191
127 191
135 186
130 185
140 177
149 174
159 169
167 165
168 164
164 165
169 164
162 168
156 169
158 168
161 166
153 170
149 172
142 178
146 173
140 178
139 182
141 186
141 182
133 188
129 194
140 191
144 186
154 177
148 177
153 175
159 176
158 175
159 174
159 175
157 173
157 177
157 176
148 181
138 184
134 186
138 183
134 186
135 181
134 181
127 187
137 186
149 182
157 177
152 176
164 166
167 162
173 161
171 159
170 156
161 161
160 159
160 166
157 165
153 172
156 174
141 184
141 182
141 180
145 184
138 186
148 186
151 186
161 177
161 173
163 168
168 167
166 166
164 169
164 169
151 177
155 172
152 174
148 175
143 182
141 188
139 187
139 187
125 194
125 190
127 191
133 194
138 195
144 194
149 189
149 190
140 195
144 192
146 194
139 195
138 198
139 194
131 200
124 206
120 206
129 195
132 194
133 193
137 187
134 185
136 187
137 186
153 176
161 173
167 164
170 160
173 162
170 161
165 162
161 164
164 168
163 169
157 176
154 174
150 178
147 177
142 179
151 177
144 186
139 187
129 192
126 196
138 192
141 190
147 183
147 180
153 180
152 183
155 176
157 174
159 175
163 171
162 175
158 175
151 177
139 181
143 182
141 184
141 185
134 186
128 186
130 187
147 181
149 182
156 172
154 170
158 171
164 168
173 167
169 168
168 163
162 164
154 170
150 173
151 177
150 175
145 182
138 188
128 193
121 191
116 194
121 194
143 187
151 179
144 179
145 176
150 178
157 175
158 175
157 174
151 172
154 170
151 170
149 170
149 175
145 175
149 175
144 172
140 173
137 177
139 178
151 171
159 173
164 172
165 168
164 169
158 173
162 171
152 176
155 176
148 176
147 179
148 180
146 182
140 183
136 185
135 188
130 191
133 194
116 209
117 206
120 206
139 193
142 193
144 185
137 190
141 188
144 186
150 180
159 178
149 178
147 178
143 179
149 176
142 181
128 186
133 187
135 190
129 196
123 198
122 197
134 194
150 184
156 181
165 172
168 165
167 168
168 167
167 165
162 165
159 173
157 173
152 173
152 174
157 174
148 176
139 179
137 180
131 186
131 189
126 189
133 187
147 183
154 176
152 175
150 177
154 177
156 174
153 176
149 181
147 182
147 183
143 187
148 176
151 170
148 170
145 174
138 182
131 182
127 187
128 191
139 189
156 181
163 178
158 179
158 175
150 179
146 176
150 174
153 177
153 178
155 172
159 169
155 176
151 174
154 178
149 176
134 182
133 180
128 180
134 178
149 175
155 176
160 172
162 170
158 169
159 170
155 169
164 165
161 165
158 168
156 173
148 176
145 179
142 181
141 178
142 173
141 182
122 189
126 188
126 188
139 187
148 185
154 180
155 178
153 180
155 177
157 177
165 169
164 169
157 168
161 167
149 173
146 173
153 169
157 165
156 164
156 168
150 171
133 175
129 177
141 176
153 175
158 173
157 169
156 171
156 171
155 174
152 172
155 174
150 176
146 179
145 181
133 187
135 182
148 179
143 184
135 190
135 190
136 186
129 189
138 184
152 182
161 175
162 171
152 179
152 179
155 181
153 183
155 173
150 174
146 172
151 170
151 171
157 169
147 179
146 179
140 186
132 192
127 192
124 195
139 189
154 178
164 172
167 168
169 163
165 167
162 167
157 172
156 172
157 173
148 174
150 171
149 168
148 169
158 165
151 172
143 180
140 180
139 177
141 179
149 174
155 171
164 163
167 157
163 153
177 153
176 160
171 161
174 161
165 170
167 165
166 164
152 165
148 168
148 168
151 176
137 185
133 185
134 182
127 186
134 184
145 184
151 179
157 173
162 169
165 172
166 171
166 166
159 168
160 170
162 171
162 166
159 169
146 173
147 171
138 176
134 177
122 183
125 185
117 192
129 190
134 191
142 185
142 186
142 186
149 182
149 184
154 180
155 179
152 180
155 179
159 173
147 178
144 180
144 177
143 177
139 179
141 182
141 182
135 182
146 180
164 170
167 167
169 165
170 163
165 166
166 164
165 162
163 165
168 161
165 166
161 169
159 169
160 166
168 160
156 167
147 171
135 176
124 185
121 191
134 188
141 185
147 182
149 176
147 175
139 183
142 180
135 189
130 190
135 190
136 186
140 179
142 183
140 184
135 192
129 192
125 193
120 197
118 195
126 191
141 186
147 188
155 183
154 179
154 173
161 171
167 163
178 154
168 157
162 156
164 158
155 161
150 162
157 162
150 167
135 172
146 166
144 171
137 179
138 181
147 179
154 177
157 174
161 166
161 159
156 163
159 166
159 169
152 167
154 170
158 170
150 171
153 169
153 167
155 168
156 168
154 173
152 171
158 168
141 174
154 171
163 169
167 165
167 161
165 158
168 158
174 157
174 158
168 156
170 160
167 160
168 158
163 161
155 167
156 168
155 166
141 171
138 174
130 181
122 186
129 187
146 181
149 182
147 177
144 176
142 176
153 172
148 169
152 169
154 169
155 173
158 178
159 176
152 177
148 177
141 184
148 184
132 195
132 196
131 198
137 200
148 194
155 189
164 179
158 180
149 181
155 178
153 180
154 177
156 176
149 180
146 181
146 182
139 183
136 185
127 187
120 188
127 184
137 182
122 190
138 192
145 191
161 178
159 171
152 173
146 177
145 181
145 179
146 182
146 183
145 185
146 184
139 187
136 192
135 190
130 187
137 186
132 188
125 193
122 192
136 189
145 186
153 181
157 177
155 174
153 175
152 177
157 176
153 176
153 176
156 175
151 176
145 181
143 180
151 176
142 178
146 175
134 179
126 183
133 182
143 177
161 167
164 165
168 160
165 158
174 157
173 152
168 154
170 151
171 150
167 152
165 152
147 162
146 164
155 165
152 170
155 168
150 170
138 177
146 176
155 169
166 167
172 163
170 163
161 165
165 166
165 164
161 167
163 167
156 168
156 167
156 164
155 164
157 163
149 163
142 167
142 169
136 175
135 184
131 186
140 183
155 174
159 170
159 169
164 164
156 170
158 168
155 172
154 173
156 177
153 178
149 171
150 171
143 172
150 172
147 174
144 179
136 186
126 193
127 195
139 194
149 187
161 175
160 172
156 173
156 172
158 174
163 172
156 172
155 176
152 180
144 187
144 181
143 182
139 183
135 184
131 186
128 185
129 188
124 188
133 186
142 186
148 183
150 178
151 176
156 172
154 174
157 170
158 169
164 166
168 163
158 167
157 166
153 169
150 174
151 174
146 176
143 172
132 182
135 185
146 179
150 182
159 175
158 170
155 173
164 172
166 169
153 173
155 173
149 172
145 172
150 170
154 173
150 171
152 169
145 178
138 184
135 186
133 188
123 196
129 193
142 190
147 186
149 183
143 189
146 185
148 185
147 184
151 184
149 182
147 181
151 175
156 176
146 179
141 184
133 189
135 192
134 193
128 196
126 197
130 198
147 188
146 185
153 177
152 175
157 176
156 173
170 162
160 168
159 169
157 166
161 166
156 171
160 171
148 176
151 176
150 176
144 178
136 185
140 185
140 189
147 187
156 177
159 173
153 175
158 176
154 177
151 177
153 177
156 174
145 176
148 178
148 176
147 177
144 179
134 186
138 185
140 185
129 189
117 192
129 189
142 183
148 180
147 180
151 179
150 179
160 173
161 170
154 171
152 173
161 165
157 164
160 165
165 164
157 166
146 172
146 168
152 171
149 172
142 174
150 172
160 170
158 168
165 161
164 158
163 162
172 158
176 157
177 155
175 158
165 163
163 165
158 169
159 167
157 167
148 171
145 169
144 172
141 169
131 178
136 177
146 177
154 175
157 170
155 167
145 179
155 175
156 176
157 178
155 178
150 180
144 181
145 179
147 179
142 182
140 180
141 179
131 185
130 187
122 190
139 182
148 177
161 170
162 166
162 169
167 170
170 169
165 169
167 163
167 160
157 162
171 158
166 163
153 169
156 169
158 168
161 163
153 169
147 169
139 171
137 178
147 174
149 171
149 167
150 169
156 171
155 174
161 172
163 171
162 169
155 169
153 172
156 169
150 171
156 173
157 173
140 179
144 180
134 186
127 189
134 189
143 186
155 181
159 174
159 175
167 173
159 179
161 176
167 172
172 169
163 170
159 173
148 179
145 177
141 178
136 183
135 191
126 196
128 195
122 193
120 199
130 192
139 184
150 175
145 176
145 182
146 183
141 186
147 185
147 182
142 178
140 178
143 181
142 183
139 185
139 185
134 187
135 186
141 182
148 174
155 177
165 172
172 170
176 167
169 168
167 173
166 171
156 174
149 177
148 177
141 182
139 185
142 186
134 190
136 189
138 189
133 191
124 194
121 195
120 187
141 183
151 182
157 174
162 164
158 161
163 163
165 165
168 161
162 168
156 172
156 177
142 184
146 181
143 187
147 183
139 188
127 197
119 201
128 192
126 189
131 192
146 189
155 181
160 173
159 175
159 177
158 180
144 186
148 178
148 180
145 183
148 182
150 181
144 183
146 180
145 183
131 190
124 192
126 193
126 189
137 184
146 183
154 180
161 172
159 169
160 171
151 176
153 176
153 180
147 184
151 180
149 182
145 179
138 185
132 186
138 184
134 190
131 185
127 195
113 198
130 197
139 194
146 191
146 183
148 184
149 186
145 183
153 178
148 179
150 173
146 177
143 178
146 171
149 169
144 177
142 181
141 188
132 193
132 195
132 195
141 188
153 183
156 181
155 178
156 176
154 173
158 170
154 174
160 172
153 173
155 171
154 171
155 174
147 177
146 177
140 181
128 190
124 191
124 193
121 191
127 187
140 181
151 176
152 172
147 176
146 184
145 181
144 180
149 176
157 175
152 174
156 171
154 174
155 175
150 176
146 178
141 186
137 192
121 201
117 203
126 202
142 195
147 191
143 193
146 189
143 187
149 186
140 193
143 189
145 193
144 192
140 194
139 188
134 190
142 180
138 181
137 188
133 193
123 198
119 203
126 200
137 199
146 191
146 187
157 176
159 177
157 177
161 175
165 167
156 171
159 166
150 175
155 174
144 181
145 176
141 179
140 183
139 189
133 185
132 191
140 186
150 184
158 179
155 179
156 176
153 180
144 187
143 188
147 180
142 185
143 181
145 179
137 182
136 187
138 184
132 188
126 187
120 196
123 201
125 201
127 201
140 194
141 194
151 184
146 182
153 176
143 180
141 180
148 177
151 173
149 173
153 172
146 178
141 171
138 175
141 175
131 182
135 184
130 193
136 186
150 180
162 176
169 167
166 168
160 170
161 169
153 175
157 172
150 177
154 178
145 187
139 191
138 188
132 184
132 189
132 189
123 199
123 198
121 199
126 200
137 193
150 186
160 178
157 178
157 176
153 176
153 174
146 180
155 178
151 184
139 188
134 190
138 187
134 188
141 184
131 189
139 185
129 190
128 188
128 193
137 193
147 189
161 178
154 181
153 178
158 172
158 175
151 175
158 174
155 178
152 174
153 174
160 165
152 165
144 168
146 177
141 183
137 187
141 183
141 187
143 184
162 178
167 172
165 169
166 167
161 171
160 173
151 177
150 176
145 180
142 182
151 179
150 180
146 180
147 179
147 177
135 179
137 181
134 188
126 189
136 185
149 181
152 179
152 175
148 176
152 174
152 176
153 178
158 175
157 179
155 177
148 182
146 186
139 191
141 185
132 196
128 194
128 195
124 201
124 200
132 196
140 195
148 185
152 182
150 181
152 178
149 180
152 181
152 179
151 178
144 183
149 186
151 184
152 179
146 178
138 180
137 180
131 185
128 191
130 189
141 186
147 188
156 180
161 172
157 169
155 177
151 177
152 179
153 180
146 185
153 182
154 182
153 180
155 175
155 174
155 171
144 174
140 177
134 181
128 183
134 182
146 181
158 174
154 176
158 173
161 173
163 172
166 171
163 170
164 165
168 166
162 171
157 173
148 178
143 181
128 187
128 185
129 183
127 190
130 192
139 189
148 185
156 181
160 174
158 176
152 173
149 178
156 179
155 181
153 180
152 179
149 179
152 176
149 177
140 176
145 176
130 185
121 192
124 195
120 196
139 188
150 184
158 178
160 173
161 170
158 171
157 171
156 168
160 168
166 165
161 167
161 170
147 179
147 185
149 183
140 184
138 185
132 186
133 190
128 197
142 189
152 186
162 179
154 175
166 166
175 158
161 165
162 166
152 170
153 166
144 169
151 165
149 166
144 171
138 177
140 180
143 183
135 179
140 179
136 188
144 183
155 175
166 168
160 170
159 171
165 171
167 171
157 177
151 181
141 185
143 181
148 178
150 173
152 172
147 177
138 182
128 188
124 190
120 197
123 194
129 192
137 189
143 187
149 180
156 175
157 171
150 177
149 177
157 172
156 172
156 174
156 176
150 180
149 182
153 175
143 176
137 182
137 186
143 182
134 187
142 184
158 177
162 175
154 176
156 171
154 177
156 171
156 171
154 170
153 171
166 163
164 166
164 163
162 163
155 170
152 169
150 171
144 172
138 177
130 181
137 181
147 177
157 173
161 167
161 161
163 163
165 166
168 166
164 166
163 171
159 173
157 178
157 177
152 173
152 177
139 178
141 179
137 181
126 184
122 192
130 192
137 191
151 183
149 180
147 180
144 180
153 178
152 179
153 178
155 177
142 180
141 181
140 181
146 180
146 181
147 179
138 181
138 181
136 183
136 181
145 178
158 176
161 172
165 165
166 166
176 162
174 163
178 158
173 160
179 158
168 159
170 160
173 157
166 160
159 163
146 170
141 172
143 178
128 181
124 182
137 177
154 170
158 167
164 159
164 157
167 158
172 158
177 155
175 154
170 159
172 157
165 158
159 171
151 174
148 170
139 175
148 169
151 171
145 177
134 184
138 182
152 178
156 175
157 170
163 166
163 172
163 173
155 172
157 173
154 172
161 169
160 170
158 173
163 173
151 172
148 172
149 174
140 180
133 186
130 192
139 188
154 184
167 171
162 169
160 171
159 172
159 171
162 166
164 167
160 170
157 173
149 174
147 174
153 172
149 170
149 166
144 170
137 173
139 172
144 171
153 171
167 165
173 164
171 159
164 162
160 167
161 165
159 166
161 165
155 172
156 176
150 179
149 174
143 183
143 181
134 183
141 182
133 189
128 191
125 195
134 190
140 191
154 183
151 183
153 180
153 182
152 180
158 176
150 178
152 179
148 180
146 184
139 185
140 186
127 189
127 189
129 191
123 195
125 196
128 196
136 188
147 185
155 180
153 181
159 171
159 171
161 170
157 170
151 172
146 173
151 172
141 175
153 172
152 171
143 172
148 171
151 173
135 181
132 186
128 192
133 193
144 191
148 185
148 180
152 177
153 179
157 177
167 173
162 177
153 180
152 178
149 178
144 182
143 185
140 185
134 189
135 188
119 194
124 198
128 198
137 197
151 191
154 186
156 179
162 174
160 174
156 175
156 172
159 172
152 176
144 184
143 186
145 182
145 179
157 170
155 171
134 179
131 182
137 184
136 183
143 178
149 178
148 181
160 169
156 172
160 169
162 169
156 169
155 164
157 168
152 169
143 175
141 176
146 174
145 176
141 177
138 185
127 192
124 192
127 191
137 187
147 184
156 177
149 179
151 177
148 179
154 180
152 180
147 186
138 188
139 191
141 185
140 185
135 188
133 191
132 190
126 194
126 194
125 191
115 201
131 195
144 191
150 187
153 180
152 180
156 182
155 179
157 179
160 177
154 182
151 181
151 180
142 183
140 183
129 191
131 191
127 198
121 202
117 203
110 206
124 203
142 190
149 187
157 176
154 175
154 172
157 170
165 164
166 164
162 167
163 169
157 169
160 162
152 169
146 169
140 171
137 180
136 188
125 188
117 194
123 193
133 192
143 186
145 182
148 177
149 178
150 180
145 183
145 184
145 188
138 190
134 192
129 195
125 197
129 195
131 196
133 195
127 197
121 200
123 199
131 197
144 193
147 189
153 183
151 182
153 181
155 180
154 178
152 181
148 181
148 179
149 182
150 178
144 177
141 180
134 179
130 183
135 187
128 195
126 195
137 187
147 184
155 179
159 173
159 172
152 171
154 171
151 172
147 176
146 175
148 180
151 175
141 178
152 177
144 178
148 180
146 180
147 183
138 190
132 192
130 194
142 190
151 185
153 179
155 177
155 178
155 181
165 172
161 172
155 174
143 178
141 179
141 182
145 180
144 180
144 185
136 185
122 196
126 194
118 199
140 192
152 184
155 183
155 178
161 172
158 174
156 174
149 179
148 181
147 185
152 181
147 180
139 189
140 190
137 193
131 189
131 188
121 194
117 198
114 201
123 201
133 196
141 189
142 185
146 183
144 183
139 184
147 184
152 179
155 178
145 178
150 180
148 177
142 185
139 184
137 183
130 186
127 183
134 178
127 182
139 181
149 183
155 178
154 173
157 170
154 173
162 166
156 175
162 173
153 177
152 179
155 177
150 178
151 178
142 178
141 177
138 179
129 185
128 188
128 192
138 190
149 186
159 178
156 179
158 176
170 168
166 169
164 168
169 164
168 163
161 166
160 168
158 169
151 176
154 170
149 174
150 175
141 182
128 191
115 198
121 198
138 190
142 188
142 184
153 175
156 174
161 170
155 173
152 174
157 171
157 172
152 177
154 176
156 173
155 173
154 169
150 171
143 176
140 176
134 183
146 183
155 177
164 174
160 172
162 173
158 178
163 175
159 177
159 179
159 180
155 178
144 182
145 187
145 184
149 179
134 184
133 185
130 185
135 184
130 190
137 189
142 192
147 189
152 180
144 182
144 185
139 187
143 185
144 183
143 180
144 179
145 179
136 187
134 190
135 190
143 187
137 192
136 196
132 198
125 202
134 195
143 193
149 189
150 188
145 185
150 183
148 181
160 175
154 175
163 169
161 173
154 175
150 176
145 180
139 180
137 186
136 188
135 188
123 189
124 189
137 186
149 180
153 180
157 172
151 178
151 180
144 187
147 182
146 184
142 188
140 187
146 182
142 186
137 191
137 188
133 191
126 194
122 195
124 193
132 189
140 186
156 181
160 178
163 173
160 171
161 171
159 170
162 167
162 167
163 167
156 173
150 175
140 182
146 181
143 184
132 190
138 190
131 188
125 191
124 187
132 188
144 184
153 178
156 170
162 169
153 174
160 169
155 172
161 168
162 167
164 171
161 167
154 171
150 171
149 175
149 172
145 176
134 179
136 178
135 179
143 180
153 180
158 176
158 171
153 172
156 169
159 167
168 166
159 168
162 173
153 175
152 173
150 174
150 177
144 181
141 182
136 191
138 186
128 189
131 191
139 190
151 184
153 181
148 181
154 175
148 178
153 177
154 175
155 175
160 172
161 170
152 175
149 179
144 174
149 170
155 175
147 178
139 185
135 191
128 190
140 183
159 174
169 166
165 167
159 173
163 172
165 170
167 171
157 173
153 175
146 172
151 169
159 168
156 165
159 162
152 161
144 166
141 170
147 170
136 176
139 175
157 170
159 168
155 167
152 170
157 173
155 178
154 181
147 182
152 177
150 176
148 176
146 180
140 179
140 178
151 171
138 180
134 185
137 187
121 195
132 189
149 184
160 176
158 175
154 175
160 169
159 169
154 173
148 177
150 177
150 181
142 183
149 183
146 184
139 186
137 189
137 189
125 195
124 198
115 200
125 196
142 188
154 180
152 177
158 172
161 173
157 176
149 180
154 177
149 180
147 183
140 189
132 192
129 194
120 199
122 203
123 204
117 210
116 211
116 214
122 208
133 204
137 202
137 200
146 194
151 189
151 186
149 181
151 181
144 187
144 185
138 185
138 182
130 186
130 186
130 188
137 184
131 189
136 190
128 194
140 191
149 186
160 180
165 173
157 174
154 175
147 175
150 173
151 173
157 171
161 169
157 174
143 178
150 177
147 172
142 175
142 177
134 182
133 187
122 196
131 194
145 190
148 190
152 186
147 186
148 184
150 180
160 175
159 177
161 174
159 170
158 170
149 176
151 179
152 172
147 174
142 178
131 184
134 183
133 186
133 189
148 184
155 181
151 180
156 174
158 171
162 173
171 166
174 161
169 163
162 167
159 165
155 169
155 174
146 176
138 182
138 183
136 182
137 181
136 185
136 182
158 177
160 176
158 174
157 171
159 171
163 169
163 169
160 171
160 170
156 172
153 173
144 174
144 173
149 172
149 174
138 178
136 183
127 189
122 197
136 189
140 190
153 181
154 175
154 175
159 176
157 177
159 174
158 177
152 181
147 188
152 181
147 182
146 181
141 184
134 186
135 190
130 190
120 199
124 199
130 197
146 191
149 187
155 183
157 179
156 178
165 172
161 170
153 176
152 178
154 171
154 169
154 169
144 172
150 173
145 178
140 181
142 182
128 191
122 195
126 197
140 189
147 188
152 182
153 178
153 183
152 180
149 176
154 175
155 179
152 180
146 181
142 183
146 180
138 186
139 188
140 182
145 175
139 178
135 183
143 179
158 174
161 171
155 173
155 173
150 176
147 175
148 178
150 176
150 178
150 177
144 182
142 187
144 188
145 189
141 187
137 181
139 175
131 182
135 181
161 168
170 166
177 162
177 158
174 159
176 157
172 159
175 162
161 158
169 157
170 157
176 147
170 149
164 155
163 161
158 159
157 161
152 166
152 166
149 171
148 172
164 165
171 160
174 154
174 146
184 138
179 149
168 156
175 158
174 159
162 164
162 169
159 169
153 173
144 175
144 178
141 179
125 188
126 191
124 193
130 190
140 191
145 187
139 187
144 183
147 184
145 186
137 190
149 186
144 189
140 192
138 190
137 190
144 189
145 188
134 193
136 196
129 198
127 199
123 203
132 199
142 192
144 192
148 187
149 184
153 186
160 180
151 183
149 186
149 183
147 185
146 186
146 183
139 183
143 181
136 182
127 189
123 190
110 197
117 194
125 194
142 189
147 186
144 189
142 187
143 188
149 183
147 183
146 182
146 186
145 185
148 188
132 199
141 189
135 188
132 189
139 188
129 197
128 198
124 205
136 195
145 188
154 181
154 182
148 186
157 177
157 175
152 179
155 176
159 174
154 180
155 178
145 179
142 180
132 188
124 193
125 193
132 190
135 193
122 199
130 195
142 187
151 185
152 180
152 179
151 179
156 178
144 179
151 174
149 177
153 171
145 175
146 174
149 177
153 175
149 173
146 176
140 179
135 182
141 179
143 180
161 168
172 162
172 160
171 157
176 157
177 158
179 158
172 161
171 161
164 162
153 168
148 167
159 163
155 167
150 169
151 169
150 173
140 180
141 180
151 175
163 171
171 162
170 159
162 163
161 168
162 169
158 175
157 178
150 183
147 185
153 180
149 179
139 186
124 192
124 197
125 195
126 201
123 206
113 212
121 205
134 199
136 196
138 190
135 188
147 185
144 190
140 192
148 188
150 185
154 183
154 184
139 187
139 188
140 182
133 183
135 186
136 186
128 191
135 194
141 194
156 185
159 184
161 178
159 174
164 173
157 175
162 170
156 169
158 168
157 168
158 170
156 171
157 169
146 178
144 182
133 187
130 190
125 194
132 193
145 186
156 181
166 176
163 177
158 175
163 172
152 178
148 178
157 171
157 170
161 166
158 163
155 170
152 173
146 173
144 177
134 182
132 184
127 187
130 182
137 182
151 175
155 172
160 165
168 159
167 166
169 162
159 166
159 168
157 171
149 174
153 172
153 169
158 165
153 170
152 175
145 176
139 177
137 179
137 184
151 173
162 170
164 168
165 163
171 159
167 160
170 160
166 159
168 155
158 160
166 157
168 161
162 168
149 174
143 182
139 185
132 192
130 194
131 194
131 197
142 193
146 191
156 182
156 179
160 176
153 183
151 181
150 181
150 177
154 174
157 174
156 178
155 173
160 172
142 179
134 186
132 188
129 184
124 190
122 192
127 186
146 179
152 176
153 174
153 174
155 178
158 178
152 176
151 175
149 178
144 183
140 190
139 187
141 187
137 193
137 194
135 192
126 200
123 200
118 201
127 198
137 194
150 184
149 184
150 182
153 179
156 177
156 176
154 179
153 181
143 184
151 182
148 179
146 179
141 182
136 187
139 192
138 192
139 188
131 188
145 183
156 181
162 177
169 170
165 173
163 169
163 169
160 170
164 170
159 168
156 170
154 167
149 166
151 173
146 172
150 172
141 178
138 183
127 187
132 189
136 189
149 183
154 182
159 181
154 177
149 180
160 176
152 176
145 178
144 175
160 169
158 173
154 172
151 174
149 178
147 176
141 175
146 175
144 179
142 184
144 182
152 180
157 174
159 168
163 164
161 167
162 166
164 165
161 166
162 166
163 169
159 171
150 178
150 176
147 178
142 177
148 176
141 175
134 182
134 178
142 177
156 169
164 162
172 154
172 152
172 156
171 154
173 152
170 157
168 156
169 160
167 163
165 166
159 169
153 171
145 175
143 174
134 180
125 192
116 196
125 191
141 187
151 182
146 182
152 182
146 186
154 184
157 181
157 177
153 177
149 178
148 177
154 176
148 175
141 185
145 182
137 188
130 193
125 194
111 197
119 199
134 194
139 192
140 189
137 187
142 183
149 182
152 181
149 180
149 182
144 186
143 188
147 183
150 180
150 177
149 177
136 182
131 181
138 178
140 173
154 172
162 171
167 169
159 172
160 172
159 175
158 173
154 176
158 172
162 170
153 176
150 175
155 175
158 171
149 170
144 171
141 171
131 176
122 195
115 204
125 204
135 200
144 193
142 188
139 189
142 186
142 185
140 188
147 180
141 185
149 184
151 182
144 188
138 192
135 194
131 194
128 197
118 200
110 207
109 206
114 209
125 209
126 210
131 204
132 203
135 202
138 203
139 201
138 199
141 196
139 194
144 195
132 200
126 204
131 199
134 198
133 196
123 202
117 200
112 198
122 197
140 188
146 182
144 179
148 176
159 171
158 174
162 175
160 174
160 171
160 168
158 162
156 161
152 161
148 161
148 166
143 165
148 169
140 176
145 172
151 176
164 169
174 165
172 160
165 159
165 156
163 158
172 161
166 163
165 166
153 173
164 168
149 171
145 179
139 184
132 185
126 189
123 192
122 190
120 190
128 190
138 188
154 176
158 170
158 170
153 169
152 171
156 169
161 164
158 170
154 172
158 169
155 166
160 165
148 168
153 172
142 175
138 175
135 176
135 181
149 175
157 173
163 170
158 170
161 167
162 169
163 175
156 177
158 174
156 176
154 178
154 174
149 174
148 178
147 177
142 178
133 180
133 185
130 190
127 192
139 189
150 183
156 175
161 167
157 170
153 175
154 175
165 169
166 168
169 167
162 170
163 171
155 170
146 176
148 175
139 180
127 189
126 188
123 194
119 196
134 195
150 187
154 182
150 181
148 177
154 175
150 179
150 185
151 187
146 188
140 191
137 192
135 188
132 193
130 192
133 194
127 198
124 201
118 204
118 203
129 197
144 190
154 183
150 182
153 176
164 170
162 166
164 169
164 168
163 170
157 173
149 174
156 170
150 178
149 175
154 174
145 178
141 177
146 174
137 178
139 177
