Actives Prisoners
0 0
668 11
629 35
596 61
586 89
565 113
550 131
533 153
512 177
478 201
451 220
426 241
415 257
407 277
388 302
369 321
353 328
344 346
328 357
323 374
341 374
347 369
344 366
336 372
329 379
332 380
334 383
328 385
312 396
310 392
296 396
299 396
291 403
289 407
275 422
277 425
270 426
259 431
262 433
282 425
303 416
320 405
316 405
322 391
323 390
320 390
321 387
317 386
317 387
310 391
303 399
312 392
309 394
310 393
298 393
294 401
287 407
276 416
270 419
291 409
308 406
327 390
331 379
343 372
345 368
346 370
340 372
339 365
341 367
335 373
327 374
308 388
306 393
300 396
294 406
275 419
274 424
261 432
264 428
267 431
295 420
305 416
313 400
311 397
313 396
313 399
311 401
318 400
318 399
318 401
310 400
296 409
289 405
308 389
300 397
306 399
280 408
277 407
284 408
308 397
329 389
348 373
339 371
333 368
331 374
337 365
343 366
341 373
338 368
324 374
311 380
319 378
309 384
295 393
301 388
310 381
304 382
312 381
306 388
314 394
331 387
354 370
349 366
351 362
347 362
334 372
335 370
331 367
323 368
322 372
323 367
315 372
313 375
313 379
299 389
292 395
304 394
292 397
290 405
306 394
320 397
337 384
340 375
338 373
335 372
336 373
334 379
339 377
330 384
329 386
317 394
308 398
298 400
300 406
295 405
283 414
284 411
272 414
288 399
292 402
306 401
321 391
319 391
328 377
329 381
333 382
328 383
335 374
340 369
328 378
314 378
312 386
305 394
299 397
313 386
296 398
291 401
295 404
285 408
305 402
320 398
332 389
339 375
340 370
349 362
349 358
352 362
335 367
333 372
331 373
325 380
315 383
306 389
298 399
297 398
299 395
274 396
276 405
269 416
277 419
301 408
315 400
305 394
324 384
328 384
327 385
325 385
316 389
306 392
324 381
321 384
324 384
325 390
318 395
314 396
312 392
302 394
287 402
291 410
293 415
331 390
349 373
356 367
352 364
350 366
348 371
340 375
341 373
352 365
356 362
342 362
335 362
324 372
313 381
304 388
294 392
274 402
267 408
273 413
280 413
309 401
322 396
315 392
316 388
309 395
310 396
306 394
309 391
314 389
315 390
314 393
306 395
310 394
303 397
288 407
284 415
275 422
270 434
272 430
277 434
298 423
310 413
325 394
327 389
326 386
327 386
337 378
331 381
336 381
329 380
324 384
322 377
326 376
325 377
306 382
293 387
291 401
280 410
278 414
286 415
313 406
331 388
340 376
338 371
333 374
330 375
332 373
334 366
335 368
326 371
330 370
330 371
327 371
312 376
324 378
314 380
316 381
301 388
289 394
309 396
320 387
349 372
345 369
350 362
356 358
354 357
346 362
350 366
335 368
333 367
324 372
327 378
321 390
321 391
297 403
267 418
261 431
253 437
243 440
256 436
284 421
292 416
301 406
295 404
296 405
289 408
304 400
292 407
300 407
297 412
305 414
302 409
287 416
281 405
279 411
275 411
272 421
259 430
262 434
280 429
304 417
321 401
312 406
325 393
328 394
329 390
322 396
317 400
301 409
295 408
288 413
283 425
284 425
267 430
270 430
264 434
260 442
245 452
236 460
253 459
272 446
291 431
290 423
300 413
304 408
314 402
320 398
316 403
304 406
301 409
297 411
293 415
287 416
287 414
297 409
296 409
286 416
281 412
265 419
288 407
310 402
340 378
342 368
338 368
340 367
338 375
329 379
324 377
316 382
321 382
314 385
315 386
309 390
303 391
299 393
280 403
265 409
273 412
273 413
294 410
314 406
328 399
327 395
328 389
329 386
321 388
327 387
323 385
320 388
321 383
312 386
310 387
298 393
305 389
302 391
283 397
287 401
290 400
283 401
295 403
322 396
329 391
342 382
328 380
328 378
331 381
312 392
313 392
316 393
314 399
312 403
296 411
298 410
290 413
292 408
287 408
288 409
277 410
272 415
290 407
309 402
333 385
331 377
337 371
343 371
346 372
337 374
334 372
333 376
324 383
315 386
312 392
292 400
288 398
286 395
271 408
276 408
274 422
269 424
284 420
300 411
318 402
322 393
323 384
326 384
318 384
327 372
335 371
330 371
323 378
319 380
317 385
316 385
302 387
311 385
307 393
301 399
293 406
287 402
298 400
321 390
341 373
338 367
343 357
340 360
334 368
339 370
344 364
342 360
323 373
327 371
327 372
321 377
325 377
314 386
307 388
304 394
291 393
293 401
304 399
319 391
333 382
339 370
335 370
335 369
347 365
344 361
347 365
335 370
318 383
321 382
323 380
325 377
324 375
323 375
305 392
300 399
289 406
287 413
302 409
319 403
336 393
333 388
335 377
333 379
336 375
324 384
324 384
324 384
308 384
308 385
303 394
298 395
291 402
291 411
284 419
280 422
263 429
261 434
273 430
292 423
308 411
306 408
306 402
312 392
302 407
301 405
305 408
311 407
308 407
308 404
310 405
294 408
291 409
273 411
266 420
267 413
268 421
279 420
286 423
316 405
332 396
332 388
334 382
327 379
338 368
331 374
325 378
319 379
318 381
322 379
312 385
314 389
315 394
306 396
285 404
272 412
266 420
274 424
288 413
307 408
332 391
322 383
321 379
320 380
324 381
332 371
316 379
326 371
320 377
314 386
315 384
308 389
315 390
305 393
293 401
290 405
292 402
293 405
302 403
330 385
346 373
343 372
344 363
358 355
363 345
350 361
348 368
352 366
339 371
333 374
329 379
313 388
302 395
297 408
302 406
285 412
276 418
264 423
283 413
300 411
320 401
317 400
315 392
324 383
306 392
314 395
307 401
307 397
299 397
317 384
322 373
319 370
321 366
325 367
318 375
320 378
319 377
307 383
329 376
345 370
351 366
358 357
349 358
364 354
364 351
354 361
345 363
345 359
347 365
341 367
320 374
331 375
318 381
306 397
291 405
269 415
267 416
264 417
280 413
308 402
323 391
332 377
333 375
331 373
335 374
324 384
321 385
327 385
324 386
307 394
308 396
292 402
294 403
300 399
291 404
280 410
273 418
264 423
284 417
319 403
321 401
323 390
321 387
316 393
325 387
324 387
320 388
311 392
305 397
317 381
311 382
316 376
312 384
316 386
304 389
300 390
298 397
298 393
319 387
342 378
343 376
334 372
348 363
352 358
362 352
349 362
344 368
347 364
346 361
334 373
319 378
310 380
302 384
290 392
277 397
280 407
270 419
266 415
278 411
307 400
315 397
311 392
311 381
320 384
315 388
317 387
309 393
304 391
310 385
307 393
304 399
311 401
305 401
301 405
286 407
289 406
290 405
289 411
285 415
302 417
320 399
335 383
333 378
330 378
328 381
333 378
332 385
329 380
319 382
319 378
319 386
318 390
308 390
305 388
287 393
281 404
277 412
278 424
290 421
312 411
326 400
323 392
327 386
326 390
327 387
333 383
336 376
343 370
333 374
328 376
314 389
321 391
303 397
300 398
290 401
284 408
277 413
287 418
294 416
318 403
326 393
329 384
333 376
341 372
333 376
342 368
340 366
334 375
326 381
313 391
307 395
302 400
298 399
286 409
295 403
276 415
269 418
269 418
281 418
299 413
323 398
323 386
324 376
331 373
329 377
334 375
330 371
341 366
347 364
339 364
332 372
323 379
307 385
303 393
301 394
294 404
275 413
275 410
294 412
315 401
336 387
341 374
336 368
345 365
336 369
340 367
340 369
337 377
326 383
314 389
301 397
298 392
295 396
301 386
310 383
309 383
302 387
302 384
315 381
345 372
356 362
352 357
361 354
350 358
352 360
341 373
327 382
314 391
309 394
312 397
309 398
303 402
299 399
298 402
290 407
273 416
265 422
264 421
272 422
298 411
310 404
316 388
314 385
321 381
311 387
333 377
335 378
336 378
326 383
321 382
325 379
301 395
296 401
285 408
283 411
285 410
282 415
271 419
284 417
312 409
324 393
325 383
323 382
340 377
340 378
341 376
326 385
321 387
324 390
317 391
311 396
306 401
305 401
286 405
283 407
278 405
276 409
263 418
273 417
299 412
323 390
327 384
331 374
343 362
333 367
338 371
340 369
334 379
328 383
321 383
326 379
321 377
311 384
306 388
302 385
300 394
290 403
288 411
293 407
317 399
322 397
326 388
321 385
328 387
330 387
328 388
331 380
328 380
332 373
320 376
317 378
312 385
310 385
292 396
285 399
280 403
288 396
291 401
294 406
322 391
331 380
338 370
342 367
321 377
327 375
330 377
321 383
315 387
304 395
296 403
288 402
296 398
290 407
294 408
287 418
287 416
287 419
277 425
287 423
312 410
323 396
332 381
318 384
330 381
328 383
323 382
327 379
337 368
326 372
319 375
321 375
326 373
315 385
298 394
291 400
288 404
280 420
265 427
279 417
305 405
319 396
329 383
335 366
342 370
340 365
335 361
330 363
326 362
333 358
331 359
322 367
333 372
321 382
309 386
298 389
283 400
292 401
281 412
299 411
324 397
335 389
332 383
339 376
339 376
331 381
320 384
326 386
320 385
333 375
327 377
327 372
322 375
309 382
301 385
296 393
288 393
273 407
272 414
279 420
302 414
314 406
316 393
308 394
314 393
306 403
306 404
308 402
313 399
309 402
306 400
304 399
297 401
296 400
287 401
295 402
286 410
288 409
284 412
306 396
331 388
345 378
347 372
347 368
333 373
329 376
330 377
315 380
338 369
344 365
343 366
340 370
324 369
317 377
314 376
305 388
294 398
290 407
284 405
300 406
324 391
338 382
333 380
331 384
334 381
320 391
327 386
329 379
321 390
322 387
330 385
325 381
324 375
323 381
309 387
291 396
294 400
272 406
283 402
294 401
328 383
340 375
342 367
329 368
332 367
336 371
341 361
337 365
338 368
337 369
331 376
324 378
317 379
301 393
288 406
282 411
285 408
280 418
279 420
288 418
317 402
329 394
326 386
331 380
325 381
322 387
327 385
327 377
323 381
329 375
329 377
312 380
308 384
315 387
319 385
316 380
302 389
290 397
289 398
303 396
323 388
343 378
341 371
330 368
338 365
352 356
347 359
354 361
341 367
325 374
320 380
317 386
301 389
292 398
290 400
283 410
272 407
281 409
277 418
291 412
310 404
327 392
327 391
324 394
341 383
338 377
335 381
312 390
326 376
330 381
318 384
303 393
303 390
295 394
285 400
293 398
291 400
290 406
269 416
287 415
308 402
324 389
337 372
338 370
344 367
339 364
326 367
329 363
319 374
322 376
319 374
301 386
307 392
285 405
283 409
284 414
292 415
273 421
278 419
282 423
303 409
325 392
332 379
327 377
332 376
310 388
314 394
314 394
317 385
313 387
311 389
317 384
312 386
312 383
314 387
311 386
303 391
293 401
294 400
297 398
322 391
334 382
335 377
344 364
353 359
353 357
349 360
341 364
346 363
344 362
328 373
325 380
312 386
311 389
305 395
295 397
293 398
284 399
281 406
293 407
324 392
336 379
334 373
332 367
337 368
327 375
316 378
333 375
334 377
333 377
321 382
320 383
318 381
307 390
307 387
297 395
289 406
293 404
289 405
295 405
320 390
327 385
333 370
332 368
350 358
348 358
346 361
346 360
344 367
332 373
324 377
320 381
308 385
302 388
302 395
287 398
284 403
288 406
286 410
300 404
318 397
346 379
338 378
335 382
329 384
324 385
320 389
319 390
314 385
311 389
325 377
318 378
307 391
286 401
302 396
299 399
294 404
282 417
264 428
270 427
299 412
319 400
328 386
322 384
336 377
333 381
329 374
320 380
318 381
310 386
308 387
301 396
299 400
307 393
299 401
283 412
279 410
279 415
270 425
285 420
305 413
324 398
328 388
333 378
335 371
345 361
353 362
346 364
339 371
325 378
329 376
328 383
314 383
324 378
314 380
301 393
305 394
287 405
278 409
297 404
313 404
327 394
321 392
322 388
324 384
318 390
322 389
320 383
325 375
317 376
310 383
312 383
308 387
301 397
298 398
302 396
299 392
292 398
299 403
301 402
328 395
333 388
329 385
326 383
336 369
348 363
339 363
341 361
340 360
334 363
328 371
306 389
308 392
309 394
304 401
290 407
288 408
286 404
284 400
300 398
319 393
334 380
331 371
335 366
343 359
342 359
338 359
330 365
331 367
323 373
324 379
325 385
327 385
323 380
319 386
300 388
284 397
278 410
278 415
280 419
306 408
325 396
328 382
322 381
321 382
318 382
322 382
330 375
338 365
329 370
315 380
317 375
305 384
310 385
297 393
299 394
296 406
276 408
283 410
303 402
323 392
329 386
334 376
338 367
335 376
338 371
337 367
327 377
329 372
322 378
324 374
312 374
307 380
309 389
304 393
309 401
277 411
278 411
281 403
299 394
335 375
344 370
336 369
335 368
335 371
349 358
333 368
327 374
330 371
332 369
317 377
312 382
302 386
307 384
316 383
307 395
299 396
295 400
300 401
310 396
342 382
352 374
349 371
351 364
348 364
344 369
345 369
330 378
330 382
329 381
325 380
318 383
301 392
292 402
286 404
281 406
279 407
264 420
260 423
271 423
295 410
322 390
317 384
329 381
320 388
327 384
326 387
327 380
331 379
328 373
339 366
340 365
324 373
321 368
323 371
317 382
297 395
292 397
284 404
289 404
320 390
338 377
341 363
339 363
342 364
355 359
348 364
340 366
343 361
330 365
335 360
330 363
326 367
315 377
308 388
290 400
290 400
286 403
281 404
294 398
332 380
340 372
347 358
357 348
355 352
351 355
352 361
347 365
318 379
323 372
325 371
326 373
312 367
309 374
316 375
315 372
303 383
296 385
300 393
310 394
324 391
337 386
339 376
331 376
340 374
327 386
326 380
327 382
325 384
321 382
323 383
314 385
309 383
306 390
298 397
285 402
263 416
268 419
266 424
285 415
313 407
315 406
326 390
304 398
323 391
318 393
312 392
310 394
304 391
320 382
311 389
299 395
298 399
297 400
293 411
283 412
283 414
283 416
274 417
292 411
315 395
333 389
342 375
337 373
335 366
332 375
340 366
339 360
343 365
330 368
334 367
312 383
315 384
304 391
297 394
278 401
286 401
279 411
273 420
284 419
315 408
324 403
318 393
328 388
327 388
323 388
322 386
307 391
309 393
316 383
320 381
309 387
296 396
299 393
291 401
292 402
297 406
293 408
276 414
286 414
322 394
341 383
332 385
340 374
339 372
355 362
344 365
343 364
342 362
347 361
350 358
356 358
355 353
342 361
331 362
334 360
325 366
315 370
306 376
311 376
342 363
356 354
358 350
349 353
361 349
356 344
356 351
346 356
346 353
342 356
337 367
326 370
312 380
303 385
296 392
301 396
284 406
286 403
283 404
294 407
319 397
336 387
337 384
340 382
329 382
335 380
331 372
330 372
323 378
314 381
315 384
316 389
309 399
305 402
292 412
287 417
280 426
277 437
265 443
274 439
293 423
321 404
334 388
337 381
338 375
337 378
336 368
333 368
340 368
330 371
324 377
321 372
314 376
309 382
316 382
301 395
290 399
281 408
272 415
285 420
311 411
318 404
320 402
319 401
313 397
319 393
317 390
312 392
316 393
326 388
315 393
313 390
308 394
297 397
296 399
295 396
296 396
286 406
282 408
290 411
320 397
335 383
340 373
331 378
329 378
323 378
339 373
338 369
329 373
327 374
323 372
327 368
320 372
310 387
295 396
297 399
286 401
275 408
272 413
295 413
308 407
332 389
332 383
336 377
346 379
330 382
332 383
314 389
310 390
314 386
326 382
312 392
307 401
294 405
296 401
283 407
269 418
264 431
245 439
259 443
276 439
295 422
297 409
297 406
308 402
307 400
312 397
308 400
305 401
309 398
310 398
299 404
298 398
296 403
295 404
293 403
296 404
305 400
288 405
304 399
322 394
325 387
339 373
341 367
342 361
354 356
359 354
337 358
331 366
327 373
324 373
336 376
323 378
316 388
298 399
303 396
295 411
282 419
279 415
284 412
311 400
333 386
334 375
357 356
355 363
352 365
354 359
347 362
352 363
335 370
328 376
324 380
318 380
313 384
308 387
302 388
294 397
286 401
276 406
294 406
314 399
341 380
341 370
341 367
342 366
338 367
331 372
326 375
326 376
327 379
316 383
310 389
319 383
312 386
292 391
282 404
291 404
279 412
280 422
287 421
311 408
317 410
318 404
326 398
333 393
320 396
319 398
314 393
318 383
327 377
320 385
319 384
314 385
307 390
312 389
298 390
298 387
304 388
298 396
305 398
321 395
332 389
330 383
331 377
343 370
336 375
332 377
325 382
323 386
328 383
312 387
313 388
313 389
289 400
289 403
289 397
285 398
283 405
282 410
292 409
316 399
337 384
335 374
338 365
331 369
336 359
339 357
337 363
330 375
317 375
329 374
325 375
313 383
300 394
274 408
277 414
268 418
277 419
270 424
290 414
313 408
326 397
329 389
320 389
321 396
322 388
312 392
314 387
310 389
320 384
317 387
323 384
302 395
299 401
296 406
281 415
280 412
278 415
272 422
281 425
299 416
316 401
316 394
316 391
308 395
309 395
309 396
307 399
310 392
310 394
302 399
283 409
281 411
283 417
276 422
281 419
274 420
277 420
275 428
280 423
304 410
322 394
328 385
329 380
341 376
331 381
339 380
324 386
320 382
320 381
319 383
308 385
313 388
306 398
288 402
293 396
291 395
281 409
265 420
284 412
304 404
315 397
321 383
320 378
330 375
331 373
327 379
325 379
323 381
328 380
326 381
325 382
320 382
311 386
310 395
307 396
297 398
288 401
288 405
302 406
322 397
332 390
340 376
342 371
352 364
353 360
353 363
353 357
338 363
337 361
332 364
322 367
321 371
312 381
304 383
307 383
308 386
283 399
279 403
297 398
333 377
345 372
339 368
348 364
347 367
345 364
350 360
336 374
327 380
324 379
311 377
303 380
298 389
293 388
307 389
297 398
313 392
294 403
294 405
306 402
323 395
340 388
341 379
345 373
349 371
346 368
339 369
336 367
326 373
331 369
328 372
321 378
306 392
301 389
299 391
291 393
291 406
280 414
277 417
293 409
320 394
334 384
332 381
336 375
338 374
334 372
316 383
326 376
321 378
322 382
311 384
307 379
309 379
305 383
299 389
301 393
295 400
293 404
296 398
313 388
331 383
357 366
351 363
357 361
341 368
345 365
344 365
326 376
330 372
331 373
323 372
327 380
318 376
315 380
306 382
311 382
309 387
318 388
298 400
307 395
330 385
341 376
339 369
348 362
353 358
330 371
337 370
339 366
327 371
337 372
325 372
325 377
316 384
312 386
310 395
310 393
292 400
290 399
277 401
304 396
327 390
340 380
341 375
335 372
338 371
337 368
327 373
350 365
358 360
341 366
343 368
334 364
330 364
335 363
317 381
310 380
308 388
288 390
289 397
305 390
330 384
339 378
342 368
341 362
340 364
341 366
333 375
317 379
323 378
318 387
321 385
312 390
298 397
284 406
288 405
288 405
277 411
276 411
278 407
295 407
324 390
341 375
340 374
338 370
337 373
336 373
334 374
336 376
321 380
322 372
310 382
309 388
313 387
311 386
299 397
303 397
297 398
298 394
299 398
311 395
338 387
341 389
346 376
338 373
349 365
345 366
336 368
329 369
333 368
332 363
328 365
323 362
322 361
322 368
325 358
322 368
323 368
303 375
307 377
319 376
338 372
355 358
357 355
345 355
337 363
339 367
349 363
345 367
341 368
335 368
338 373
328 375
318 382
315 388
292 407
289 419
283 420
268 426
276 426
294 417
307 413
332 397
332 389
333 383
335 375
333 375
348 368
340 371
330 371
329 370
320 384
315 386
313 383
316 382
315 380
297 388
298 393
287 408
270 413
286 409
314 399
321 387
327 373
328 371
335 368
333 371
327 378
343 369
333 373
320 379
333 364
330 365
330 369
325 373
319 377
305 385
303 389
299 389
294 394
298 397
321 385
337 374
337 369
340 363
346 361
344 364
343 363
331 371
338 367
339 372
335 375
321 388
311 394
306 392
306 382
298 387
296 390
299 394
279 406
299 394
329 382
349 367
348 361
348 355
349 358
348 361
354 360
352 364
334 372
338 369
326 377
338 369
330 380
319 385
314 381
302 394
305 395
277 410
277 413
286 413
313 399
331 388
333 376
324 380
326 384
327 384
332 374
315 385
307 394
303 401
294 405
293 407
301 407
289 407
284 413
281 413
275 413
274 416
280 418
287 416
301 413
320 399
318 394
316 389
309 399
316 396
320 398
310 400
304 403
316 401
309 399
306 400
295 407
294 403
285 407
270 418
267 424
273 416
273 416
283 415
322 395
336 381
336 374
338 373
335 376
327 381
329 379
330 376
320 378
327 372
324 377
321 380
315 383
322 377
312 381
307 388
294 393
290 397
288 404
312 397
331 389
356 370
347 370
342 372
340 369
344 369
342 367
337 372
338 370
338 369
337 368
313 375
321 376
307 385
296 395
296 395
297 398
292 408
265 419
280 415
308 400
323 393
316 389
305 389
311 394
319 387
324 386
316 387
317 386
319 385
316 386
314 387
310 393
304 392
299 394
294 404
296 397
286 407
288 414
289 419
311 412
331 397
334 389
341 382
331 383
332 380
333 385
332 381
329 380
319 387
319 383
322 377
316 378
320 372
300 381
299 389
293 396
288 401
272 410
294 406
318 394
335 378
342 366
339 365
337 367
330 371
324 372
320 374
322 377
313 379
312 385
316 384
323 381
311 380
313 385
307 390
290 400
293 404
300 402
308 400
333 381
352 365
355 358
349 353
366 349
361 349
372 336
365 341
354 353
351 355
337 362
332 361
329 363
325 366
312 371
309 383
297 392
285 407
279 405
298 399
323 392
336 383
331 381
325 379
330 379
331 379
330 382
330 380
328 376
320 387
326 383
325 380
312 388
310 395
294 406
284 411
282 415
271 423
268 425
279 428
301 420
313 411
317 401
312 397
320 394
329 381
320 385
318 388
330 382
330 377
320 382
324 381
314 381
310 386
307 392
306 389
295 392
285 400
274 404
287 400
316 393
328 380
324 375
327 371
333 370
341 373
333 380
333 377
319 383
326 381
335 376
327 376
322 379
312 386
308 387
300 396
288 401
291 404
290 406
302 405
317 397
339 384
333 380
337 377
333 381
337 376
332 378
340 372
340 368
343 367
328 373
324 378
323 382
315 386
304 392
306 393
289 405
290 400
289 398
306 398
331 388
352 365
356 360
351 363
347 373
333 373
331 369
334 370
343 364
332 373
328 374
314 374
314 376
298 384
290 394
289 396
287 405
284 410
273 417
286 418
314 405
326 402
324 395
320 394
323 392
324 390
329 387
332 383
327 381
324 383
317 385
309 387
292 396
298 396
292 401
287 403
289 401
292 400
295 402
305 399
326 394
351 374
352 371
344 369
339 368
345 368
345 366
338 369
346 360
337 361
335 360
312 368
316 374
320 372
317 375
299 383
291 386
306 387
282 401
301 408
326 394
340 379
346 370
339 362
342 364
341 366
339 368
337 365
346 359
332 365
331 371
330 373
308 389
300 389
317 374
316 380
310 390
312 384
314 390
321 393
333 388
354 368
360 359
362 349
358 350
357 350
365 339
355 337
356 339
351 345
345 349
334 358
330 363
329 370
333 371
314 380
298 392
281 402
272 411
291 410
313 401
328 394
336 383
323 382
318 387
318 383
314 384
333 374
335 375
330 375
338 367
328 372
324 374
312 382
308 386
304 394
296 399
283 406
280 411
298 409
318 404
330 397
329 387
341 375
344 367
340 368
326 375
335 372
331 377
327 379
318 383
315 382
307 386
311 382
305 384
306 384
307 387
310 391
298 396
303 397
328 385
345 371
350 367
342 367
345 368
338 370
338 369
334 366
337 360
326 365
324 370
328 365
321 373
312 376
306 379
309 393
294 399
286 409
280 415
293 412
324 393
347 379
347 373
341 373
358 359
361 354
346 366
341 368
331 366
326 371
329 371
315 380
293 389
298 390
282 396
298 393
295 395
296 397
290 401
303 396
322 393
334 384
343 374
339 371
347 367
351 365
346 366
341 364
339 368
336 370
327 377
329 380
313 389
311 384
318 382
308 391
298 399
291 410
279 418
293 412
323 392
337 382
334 375
337 369
339 361
353 355
355 358
346 362
340 361
337 363
319 370
320 375
320 380
308 384
309 386
303 389
288 400
285 406
271 411
290 409
320 398
338 381
330 379
335 371
340 366
329 378
328 367
338 369
330 370
312 383
309 388
321 381
307 391
307 386
295 394
286 403
268 412
262 415
267 415
290 405
319 398
336 380
346 363
342 363
328 368
334 371
344 365
345 364
349 365
340 367
336 374
331 376
322 382
313 382
312 387
305 388
286 404
281 409
276 415
294 410
324 393
336 383
334 383
333 375
344 372
346 367
344 371
330 380
322 384
326 382
325 383
326 385
313 381
301 381
291 393
294 392
300 389
293 398
291 402
299 404
330 389
339 387
332 383
329 379
333 378
332 379
322 384
317 389
315 383
328 382
318 384
324 384
322 381
305 393
306 396
296 399
284 409
280 413
269 413
287 407
312 402
334 385
329 377
330 374
331 369
324 374
326 370
325 370
339 366
332 374
316 387
318 388
311 387
312 380
301 390
288 393
282 399
291 396
284 409
303 404
333 387
339 384
342 373
332 378
337 377
332 377
328 369
335 371
327 373
315 380
312 383
322 379
305 386
299 390
297 394
291 404
277 412
271 422
250 435
273 428
292 420
305 408
306 403
310 395
316 395
313 398
316 389
315 384
321 383
309 390
306 385
302 388
308 390
306 394
297 394
296 399
295 401
300 398
297 404
310 400
329 390
342 376
348 368
351 363
340 371
334 374
333 369
333 365
347 352
339 359
338 363
337 366
330 369
330 364
335 368
312 378
297 389
305 390
306 393
319 391
337 383
347 377
349 372
345 369
349 369
355 365
334 374
327 375
319 379
313 385
307 390
306 392
305 389
293 395
296 398
283 406
295 406
275 412
276 416
300 411
316 402
335 388
328 391
329 381
328 387
315 394
305 399
319 389
319 387
324 389
304 398
302 398
295 402
297 398
292 404
288 411
289 408
296 395
294 406
301 404
333 389
355 369
352 367
347 363
354 356
347 359
352 352
361 345
369 341
366 346
348 352
347 347
325 361
335 361
319 371
323 370
301 379
307 384
291 396
309 389
337 382
352 368
353 360
353 358
356 358
345 361
346 360
336 363
321 377
311 387
323 375
315 380
309 389
304 392
296 402
298 395
286 404
268 412
273 408
282 406
315 397
333 386
338 371
342 363
339 366
339 363
351 363
344 364
334 366
323 366
332 362
328 365
319 371
313 379
314 387
310 390
298 391
299 393
299 388
308 388
339 375
349 370
347 367
342 365
344 364
345 362
338 362
337 361
331 369
339 365
336 363
336 359
333 364
314 381
297 388
299 387
288 391
282 401
280 405
296 403
314 398
336 380
333 374
330 372
333 368
337 372
342 375
340 374
342 371
329 370
327 365
316 376
308 387
303 395
298 400
292 401
285 408
288 400
289 403
298 400
323 392
341 384
333 381
336 372
333 374
326 378
333 375
334 373
336 375
332 377
323 377
307 389
299 392
291 398
299 397
283 404
287 408
277 409
274 414
288 415
308 407
318 398
327 383
328 378
317 385
312 388
311 394
312 390
316 392
307 395
307 393
316 380
318 376
309 373
312 380
310 387
302 392
290 399
296 391
310 384
345 369
355 362
355 358
355 356
344 359
351 351
344 354
337 364
329 364
327 368
329 360
325 365
325 366
329 366
326 372
307 384
290 394
290 397
284 401
297 401
312 399
329 384
335 372
332 372
340 372
332 371
330 381
321 379
316 381
312 381
315 382
324 381
318 388
308 391
306 395
285 401
284 406
279 406
282 409
293 406
322 393
338 381
345 371
342 363
344 361
347 364
340 369
338 373
336 373
330 377
322 384
308 389
301 396
302 399
297 403
285 406
277 412
285 410
281 413
300 409
322 394
332 387
340 374
355 360
343 356
347 351
339 366
334 370
331 369
334 371
327 382
316 386
319 390
316 391
301 399
285 411
283 404
281 415
282 406
299 398
321 386
337 378
329 380
332 383
332 383
334 381
331 379
316 385
317 390
314 391
317 390
313 386
304 394
297 399
298 391
312 384
315 386
311 395
288 399
308 387
331 380
352 366
357 354
360 350
356 355
346 358
344 356
349 348
339 357
343 359
336 366
320 373
325 374
318 382
313 387
302 397
297 404
292 414
279 418
288 412
316 402
331 392
322 395
333 385
317 392
318 393
325 389
324 395
323 396
318 397
316 389
314 390
313 386
300 401
291 406
291 411
282 416
265 424
254 432
270 428
298 413
322 393
322 387
322 379
318 381
314 390
312 396
306 399
311 390
308 394
300 401
309 393
317 394
301 402
298 399
297 399
297 405
276 410
295 401
313 391
341 379
349 373
353 364
358 353
358 353
352 364
350 365
336 371
337 363
322 362
337 353
329 355
316 364
313 369
320 370
302 379
295 389
285 401
274 408
287 408
309 402
332 385
339 373
339 371
341 368
348 369
346 365
349 360
343 359
344 354
339 362
313 375
315 376
313 385
302 393
302 389
290 398
297 402
282 410
297 408
325 391
337 382
344 368
343 360
345 363
345 356
342 362
335 363
326 368
323 371
323 369
323 377
309 383
312 385
314 389
304 391
302 393
293 396
290 398
297 403
314 400
336 390
324 390
319 390
327 379
332 375
342 369
339 372
341 368
343 368
330 366
330 370
304 378
313 380
315 380
304 382
303 385
297 396
285 401
298 399
319 388
337 375
333 374
330 374
338 379
336 380
321 388
320 385
314 386
307 390
304 394
306 396
290 401
292 397
289 400
286 405
292 404
275 405
284 399
286 406
323 391
336 382
336 375
331 374
323 380
330 380
323 384
316 390
307 396
315 398
311 396
310 401
312 392
305 391
308 389
304 389
305 394
298 401
288 407
294 402
312 396
326 386
337 375
336 372
351 364
356 363
353 365
346 371
341 373
329 376
335 372
323 378
324 382
314 390
300 392
299 397
281 404
277 413
267 422
290 412
321 396
327 389
327 386
332 380
334 379
330 382
344 372
334 376
326 380
328 382
315 390
307 397
310 394
299 398
293 390
287 393
276 401
282 413
275 415
284 410
301 408
320 397
323 389
321 383
323 379
313 388
316 383
316 384
316 387
314 395
300 407
303 398
302 403
300 399
299 395
292 397
293 394
292 392
284 401
299 400
320 394
338 385
335 377
335 372
336 371
344 363
347 364
341 362
337 367
336 371
325 374
315 380
318 386
312 385
306 388
290 399
277 407
279 412
278 416
296 409
314 401
323 401
327 387
326 381
327 383
338 381
328 382
324 380
326 383
318 388
313 395
315 398
294 408
285 412
282 417
282 416
282 413
279 417
271 415
299 404
326 389
335 382
349 366
341 365
345 366
343 369
340 369
335 369
336 368
328 366
322 367
326 364
328 362
324 369
323 364
331 359
324 371
318 381
306 383
329 378
342 374
349 371
342 369
354 360
349 366
353 363
343 366
335 370
330 366
332 355
338 351
339 356
343 349
333 356
330 362
315 377
305 388
299 392
287 400
305 393
336 379
343 370
345 367
349 361
349 366
351 368
344 362
356 347
352 346
348 352
352 350
343 352
336 359
326 369
318 373
318 379
316 383
307 382
303 385
313 386
339 377
348 373
346 362
347 354
347 355
349 351
348 351
346 355
337 360
325 362
331 361
329 366
339 363
330 368
322 375
311 382
299 393
302 392
288 402
302 401
319 394
336 381
341 373
336 375
339 373
338 377
325 379
331 374
332 378
321 379
322 376
330 374
327 375
314 380
301 384
294 390
280 394
286 396
283 398
309 389
325 387
347 370
353 357
345 363
347 361
341 367
344 366
347 365
336 369
318 377
319 382
326 381
310 385
313 378
298 391
288 401
295 401
271 409
260 423
274 419
303 408
319 398
321 392
320 385
315 384
335 380
326 380
331 376
329 375
316 386
307 384
316 385
323 385
314 388
310 384
307 386
294 391
299 398
283 402
299 400
319 388
347 370
344 366
339 363
349 360
357 357
349 356
346 359
335 363
336 364
335 365
329 368
328 369
326 374
312 381
297 392
286 402
278 406
267 407
285 404
320 395
327 388
324 382
329 373
329 375
327 377
324 377
326 377
325 375
336 367
326 372
322 380
328 377
312 389
294 399
293 395
295 391
280 408
284 410
292 403
312 395
331 391
333 383
339 378
332 380
333 380
341 369
342 368
343 367
334 376
336 370
324 378
329 376
324 379
311 383
314 382
304 389
288 404
278 410
293 402
315 400
328 389
330 382
318 382
323 378
326 378
329 370
330 377
315 392
304 405
295 403
299 402
302 403
309 398
307 393
313 388
303 385
295 393
280 397
288 404
304 399
317 391
323 379
327 370
328 368
338 365
332 372
332 370
338 368
329 375
326 380
328 374
325 375
315 381
307 391
301 395
300 394
296 397
282 405
299 402
321 392
344 375
346 368
347 360
348 362
336 370
334 371
335 376
323 375
324 374
328 366
322 373
313 381
299 393
300 391
296 401
290 396
272 409
280 409
285 411
317 395
328 386
326 382
319 380
334 376
335 375
341 372
339 367
334 372
315 382
317 381
320 376
319 384
313 386
315 384
308 388
305 398
289 401
282 405
302 402
322 393
341 379
340 375
336 372
339 371
331 372
341 365
337 362
329 366
349 360
338 371
335 372
335 371
313 381
298 394
283 402
279 408
269 409
266 410
290 406
313 399
326 388
328 376
335 370
325 374
331 367
340 364
339 371
330 380
340 377
337 377
337 378
325 383
317 385
298 394
294 397
285 402
282 409
276 417
285 414
309 404
326 395
317 395
322 387
321 389
330 383
317 390
311 395
321 388
324 372
323 376
318 383
320 382
311 387
302 387
296 391
289 394
294 389
288 394
308 393
331 385
348 373
347 367
338 369
347 364
341 371
340 369
337 370
318 382
315 381
312 387
307 389
312 385
311 387
302 390
305 388
297 398
283 407
288 406
288 410
314 399
322 396
323 385
327 378
338 376
334 379
331 378
322 379
326 375
333 369
333 367
329 376
325 375
329 369
326 375
315 378
310 380
299 394
291 404
319 396
333 389
349 378
353 371
353 361
357 360
362 358
356 359
348 361
334 366
320 374
319 381
318 385
312 389
300 390
301 393
293 401
292 403
288 406
276 408
282 413
302 408
315 400
325 385
323 383
321 380
330 384
318 388
318 390
319 391
316 396
312 390
308 392
294 396
299 396
295 401
299 397
285 405
294 406
282 414
298 405
317 398
332 386
334 381
331 380
334 375
332 379
331 382
330 379
331 375
326 382
318 383
315 385
307 387
291 395
293 402
291 403
288 399
289 399
292 396
301 397
331 386
340 378
337 377
347 363
348 362
330 371
334 368
337 369
327 371
321 372
316 376
305 388
310 387
307 389
302 391
303 392
299 392
296 393
290 401
304 398
317 394
342 378
343 371
341 368
344 369
333 371
340 373
331 376
325 374
322 377
326 374
316 370
314 373
312 385
304 389
298 397
288 401
291 397
277 403
296 403
324 389
342 378
330 379
344 361
341 360
347 351
348 351
354 352
355 349
348 352
343 356
330 364
329 360
332 363
328 374
314 383
300 395
285 403
286 403
303 404
323 394
334 388
340 374
350 360
349 362
347 366
339 370
325 379
328 380
319 387
319 385
323 379
301 389
286 402
289 401
278 401
281 400
289 402
273 416
292 411
317 398
333 386
341 372
338 369
343 369
333 370
337 365
341 367
334 373
321 380
316 382
316 382
313 386
305 392
297 397
289 400
283 401
274 410
268 414
294 407
310 403
330 384
333 373
335 363
326 363
340 359
332 360
341 361
340 361
341 360
330 365
326 372
317 374
315 380
320 385
322 382
308 391
301 394
303 395
311 391
330 385
347 370
346 362
349 358
353 356
364 349
347 357
343 363
343 366
346 363
339 362
337 361
335 366
328 374
307 387
296 392
288 399
283 406
277 408
280 415
304 411
332 391
332 381
325 389
328 383
320 385
332 383
322 386
320 382
313 380
308 386
294 397
289 402
292 402
290 399
289 401
282 401
282 401
285 407
300 402
319 398
331 390
331 384
324 385
323 389
320 394
323 388
320 391
315 392
301 401
302 405
319 397
315 392
312 390
301 395
289 397
286 406
269 415
287 411
309 402
324 396
336 386
341 375
336 371
332 376
341 374
329 376
345 370
333 372
335 367
319 376
326 375
321 379
316 384
295 394
289 401
301 401
275 408
281 410
296 408
321 401
344 382
346 372
333 371
335 374
331 374
334 370
337 367
335 371
312 380
320 384
319 386
313 387
315 390
312 385
297 400
284 411
273 417
264 417
269 420
301 410
321 397
315 391
316 392
318 391
321 389
313 394
306 399
316 390
309 383
321 381
322 387
316 388
315 383
314 383
306 377
307 378
306 374
297 383
318 377
338 374
348 371
344 364
341 361
347 362
357 351
357 349
351 357
342 366
340 364
321 377
320 375
315 382
320 379
308 382
297 392
295 402
277 417
263 424
278 417
298 412
311 402
316 390
314 390
327 384
331 378
328 379
330 381
322 384
310 397
298 408
299 406
293 410
282 412
277 410
269 421
279 425
273 424
263 433
287 422
301 413
320 399
329 385
322 387
323 386
327 382
331 389
323 393
324 385
313 391
313 391
326 384
313 390
310 398
301 409
285 415
286 410
281 412
278 415
293 404
324 384
343 373
348 362
345 362
354 363
362 360
351 368
332 377
328 372
316 380
316 379
314 382
297 389
303 385
288 394
294 400
283 399
290 401
296 401
299 404
323 394
340 384
333 383
325 381
329 382
335 382
328 384
321 386
332 379
335 380
325 380
316 385
311 391
304 396
297 399
298 404
289 403
282 408
290 407
296 402
320 395
330 386
326 389
333 373
337 374
333 378
323 386
316 387
324 382
315 388
313 386
311 385
317 384
323 388
303 400
292 406
278 415
271 420
277 414
289 413
313 399
331 391
332 378
325 376
334 373
327 378
336 376
346 367
330 372
318 382
308 392
298 400
293 399
295 397
285 400
293 406
295 408
280 420
268 429
292 419
304 415
318 405
322 398
321 388
336 379
338 373
335 371
313 386
314 386
317 384
321 381
313 388
307 389
294 393
297 398
305 395
288 410
285 413
279 414
294 410
318 400
329 392
323 388
319 383
320 382
327 377
330 379
338 377
332 384
333 380
319 388
319 386
304 390
296 399
290 405
277 417
267 418
259 418
260 424
284 416
306 410
313 404
318 398
313 391
317 389
327 380
330 373
332 373
322 379
319 379
321 379
329 376
310 385
314 386
302 398
291 407
289 415
290 419
277 417
297 413
319 400
341 387
342 381
342 376
341 375
335 379
328 382
324 386
314 389
316 389
316 388
303 403
288 407
291 408
291 406
292 408
282 406
282 408
264 418
286 410
313 403
330 387
330 385
328 385
328 384
330 389
336 385
329 384
329 389
325 388
326 383
332 373
323 378
325 373
324 377
298 390
293 389
280 398
284 398
294 394
321 390
332 381
342 366
327 371
336 370
344 364
343 367
349 359
356 354
344 355
343 349
338 352
337 359
326 362
322 364
311 367
304 374
306 370
304 376
317 368
352 357
367 346
360 340
359 337
358 344
364 342
364 344
352 350
358 352
361 349
351 357
347 355
336 362
320 366
312 371
306 377
299 390
288 403
283 410
294 410
315 399
338 381
340 373
344 369
346 369
346 367
344 375
337 380
331 386
324 383
311 393
305 401
296 408
282 415
278 424
276 425
265 428
263 430
259 425
276 421
293 414
307 409
317 390
317 386
325 384
318 390
331 378
325 386
323 385
326 384
325 385
318 393
298 402
290 404
299 400
294 400
281 409
276 417
288 420
298 417
320 403
333 391
344 377
336 372
343 367
344 363
348 358
344 359
345 361
324 370
328 376
323 382
320 377
322 374
312 375
300 380
296 380
295 390
293 396
309 394
333 379
352 362
350 359
358 355
362 351
358 351
352 351
356 346
345 350
332 356
330 357
329 355
318 365
311 375
311 374
299 380
299 385
300 394
304 400
309 403
325 399
348 382
352 370
342 372
335 375
328 381
324 380
312 389
307 393
307 389
311 397
307 400
304 394
301 398
307 394
305 396
300 398
283 411
275 412
288 408
315 398
325 391
332 387
331 380
330 379
327 377
326 386
330 387
329 382
318 391
306 396
303 389
307 388
298 399
294 395
291 404
280 412
279 415
285 406
295 408
322 400
338 389
336 384
324 390
320 391
317 390
328 385
322 388
322 390
312 395
312 398
317 392
312 387
317 381
307 392
297 404
284 411
281 410
270 414
289 407
316 397
331 385
325 379
326 377
330 368
329 372
330 372
327 370
330 371
314 378
312 385
300 392
297 398
302 403
299 407
296 411
293 410
299 407
288 409
299 407
327 391
342 386
359 364
365 351
367 353
358 353
349 356
339 363
328 371
329 373
319 377
322 376
318 379
318 375
302 382
307 379
307 380
294 392
288 403
290 402
317 399
330 385
330 383
316 391
328 380
314 384
313 389
308 395
301 405
295 410
306 407
315 396
311 400
297 404
291 413
270 422
274 417
265 434
266 425
282 423
297 419
310 411
321 400
315 398
314 405
310 407
304 407
303 405
299 408
298 406
295 403
296 408
293 413
286 412
274 420
259 428
258 436
257 434
253 440
273 432
293 421
318 401
316 399
320 395
327 385
323 381
333 374
341 372
351 360
340 359
340 366
339 369
327 368
331 364
318 370
324 378
314 379
304 390
295 398
307 395
331 387
343 375
341 372
340 368
346 365
349 358
343 365
323 373
326 372
324 369
323 376
325 376
329 377
319 379
318 378
318 381
303 390
295 398
279 405
299 404
312 405
336 387
330 382
330 377
343 376
340 377
337 373
338 377
331 377
328 377
310 384
305 385
288 392
301 389
293 389
296 394
293 401
298 402
282 403
295 404
319 391
337 376
326 375
321 380
315 393
315 395
312 393
309 403
303 406
297 410
291 404
285 412
276 417
288 406
286 406
278 417
275 420
271 427
265 434
276 434
297 422
306 414
314 404
315 400
315 397
319 395
307 403
316 396
322 388
320 386
307 388
317 373
314 378
314 377
308 382
311 388
285 401
297 403
287 408
297 407
329 387
344 379
338 379
336 376
341 369
345 369
333 376
335 369
333 366
341 362
348 358
338 366
338 358
327 371
316 377
311 379
316 377
302 388
300 392
308 391
322 391
330 386
322 388
324 381
334 378
339 375
340 371
337 377
337 375
335 374
346 366
325 377
326 383
328 378
317 381
320 384
299 395
291 396
275 413
298 412
317 399
332 385
337 371
338 367
351 364
346 362
352 358
344 366
343 371
330 379
321 381
329 378
328 377
317 387
312 384
298 396
297 395
279 410
268 417
274 416
313 399
322 391
331 375
327 372
320 378
328 382
321 377
332 378
329 378
329 371
322 376
325 371
320 370
326 375
309 385
299 389
291 396
279 407
276 411
295 406
317 399
327 394
327 388
326 387
325 381
323 381
335 380
328 379
325 382
323 380
322 383
315 385
314 382
313 389
317 381
306 387
299 390
294 398
281 398
293 396
322 386
334 378
338 371
338 369
344 364
338 365
335 366
345 363
338 365
345 366
349 367
338 368
340 365
318 379
315 379
309 383
303 385
296 388
299 390
311 396
336 384
347 372
345 368
356 356
361 358
346 361
328 367
325 371
331 368
320 371
316 369
326 369
315 377
314 383
301 393
291 404
284 404
281 411
282 410
285 412
309 394
330 384
330 375
335 368
339 371
341 374
338 370
332 373
329 371
326 377
317 382
323 387
308 393
307 396
304 399
291 404
291 410
269 417
267 425
279 419
306 409
323 400
324 395
323 394
327 391
333 383
334 384
325 381
332 376
325 373
318 381
312 382
315 380
305 385
301 390
291 401
307 393
296 394
273 408
282 409
305 405
318 396
327 379
324 376
329 374
335 368
334 377
335 375
325 373
325 372
325 369
326 372
314 374
318 374
315 375
309 375
311 379
302 383
312 375
322 379
348 368
362 358
366 350
352 354
354 349
358 352
349 353
347 351
352 355
343 361
341 364
330 376
321 382
303 389
300 397
306 390
296 400
283 410
276 414
287 410
310 398
326 392
327 384
319 379
326 374
325 375
332 369
315 381
313 380
317 377
311 380
317 381
305 385
305 388
293 395
289 406
279 418
272 428
271 423
288 411
314 397
329 383
338 373
343 363
347 361
357 357
349 367
337 370
331 375
328 381
314 384
312 388
303 395
291 406
280 407
289 403
279 418
276 419
272 426
288 419
312 408
325 392
326 382
327 380
335 376
347 370
344 374
344 372
339 369
336 365
335 372
314 382
306 388
312 393
311 395
303 395
295 394
299 401
289 401
293 405
321 398
332 389
334 378
344 371
340 373
340 369
337 370
347 372
344 374
340 378
323 381
314 387
299 398
292 401
290 402
287 412
281 411
271 415
273 411
291 403
308 395
331 382
323 381
333 374
335 370
331 367
334 369
334 365
338 362
336 360
327 364
326 373
325 370
329 360
311 371
306 385
293 394
288 399
280 404
299 395
326 385
337 375
339 367
339 365
345 362
342 365
346 361
333 367
334 366
333 368
331 372
327 375
328 373
320 378
315 386
305 393
290 402
293 405
287 403
298 398
323 388
337 377
345 367
348 359
348 366
347 363
345 360
354 353
352 353
349 352
351 353
350 351
343 354
330 366
327 361
326 366
318 371
306 381
300 388
304 392
325 389
333 383
331 376
331 374
338 368
339 367
336 369
344 363
340 364
335 364
330 373
334 372
322 377
318 377
306 393
297 402
292 405
281 408
279 409
291 404
315 395
338 382
336 375
348 364
351 366
345 376
342 375
335 374
332 375
328 378
319 382
307 385
307 385
318 381
304 390
308 390
295 396
290 403
278 409
290 404
314 397
331 384
329 380
330 376
338 370
328 370
348 358
339 367
325 373
325 372
327 376
308 386
311 394
308 390
298 390
291 390
291 388
292 391
298 389
303 398
322 390
339 378
339 371
338 367
348 364
344 367
348 367
335 377
339 366
336 367
332 360
337 358
336 355
329 361
337 362
319 378
305 386
297 397
295 392
310 393
329 392
346 375
350 368
346 366
352 364
339 370
335 373
329 374
327 369
324 373
335 374
313 381
313 384
300 390
295 395
305 392
302 396
298 406
280 414
279 420
303 411
315 402
324 393
317 395
306 398
306 403
308 400
306 402
305 401
296 405
294 410
274 421
285 412
290 415
280 421
268 431
267 430
269 428
272 426
291 416
315 403
321 398
327 392
326 387
326 391
334 376
338 370
344 370
348 355
336 365
331 369
332 370
309 382
307 381
311 380
313 375
317 379
294 391
284 401
302 394
326 387
341 378
338 373
333 361
335 363
333 366
327 368
322 373
321 374
326 376
315 387
318 390
309 397
307 393
305 398
299 399
289 407
278 407
284 406
305 400
337 381
351 374
354 360
355 355
358 344
358 344
354 352
335 358
341 357
337 357
329 367
325 372
331 369
317 375
314 380
302 387
299 388
293 390
293 394
301 397
326 388
338 379
331 380
336 368
339 367
341 370
337 382
333 385
327 381
327 379
318 386
319 386
299 390
294 400
294 400
292 405
294 402
283 409
279 404
294 396
314 390
339 372
343 361
343 358
348 362
343 364
342 371
337 370
335 373
322 372
314 377
317 382
315 390
312 397
299 402
278 411
280 411
263 416
253 425
270 423
292 417
307 405
310 395
306 390
322 386
320 389
325 385
331 384
329 386
317 391
312 391
309 397
298 402
296 401
301 393
297 401
294 403
296 398
296 398
304 400
326 393
340 381
337 373
342 365
344 363
345 364
348 361
343 361
346 355
344 353
347 349
352 348
335 364
319 375
315 376
313 381
317 378
315 384
293 394
306 389
328 386
346 372
341 368
343 361
358 350
355 352
341 357
352 356
349 358
335 364
340 358
328 367
310 376
309 384
298 384
285 394
291 400
286 399
299 403
304 399
324 396
338 385
334 381
344 373
339 372
333 378
331 378
321 389
317 393
308 390
323 389
311 389
304 395
305 396
303 398
283 404
289 402
287 405
289 404
298 407
332 386
339 380
339 372
344 369
343 371
336 373
339 373
345 367
340 367
335 366
329 372
322 380
324 388
306 397
299 400
304 400
286 413
277 418
247 430
262 427
299 409
317 400
312 395
320 389
311 390
321 382
331 374
336 371
333 375
325 374
320 379
307 386
296 390
289 397
290 399
277 412
280 409
268 419
261 425
277 424
306 411
314 407
318 399
315 393
331 380
337 375
328 380
325 374
327 373
331 368
331 369
324 377
321 380
314 386
306 396
298 390
284 399
269 414
269 419
292 410
315 402
333 389
333 380
339 369
348 371
344 368
340 377
328 380
318 378
316 379
303 384
295 396
298 397
295 401
291 402
305 398
293 403
291 413
284 415
301 412
314 403
334 389
343 379
341 374
346 374
348 370
335 370
331 375
319 385
318 388
304 391
290 400
272 411
275 413
269 414
270 417
280 413
274 409
278 413
303 403
329 393
346 382
347 371
342 368
348 362
341 366
351 355
350 355
335 365
315 381
321 379
324 378
308 380
291 394
298 397
297 402
289 407
286 407
287 404
301 404
328 391
343 379
342 371
340 373
327 380
338 375
331 373
331 373
330 379
326 377
321 378
323 376
310 380
304 378
298 378
298 383
304 383
303 387
294 390
307 386
339 371
354 366
351 356
350 352
364 351
353 351
346 354
342 365
319 372
322 370
336 366
327 376
315 379
315 380
304 382
296 384
306 381
302 390
296 397
306 400
335 385
353 371
356 361
357 357
350 359
363 353
355 352
350 353
345 360
347 350
335 361
336 367
319 380
316 387
307 393
298 403
280 414
265 420
261 423
288 411
310 399
320 390
328 375
332 371
340 368
340 368
336 365
333 370
334 367
338 363
333 367
328 369
325 371
327 368
324 371
310 379
290 387
297 390
291 392
310 388
333 375
361 357
364 348
357 347
365 342
361 343
348 352
341 360
337 357
337 361
335 365
324 367
331 361
325 363
328 367
337 367
322 380
306 386
299 388
313 389
332 379
352 368
357 355
353 354
353 356
359 357
346 360
332 368
330 367
335 366
333 375
334 377
315 382
302 390
298 396
302 400
298 406
284 413
273 417
291 411
322 397
332 385
333 377
335 371
343 373
351 368
348 367
344 365
326 377
326 375
333 377
327 380
321 378
294 390
298 391
293 400
277 401
283 407
282 406
295 403
308 400
320 400
315 397
321 386
325 381
333 370
332 367
331 370
329 375
320 380
322 382
313 388
310 394
307 396
296 400
292 402
290 409
286 413
280 418
291 411
326 391
336 384
341 375
351 368
341 371
332 371
329 373
337 365
329 367
317 374
325 373
317 380
314 391
299 395
301 399
288 403
288 410
290 413
293 411
304 413
328 399
340 389
336 384
336 373
337 368
337 369
345 364
337 367
333 368
338 367
330 373
328 371
317 378
301 391
302 386
303 390
294 396
282 403
277 405
289 406
310 397
319 395
330 383
336 376
342 376
343 369
344 369
344 374
330 383
323 374
323 381
321 380
316 384
302 392
295 404
296 404
292 408
273 418
254 434
268 432
292 420
298 415
307 401
319 387
314 390
312 392
319 384
323 385
337 371
332 376
310 387
317 383
316 380
299 389
300 388
311 383
298 396
292 395
292 397
309 396
330 381
345 372
347 361
342 360
335 364
343 363
343 367
341 367
328 369
339 365
334 367
329 375
333 368
332 368
324 379
310 383
286 400
291 401
280 406
298 406
315 403
330 393
326 386
329 381
340 374
333 375
331 378
327 384
326 388
321 388
324 387
323 386
308 390
295 397
291 406
288 410
280 413
267 421
266 419
276 419
304 403
326 391
327 384
332 373
329 374
340 365
340 368
358 353
358 350
354 349
356 352
338 360
334 364
316 377
300 387
297 397
300 400
290 405
284 408
295 405
317 393
338 383
337 375
338 372
340 371
333 375
343 371
328 380
328 377
322 381
310 387
302 399
300 401
292 407
283 413
270 423
263 424
266 425
256 434
266 435
289 425
312 408
317 395
312 394
322 389
314 395
307 398
322 396
315 391
309 395
318 391
310 394
312 391
298 400
307 398
293 404
291 404
283 403
283 401
303 395
326 385
346 373
346 364
343 364
353 363
343 364
336 364
337 371
332 378
325 380
336 374
328 374
317 384
308 386
297 390
295 391
294 387
288 397
282 405
297 399
325 385
333 379
336 368
348 362
340 366
340 369
332 376
329 375
320 380
325 378
325 378
319 380
310 389
304 397
298 398
288 400
293 396
279 405
288 406
290 401
308 396
319 386
320 380
321 378
330 379
338 373
329 379
340 380
321 393
321 390
316 384
318 386
305 392
302 396
303 397
292 405
278 408
283 412
272 413
289 406
309 401
323 391
327 385
330 377
333 380
334 376
338 378
333 377
315 386
325 381
323 384
318 385
321 384
308 388
298 393
287 405
276 415
264 415
277 413
293 409
325 396
334 388
336 386
330 381
319 391
318 391
325 392
326 385
321 384
324 382
316 385
315 388
313 397
298 402
292 394
301 386
297 390
294 395
283 406
291 407
314 400
331 383
334 373
333 373
331 377
329 381
326 379
327 377
323 372
327 373
322 381
321 376
316 375
305 374
290 387
306 390
294 390
286 403
300 392
305 394
333 382
348 367
349 359
346 358
355 359
344 364
347 361
339 365
334 366
318 372
315 383
325 375
322 382
318 380
308 389
290 397
286 397
284 399
289 403
288 414
311 401
329 387
323 385
334 376
335 372
335 371
326 372
333 365
332 364
340 366
329 367
319 367
319 370
320 371
318 376
308 388
304 390
290 398
281 404
301 396
325 386
337 381
335 377
335 373
336 375
337 374
345 374
350 366
346 362
344 370
334 377
308 386
315 382
301 382
301 384
310 386
308 382
303 388
293 397
313 386
338 372
343 372
349 358
359 355
355 356
348 358
352 351
346 357
338 365
340 370
322 381
311 386
311 392
311 391
307 390
303 394
298 404
285 410
282 412
301 407
323 395
323 390
327 381
327 374
343 372
348 367
337 364
333 365
343 354
346 351
332 358
331 359
324 366
321 372
307 379
301 389
296 391
293 396
271 410
290 402
316 392
342 372
345 368
330 373
333 374
330 374
322 378
325 377
341 362
324 370
317 378
317 379
316 389
307 393
303 397
286 400
280 407
277 410
276 415
287 418
320 400
342 383
340 375
333 374
334 372
329 376
339 369
343 369
328 375
323 378
324 373
325 378
316 380
313 385
306 385
302 385
311 386
304 381
301 388
319 378
340 373
347 367
351 354
348 350
350 351
362 346
356 350
355 349
354 346
350 351
337 362
331 362
321 367
314 372
324 364
309 375
308 386
304 390
301 393
311 392
337 376
354 364
349 363
343 363
336 371
345 369
338 375
338 382
335 382
323 381
317 383
304 393
308 384
307 387
294 397
292 396
281 407
260 419
259 425
279 415
308 409
322 398
325 387
334 381
322 381
328 377
322 383
319 384
321 385
318 389
309 390
309 386
303 389
303 394
295 401
281 409
281 413
276 418
273 420
290 410
307 404
324 396
323 387
329 380
327 380
333 371
327 371
325 375
322 380
318 379
311 375
313 376
316 376
311 377
313 382
308 388
307 391
297 399
286 407
311 396
333 386
352 370
362 359
352 362
342 369
344 366
343 364
339 364
342 364
337 367
335 369
326 371
318 375
310 380
310 382
308 386
301 385
303 385
287 397
296 398
313 393
324 387
317 385
320 377
326 377
327 376
334 371
331 369
338 360
332 367
325 375
323 377
316 380
319 383
303 387
315 379
298 391
293 399
296 404
313 396
329 395
347 380
355 368
346 365
349 356
353 358
345 367
342 366
341 362
338 364
330 370
318 376
317 380
306 382
299 394
295 405
285 415
279 419
287 414
294 414
316 400
337 386
337 380
335 376
340 376
338 383
341 376
329 386
316 386
313 386
320 385
304 386
297 394
287 406
284 406
283 405
292 400
290 410
278 418
287 415
311 402
331 387
329 378
339 366
344 361
341 364
338 361
345 353
353 351
348 348
349 353
339 361
324 372
319 373
312 379
313 384
304 389
295 401
292 404
298 399
319 388
336 374
344 366
350 362
344 363
345 363
344 363
347 366
340 361
331 363
323 370
317 374
319 376
310 380
316 382
306 399
307 393
296 397
287 400
296 398
330 381
337 373
339 368
336 362
341 363
340 367
346 363
347 367
349 360
334 367
337 370
315 380
317 386
307 386
305 385
304 386
297 393
282 404
289 397
310 395
326 386
343 376
346 368
341 370
350 369
355 360
355 358
345 363
342 364
331 371
328 375
315 376
303 390
293 394
298 395
293 404
287 411
289 406
272 418
275 418
299 418
304 418
307 414
303 415
311 407
300 403
321 396
310 403
307 398
309 392
304 390
305 392
306 391
295 398
298 405
303 401
293 404
294 402
299 401
313 396
344 376
355 368
351 366
356 360
355 360
351 358
354 352
348 353
341 357
331 366
338 364
340 362
329 367
330 366
323 379
313 383
310 389
298 399
288 406
315 390
340 379
353 367
353 359
349 362
352 360
346 360
347 363
343 371
341 374
322 377
319 376
309 381
304 385
297 392
293 396
301 400
291 406
284 403
280 410
285 408
309 399
322 394
322 382
327 376
324 373
340 368
334 369
332 371
329 374
324 376
321 381
333 371
330 371
317 380
305 383
289 397
283 408
289 405
294 398
309 398
326 393
341 380
339 380
337 377
340 369
341 368
342 369
344 370
334 371
319 373
326 375
330 378
320 384
306 394
296 400
288 403
284 413
273 417
278 415
295 412
317 401
337 385
344 374
346 371
341 368
334 372
341 364
341 358
346 357
339 365
332 367
324 371
320 376
300 389
300 387
299 393
286 400
284 408
278 412
285 414
302 409
317 397
324 388
328 380
329 380
350 367
339 371
334 377
327 379
329 378
320 382
314 381
308 385
307 395
289 406
277 413
282 416
267 429
268 432
277 431
301 415
311 405
313 398
317 395
325 393
318 397
318 398
315 400
308 401
306 404
293 405
291 403
298 399
289 404
293 405
288 412
273 419
279 411
279 404
285 406
319 394
324 393
334 382
335 377
335 384
331 380
328 385
328 386
312 389
320 383
319 379
309 388
302 386
290 394
289 392
290 396
284 397
284 403
281 411
291 410
324 396
330 390
328 385
333 377
335 368
324 370
328 362
336 363
330 376
321 381
316 387
315 388
309 393
310 394
304 398
303 398
299 392
293 396
285 400
299 404
323 394
339 387
338 382
342 368
335 369
333 373
338 372
337 373
334 371
336 373
317 380
316 383
310 387
317 379
324 375
325 370
314 377
298 393
298 392
318 388
339 377
354 363
356 354
356 347
359 349
369 343
365 345
360 349
356 347
361 344
342 349
334 355
329 362
322 366
314 378
303 390
299 396
302 399
290 406
293 403
320 392
332 380
326 378
326 377
324 377
330 379
327 381
327 385
314 392
309 390
297 402
297 403
300 398
297 399
288 406
291 408
281 417
277 416
271 425
280 428
310 410
324 401
326 394
320 390
313 394
315 391
319 388
313 393
310 398
312 394
298 394
294 400
306 387
286 397
284 407
277 413
282 415
281 415
277 419
295 410
317 405
327 395
331 387
332 384
328 386
324 384
320 389
322 387
335 375
316 383
300 392
298 397
298 399
299 401
304 401
280 414
271 422
265 434
264 436
268 437
297 425
313 416
316 404
321 394
319 400
331 383
331 381
322 386
314 383
326 379
329 382
315 398
309 394
295 397
303 400
296 403
284 414
282 416
285 412
299 404
325 390
338 375
343 366
351 358
343 362
344 356
340 363
335 368
328 369
326 377
310 380
315 386
314 390
292 394
295 399
290 406
289 408
282 407
280 407
299 400
328 384
348 365
346 356
343 354
347 354
359 346
343 362
340 371
334 376
328 376
322 383
315 385
309 396
303 398
303 395
292 401
292 406
289 411
282 419
282 421
310 407
325 395
329 386
335 378
326 378
334 377
339 367
342 367
339 371
331 369
330 371
331 374
319 378
315 379
308 387
290 400
279 406
282 408
274 412
289 415
310 412
322 402
325 393
317 389
330 377
321 379
326 374
313 380
328 376
320 374
322 374
321 377
311 385
304 392
305 392
294 400
295 403
295 403
271 416
290 410
318 396
336 383
336 375
339 371
343 373
335 373
345 369
336 372
320 382
313 381
322 380
317 384
319 386
303 397
289 404
279 413
272 423
262 428
269 421
290 414
315 401
327 393
332 384
335 378
327 385
323 381
322 381
320 373
322 382
319 384
319 381
327 380
323 381
310 383
301 387
300 398
291 407
285 411
288 413
297 411
310 407
330 389
329 389
329 386
328 383
345 377
343 372
340 369
325 383
329 374
327 378
321 383
311 393
294 402
287 405
282 412
275 421
266 424
245 439
281 426
304 413
313 408
313 398
313 398
311 400
321 400
310 406
305 408
299 405
304 406
303 408
302 410
302 410
302 410
299 408
299 405
288 407
287 409
278 409
300 398
332 383
349 374
343 371
335 372
349 365
354 364
345 366
347 366
342 368
349 368
340 369
325 377
320 372
310 376
303 382
301 385
295 392
288 403
277 409
299 402
336 383
345 375
349 366
339 376
338 379
320 387
318 389
324 380
313 386
310 391
313 390
306 393
302 402
298 408
290 413
286 420
275 420
259 431
260 436
263 441
284 433
305 417
306 411
303 407
308 403
314 396
329 390
328 388
326 390
313 394
299 401
292 406
296 397
290 395
288 404
277 412
273 415
279 410
281 404
299 402
315 398
332 383
334 381
339 372
330 376
324 373
321 375
315 378
311 380
317 385
313 386
311 390
304 396
304 398
289 408
286 412
282 415
267 424
276 418
290 416
308 409
323 399
332 382
337 377
335 378
324 382
319 387
317 388
313 396
305 401
301 410
295 415
289 419
299 418
280 426
279 426
269 428
263 427
274 420
290 416
316 406
340 388
336 384
333 384
338 379
336 382
333 379
322 381
324 380
312 390
325 383
310 388
311 389
300 397
284 402
272 417
276 416
267 421
258 434
269 432
295 422
313 407
321 397
319 390
323 390
318 387
314 390
327 383
319 394
308 399
325 393
317 396
310 403
298 402
303 399
301 401
292 400
283 414
273 420
283 417
306 408
319 395
325 390
320 386
316 389
326 385
330 379
337 373
331 375
324 382
316 380
316 378
308 376
302 387
305 394
292 399
275 407
282 405
289 406
302 406
322 397
329 393
329 385
329 378
341 372
337 369
344 365
333 371
331 372
325 379
326 375
330 365
332 369
323 376
325 375
320 379
297 391
292 397
294 399
303 401
325 392
345 374
344 370
334 376
335 379
333 375
337 376
324 383
324 382
321 387
316 391
309 392
310 389
303 391
294 395
278 404
279 407
281 406
275 409
279 414
311 399
324 386
327 378
323 381
331 377
330 378
323 380
319 378
327 375
333 377
326 373
327 372
318 363
328 361
326 375
324 378
308 393
299 397
282 407
301 405
325 390
333 383
344 370
339 372
341 377
346 378
329 388
324 393
320 393
318 392
318 388
315 387
296 401
296 401
293 400
273 409
284 403
283 406
278 414
296 404
318 393
328 384
327 376
331 375
347 368
328 382
336 377
331 377
322 380
321 381
330 377
324 382
323 375
311 384
312 385
309 384
297 393
298 396
298 395
316 391
339 377
363 361
357 357
365 346
372 337
364 343
360 340
363 336
362 337
366 342
365 341
347 346
346 350
337 359
331 365
308 376
299 388
298 390
290 399
302 401
320 397
328 390
328 383
328 385
326 383
330 382
328 382
320 384
321 383
330 377
321 380
313 383
313 378
315 382
312 384
304 391
306 391
296 397
280 401
293 402
316 394
329 384
338 373
338 365
342 367
349 365
348 355
347 352
347 357
335 365
329 364
339 358
341 356
327 369
333 369
316 378
306 384
296 385
294 391
298 396
326 387
340 378
333 376
333 376
343 374
336 377
332 377
337 365
338 373
331 376
326 381
328 379
306 388
312 384
307 390
294 399
280 404
280 414
268 422
289 411
311 400
331 390
331 383
333 380
325 385
330 380
339 375
342 368
329 374
315 378
314 390
311 389
306 394
303 395
306 395
295 400
301 395
286 404
292 402
309 402
339 383
360 366
361 361
359 355
371 345
348 357
351 356
346 355
338 360
328 363
324 371
318 381
309 380
302 380
302 387
294 386
299 388
280 403
283 407
294 408
322 398
335 388
339 380
349 372
339 373
342 372
336 370
329 372
325 374
319 381
313 382
308 385
295 396
304 396
283 406
290 406
283 412
278 417
288 415
300 412
316 408
333 397
343 383
339 381
328 385
338 373
340 368
331 372
329 371
329 371
328 374
310 389
309 389
303 394
301 399
287 409
292 412
282 419
279 425
288 421
310 411
321 400
325 395
327 384
344 374
342 376
338 380
325 388
314 395
295 399
300 399
293 409
293 404
287 409
271 416
283 416
264 422
257 432
263 432
274 433
295 425
308 417
310 409
312 402
308 402
316 396
320 392
306 389
314 390
310 400
295 404
293 402
297 399
304 400
293 409
288 413
280 418
268 421
263 427
275 431
310 410
332 388
332 378
340 371
345 367
342 369
350 366
338 374
339 370
332 368
310 375
310 381
311 385
308 392
293 402
289 407
280 414
277 413
274 424
284 426
306 413
325 401
315 398
328 388
338 380
331 377
319 377
327 380
333 376
339 375
318 381
312 388
306 392
301 395
287 403
282 412
278 411
304 400
289 406
308 400
324 392
342 377
343 378
331 380
332 378
337 378
330 375
315 382
321 377
325 375
324 374
333 366
328 367
323 372
321 376
312 384
296 393
293 405
288 413
306 408
321 398
335 388
346 375
346 374
348 372
353 361
354 358
341 364
345 357
344 361
338 363
325 370
313 376
309 378
297 386
297 390
288 396
289 403
278 406
298 400
321 385
330 383
324 383
320 379
323 376
319 376
323 381
314 383
322 379
316 386
311 393
315 386
317 384
310 391
311 385
305 392
298 400
284 413
273 413
291 410
322 395
341 383
340 381
340 371
334 375
331 377
334 377
334 376
341 374
331 376
324 372
320 372
321 371
318 376
313 379
301 394
291 402
287 403
279 411
295 410
324 389
334 386
339 375
343 373
342 375
335 374
328 379
325 383
319 386
314 389
311 390
305 395
303 403
292 398
298 401
296 401
296 406
284 411
287 415
306 406
320 404
336 393
323 391
318 390
323 384
323 390
313 389
321 383
326 379
321 387
311 393
305 387
323 374
315 382
302 391
285 409
272 429
259 433
256 431
275 421
303 414
319 398
325 386
324 379
327 374
327 377
331 374
336 370
333 374
323 374
321 380
316 381
315 380
315 383
301 388
301 392
310 393
294 395
287 402
297 404
324 390
336 386
337 375
337 368
337 371
339 366
340 362
341 363
344 358
328 369
322 372
325 367
318 377
303 391
300 398
297 404
288 406
285 410
286 411
294 413
313 403
335 385
331 382
325 375
336 368
339 368
345 358
339 363
338 373
342 367
323 381
323 376
314 381
303 385
304 385
297 389
293 394
291 401
270 413
286 410
315 394
329 389
330 378
326 376
330 375
338 374
343 368
362 358
360 353
338 369
336 364
332 364
320 371
324 364
330 363
317 369
324 367
310 378
305 383
311 388
334 381
342 375
342 374
340 371
336 373
345 376
340 373
336 371
331 374
317 384
317 380
307 389
300 396
291 398
298 401
295 405
298 399
288 398
281 398
295 398
319 390
335 379
337 368
336 367
330 370
331 370
339 360
336 359
332 365
338 369
321 379
318 383
316 386
308 387
305 391
310 384
299 383
297 386
300 392
310 392
326 387
340 380
340 369
337 365
341 365
340 370
339 371
345 361
347 360
332 371
323 373
316 374
316 378
307 391
309 391
296 396
294 396
290 403
286 407
309 400
329 387
348 375
348 371
346 366
333 373
344 370
335 368
334 364
329 372
327 379
315 382
325 382
327 374
326 374
302 382
308 376
312 373
311 376
308 381
318 376
342 367
362 357
354 358
360 353
356 357
346 362
330 368
337 369
335 374
320 382
316 383
312 379
291 392
289 395
285 405
287 410
278 416
279 417
280 415
294 411
314 402
332 391
330 387
330 383
317 387
317 386
314 380
310 382
310 387
302 393
316 381
307 382
314 382
325 377
314 383
306 386
286 399
292 402
287 406
302 402
323 394
333 382
334 379
338 371
343 363
347 358
343 366
337 367
329 368
325 372
320 377
322 381
311 389
309 393
306 398
287 406
286 407
279 408
277 406
297 400
310 401
325 385
326 375
328 375
326 384
332 379
324 386
327 381
319 379
314 380
316 381
313 387
302 395
307 391
295 394
285 396
286 402
284 409
283 405
293 404
317 397
340 378
347 368
345 362
339 359
344 351
351 354
352 353
343 355
343 357
334 364
329 372
323 380
304 392
303 393
292 400
279 403
288 400
281 412
298 404
327 394
338 381
346 372
341 373
334 373
333 371
336 370
336 369
332 373
327 374
329 373
320 381
307 391
299 395
293 400
282 412
271 418
278 429
270 437
283 429
309 414
324 401
327 390
323 384
326 379
335 380
329 383
325 380
322 384
312 385
309 384
315 386
315 388
310 388
299 395
289 399
283 406
271 416
282 418
293 414
318 397
334 383
333 373
329 371
340 364
341 363
343 362
346 363
346 360
347 358
336 365
334 368
337 369
323 378
325 377
321 380
308 390
307 387
288 390
298 390
320 384
335 373
342 361
337 362
340 358
350 353
351 355
350 354
361 345
344 354
347 356
337 356
340 362
331 368
328 375
309 381
298 383
288 395
283 402
295 400
327 386
346 377
350 367
355 353
351 359
355 358
349 356
340 357
340 358
334 361
335 362
319 374
316 376
306 381
306 389
291 402
288 407
276 419
265 430
276 434
296 424
306 418
315 409
324 398
329 385
336 381
340 374
335 374
320 381
311 390
310 388
310 392
300 397
297 398
291 400
276 414
273 422
267 431
262 435
281 430
309 414
329 394
333 386
325 385
325 382
335 379
328 379
328 380
326 375
311 389
306 385
307 386
311 389
305 395
292 399
290 394
302 395
291 401
281 406
304 401
325 391
339 384
336 379
330 381
345 367
345 364
358 356
346 359
351 352
346 362
333 370
332 370
311 383
317 380
310 380
302 383
299 385
294 392
293 390
303 390
329 381
349 364
343 362
340 362
336 367
350 357
348 362
344 362
344 361
351 352
346 357
352 356
334 365
316 371
303 379
299 388
293 389
281 404
275 413
294 404
318 396
336 384
338 374
338 369
340 359
335 362
345 357
351 358
341 365
330 372
326 369
331 367
334 366
332 364
317 369
318 370
306 383
307 389
301 395
306 399
326 393
344 374
341 368
352 357
344 362
344 366
346 359
341 362
340 363
332 363
324 367
318 379
310 387
309 389
309 388
292 399
287 404
279 411
271 414
296 406
325 388
335 385
335 376
329 377
347 370
342 375
343 377
336 378
337 376
327 377
328 374
332 377
316 385
294 397
292 402
285 409
273 418
281 413
282 413
301 409
329 394
349 379
349 368
346 363
353 355
357 355
349 359
340 364
335 362
338 361
325 367
334 363
333 361
328 366
320 370
304 376
295 388
293 397
294 396
309 395
335 388
342 379
343 370
336 365
326 374
322 382
331 376
328 384
328 387
313 392
308 395
315 386
311 389
303 397
299 404
287 410
270 420
270 422
257 426
273 423
304 408
318 399
314 392
322 384
327 386
332 381
332 376
324 388
320 389
312 391
315 391
314 390
305 395
298 402
299 400
292 414
278 421
271 425
269 423
277 421
305 410
320 402
322 394
326 388
327 389
331 384
323 392
319 395
314 391
329 378
316 385
313 385
307 390
302 392
288 400
289 406
291 412
282 413
266 425
282 426
295 419
311 408
312 400
317 393
319 395
325 394
315 396
312 401
301 402
302 400
305 388
298 393
304 393
293 402
298 408
279 420
280 411
272 417
271 419
278 421
304 411
321 394
324 382
331 376
350 365
345 373
344 369
345 367
336 366
338 370
334 367
325 384
314 383
306 384
310 384
312 390
303 401
306 401
285 408
305 403
326 392
338 382
344 372
340 374
338 375
341 367
338 363
330 361
337 362
327 366
330 369
322 370
327 366
313 374
303 383
296 390
301 389
301 396
285 403
305 399
318 391
328 386
345 370
337 365
335 364
341 364
335 363
336 357
334 365
332 368
321 379
320 385
317 383
315 389
301 400
296 402
294 406
284 410
274 420
289 411
323 397
334 386
338 376
333 379
334 381
342 379
347 371
337 372
334 373
328 376
331 376
322 381
310 389
295 400
284 405
280 408
277 413
267 422
273 422
275 426
309 407
321 399
310 399
316 390
315 390
323 384
331 383
325 385
317 389
312 390
302 398
296 404
293 407
294 409
291 414
277 423
271 418
273 420
265 420
273 424
288 422
313 404
318 390
321 384
330 381
335 375
332 372
336 366
341 358
339 357
325 368
333 368
330 374
324 376
320 382
307 386
288 395
289 400
276 410
295 413
307 410
322 396
321 387
328 383
325 389
320 395
327 384
318 385
321 384
313 386
323 382
314 388
302 395
292 404
278 412
282 412
276 417
283 412
275 414
283 415
303 406
316 398
326 384
321 382
315 388
322 383
335 375
334 376
323 379
327 376
322 374
329 372
316 375
299 386
307 386
290 398
296 390
300 390
285 400
299 398
326 390
338 383
335 383
334 378
335 381
334 377
335 378
330 380
330 376
322 380
323 374
308 381
293 389
298 385
297 392
290 393
285 398
290 402
285 405
295 409
319 400
334 391
339 382
336 381
335 379
335 377
332 371
343 366
336 370
325 374
301 384
303 386
301 382
307 388
307 382
296 387
292 397
293 403
304 397
311 397
330 385
343 374
358 364
348 360
349 360
350 359
344 359
341 361
332 358
326 364
317 372
311 380
310 390
305 391
290 401
290 407
286 410
281 418
268 420
289 414
302 408
322 396
331 380
332 374
339 370
335 370
335 370
331 379
335 370
330 367
319 371
331 376
323 378
315 375
315 385
298 389
296 397
290 401
283 408
300 405
328 393
340 383
348 374
339 371
326 378
324 378
326 379
335 372
319 373
321 374
310 382
305 389
306 393
299 397
301 394
304 397
292 401
293 399
294 398
300 398
330 381
349 373
356 362
350 356
351 355
346 354
350 352
350 351
347 354
342 361
337 361
341 362
335 366
318 381
324 379
310 387
290 398
284 406
273 407
289 405
303 402
331 383
332 372
346 356
349 355
353 355
342 362
350 358
345 357
349 351
350 350
339 358
341 360
339 359
331 367
320 376
311 391
279 399
277 401
295 393
321 388
328 387
326 384
324 379
329 380
334 378
338 369
343 368
343 368
326 376
320 377
326 373
317 379
308 382
302 389
295 396
282 404
289 403
286 405
304 397
326 385
343 370
343 362
348 357
339 355
351 353
338 358
341 357
336 363
328 370
321 381
318 383
319 382
320 383
319 387
306 398
296 405
281 401
281 411
296 407
311 403
322 394
317 392
317 385
324 383
327 380
329 388
330 392
324 395
302 406
305 406
293 404
307 395
297 403
290 408
277 414
280 413
257 424
258 420
277 417
304 409
320 395
322 384
324 387
323 390
325 382
328 376
323 383
341 379
320 385
322 384
321 383
309 391
307 391
292 400
283 402
279 405
272 413
278 416
282 414
308 403
327 392
334 380
336 377
333 380
338 371
340 368
342 365
331 368
330 373
330 368
315 375
313 379
313 383
304 390
290 397
301 389
307 395
284 408
296 407
313 402
322 394
324 384
322 382
332 375
341 374
344 371
337 370
340 365
334 365
329 377
320 389
313 393
295 403
291 403
280 410
281 413
285 415
276 419
287 418
304 412
318 402
323 389
318 387
323 379
330 374
331 376
339 370
333 371
338 364
339 356
337 352
332 357
327 362
320 369
309 375
304 378
299 386
298 393
308 392
333 382
341 379
341 373
331 372
329 377
333 379
345 371
340 372
347 366
332 375
318 378
311 375
320 381
310 383
298 398
292 408
278 416
281 420
273 423
286 417
313 406
324 397
330 387
325 390
308 395
309 397
313 393
310 392
320 387
319 388
319 384
319 384
317 383
310 386
301 397
294 402
284 415
293 408
272 416
288 407
320 392
329 388
337 379
337 376
342 372
340 378
346 372
332 371
340 370
327 377
322 378
306 381
303 384
298 392
297 399
292 404
293 409
271 426
269 427
269 433
290 423
300 415
304 407
314 396
327 391
325 389
325 389
327 387
334 378
328 388
326 386
327 384
318 386
307 395
302 389
301 394
288 396
287 399
290 400
305 396
322 389
340 377
344 370
343 371
333 374
342 369
342 370
337 367
337 368
326 367
324 368
327 371
332 372
325 378
315 385
304 388
292 393
299 391
285 397
295 403
327 388
338 377
348 369
351 363
347 362
351 360
348 361
339 370
326 376
324 381
317 385
318 386
293 398
292 398
302 402
301 406
288 413
271 423
269 424
279 422
306 410
322 404
326 393
326 381
325 381
318 381
316 388
326 380
320 381
316 385
308 393
299 401
296 403
285 408
293 405
288 411
289 408
291 408
288 406
289 408
312 399
335 381
333 373
337 372
337 371
335 375
327 383
332 374
330 370
331 373
335 367
334 368
321 374
317 375
323 376
325 373
310 384
293 393
282 402
304 399
315 395
325 390
329 377
337 375
333 381
326 383
325 383
324 380
317 376
322 374
328 370
323 374
322 374
321 386
317 384
310 392
307 405
277 413
268 414
290 402
315 393
336 379
336 371
326 376
330 376
331 378
336 379
334 381
326 383
316 389
328 380
317 390
310 385
306 389
300 394
291 402
295 401
293 404
286 404
308 394
329 381
348 372
339 373
333 374
324 376
339 370
332 375
330 371
330 373
320 376
322 368
312 379
317 376
317 375
306 384
300 390
280 402
288 406
280 405
286 402
321 390
337 375
338 369
336 361
336 366
339 365
344 361
347 365
350 366
341 367
327 381
317 383
314 380
303 376
308 376
303 390
310 393
285 404
276 414
295 411
315 401
325 395
337 381
335 380
331 382
328 378
345 369
331 372
319 378
314 382
313 386
313 387
305 394
287 406
284 407
293 403
283 410
274 416
285 412
297 405
317 401
331 386
334 375
338 367
337 369
338 372
339 372
335 375
317 380
313 387
321 388
298 395
288 404
286 408
293 404
281 404
281 414
285 414
273 420
283 419
299 417
323 400
326 389
323 387
323 384
324 382
332 375
338 370
334 373
329 374
322 380
318 381
316 384
314 382
305 390
307 394
292 396
289 399
281 401
305 396
332 382
348 370
348 359
354 352
354 352
350 358
335 367
333 368
328 367
315 367
321 372
315 379
311 384
293 394
293 401
294 406
292 411
278 411
275 414
278 417
303 407
321 396
325 386
331 380
340 375
336 373
328 382
320 382
322 389
315 393
312 389
300 397
307 396
301 401
296 403
291 410
277 417
266 423
262 421
276 423
302 410
320 395
324 379
323 373
342 363
341 372
345 370
346 369
337 370
327 376
334 374
330 373
325 370
336 359
327 372
309 378
303 383
294 387
282 396
305 390
321 387
332 380
343 367
349 360
344 360
354 360
354 360
336 373
342 370
323 378
319 385
311 386
317 384
319 388
305 392
304 399
290 406
292 409
287 405
305 396
330 386
340 378
341 374
342 373
349 366
344 370
354 356
347 357
345 353
343 352
320 363
315 371
312 378
306 377
302 386
306 385
295 395
288 407
280 411
293 401
314 398
329 382
338 370
340 369
344 364
340 365
339 363
349 358
331 368
318 376
318 375
318 381
320 382
311 387
304 390
294 402
288 407
278 413
281 414
289 412
308 409
320 399
323 386
325 385
325 386
323 387
307 394
308 401
299 408
286 411
287 410
286 409
290 401
297 401
284 412
297 405
298 403
287 405
289 410
307 402
328 392
342 378
348 364
353 362
346 363
364 351
350 354
344 355
348 351
333 360
325 367
314 376
328 377
311 386
317 391
309 391
297 396
280 403
274 406
295 402
320 394
336 390
329 385
334 377
344 372
337 370
328 374
329 373
329 368
331 371
334 375
329 382
322 384
317 387
306 390
289 396
294 398
272 409
273 407
288 409
312 397
330 388
321 387
325 383
328 378
318 376
321 377
323 385
320 382
327 380
322 380
312 383
313 382
306 389
303 393
299 398
284 403
284 405
282 410
286 413
312 401
328 391
339 376
339 371
348 363
349 369
343 376
335 381
315 389
314 387
315 386
298 394
302 395
293 405
294 399
285 402
286 405
274 410
285 405
294 410
318 399
335 385
336 377
330 382
330 382
327 378
323 376
333 366
337 360
331 362
330 362
330 361
331 363
324 370
321 375
316 374
312 373
316 377
300 388
309 384
338 373
357 358
355 353
351 349
360 347
353 353
362 339
366 340
352 343
344 345
343 351
338 351
324 357
338 359
322 368
306 383
310 382
297 389
293 393
313 386
332 381
352 367
353 357
341 358
340 358
332 369
329 376
314 390
321 385
324 382
317 384
321 385
307 394
292 408
301 403
285 413
271 416
264 425
264 427
278 422
306 414
324 398
328 389
331 380
342 371
344 372
342 371
338 365
338 361
342 362
335 371
333 373
326 380
304 393
306 395
290 402
296 398
295 394
300 390
311 387
322 387
342 372
341 367
340 367
336 370
339 364
336 365
347 357
347 360
341 358
338 364
327 368
315 378
300 390
305 386
289 396
289 402
292 403
294 398
321 390
339 381
348 375
354 363
354 358
357 364
346 368
339 358
342 356
338 359
338 367
332 366
331 372
318 372
330 369
312 383
305 395
292 406
272 421
250 425
284 410
308 401
331 387
343 371
335 369
344 369
339 375
344 373
341 371
335 370
327 377
318 383
315 385
313 385
310 396
291 408
272 416
272 425
268 424
261 426
275 420
298 414
314 404
308 401
311 393
300 394
302 395
304 398
301 396
303 397
296 400
314 390
306 389
299 391
301 388
306 383
309 385
299 393
307 393
294 401
297 400
320 391
342 375
345 364
345 365
342 371
344 365
347 362
350 356
340 370
328 368
329 373
321 375
311 378
307 386
294 395
277 401
276 404
280 406
274 417
283 419
309 412
323 403
319 400
316 393
326 384
321 386
326 392
318 389
319 388
311 392
314 393
310 393
295 398
290 406
284 402
292 400
297 401
289 403
289 410
295 411
320 397
337 383
344 372
346 370
351 369
344 370
356 357
342 365
340 366
338 364
325 365
326 370
326 377
320 376
310 387
304 393
285 402
282 404
274 406
288 403
319 398
326 395
327 387
323 387
315 397
314 393
315 390
318 386
323 382
337 373
331 372
326 372
325 370
315 370
306 368
318 366
305 382
304 388
294 392
301 393
324 388
334 382
333 378
328 375
330 377
335 373
326 374
330 374
329 375
332 374
326 382
322 382
315 380
312 389
299 399
291 403
292 400
295 405
293 406
304 401
323 394
334 384
341 372
351 358
347 364
343 362
342 365
343 361
329 366
323 369
322 372
326 374
317 374
314 377
315 377
323 382
308 383
309 384
312 383
330 375
348 370
357 360
371 343
367 339
362 338
360 342
351 347
352 350
330 354
333 361
343 361
337 371
336 373
323 380
314 380
306 385
304 389
299 385
291 388
302 385
330 375
350 362
352 355
353 350
362 351
361 352
364 346
353 350
342 355
344 354
345 357
338 364
337 365
330 371
319 381
301 391
295 393
282 395
272 400
285 399
312 390
317 381
325 372
327 369
336 365
333 365
333 362
337 366
343 371
334 375
326 382
320 388
307 390
302 391
314 383
307 383
304 393
290 399
286 410
307 406
329 392
345 376
345 369
348 366
349 362
347 361
349 359
346 365
347 362
338 366
332 365
320 375
302 382
309 382
295 390
277 402
272 404
280 408
272 415
281 418
303 411
317 404
321 397
333 380
330 381
339 380
329 385
327 377
320 380
321 382
317 383
314 381
324 382
304 389
298 394
295 401
289 406
288 410
272 421
271 422
299 413
314 399
314 394
321 386
325 384
320 390
317 390
322 385
321 387
312 388
315 392
301 391
300 391
307 395
297 404
292 412
283 407
288 407
272 414
289 415
313 404
327 395
334 383
327 378
332 377
330 378
348 363
335 372
340 367
338 371
327 372
324 375
311 380
311 378
304 379
304 385
292 393
284 402
282 407
289 408
314 401
321 396
327 390
331 382
332 381
329 383
320 383
316 389
321 385
315 383
325 383
326 387
301 404
301 404
292 408
296 401
285 408
284 412
262 423
279 422
290 419
303 408
315 395
327 384
329 380
334 379
332 374
324 377
323 377
320 375
326 371
316 379
313 382
310 384
303 393
291 400
287 401
282 403
285 402
300 397
330 384
347 374
347 368
339 359
349 353
353 352
353 348
348 355
341 359
336 369
321 375
323 382
309 388
306 387
305 393
300 399
298 397
290 408
284 402
299 398
319 391
334 378
337 368
338 364
347 363
351 365
346 366
346 355
335 363
336 366
340 365
335 364
343 358
339 366
331 370
315 373
311 378
299 385
298 390
318 388
340 382
349 376
362 362
348 362
339 369
335 375
338 376
330 380
315 378
305 384
305 387
308 386
317 384
305 391
302 397
293 397
290 407
285 415
272 417
288 410
319 396
335 385
330 382
331 374
318 381
328 374
337 367
336 364
331 368
330 371
320 374
319 376
326 369
331 372
325 378
308 382
320 377
303 390
296 397
313 390
335 378
349 368
354 360
358 355
349 363
342 365
341 373
333 373
340 370
325 377
328 382
326 368
313 373
305 380
307 386
288 399
295 399
293 395
286 400
294 400
317 394
329 387
323 384
332 378
329 387
326 391
333 384
329 383
331 377
322 383
311 385
320 376
331 371
316 374
310 376
296 384
298 391
286 403
271 416
289 408
311 401
327 392
327 388
333 377
338 373
328 377
322 379
315 379
322 380
317 393
314 395
316 395
295 406
299 406
287 414
276 419
266 418
271 419
270 424
290 417
315 402
328 394
327 386
328 379
332 375
328 381
339 380
337 379
327 385
332 379
319 386
313 390
316 389
318 390
300 398
290 402
293 410
286 416
297 412
303 406
324 395
337 383
345 375
339 368
348 363
347 363
337 366
326 365
328 367
323 372
322 378
299 392
318 388
314 389
303 386
311 384
306 390
293 396
288 403
295 404
316 395
333 381
339 373
332 371
338 371
352 361
350 363
333 367
340 364
340 368
333 367
324 364
329 364
328 367
333 364
321 373
317 373
319 374
304 382
317 375
342 372
358 361
356 354
354 344
356 348
362 343
365 335
358 341
362 338
362 338
356 341
359 337
349 344
332 356
323 366
320 372
299 379
293 383
300 387
314 386
341 372
354 366
354 357
355 352
359 349
361 347
366 344
358 343
357 348
362 347
358 342
338 354
337 360
324 366
322 368
309 383
303 391
288 402
276 411
293 409
316 401
330 387
333 379
331 371
332 377
332 377
331 379
331 377
324 381
328 377
325 379
305 386
300 389
301 393
299 404
296 404
289 407
277 407
274 405
296 397
332 380
348 369
348 362
349 362
337 367
329 372
318 379
320 379
315 386
311 383
319 381
321 380
323 377
328 379
316 383
318 386
303 389
301 386
300 392
318 386
341 377
352 368
353 353
355 351
355 350
360 355
351 361
347 364
350 359
340 362
334 361
322 373
313 384
303 387
305 390
306 389
300 400
287 411
286 412
289 411
310 402
325 390
329 384
334 372
341 365
339 372
331 376
320 384
312 390
315 387
307 394
302 395
284 401
302 398
289 405
291 404
289 407
299 400
292 400
302 399
338 382
350 373
351 367
350 367
355 361
358 356
347 361
332 368
347 359
343 364
336 374
327 382
323 383
311 383
306 388
291 392
294 391
290 393
281 400
288 401
312 393
323 389
313 388
317 383
317 382
326 383
320 391
327 382
327 377
324 379
319 381
324 380
319 384
299 405
297 409
295 407
287 404
280 410
276 410
287 406
304 403
329 388
325 378
337 365
341 363
353 351
353 357
337 361
348 354
348 356
345 356
343 350
345 359
340 358
330 368
318 378
299 388
298 391
294 394
294 402
320 390
332 384
329 379
326 377
329 379
334 371
330 371
329 367
336 369
333 372
314 372
319 377
322 381
313 384
314 380
307 386
302 397
284 407
279 406
283 404
304 392
333 370
340 361
350 354
353 360
348 360
343 366
343 358
334 361
328 361
320 366
322 365
328 365
331 370
318 376
308 388
293 396
282 404
287 408
292 408
320 391
334 383
335 375
323 376
324 373
325 379
323 384
329 381
325 382
330 377
328 376
325 383
319 380
300 390
306 391
300 397
307 392
302 392
286 391
296 396
334 378
352 357
360 348
353 352
354 351
351 351
356 357
353 360
342 365
337 366
325 378
311 385
316 382
305 391
305 395
291 404
276 414
269 419
263 430
275 429
290 423
310 410
310 402
315 392
318 391
322 385
325 382
324 379
329 374
330 377
317 382
315 391
312 392
308 391
285 408
272 415
270 421
272 424
274 423
282 428
301 418
321 403
323 390
324 380
333 374
337 372
324 378
319 383
320 384
324 375
325 380
324 388
313 397
302 401
301 401
299 398
298 398
288 403
263 423
287 412
305 406
329 386
337 376
332 374
333 375
328 373
325 376
325 379
334 376
331 379
323 384
312 386
320 378
314 386
305 395
311 394
301 396
291 409
282 417
296 414
314 403
325 393
323 387
326 386
336 375
343 370
347 367
345 361
352 352
347 346
341 346
349 352
341 360
342 360
318 374
303 385
305 391
292 398
288 405
314 389
