Actives Prisoners
0 0
608 20
605 49
591 84
566 115
528 148
513 170
496 195
471 219
451 240
450 257
426 274
405 295
390 317
371 333
366 349
337 366
325 386
314 405
290 420
280 435
257 447
251 462
239 475
224 487
228 501
224 509
229 507
225 505
221 511
222 515
220 522
223 520
210 526
205 523
218 512
213 518
215 522
220 524
218 531
214 530
213 531
226 520
227 517
222 519
226 519
236 503
239 499
239 491
242 494
254 482
240 494
239 492
248 484
231 491
246 486
248 481
227 495
226 500
222 507
226 503
229 509
231 508
231 504
224 509
239 499
224 506
230 504
232 509
229 506
222 512
221 511
231 505
220 515
204 521
210 524
209 520
214 519
223 514
218 515
232 514
232 507
231 510
223 511
223 509
215 519
209 521
218 520
222 517
223 518
216 515
237 505
233 507
235 504
241 497
225 502
218 508
206 513
206 518
217 517
210 523
222 517
209 519
215 523
228 515
220 515
228 512
215 522
220 515
215 516
221 518
214 523
224 520
223 511
229 513
221 522
212 521
212 518
212 524
217 523
222 525
219 532
202 534
205 534
209 540
203 535
193 539
206 541
197 541
206 545
206 538
209 536
213 530
218 528
212 532
199 533
212 525
203 531
209 529
204 532
194 526
213 519
207 526
216 521
219 518
224 518
233 509
234 512
230 510
221 516
226 517
215 516
216 518
207 522
220 521
217 520
202 528
199 530
218 522
217 526
217 517
218 516
221 519
217 520
217 517
233 510
219 513
215 519
218 520
220 520
211 524
209 525
217 521
215 526
220 522
234 515
234 517
226 527
221 530
209 531
220 524
221 521
224 520
218 516
219 515
221 519
215 515
229 506
228 508
222 511
236 512
229 510
230 513
237 502
227 501
239 505
233 502
234 499
232 506
234 499
235 504
242 497
242 500
242 500
236 499
226 501
216 506
217 515
213 516
223 519
216 519
225 512
225 511
217 514
222 508
221 516
218 519
229 512
231 508
233 504
218 511
212 517
217 513
222 517
216 519
225 518
224 509
230 508
217 511
225 512
217 515
220 518
245 506
237 503
252 493
247 497
235 501
238 497
228 502
236 503
230 494
235 499
236 499
243 491
239 486
244 492
237 493
243 488
239 496
224 501
227 507
220 510
231 501
227 504
216 514
222 511
222 509
229 507
223 510
214 515
228 509
220 509
231 509
232 508
224 511
237 505
232 507
224 509
231 507
215 512
231 508
228 514
215 518
216 517
221 512
234 506
245 491
232 497
237 496
229 501
242 500
231 500
237 503
238 504
234 507
225 515
241 505
226 512
229 508
230 510
226 517
229 515
225 518
231 510
231 507
243 506
235 504
220 513
230 513
226 517
211 522
218 517
230 506
250 493
242 494
231 498
234 503
234 493
244 486
238 491
236 493
222 502
234 502
225 509
232 504
233 501
240 499
230 492
244 486
245 485
249 488
247 478
248 487
238 498
232 495
233 504
229 508
237 504
226 513
223 519
227 515
222 525
226 515
231 515
232 510
218 514
217 514
228 512
233 510
230 511
239 501
243 497
251 489
258 484
251 477
256 478
255 475
251 479
255 488
258 479
257 479
264 473
265 472
263 475
270 468
274 466
262 472
264 475
251 474
251 481
269 477
269 477
269 470
257 479
261 474
246 480
249 482
254 477
258 483
253 485
251 486
252 483
253 485
269 475
264 472
260 479
256 478
268 474
256 479
255 479
252 486
245 488
251 487
247 491
240 498
241 497
247 497
235 497
242 505
239 508
250 495
243 501
239 500
243 493
238 497
242 496
243 495
236 501
231 503
236 503
239 501
255 486
244 488
262 481
266 470
258 478
254 482
249 478
259 471
260 477
268 478
262 479
272 471
275 459
276 455
270 459
267 462
253 474
248 481
247 484
240 494
236 503
227 503
223 509
238 502
237 505
235 507
230 510
233 509
225 511
222 512
227 511
230 509
234 508
228 511
232 510
228 517
225 513
224 511
221 512
224 512
224 510
237 504
236 506
246 504
244 502
240 501
252 486
255 482
248 489
248 489
250 491
257 488
254 484
249 488
258 482
270 471
272 470
280 466
272 469
265 468
260 470
273 468
256 473
246 476
268 464
256 471
254 475
249 479
250 480
252 483
262 476
261 469
264 471
252 479
267 473
271 474
253 483
259 477
260 480
268 483
253 484
260 477
267 473
259 481
262 482
246 489
229 491
235 495
249 491
238 500
247 490
255 483
250 485
255 481
254 478
242 494
247 502
247 496
244 493
262 485
262 485
261 480
266 469
268 471
265 468
273 470
276 463
281 461
279 459
271 462
289 454
280 457
274 460
274 464
279 462
277 464
277 466
282 462
277 466
280 473
278 471
281 469
267 479
263 482
269 481
269 476
278 466
276 469
267 473
276 469
287 462
292 454
295 445
299 435
318 424
298 435
314 432
299 439
296 443
287 439
292 435
306 432
300 431
304 423
309 426
313 427
309 429
304 426
302 430
305 427
314 419
317 422
313 421
321 424
311 422
310 423
309 419
308 418
317 420
332 408
328 406
327 404
322 406
318 405
333 402
321 404
321 406
317 414
317 416
323 418
324 412
323 410
331 406
312 412
327 411
315 414
325 410
317 415
314 414
317 414
317 410
314 421
306 428
298 435
300 432
304 440
294 447
291 450
297 444
296 445
289 446
299 443
302 447
299 448
298 451
297 445
301 446
312 438
303 434
304 432
308 435
298 443
306 444
305 444
308 432
311 428
314 422
309 427
320 417
327 416
327 414
331 415
335 410
338 401
339 403
339 400
352 390
353 392
360 388
351 388
364 383
369 377
364 382
361 377
363 378
371 371
360 373
371 367
371 371
363 370
364 365
363 370
355 375
353 379
361 377
364 380
356 386
346 393
343 395
336 403
344 401
354 393
350 389
354 384
355 380
357 371
357 371
353 376
357 376
355 371
367 369
363 370
362 372
352 377
361 380
352 385
351 384
346 390
337 395
346 392
338 394
335 397
335 401
334 400
336 402
341 399
343 393
353 390
355 387
347 387
352 390
341 392
341 394
355 392
349 396
347 404
340 405
335 407
337 407
334 409
334 406
339 402
340 401
330 406
330 406
328 411
337 401
340 399
342 400
333 404
334 403
332 402
329 406
335 400
343 400
342 399
346 403
344 396
351 391
363 384
361 382
354 387
360 380
359 381
358 381
361 374
356 382
362 373
364 368
357 369
368 370
358 372
362 371
354 369
355 378
357 374
361 371
356 369
355 375
365 373
364 377
366 373
367 364
368 362
367 361
378 358
364 363
366 364
371 366
369 365
371 365
380 360
390 356
376 368
380 369
381 364
381 359
382 357
373 361
382 363
380 363
369 365
374 369
365 374
369 367
366 370
377 370
368 370
364 372
354 379
360 382
355 387
353 387
348 390
347 388
359 378
362 371
366 371
365 370
378 365
363 374
369 374
362 373
360 380
353 377
356 379
354 381
353 389
360 379
360 378
366 375
368 372
373 369
371 367
373 363
369 367
371 367
371 370
361 372
353 376
353 380
355 380
365 373
358 380
364 378
349 384
347 390
346 392
350 389
338 397
336 394
342 400
331 410
319 412
329 411
329 415
313 421
315 424
309 425
306 422
325 419
321 422
332 416
321 413
328 412
328 411
327 411
336 407
329 408
340 400
337 398
341 397
340 394
356 383
357 378
359 378
367 372
356 375
367 366
363 369
368 368
371 365
368 366
383 362
384 358
376 365
382 358
390 348
387 348
393 349
389 353
390 351
396 348
400 346
403 336
404 332
406 333
404 335
396 341
398 341
398 340
408 335
398 341
406 337
410 339
405 338
407 338
402 340
398 340
393 349
389 352
388 354
383 356
382 362
390 362
387 362
386 356
381 358
371 364
362 368
366 368
373 363
365 366
375 356
376 355
371 359
362 365
372 360
372 365
363 367
362 366
371 361
381 355
385 354
373 360
390 354
386 357
382 362
391 355
395 346
385 355
391 353
382 354
381 358
383 361
378 363
376 359
384 352
388 353
384 356
373 363
388 357
373 363
371 366
369 363
376 360
368 369
353 381
354 381
363 377
356 382
360 377
360 377
363 370
364 370
362 373
354 380
350 378
353 384
351 388
337 393
340 388
342 393
356 384
346 391
356 388
354 388
338 395
347 397
341 393
347 397
357 388
347 394
358 389
362 387
357 390
352 391
348 393
339 400
330 402
325 408
331 401
328 401
343 393
336 399
332 406
324 405
328 411
330 409
333 408
339 406
348 397
354 393
358 388
356 392
353 386
353 386
357 385
361 383
370 379
354 386
362 381
344 386
335 390
347 391
346 392
350 389
348 387
341 388
350 382
354 386
353 393
352 393
350 393
358 383
348 385
349 390
350 386
360 380
356 381
357 378
360 380
352 386
348 389
358 385
356 385
358 378
355 379
359 379
361 375
357 375
356 377
342 383
331 385
325 388
331 384
340 389
342 385
338 387
351 380
346 384
347 386
349 385
353 381
348 380
359 373
377 367
378 367
366 373
370 365
377 360
387 354
380 359
377 361
377 361
373 365
375 357
380 360
378 356
379 356
356 366
364 366
367 364
363 362
365 362
372 362
365 360
367 364
365 369
372 365
372 366
379 361
370 364
370 367
372 360
364 362
370 361
374 359
375 366
383 363
381 361
376 361
370 365
383 359
371 368
376 373
371 374
375 375
372 379
354 389
355 383
362 378
369 374
356 384
357 385
354 393
347 392
356 389
350 393
357 386
354 388
349 398
351 391
358 385
366 382
357 388
359 385
362 377
368 372
372 368
379 371
371 372
373 370
366 371
375 367
369 364
377 357
370 359
369 358
377 349
353 358
370 351
375 351
373 353
372 356
370 358
372 359
370 358
379 355
382 350
377 356
376 356
384 353
382 358
378 364
370 372
369 372
366 374
370 375
361 382
362 376
359 378
350 386
359 385
357 389
356 387
361 377
360 380
371 368
374 373
370 370
372 370
373 367
368 369
364 371
362 376
363 374
365 369
364 372
366 366
379 361
371 362
380 361
377 363
375 364
375 360
377 366
384 359
388 356
393 349
389 350
389 351
400 351
393 351
387 351
384 356
383 359
387 359
387 357
387 352
390 350
391 349
394 351
396 353
394 353
386 358
395 353
391 356
396 344
384 349
400 352
401 349
390 349
401 335
387 335
386 340
385 343
376 348
379 351
372 362
384 357
383 358
371 366
371 365
363 369
363 371
360 376
347 383
335 388
343 387
341 389
351 392
334 398
325 404
335 397
333 398
334 396
344 388
339 389
349 383
341 390
352 391
336 395
350 389
336 392
349 385
353 383
348 379
346 386
346 392
331 395
354 390
347 387
355 383
366 377
357 381
354 384
356 380
359 380
355 380
351 381
363 380
356 381
353 385
363 384
363 380
349 387
355 382
359 377
359 370
373 367
365 375
359 374
349 378
354 381
350 382
362 378
365 375
350 378
357 378
363 377
360 376
356 381
357 382
350 386
365 382
345 389
349 387
359 380
357 382
352 386
352 390
352 388
348 390
348 393
352 386
335 394
336 393
344 385
338 392
345 390
344 394
338 395
350 395
354 393
357 394
358 394
364 387
359 386
365 377
366 371
381 364
367 372
369 375
371 380
370 381
373 377
378 372
370 379
369 383
357 387
358 389
360 384
367 383
370 378
369 376
367 374
369 374
374 364
367 367
386 366
382 366
381 360
388 362
380 362
388 360
386 356
372 365
380 361
368 368
371 369
370 367
367 369
363 367
373 363
377 357
395 346
385 356
380 360
378 358
375 365
369 364
366 365
377 361
370 365
365 369
354 376
354 380
349 376
354 377
354 379
355 382
353 383
341 388
345 386
337 393
344 395
337 398
327 408
327 406
329 409
325 407
334 406
338 405
351 396
360 390
359 385
345 389
350 386
345 386
357 376
354 378
358 377
349 388
347 387
351 391
344 392
339 396
333 398
333 393
338 401
328 402
332 404
338 401
344 400
343 404
334 402
336 398
333 401
337 401
342 399
341 397
349 393
343 390
357 385
346 390
341 395
334 399
343 393
349 395
364 378
364 371
375 365
373 367
373 366
377 365
375 363
380 363
380 362
379 365
378 366
371 368
374 370
371 371
375 364
386 359
384 361
375 369
382 367
376 371
365 373
377 361
377 365
374 364
363 374
364 374
359 377
355 381
358 381
362 382
374 375
371 374
370 376
373 373
376 369
379 368
364 371
365 373
364 377
359 384
360 382
365 383
357 380
362 376
366 369
357 366
361 368
362 376
351 381
362 379
362 376
370 367
374 367
379 363
385 355
382 358
381 356
383 351
386 349
385 350
387 345
395 341
395 340
404 338
394 343
389 345
394 338
403 335
406 336
407 336
397 342
386 350
383 358
366 365
361 368
366 365
369 365
377 371
366 374
363 378
357 386
365 378
366 378
359 382
362 373
366 373
369 371
366 373
356 376
361 368
360 367
370 365
368 369
368 371
359 373
363 373
374 364
362 367
378 362
374 365
373 366
366 373
368 368
367 372
372 371
374 370
370 365
375 362
376 357
382 362
375 366
372 366
369 372
364 377
367 375
358 377
361 374
367 372
362 376
359 374
357 376
358 372
365 373
361 373
368 370
358 372
361 368
359 370
370 367
375 364
367 371
366 370
377 368
363 370
359 378
356 382
348 383
358 376
358 378
358 380
356 386
353 387
355 388
355 388
356 392
359 386
352 385
357 384
348 386
357 384
354 387
358 384
359 383
360 384
352 385
356 381
355 382
355 384
346 388
344 387
346 388
345 394
350 390
349 390
346 389
361 383
358 384
360 382
361 383
361 385
359 383
362 380
371 373
370 374
364 377
380 363
376 364
378 362
374 363
377 362
369 366
365 367
357 370
365 367
362 369
369 372
355 379
356 381
353 382
358 381
357 381
360 375
373 371
380 363
375 365
360 376
360 378
350 385
357 386
356 380
361 376
355 374
360 377
361 380
343 389
341 390
333 392
335 397
330 397
332 393
339 393
345 390
348 386
335 393
358 381
357 377
351 377
362 375
370 369
359 375
382 364
378 364
375 362
374 360
376 363
375 365
373 371
368 367
371 369
374 366
373 372
370 367
369 361
366 360
376 359
382 360
371 363
375 355
387 348
382 350
382 353
398 340
379 349
376 352
369 356
369 362
363 363
362 362
365 366
377 357
376 357
380 356
372 362
365 360
369 363
367 369
357 375
353 384
361 385
361 382
357 386
364 381
364 381
364 379
351 386
344 388
345 390
358 378
350 383
344 393
352 389
350 386
363 375
347 378
349 386
356 378
349 378
351 370
358 366
362 368
366 372
370 371
361 376
356 379
351 379
359 376
351 385
360 383
356 382
343 386
342 385
348 390
357 388
351 393
353 389
368 382
355 385
357 383
349 392
359 390
361 384
353 386
351 382
356 379
356 381
354 383
352 385
350 385
359 379
352 385
365 378
365 380
356 384
363 382
366 375
364 379
363 380
365 378
364 379
366 382
365 381
357 382
355 375
360 368
372 363
363 365
365 365
370 366
371 365
370 368
372 361
365 359
362 359
372 356
370 356
371 362
367 362
371 358
368 360
357 373
354 375
360 376
357 379
361 380
344 390
353 387
357 384
364 383
353 389
357 389
354 388
370 376
359 378
367 374
367 367
367 369
367 367
361 368
375 362
369 364
374 361
363 369
373 367
372 357
373 358
368 361
367 365
352 376
360 380
361 375
360 374
349 377
364 372
363 373
356 378
362 375
371 373
373 373
376 365
372 369
379 363
359 372
371 371
346 382
361 375
360 377
359 378
360 375
352 383
352 383
353 379
342 384
348 384
353 387
348 388
345 389
349 394
353 390
362 385
347 390
341 387
337 389
351 383
350 384
356 380
346 390
349 382
351 381
353 381
360 378
361 378
353 379
358 376
362 376
363 375
353 386
360 381
372 371
374 371
376 376
370 379
379 371
383 369
388 363
383 363
384 359
382 359
378 362
385 359
380 360
379 358
371 360
382 359
377 362
379 365
373 362
379 365
365 373
360 377
369 375
370 371
373 372
371 369
374 370
377 368
381 362
384 357
378 361
378 366
373 368
382 366
376 362
375 365
377 362
380 361
376 362
375 364
377 370
375 368
368 369
359 378
363 374
364 370
374 364
383 361
366 366
368 370
376 364
372 365
367 369
356 373
365 375
341 388
344 385
346 385
343 390
333 401
340 401
351 400
335 403
338 407
329 409
331 413
334 412
330 415
318 418
320 425
316 426
324 419
329 418
326 420
323 419
322 414
328 412
316 417
338 406
335 409
340 407
341 404
342 395
348 391
353 384
351 389
343 389
349 387
347 387
353 385
346 388
349 385
356 383
344 385
344 384
346 389
346 387
351 387
345 394
336 397
350 394
352 395
343 402
338 407
344 401
346 396
345 395
337 400
342 402
335 399
346 397
344 401
350 395
358 387
350 390
357 394
353 393
353 386
354 384
357 381
353 384
368 376
358 386
353 389
361 384
359 386
364 383
364 381
357 375
375 368
373 369
362 371
380 366
367 374
375 371
375 368
382 362
368 365
376 364
377 360
383 359
376 358
380 365
370 373
363 378
364 378
366 379
355 381
358 382
357 385
349 390
351 389
341 402
347 396
345 394
354 384
352 386
348 384
352 386
356 385
363 380
354 384
357 381
353 379
358 388
351 387
334 395
335 396
336 392
339 394
344 396
350 393
343 401
345 402
353 390
353 382
363 382
367 377
378 374
370 379
363 384
365 378
366 374
365 372
368 368
377 367
381 364
372 367
374 362
383 361
385 353
379 355
385 354
385 355
387 354
399 353
389 359
384 358
381 355
377 363
377 360
380 361
386 356
381 354
382 353
372 358
381 362
380 362
384 358
385 350
378 358
385 351
389 348
392 346
388 344
382 352
383 351
376 351
383 350
387 350
378 355
370 357
377 355
391 349
388 351
403 344
406 339
404 340
398 346
399 351
387 353
394 347
393 345
398 340
402 336
411 329
391 345
410 335
405 338
403 335
402 338
399 338
391 338
385 342
390 340
394 340
394 340
397 341
405 342
407 334
404 331
395 335
399 334
400 335
391 338
385 341
390 345
394 345
395 344
398 344
396 345
390 348
397 345
403 347
393 346
387 349
396 349
395 351
394 347
400 346
391 341
393 342
392 343
401 336
407 338
404 340
408 337
415 329
417 330
420 327
417 323
417 316
417 320
426 323
415 332
411 329
417 328
413 328
415 332
407 338
394 341
403 336
398 335
403 338
399 342
387 350
381 354
384 345
395 339
394 343
396 343
389 348
386 351
379 355
383 356
381 353
395 350
383 359
385 355
374 360
380 356
368 362
375 361
363 368
370 370
372 363
375 366
381 360
372 362
377 355
371 362
372 362
374 363
370 366
367 370
365 376
360 384
368 376
366 379
363 379
349 389
348 392
339 398
338 402
338 400
340 396
351 392
349 396
349 390
346 395
338 396
334 398
350 387
346 392
341 391
334 394
336 401
341 400
337 406
340 402
344 399
352 393
351 393
350 396
351 390
361 384
360 387
350 391
356 386
356 381
359 384
355 382
356 382
354 377
365 379
353 385
358 387
357 387
340 393
351 385
353 384
363 378
360 378
356 371
366 373
361 380
369 376
357 382
374 379
359 393
355 392
353 400
349 398
344 409
335 410
339 407
350 398
340 396
348 389
344 392
341 393
352 383
352 381
360 379
353 385
361 383
348 389
346 395
350 394
351 396
343 396
351 393
343 394
342 392
357 386
363 377
363 373
368 370
361 373
368 363
356 375
362 374
359 379
365 378
364 379
366 377
364 378
352 376
355 376
363 374
364 374
357 381
359 371
375 370
380 365
375 366
371 366
367 370
365 370
365 368
377 369
367 376
366 372
372 369
369 373
370 380
363 382
362 390
362 386
357 386
358 381
355 381
352 383
350 381
347 381
344 387
347 391
345 383
355 380
352 384
367 369
370 368
370 369
368 371
354 379
363 370
367 366
367 368
373 367
378 359
379 365
375 365
370 368
365 375
370 373
362 379
361 372
359 370
351 380
348 389
350 391
339 394
335 395
335 396
332 399
343 396
337 392
347 386
355 384
360 382
359 383
360 379
360 377
350 387
346 390
361 378
361 380
361 383
366 388
361 383
362 385
359 385
365 380
360 379
371 369
362 378
362 377
365 377
368 381
378 369
373 373
370 373
366 376
369 375
365 377
366 373
361 375
354 378
352 380
365 373
354 379
344 380
359 375
360 381
359 382
354 388
348 397
348 399
343 405
342 401
354 393
360 386
358 384
361 378
357 376
356 383
352 387
350 391
344 397
352 387
364 384
371 376
370 375
368 381
370 384
366 382
360 384
365 376
363 377
360 378
367 373
359 375
362 374
361 379
373 368
381 359
381 356
384 350
388 351
391 348
388 351
387 351
387 349
390 338
402 332
405 333
393 340
393 346
379 353
389 351
387 351
385 350
384 347
396 344
394 346
386 354
384 354
373 363
375 359
378 361
380 357
384 360
370 367
367 367
371 365
375 365
365 366
360 372
365 373
364 374
358 380
359 379
343 390
339 396
340 392
337 389
339 393
326 407
329 405
335 398
327 406
329 401
342 397
336 398
338 402
331 406
334 408
340 403
339 400
347 398
340 395
341 402
344 395
353 387
342 397
365 384
362 379
349 384
356 383
341 389
349 385
338 386
359 380
357 384
367 371
363 367
365 370
367 365
368 367
355 360
371 363
360 368
359 366
354 375
354 377
351 387
355 384
354 383
353 381
351 379
352 374
365 372
368 377
362 375
356 377
357 382
355 382
346 387
351 387
352 386
352 376
352 377
346 379
372 365
365 371
362 378
368 378
355 385
352 388
358 384
350 382
356 385
354 381
366 371
377 363
369 366
374 366
375 371
362 372
356 379
348 385
347 385
362 382
347 385
346 389
332 387
345 392
334 395
335 397
336 399
339 397
345 398
342 400
338 400
343 399
353 389
350 391
342 395
350 400
356 395
349 396
345 397
344 392
349 390
352 385
360 376
359 380
365 373
352 379
367 373
373 363
377 368
363 369
362 374
363 373
365 374
358 377
366 373
355 379
358 379
358 372
352 372
352 372
358 371
360 371
356 371
358 374
350 377
351 376
348 381
346 387
341 390
335 389
339 389
341 393
350 389
343 394
344 391
334 399
334 401
328 407
329 411
318 418
319 412
322 417
324 414
342 408
345 400
353 392
357 387
352 391
357 388
358 392
358 395
351 390
346 394
354 385
363 383
362 381
360 382
356 382
363 381
358 380
371 377
367 374
359 381
366 380
362 379
362 376
366 372
368 364
371 364
380 358
376 356
377 357
379 363
366 367
374 364
374 369
361 375
360 376
362 378
357 376
366 372
366 373
366 368
373 362
367 364
372 362
378 360
376 363
376 355
384 349
382 344
383 347
385 349
392 341
392 344
380 350
387 353
385 353
379 359
371 360
363 366
379 358
380 357
375 361
383 357
382 362
386 366
388 361
382 366
376 369
380 369
390 360
388 355
399 349
393 349
407 337
393 345
395 349
396 350
397 351
394 356
396 357
391 356
392 357
383 360
396 351
383 363
387 363
376 371
385 364
385 362
382 362
395 354
399 350
393 347
394 349
391 343
404 342
395 345
393 344
405 336
390 346
389 341
386 347
387 350
386 349
388 344
383 353
379 354
388 349
385 355
375 359
374 362
378 361
371 368
380 358
368 363
385 358
394 354
390 357
394 355
397 354
395 346
398 349
396 347
382 350
392 349
380 351
383 348
388 337
392 339
397 336
391 343
389 343
398 341
397 338
385 347
379 356
388 352
393 348
395 348
403 343
393 348
399 348
392 353
382 358
382 356
384 359
387 364
388 364
381 360
374 364
377 358
387 346
386 347
387 351
372 355
378 351
372 359
371 363
377 357
378 355
382 355
387 359
388 355
386 363
381 360
376 364
380 360
377 363
381 356
379 354
375 362
388 356
373 366
378 363
368 369
375 372
364 377
369 378
368 371
364 372
362 373
360 374
360 375
365 371
365 377
365 372
359 375
358 371
361 373
359 379
356 385
351 387
349 393
345 390
349 383
359 378
348 386
366 380
350 384
348 383
342 384
341 390
343 390
336 400
340 405
337 406
342 407
338 400
341 394
357 385
366 382
350 384
353 383
350 384
335 392
341 398
343 398
346 394
347 390
344 387
356 381
371 366
362 368
356 369
371 362
375 360
372 357
363 362
357 368
370 365
368 361
370 362
369 360
371 368
373 370
363 368
350 380
358 376
359 372
359 371
352 374
360 371
348 378
349 379
360 382
356 384
352 388
350 391
340 396
343 402
327 405
332 411
325 411
321 414
314 422
328 412
333 406
342 409
333 415
332 409
324 417
322 419
322 423
330 414
338 409
333 416
345 404
342 399
350 393
338 398
348 391
342 390
348 383
351 381
355 375
354 380
351 376
347 387
356 382
351 385
352 387
358 384
358 387
358 387
346 395
343 396
345 392
354 381
352 388
355 385
356 385
357 385
355 383
368 382
358 386
361 382
362 383
362 383
366 379
363 376
370 372
367 378
357 381
370 375
372 374
373 376
367 375
365 378
361 378
357 374
362 371
352 370
368 366
369 364
362 370
369 369
364 371
376 364
375 362
375 365
375 360
369 360
363 365
359 362
377 359
365 366
369 365
371 364
377 366
374 366
374 372
373 370
380 371
378 371
371 378
374 373
377 368
381 363
382 363
386 359
383 358
380 356
373 361
382 355
383 355
381 355
383 355
385 356
373 360
381 355
387 350
393 345
390 349
384 354
375 356
373 359
375 360
373 365
356 375
362 376
365 376
361 385
364 388
368 384
370 378
363 374
368 375
368 370
367 372
360 379
356 371
353 376
360 371
369 375
362 378
361 376
359 374
367 375
361 380
351 382
362 381
361 374
372 363
374 366
372 368
368 368
354 369
359 363
357 369
372 354
380 353
370 359
384 357
377 352
381 353
386 351
376 358
387 356
388 347
386 345
395 344
391 341
394 339
399 333
390 338
398 328
401 327
402 333
390 342
397 336
398 333
404 333
397 341
396 344
388 350
395 344
399 343
400 345
404 339
401 337
408 333
407 336
394 339
388 348
395 351
390 354
389 349
389 347
381 353
380 354
383 349
379 358
363 366
371 366
372 364
367 368
363 375
373 371
368 368
379 363
371 372
371 370
380 364
383 363
378 359
387 357
383 359
374 355
378 357
377 355
385 350
386 349
382 350
377 353
380 355
375 360
361 368
362 368
366 365
372 366
365 371
373 367
373 370
374 371
370 370
374 365
372 368
374 367
366 367
376 367
370 370
369 365
376 365
375 365
379 360
372 357
368 361
380 356
383 353
389 347
391 346
393 345
388 349
382 351
386 345
386 346
385 344
378 354
390 345
386 344
377 352
373 358
382 353
378 351
377 354
372 358
375 360
368 366
362 368
365 367
373 370
379 361
365 366
375 363
372 361
371 362
372 358
369 367
376 359
384 356
374 363
377 364
392 354
384 361
377 361
383 356
379 357
368 365
363 370
372 369
363 376
357 378
368 370
374 366
360 381
358 379
347 391
353 383
357 380
348 384
346 386
347 385
351 385
342 389
335 392
339 392
339 399
333 406
342 396
341 394
332 394
349 388
363 385
362 384
375 375
364 378
370 374
374 371
365 378
372 372
379 369
372 378
371 378
359 383
364 384
365 383
355 385
347 389
352 387
353 383
347 386
349 381
349 376
347 380
340 390
335 398
327 399
331 403
334 404
339 401
339 401
338 401
341 398
339 404
343 405
336 406
341 403
328 404
331 412
338 409
349 403
341 400
347 394
351 390
357 382
361 380
356 380
352 382
351 384
356 381
346 382
361 374
356 380
359 376
369 368
379 365
373 363
376 366
387 357
386 351
379 351
391 350
392 352
383 355
381 360
374 362
379 360
364 363
372 363
378 360
377 360
377 362
378 361
371 366
368 358
362 371
368 376
363 374
354 377
357 372
348 376
347 380
355 376
357 379
355 381
348 385
349 385
340 389
344 386
357 380
356 377
353 379
346 388
347 390
349 387
346 392
331 397
329 406
321 414
327 409
332 406
327 407
324 411
320 413
327 409
319 420
318 426
314 429
316 427
324 415
321 416
317 422
313 421
319 418
317 418
318 415
324 410
324 413
331 410
327 407
329 411
331 414
324 415
325 417
326 418
323 420
326 419
338 414
324 418
325 416
329 414
336 410
325 411
330 414
337 404
353 397
351 394
357 386
356 387
357 379
367 377
370 374
369 375
373 370
377 370
381 363
388 360
393 362
385 364
389 359
373 370
369 373
379 366
377 363
378 358
385 349
387 348
385 349
380 346
381 351
380 352
381 354
380 346
385 343
390 345
386 352
389 348
395 340
392 345
388 344
399 349
396 350
384 350
382 354
386 357
370 360
366 366
363 369
359 374
373 371
371 370
370 374
357 380
368 373
366 375
364 380
353 387
365 384
372 373
367 380
367 379
366 376
373 374
371 383
364 383
365 379
352 383
360 385
353 390
346 392
340 392
354 383
354 383
347 394
341 395
348 388
349 391
354 386
359 382
368 372
358 373
365 373
363 376
357 375
362 371
359 375
368 371
365 376
354 378
363 377
355 377
360 374
359 373
368 369
358 372
361 369
367 371
372 364
366 364
369 360
368 365
359 373
364 372
359 373
368 371
367 368
365 371
353 376
370 365
376 365
369 367
378 360
365 364
366 368
361 367
345 379
344 385
340 388
338 392
340 393
343 395
337 392
336 401
329 408
329 411
332 413
338 411
341 404
341 406
342 408
340 410
346 403
348 404
346 400
356 395
357 386
361 381
356 386
358 381
366 378
370 383
381 373
372 371
381 366
372 360
370 365
370 365
376 359
378 365
368 370
371 361
388 352
388 344
392 344
383 347
381 352
391 346
395 345
397 345
390 349
391 347
377 355
383 352
379 350
376 355
376 361
371 361
374 355
374 356
376 354
372 359
371 359
371 353
370 359
372 358
376 355
379 358
368 363
364 368
362 370
367 364
357 371
362 370
350 376
358 377
359 377
357 376
351 389
343 388
345 395
346 395
352 391
345 397
347 397
357 391
358 390
364 385
356 389
349 390
355 379
352 382
358 374
364 376
375 369
373 361
376 360
388 364
387 361
388 359
390 358
379 360
376 357
370 363
378 364
373 367
368 378
351 381
349 384
348 388
337 394
335 396
323 400
327 402
334 401
325 402
334 391
324 398
328 400
342 389
334 394
341 394
341 391
348 389
342 391
341 394
346 382
346 386
348 388
362 376
367 372
361 370
367 372
363 378
366 373
383 365
381 365
386 361
377 367
385 363
376 368
369 371
374 371
371 372
371 372
375 365
379 363
373 365
391 357
387 356
381 354
388 344
390 348
394 343
398 341
400 340
401 335
393 345
402 341
400 335
396 340
396 340
390 349
394 354
377 364
370 367
375 366
380 367
383 367
377 366
381 363
388 355
379 363
374 367
382 368
377 370
367 373
379 362
375 361
376 364
374 357
372 366
373 364
371 370
366 372
368 369
365 374
361 375
355 376
362 378
367 375
364 381
365 374
349 386
353 385
366 375
369 370
375 370
370 374
368 373
381 365
389 354
400 350
403 344
393 344
393 344
376 353
375 360
370 363
375 358
371 360
368 365
377 358
379 356
396 345
389 352
400 347
399 353
395 361
400 356
391 357
390 359
399 352
398 348
400 343
408 340
410 338
410 336
395 341
403 343
399 341
400 339
383 345
385 348
383 349
396 342
392 345
387 349
394 346
402 343
388 352
379 356
377 357
384 346
392 339
391 347
387 351
382 349
384 350
379 361
379 359
383 359
385 359
382 365
370 365
360 374
360 381
364 379
368 374
358 377
358 382
347 382
346 383
353 380
352 382
354 378
351 379
342 386
351 386
342 389
354 385
361 377
352 376
364 373
360 374
348 383
358 379
363 377
356 381
353 382
348 382
360 376
362 375
360 379
357 379
360 378
364 377
364 375
361 376
366 374
362 373
360 378
360 373
363 375
361 372
361 371
365 370
372 366
379 359
378 365
383 360
377 359
382 362
382 361
379 362
385 364
380 359
371 369
374 366
366 368
371 365
369 360
370 364
372 370
362 376
358 378
366 379
367 369
367 361
373 363
384 359
378 357
380 359
371 364
367 364
370 366
373 364
381 365
371 366
361 364
368 365
376 358
376 359
385 355
382 352
382 355
382 353
383 356
384 354
385 350
386 347
386 353
383 359
387 356
379 356
381 358
389 350
390 347
386 347
382 346
377 351
378 350
382 349
374 355
386 352
390 346
389 346
387 338
397 334
392 339
394 338
386 347
392 342
382 348
381 351
377 355
378 355
370 360
372 362
373 366
371 367
373 362
369 365
361 368
362 370
371 368
368 368
354 376
350 379
363 373
360 371
367 370
364 375
366 377
363 376
369 375
375 373
373 375
371 379
380 377
368 371
371 370
371 370
376 363
391 354
385 358
380 358
378 361
374 364
387 357
391 354
394 355
390 355
386 352
395 347
398 347
407 340
403 343
397 343
388 350
396 344
401 344
390 351
387 357
372 364
376 370
373 371
374 366
367 374
363 378
368 378
362 383
370 378
375 374
372 376
370 381
373 383
375 372
367 369
372 372
372 366
378 362
379 364
381 357
393 348
399 346
399 346
399 346
398 344
401 342
402 346
400 347
395 349
400 344
402 343
391 346
397 346
410 338
421 327
411 336
408 333
413 326
416 322
418 316
412 322
420 319
417 316
413 325
418 321
430 311
429 312
428 313
434 311
430 312
419 318
409 323
410 323
432 317
435 312
437 307
429 308
422 313
421 318
419 320
414 323
415 325
417 327
408 333
403 341
404 336
407 335
406 332
399 331
398 331
403 328
388 341
392 345
390 347
385 347
386 348
398 343
392 348
385 353
387 348
401 339
393 341
384 344
379 343
381 344
384 347
383 347
379 348
383 353
382 354
379 361
376 362
372 364
370 363
373 364
366 368
361 366
359 373
372 369
370 367
365 371
371 366
367 367
392 356
394 349
386 349
393 347
396 347
402 344
392 338
396 335
394 343
401 343
401 339
406 334
413 332
406 329
405 334
413 332
406 334
409 327
414 330
408 327
410 327
420 324
408 330
398 335
405 330
401 334
404 335
400 339
398 336
397 339
413 332
413 329
408 333
400 336
388 346
400 352
394 349
382 349
386 348
391 342
396 342
381 345
386 342
387 341
392 344
390 346
392 349
394 342
385 343
391 341
392 341
401 337
410 329
403 340
394 342
398 342
390 348
389 351
387 350
383 350
382 355
390 354
386 353
380 356
397 351
394 353
379 358
382 357
382 359
383 354
385 352
372 358
387 350
380 355
383 350
392 349
391 350
387 350
388 354
383 351
382 348
389 355
382 357
381 355
377 360
368 363
378 358
373 365
374 364
365 363
368 361
370 363
373 362
387 357
385 354
381 351
373 357
388 356
373 360
379 357
376 359
374 362
379 362
385 359
364 370
373 373
364 374
362 372
362 372
354 383
349 386
347 389
354 385
355 384
362 379
363 379
361 380
353 379
363 373
363 368
362 370
363 373
353 371
357 376
358 380
365 378
358 373
361 377
344 389
356 384
360 385
356 385
361 383
377 379
369 379
378 377
364 376
363 379
361 375
360 379
354 384
353 387
354 391
356 397
347 395
349 396
335 393
344 385
359 377
357 378
364 367
354 377
350 379
352 380
360 374
358 378
355 378
358 377
364 375
361 383
355 385
342 398
340 398
341 395
352 391
353 392
356 390
354 388
352 389
350 395
357 393
367 380
359 382
359 380
351 384
349 382
353 380
342 381
356 382
357 381
354 382
364 374
359 379
348 380
350 384
354 380
349 382
347 387
355 384
340 387
339 391
351 384
344 392
350 395
355 386
354 388
347 398
347 400
350 399
333 409
322 418
315 417
323 415
327 413
337 408
330 405
333 401
319 410
326 409
330 407
328 404
329 403
332 396
342 396
344 392
334 401
338 400
351 393
350 390
342 394
345 391
345 390
344 392
342 392
352 391
345 394
340 401
334 408
340 399
359 385
348 389
362 381
356 385
358 384
366 376
366 379
357 377
362 382
364 384
363 384
369 380
365 379
364 378
360 377
360 373
371 363
368 362
376 362
374 367
370 368
367 372
366 364
359 373
362 370
350 379
349 381
358 378
358 376
352 382
346 385
344 383
333 389
339 392
335 392
338 393
331 400
321 405
327 400
334 399
333 391
338 397
331 394
326 396
333 392
333 390
343 382
346 385
355 381
360 376
354 373
362 372
357 374
353 382
348 385
352 392
348 393
344 391
334 401
336 391
331 393
340 388
338 387
342 387
344 386
359 376
350 383
337 388
345 384
347 388
335 389
350 385
350 385
350 384
351 382
337 387
340 393
334 397
345 392
348 388
352 387
346 391
333 399
345 392
353 384
347 386
356 381
358 380
359 378
363 373
357 371
350 375
339 387
339 395
336 397
342 396
334 396
330 400
339 399
341 396
333 398
338 399
331 400
336 399
340 396
331 397
345 397
331 399
326 403
316 412
315 413
324 411
322 411
322 413
309 421
327 415
320 418
319 422
326 420
322 419
321 424
317 417
324 415
322 415
323 422
332 420
331 416
323 415
323 423
328 417
330 417
337 410
332 413
334 410
329 413
321 415
327 419
324 417
312 425
304 424
305 420
313 413
318 417
307 425
316 424
317 422
321 419
326 414
325 405
330 406
327 412
332 410
338 408
341 407
339 409
340 401
343 394
337 396
347 388
355 380
351 384
356 380
362 380
368 375
370 374
369 369
376 361
376 355
380 357
376 358
382 352
388 347
373 353
377 358
380 352
382 352
388 351
388 347
402 341
399 342
402 340
398 338
402 336
403 333
401 331
405 329
400 332
401 331
397 329
392 331
393 336
389 341
391 345
392 344
394 346
387 349
383 351
386 353
389 351
388 350
388 353
391 349
395 348
389 351
390 354
398 345
409 343
399 347
390 347
396 340
395 338
393 336
396 332
402 328
397 330
397 329
392 335
390 339
397 341
393 344
395 352
385 351
387 348
383 352
390 350
386 347
405 340
408 338
394 341
393 339
399 337
381 345
399 338
399 337
389 343
403 339
398 346
396 342
391 347
393 353
391 353
385 352
391 343
399 340
385 343
392 345
390 347
388 345
378 350
386 353
383 358
372 358
382 355
383 350
387 351
381 352
379 359
381 354
378 356
379 361
374 370
359 375
359 377
359 379
363 375
348 383
357 379
361 378
368 376
362 382
358 382
364 377
366 377
372 373
378 370
374 372
365 377
358 378
362 380
354 388
351 390
347 396
345 397
345 396
345 393
360 389
352 391
362 383
360 381
368 381
369 375
374 375
368 374
368 371
374 363
379 363
379 359
383 353
384 352
370 363
364 363
372 366
377 365
370 370
367 371
366 372
371 367
366 368
363 367
372 361
364 366
372 361
368 370
369 372
346 388
338 394
336 394
346 394
343 391
355 384
363 373
372 365
360 371
370 372
371 371
367 371
366 370
358 373
353 377
358 374
355 382
350 385
344 389
346 389
348 393
341 394
346 397
345 398
363 386
365 383
357 391
349 391
354 387
340 395
360 385
344 398
344 396
346 397
346 397
335 393
346 388
354 378
366 371
362 376
356 377
357 376
351 383
355 378
364 372
370 366
367 368
362 375
350 386
350 382
350 387
342 393
349 391
354 387
359 384
345 385
358 384
354 387
344 392
346 393
337 398
330 409
332 412
341 408
335 400
332 401
336 406
340 402
332 408
325 415
319 417
324 413
323 412
327 410
320 409
341 397
332 402
327 408
338 403
339 408
342 406
347 402
347 405
345 400
351 392
349 397
354 388
352 379
353 381
362 378
365 374
365 373
364 374
359 376
364 378
356 378
363 379
363 380
357 387
368 385
363 383
371 377
369 374
367 371
374 374
370 372
369 372
366 366
362 375
368 374
354 385
358 386
355 381
360 377
363 376
368 371
371 368
364 373
360 377
363 364
359 365
354 370
357 370
354 374
357 370
363 368
366 366
371 367
377 359
379 360
369 370
361 377
358 377
356 379
349 380
352 385
354 380
352 378
351 382
342 387
340 395
343 395
346 392
334 403
334 406
333 404
331 409
339 405
338 408
338 408
337 408
331 415
329 414
338 415
349 404
351 403
345 404
335 411
334 410
324 416
328 416
342 404
345 403
334 403
344 397
336 403
331 404
333 401
327 407
323 414
331 411
329 414
336 412
331 413
323 411
336 405
339 399
343 396
345 397
344 398
358 385
350 389
350 392
343 400
352 399
347 392
362 375
357 378
355 380
359 377
351 378
351 383
354 388
343 388
342 381
352 375
344 376
339 386
345 389
343 390
331 401
337 402
342 401
339 405
331 411
337 405
330 400
336 396
342 392
343 395
332 400
343 396
340 400
348 392
355 387
360 389
350 396
349 397
346 394
341 398
346 396
333 406
343 404
347 402
354 387
359 378
359 382
342 386
345 388
345 387
342 385
346 382
340 383
351 383
356 383
357 383
348 383
351 385
347 389
354 381
354 381
353 379
358 374
361 371
363 370
372 367
366 368
365 371
359 372
359 370
369 364
372 365
367 364
370 361
380 366
376 367
374 371
372 367
369 366
385 355
366 359
371 362
365 363
359 371
351 375
348 384
353 390
346 395
345 397
342 397
339 397
347 390
340 395
341 395
341 390
338 387
343 389
350 379
342 383
347 374
345 375
345 382
344 382
341 377
357 372
342 379
346 383
344 387
351 387
356 385
361 382
359 384
346 395
336 399
339 391
336 396
321 401
325 399
321 406
343 402
336 406
326 414
318 413
317 413
329 407
333 406
327 408
333 404
342 400
331 406
336 409
338 410
330 405
321 415
321 415
321 419
315 418
319 412
327 408
323 405
336 400
337 399
339 396
342 394
336 401
338 401
337 399
331 405
336 402
342 400
335 399
346 395
348 384
354 383
344 385
347 388
338 394
334 396
348 389
346 391
342 391
357 382
346 384
347 386
356 384
365 373
365 375
369 375
364 378
366 378
360 384
351 387
348 394
350 399
353 391
351 389
356 386
342 394
351 387
343 389
347 387
339 390
357 381
350 383
354 386
362 379
353 384
351 384
351 385
362 377
373 361
373 358
376 359
379 358
381 361
383 362
380 358
382 354
386 348
392 345
397 341
398 330
397 331
397 333
398 335
393 339
388 344
387 348
389 347
390 344
382 347
388 349
378 352
385 345
386 342
389 341
393 344
388 351
387 357
372 360
384 352
378 353
372 349
367 360
368 363
377 362
363 367
370 365
360 372
354 376
355 371
359 369
356 377
345 380
351 374
353 374
356 378
341 384
344 378
353 382
359 382
348 383
341 393
339 391
337 391
340 390
350 391
347 399
347 388
348 386
346 391
347 389
349 385
356 378
350 378
352 380
352 381
368 374
355 379
366 374
378 368
384 363
378 368
392 354
387 354
392 351
387 353
386 354
380 347
378 351
383 346
381 348
387 344
393 347
392 348
400 348
395 352
396 355
396 353
390 354
390 352
392 347
389 349
391 357
389 358
398 351
402 351
395 349
389 350
395 354
398 345
399 347
397 348
396 350
390 351
401 349
398 348
394 346
400 344
386 352
385 352
388 349
394 343
396 335
404 335
396 339
389 345
389 347
389 344
384 343
379 345
386 344
378 343
381 348
387 347
390 353
378 351
372 363
382 358
373 366
368 374
367 369
372 366
369 371
360 370
372 364
360 369
360 368
359 368
353 361
349 369
353 376
348 378
352 378
353 382
346 393
329 402
332 404
339 408
322 415
310 415
310 414
309 418
309 413
316 407
318 406
329 399
332 395
346 390
343 392
335 390
345 388
355 382
355 382
353 382
359 382
360 378
362 374
354 381
368 373
364 376
372 376
371 376
358 376
361 382
364 378
359 378
361 381
367 374
360 373
364 370
366 369
366 370
365 378
353 382
357 378
358 377
346 381
335 389
335 394
337 395
343 399
340 399
337 400
335 402
342 398
336 402
330 404
335 412
331 406
323 405
337 401
321 409
326 407
327 407
323 408
323 411
324 409
324 411
327 407
336 405
334 406
326 409
329 412
328 407
329 407
329 406
322 409
329 408
345 398
338 395
343 391
345 398
335 406
335 404
334 404
329 400
333 401
325 411
330 402
335 400
359 392
371 381
362 379
365 375
362 379
356 370
358 370
357 369
352 377
349 378
348 376
355 373
350 382
346 381
340 387
334 392
344 385
347 385
345 381
358 380
348 389
366 381
351 391
351 393
344 403
331 412
323 415
323 416
319 419
326 419
325 419
333 417
336 420
325 429
327 425
327 424
340 414
334 416
336 414
330 416
335 404
346 401
351 395
358 383
366 374
349 382
366 376
359 376
356 379
357 379
351 383
353 382
350 386
351 389
343 393
354 395
351 392
354 385
361 378
358 380
360 374
354 375
364 374
364 372
366 372
374 371
375 374
370 375
359 373
358 379
362 378
359 375
346 381
349 384
354 378
352 385
348 386
352 390
353 390
346 384
354 380
364 379
361 387
355 392
363 385
364 379
358 385
358 389
372 374
365 374
375 375
369 370
366 375
372 376
368 377
361 377
350 386
341 399
332 404
330 406
332 406
340 394
355 387
351 382
355 381
349 384
342 390
346 388
350 383
345 390
353 379
364 379
358 382
361 382
357 382
371 374
374 373
371 372
366 369
372 370
365 374
357 375
369 375
373 373
376 371
377 367
367 372
371 370
366 374
361 375
353 381
362 379
351 382
370 375
356 378
355 380
353 382
358 380
362 377
355 384
360 377
357 383
359 382
369 379
361 377
369 367
373 363
388 358
390 358
379 363
393 357
389 353
388 355
385 359
378 362
387 356
391 355
385 356
382 355
377 358
373 357
386 348
377 350
368 358
381 352
375 354
376 355
371 362
371 365
357 373
359 375
368 376
371 369
371 371
361 380
362 376
369 379
353 382
355 387
353 389
361 386
348 390
349 388
340 395
347 389
328 398
344 390
343 398
332 405
329 407
331 411
340 400
343 403
340 405
340 400
337 401
342 402
342 402
332 399
344 395
346 394
340 392
349 389
345 392
345 393
356 389
353 392
354 395
350 390
350 393
343 392
335 397
341 391
355 389
348 393
346 396
349 398
339 403
349 400
333 411
330 414
319 424
310 428
312 425
314 425
311 427
316 424
318 425
318 422
326 417
322 421
322 417
332 414
336 412
340 404
324 408
326 407
331 409
334 407
323 412
326 416
324 418
323 423
319 427
316 428
313 424
316 423
321 422
325 413
323 416
316 415
321 409
332 408
329 409
330 412
318 411
327 408
332 405
327 401
322 412
323 414
323 409
329 404
340 394
341 400
336 399
339 403
332 405
333 404
324 411
325 406
317 413
331 412
315 411
312 418
322 412
314 413
325 403
329 406
333 403
335 403
338 399
359 381
355 380
355 383
343 390
339 399
356 391
337 399
346 392
338 395
345 392
341 391
347 396
346 395
333 395
337 397
331 400
332 401
333 398
331 405
322 407
329 405
327 407
321 409
318 409
321 408
325 405
328 403
335 394
354 386
341 395
321 403
334 397
327 399
336 390
339 395
344 391
344 384
341 389
332 393
333 397
326 397
324 405
335 401
341 395
343 388
350 385
356 378
358 378
356 385
361 381
355 386
351 387
367 384
354 383
354 386
354 382
354 383
355 381
363 377
366 374
362 373
369 365
369 373
355 380
359 384
351 390
350 402
344 402
338 404
341 409
334 408
336 407
337 406
345 401
341 405
335 402
325 407
339 395
343 399
335 400
339 395
333 404
351 393
340 391
341 388
335 393
338 394
347 397
347 393
327 402
324 404
330 404
338 404
321 410
338 400
337 400
330 402
333 400
330 401
336 390
333 394
334 395
345 389
346 394
342 393
336 397
338 398
340 396
335 397
325 401
332 402
337 392
346 387
340 382
346 386
337 387
350 381
353 390
362 379
374 372
361 385
351 393
341 395
347 383
336 383
343 382
340 388
340 388
342 392
340 398
337 402
342 401
350 394
340 396
341 399
348 394
352 390
356 383
361 382
364 381
367 379
364 381
352 386
360 379
378 368
362 372
369 373
361 371
366 370
367 366
373 364
356 374
358 374
358 373
350 374
358 372
350 376
348 384
346 390
338 390
335 391
337 393
338 401
332 400
339 399
331 404
324 403
328 409
316 414
312 416
330 415
321 412
322 409
334 406
323 410
331 410
336 409
334 405
326 405
334 401
339 401
333 400
336 398
329 403
331 399
331 398
326 405
329 400
320 405
322 407
331 405
333 406
326 406
338 403
348 397
342 399
352 399
354 397
358 388
364 377
357 380
363 377
372 378
366 381
364 380
364 382
356 387
373 377
377 373
365 382
359 382
369 375
364 375
360 376
377 367
371 369
372 358
373 355
374 362
377 355
373 357
388 348
390 346
395 345
395 342
392 344
390 349
389 354
382 354
375 366
370 370
371 370
372 360
377 359
379 358
376 359
365 364
361 364
368 358
370 360
370 365
367 372
361 377
356 379
361 378
365 379
358 383
353 387
341 390
344 381
346 379
348 379
354 377
354 384
346 389
346 385
345 383
348 393
348 388
362 378
359 380
357 387
345 390
343 392
357 376
361 374
359 371
370 374
378 368
376 374
371 375
370 373
375 365
378 364
376 369
379 364
377 365
377 367
362 372
367 378
366 380
363 372
369 372
364 375
357 386
359 383
356 383
347 386
345 386
348 383
351 386
349 390
345 400
342 399
350 391
343 390
354 383
360 379
364 376
368 369
365 366
369 363
377 356
366 363
358 369
359 363
369 365
363 369
355 369
366 365
373 361
371 364
370 366
371 370
365 375
366 379
360 379
354 378
366 378
358 385
353 387
352 386
355 386
351 390
348 389
338 399
342 395
338 397
321 412
327 410
325 420
322 418
331 403
324 404
333 406
332 406
337 400
331 406
337 406
342 406
333 417
318 423
320 421
340 411
335 409
338 406
339 409
340 403
347 403
345 400
344 403
341 402
343 400
345 398
337 404
330 408
325 413
328 410
329 406
337 402
329 410
334 412
331 406
341 409
334 402
338 402
342 394
340 394
349 384
365 376
372 369
364 374
369 373
373 374
368 377
371 370
379 364
376 362
375 356
386 354
389 356
389 358
387 360
386 353
388 355
393 349
392 349
401 343
404 341
388 348
385 347
379 350
376 350
377 351
381 353
374 359
371 360
370 362
367 358
372 358
374 358
355 370
361 369
354 373
363 371
348 378
359 374
354 378
353 379
350 383
357 384
357 383
371 376
367 372
367 375
372 375
365 379
359 381
369 370
376 366
379 364
375 365
380 357
379 360
381 355
380 353
383 350
373 355
377 353
382 348
387 346
387 347
391 343
384 348
385 349
394 344
393 345
400 338
390 340
397 340
398 334
405 338
400 342
403 341
388 346
388 350
383 349
389 346
386 354
377 357
375 357
375 356
382 353
375 358
371 361
370 359
373 360
369 355
365 362
369 353
364 353
352 355
349 370
352 374
342 381
353 381
344 384
337 391
357 386
355 388
352 390
355 386
340 392
341 392
347 391
344 390
353 390
342 396
348 390
349 392
349 392
342 394
348 393
338 395
340 395
350 394
353 387
343 396
348 394
345 399
342 397
333 405
333 406
332 406
324 407
322 406
345 399
343 399
333 402
328 410
324 411
330 410
321 408
326 405
322 408
319 414
321 404
319 408
324 411
317 410
314 404
318 409
318 405
327 402
326 398
341 396
328 407
337 400
334 398
329 396
326 401
331 392
333 395
330 397
332 403
337 396
335 399
330 405
327 408
330 413
323 420
329 416
327 423
326 418
330 418
325 419
328 417
334 417
331 411
333 411
333 412
344 402
353 396
353 388
356 385
358 387
347 388
363 382
365 377
357 376
355 376
359 373
354 376
366 369
360 365
371 366
369 369
374 366
376 366
372 362
385 358
376 353
381 355
385 357
391 350
387 352
389 345
389 346
375 355
382 352
383 345
373 353
376 353
376 360
378 360
376 357
379 353
393 346
387 350
386 353
374 359
384 363
375 368
372 371
366 380
376 371
372 374
361 374
367 373
368 372
371 365
373 367
374 374
369 371
361 373
370 370
366 372
361 377
358 386
357 392
356 392
350 390
345 384
350 381
345 386
357 378
357 379
355 380
353 381
359 386
353 389
348 387
345 391
361 385
355 382
355 386
361 385
365 379
375 372
378 370
380 371
377 376
377 376
378 372
375 373
366 376
361 382
363 382
365 373
376 364
380 364
379 368
373 368
372 365
377 367
393 358
381 364
380 363
372 366
367 365
374 358
377 359
377 356
361 364
365 366
362 368
358 368
373 361
376 361
373 362
370 363
373 364
375 356
393 349
387 354
373 361
373 366
381 363
375 365
374 365
370 366
371 367
365 367
370 369
372 369
364 370
361 370
356 374
364 369
371 371
370 370
363 375
370 368
366 372
373 371
381 364
374 362
375 362
379 362
387 360
378 363
374 369
360 369
357 377
368 373
361 376
362 375
362 376
361 374
362 379
357 378
368 367
371 367
367 372
364 373
363 374
362 373
374 363
377 363
381 360
378 358
384 361
373 369
361 369
370 366
378 359
368 367
365 368
374 366
376 371
378 371
377 371
373 373
361 375
374 361
375 360
380 357
373 362
390 355
387 347
396 345
393 344
399 341
391 339
391 343
389 347
387 346
392 344
394 343
397 341
400 338
398 343
394 348
396 344
409 337
398 342
401 344
396 348
397 355
384 355
386 350
380 352
378 356
381 351
389 357
369 372
372 375
360 379
358 380
358 381
359 379
363 376
352 377
358 374
355 376
346 383
343 381
348 383
348 385
347 387
348 387
345 391
337 392
340 395
349 395
339 398
345 392
352 392
351 390
359 383
361 383
369 372
367 369
369 363
365 367
359 377
348 381
347 375
359 375
353 381
355 382
356 376
365 371
363 368
365 373
361 372
361 368
367 365
372 363
369 370
369 369
369 375
375 374
369 371
370 373
370 374
364 374
367 369
368 373
377 371
379 364
375 367
390 364
390 359
379 364
389 354
378 364
362 368
367 364
365 369
375 364
368 361
361 365
367 367
365 369
376 360
374 365
387 365
366 373
365 376
364 374
361 378
358 381
353 383
361 379
352 381
365 375
358 380
358 386
354 395
348 396
348 395
347 394
345 394
356 378
357 383
362 380
353 391
343 393
349 393
351 393
347 393
358 381
362 382
354 388
354 395
366 387
370 375
379 371
373 372
376 373
376 375
371 373
371 372
369 372
371 370
376 367
378 363
379 363
376 362
389 353
396 352
389 357
387 357
393 352
383 355
379 350
386 343
377 352
373 357
377 356
376 365
366 367
361 366
358 370
366 368
365 371
365 373
363 373
368 374
371 371
368 368
372 363
373 359
365 366
358 376
361 375
368 375
373 369
371 366
374 369
375 370
372 374
374 372
362 372
375 366
380 365
368 364
376 364
373 368
367 371
365 371
369 372
368 370
378 364
380 361
382 362
368 365
356 370
367 366
362 365
373 361
368 366
368 363
378 364
373 366
376 366
372 367
372 373
379 366
379 362
372 359
380 366
372 371
374 370
368 378
367 381
373 373
364 378
369 378
364 381
362 380
369 378
368 376
374 374
374 377
372 377
370 378
377 372
379 367
375 365
367 368
369 367
371 363
375 355
375 352
353 359
367 356
367 358
368 357
369 356
377 353
376 352
379 349
383 348
382 344
385 342
388 351
382 353
380 353
383 354
380 357
386 350
378 350
393 341
390 348
386 350
387 351
384 352
379 359
378 360
387 355
382 353
375 359
383 357
382 357
373 360
362 364
358 369
367 372
359 377
363 375
365 376
356 375
363 378
362 377
363 374
358 375
359 376
359 373
361 376
361 378
355 375
361 373
364 374
356 371
361 373
357 374
364 369
362 370
359 371
357 377
357 376
353 377
360 368
366 375
357 378
368 374
364 374
359 377
360 378
365 376
356 380
362 379
357 376
364 372
363 370
362 370
367 366
377 361
373 361
375 361
382 355
385 360
381 362
380 365
386 364
380 366
363 371
379 366
377 368
373 372
378 365
368 370
366 375
375 367
378 360
372 364
368 368
373 368
358 379
364 372
357 371
355 368
356 369
357 376
355 368
357 375
348 377
348 383
343 387
344 385
349 386
332 390
347 389
341 394
342 398
334 404
342 405
340 403
337 401
344 399
344 393
360 387
360 390
352 391
346 394
353 388
350 385
357 380
359 380
355 381
350 386
353 388
359 382
359 378
360 380
359 380
364 373
361 373
353 376
353 374
358 372
365 374
365 378
361 383
357 385
359 383
358 379
355 385
358 383
360 377
366 375
360 384
361 386
366 382
351 382
363 378
353 381
361 377
350 387
362 379
369 375
367 378
370 374
354 380
343 383
354 382
343 381
350 381
360 370
355 368
365 366
360 364
368 368
360 373
361 376
364 370
367 367
367 367
364 370
369 370
373 372
347 380
347 386
353 385
357 380
353 390
344 393
338 396
339 394
352 390
341 390
345 391
345 395
344 396
340 402
340 401
337 400
331 405
341 400
350 404
340 406
343 405
340 402
334 399
345 399
340 393
340 398
338 398
341 399
339 399
343 404
341 406
340 401
339 400
339 399
336 401
336 396
340 393
338 402
337 399
344 389
350 391
352 391
351 391
346 389
358 379
353 378
362 380
364 379
355 380
356 371
364 375
355 374
359 375
370 371
369 372
365 371
375 370
361 369
371 370
375 369
381 359
392 353
386 357
388 351
398 346
399 345
388 348
394 344
386 354
393 354
394 352
386 359
382 356
384 355
387 352
393 351
393 353
405 342
406 344
398 344
395 349
387 351
391 349
398 344
387 346
385 345
392 343
387 347
372 355
379 354
388 353
386 354
383 354
380 354
383 355
373 355
372 357
375 358
378 347
383 348
376 355
370 357
371 358
376 355
382 355
376 357
384 353
374 358
373 358
367 365
378 365
366 371
376 366
379 365
364 374
366 371
368 363
372 365
360 368
365 365
363 370
367 368
369 363
368 362
377 355
386 357
387 351
386 356
391 350
388 349
403 342
414 340
405 344
406 343
416 334
404 338
404 340
401 344
395 347
399 349
383 349
393 340
392 339
383 349
395 338
397 341
396 348
387 351
396 345
404 342
391 350
393 350
385 354
396 350
403 348
397 348
405 342
394 351
393 346
379 353
399 347
394 348
387 352
397 346
383 354
382 356
384 354
385 353
379 357
375 361
387 357
377 352
385 347
391 349
382 349
391 345
399 335
397 337
393 340
383 341
394 334
406 327
400 334
384 335
391 336
387 343
387 345
383 350
376 348
364 349
372 349
372 345
384 348
386 348
389 350
386 351
392 356
388 355
389 359
386 356
378 357
379 360
386 353
388 350
393 352
385 358
382 358
374 366
365 371
366 371
356 373
355 373
366 366
368 366
366 367
369 370
374 369
368 371
362 372
366 369
367 372
363 378
372 376
361 384
347 387
352 392
347 400
353 398
344 400
346 399
345 397
347 395
348 393
352 389
346 389
351 389
345 395
347 397
338 396
340 396
344 392
348 390
347 386
352 387
357 382
354 385
356 382
355 379
360 375
364 375
357 376
369 368
362 376
368 371
370 371
369 371
368 371
372 371
360 374
371 372
368 378
369 372
369 375
364 375
357 383
360 379
361 377
359 376
361 381
364 380
362 379
368 381
364 379
375 372
376 367
375 365
379 374
371 372
387 364
383 366
381 366
387 362
379 366
376 363
373 365
363 371
366 371
363 374
367 376
363 375
365 376
360 375
359 378
364 374
370 373
372 366
372 362
367 366
374 359
372 358
371 361
373 358
377 354
375 354
373 354
371 352
374 352
383 351
388 350
377 352
385 350
386 352
383 353
382 351
381 354
373 367
368 368
368 371
359 376
358 381
365 379
361 382
352 387
356 385
356 386
360 378
365 372
377 364
371 363
377 361
367 365
373 361
374 365
379 363
369 369
363 372
371 361
376 361
374 355
384 354
382 359
380 355
380 348
390 348
376 355
379 346
385 346
384 345
386 351
384 351
392 344
388 346
374 354
375 357
373 356
381 352
374 357
361 360
361 363
364 363
372 357
380 356
381 355
382 352
387 350
384 348
386 350
397 350
390 353
387 358
384 359
381 365
387 363
376 361
375 371
382 368
379 371
370 377
381 367
360 374
369 373
372 371
368 372
371 363
373 365
381 359
375 360
374 358
368 361
372 359
372 362
366 369
364 376
369 366
375 365
363 372
356 372
358 373
360 372
358 378
355 383
356 375
356 382
361 379
360 382
353 386
346 394
342 398
343 399
337 404
342 400
342 397
348 395
347 391
363 381
365 376
369 373
360 379
372 376
378 369
379 368
378 367
387 357
402 346
389 355
391 358
392 359
388 359
386 362
370 369
387 358
385 359
381 361
386 356
399 345
393 348
385 354
394 350
402 345
403 340
402 343
397 347
403 345
402 342
408 340
411 341
407 330
409 330
399 333
398 341
385 349
400 344
393 345
397 342
401 343
398 342
387 348
381 347
384 351
381 351
370 362
373 367
369 368
369 367
365 368
371 365
354 368
369 362
369 359
380 363
363 369
370 365
372 363
382 357
386 361
382 366
374 368
379 366
389 357
384 360
379 365
381 360
382 358
392 350
383 355
375 360
378 362
376 364
380 365
373 366
374 367
384 360
385 365
392 360
385 365
378 365
391 358
381 362
385 355
381 362
382 360
367 363
375 361
362 367
362 374
358 374
356 369
367 371
359 367
363 366
361 368
364 366
359 369
345 373
344 374
359 369
365 364
359 372
359 370
353 371
370 365
366 363
371 362
370 368
362 367
358 363
370 354
364 362
375 355
372 359
369 359
365 363
359 367
361 368
361 370
362 368
369 369
377 366
377 360
384 360
382 356
385 350
382 354
375 355
370 355
373 362
371 368
372 369
372 372
369 382
366 382
365 378
368 376
369 379
366 387
362 388
347 401
341 399
345 404
353 395
342 392
353 390
351 390
360 388
355 391
359 388
348 390
356 390
363 381
352 385
360 381
360 378
363 383
359 392
360 386
361 385
371 378
369 375
369 376
365 376
366 375
366 374
379 365
375 361
388 351
390 346
379 354
393 345
395 346
388 354
386 358
392 354
389 354
382 359
379 359
389 349
372 354
382 351
372 355
375 355
374 360
381 356
380 359
374 363
384 357
382 353
391 354
391 352
399 352
394 357
382 358
385 356
384 358
384 356
382 355
389 348
391 345
394 342
390 344
390 345
392 346
392 351
378 353
373 357
370 362
376 362
375 362
376 371
373 369
372 373
370 377
374 371
369 382
367 388
365 378
354 384
349 389
342 388
346 384
351 378
367 372
365 377
360 385
344 390
342 399
338 408
345 403
349 398
336 404
340 400
358 392
363 382
351 385
354 386
353 387
366 381
368 374
369 374
368 375
367 367
373 371
373 362
389 357
384 356
386 351
382 354
386 358
394 355
386 356
390 354
390 354
388 351
392 354
391 355
398 355
399 347
390 347
401 341
405 340
393 343
398 343
396 347
399 345
395 348
390 342
389 341
384 344
379 347
375 344
378 342
381 340
379 342
392 340
379 349
376 352
380 350
377 353
383 351
385 347
402 345
384 351
395 343
391 352
384 357
367 363
369 369
366 365
370 369
368 370
373 373
369 376
369 373
378 365
382 363
383 354
380 361
383 359
379 363
384 359
379 358
385 358
382 358
380 359
388 361
383 362
382 360
382 362
378 361
387 359
393 359
381 366
367 376
365 371
369 368
354 369
371 368
375 365
375 362
373 362
362 371
358 373
369 371
360 373
371 365
374 360
379 356
380 361
381 358
385 355
371 365
371 360
383 355
376 355
369 362
367 362
368 365
368 367
367 369
367 375
368 372
367 369
373 363
373 366
369 360
367 364
368 361
381 359
378 353
379 354
375 354
382 352
379 351
377 355
368 357
369 359
372 359
376 359
376 360
355 370
353 375
344 381
356 376
362 375
364 378
368 375
378 367
378 365
385 358
381 366
376 368
372 375
367 382
357 385
360 382
353 383
351 389
361 389
353 390
360 392
359 384
360 379
362 374
363 373
362 373
362 375
353 375
360 369
365 370
361 369
361 372
354 373
350 379
354 379
360 381
352 385
348 381
341 390
344 392
343 385
351 384
346 386
362 377
354 383
348 389
355 390
339 397
345 396
339 398
333 402
332 405
340 405
329 410
329 399
323 399
310 407
327 404
321 400
320 401
340 391
342 387
336 391
348 383
358 379
354 377
370 369
373 364
371 372
375 366
379 356
380 360
388 358
393 358
392 351
399 348
399 345
390 346
378 353
387 351
386 348
380 352
388 345
388 349
388 354
387 357
377 358
375 363
381 359
390 348
386 347
388 342
386 345
397 341
396 340
385 351
381 356
377 356
370 359
386 355
391 350
387 355
379 357
383 355
369 358
381 355
374 359
373 358
370 357
383 353
385 353
377 349
378 348
389 342
388 336
381 340
390 342
397 341
397 343
397 342
404 340
408 341
393 340
382 347
380 352
381 353
380 355
383 358
379 358
381 350
388 350
384 349
397 346
397 345
397 348
393 349
387 354
383 355
394 350
392 353
401 348
386 351
392 347
395 352
390 355
390 354
387 357
386 361
394 352
400 348
403 345
413 336
410 336
413 329
405 338
392 340
400 334
401 332
409 331
400 337
400 338
394 344
395 349
388 354
391 355
387 356
387 352
391 355
385 357
383 355
384 353
382 357
393 354
386 349
395 351
384 352
386 352
385 350
386 346
386 351
387 354
383 352
393 343
374 349
386 348
372 355
369 366
371 365
366 372
365 374
360 379
359 378
362 377
368 377
363 379
368 378
365 384
358 390
365 383
361 382
354 383
363 377
383 366
380 364
371 366
376 364
372 369
384 362
386 358
379 361
380 365
379 362
377 357
389 349
385 349
392 353
378 357
386 353
383 355
387 354
382 361
385 359
379 366
384 359
381 363
380 365
381 356
374 361
365 362
369 364
372 367
356 378
360 382
351 383
349 384
350 386
348 384
353 382
353 381
350 385
351 383
358 379
342 388
352 385
347 385
343 387
345 386
351 381
354 381
354 382
350 385
359 385
374 377
366 377
372 368
386 351
395 348
393 350
382 355
385 356
381 352
391 349
381 357
391 354
379 355
387 357
379 363
376 365
375 359
387 345
390 346
399 344
393 344
395 340
402 338
406 339
394 340
387 344
383 340
384 344
390 345
400 345
390 348
392 348
393 345
390 346
386 352
372 360
374 362
381 362
376 358
379 360
382 358
393 354
385 357
378 351
381 347
384 357
390 352
379 355
373 355
360 363
360 363
371 362
370 362
379 355
369 363
373 364
362 372
367 373
366 375
364 370
371 366
371 366
377 356
382 352
375 358
370 360
361 365
379 361
371 368
363 369
360 375
362 372
361 375
370 371
370 370
367 372
376 364
363 372
375 370
372 370
375 366
372 368
365 372
365 374
365 373
364 379
364 379
361 380
365 375
370 373
362 379
364 378
365 374
364 378
371 372
364 378
368 375
369 368
363 369
377 367
377 367
375 371
362 375
366 375
375 367
369 371
372 365
377 358
386 354
385 356
368 365
368 368
366 365
354 377
373 369
369 368
359 377
360 378
368 375
356 381
359 378
360 376
360 375
353 378
352 383
344 388
346 393
341 394
341 394
336 399
340 401
345 394
345 398
353 390
346 391
349 387
342 395
354 388
351 386
356 379
361 379
361 380
354 387
359 382
351 387
346 387
355 382
348 390
345 396
350 397
348 395
345 400
342 406
339 407
348 397
354 396
352 399
344 402
342 400
343 390
353 381
360 378
361 370
358 374
363 374
360 375
355 380
354 381
362 374
359 373
360 380
352 379
363 376
370 370
370 371
369 368
368 370
368 369
366 369
367 365
368 364
374 366
367 364
379 361
389 354
380 354
372 356
381 352
389 349
397 348
391 346
403 345
390 354
378 357
374 366
380 360
387 361
392 360
381 360
381 352
379 357
382 356
382 351
381 356
383 359
376 358
370 359
354 366
359 366
369 363
360 369
365 372
358 374
377 374
367 378
370 374
365 378
358 383
361 380
360 385
350 392
354 391
343 395
342 401
341 401
339 406
336 411
342 401
350 398
367 385
370 381
377 376
375 367
383 360
380 358
381 356
374 360
367 363
368 365
373 358
363 371
356 373
365 365
366 372
350 378
351 383
349 385
346 384
357 378
356 380
367 373
354 378
356 370
355 373
366 368
359 371
355 369
366 362
369 361
361 362
365 364
364 365
363 369
365 371
364 368
367 368
362 370
365 377
359 378
361 381
359 380
358 380
361 383
345 387
348 389
344 390
351 383
349 385
346 391
355 382
352 382
345 389
346 392
349 388
350 381
348 385
348 383
349 381
345 386
345 389
344 394
357 392
350 392
339 392
354 383
360 376
364 376
366 367
363 372
369 374
374 368
369 366
366 375
372 376
364 380
365 379
373 375
373 373
370 375
376 372
370 379
358 385
366 378
367 381
360 380
362 372
358 372
369 362
368 366
365 366
361 371
369 371
367 366
372 363
377 362
374 365
385 357
386 357
387 353
385 355
376 364
380 365
378 359
392 348
387 353
386 347
391 353
382 349
378 357
379 358
379 357
378 352
388 350
390 354
382 355
378 358
388 352
390 354
386 357
388 355
370 355
375 358
376 362
367 364
374 363
376 360
387 354
383 356
382 360
369 365
376 365
378 364
363 374
359 372
367 375
349 383
358 379
360 377
356 380
365 377
365 377
360 382
368 381
366 381
363 387
365 383
365 382
350 389
369 379
374 381
367 382
363 386
367 383
367 381
364 383
355 385
350 385
342 393
339 396
342 396
337 399
342 397
354 390
340 394
340 397
348 394
336 396
343 393
342 393
344 391
339 390
346 388
353 381
364 381
361 382
344 388
347 387
346 385
342 391
335 394
345 400
339 396
344 396
341 400
343 396
342 401
340 402
357 389
358 387
363 381
362 381
357 385
360 384
357 388
362 377
354 383
354 382
357 380
357 376
357 383
356 381
369 379
364 376
355 382
350 383
360 378
361 376
368 373
370 367
362 374
357 379
362 371
355 370
361 369
354 375
357 370
356 374
362 370
361 375
377 371
373 366
367 378
366 380
371 374
369 370
364 374
369 372
362 370
369 368
377 366
370 368
378 365
381 357
388 359
381 368
367 379
359 381
373 373
374 368
385 362
376 358
381 358
374 362
372 367
364 365
362 367
354 366
360 368
359 375
344 382
346 384
342 387
348 381
352 382
358 378
361 375
374 371
375 366
377 363
384 358
379 359
376 358
383 359
379 355
382 353
382 350
379 355
378 355
376 358
370 363
378 358
378 358
375 363
381 358
377 365
373 377
373 372
379 369
375 369
386 361
385 356
388 344
399 337
399 338
400 337
404 342
398 344
397 350
406 345
407 343
396 347
398 344
401 344
401 338
403 334
405 333
407 330
404 331
410 326
409 328
405 329
414 325
412 324
407 326
406 326
404 330
412 334
403 341
399 337
400 347
387 351
385 352
394 347
390 350
395 341
387 346
385 348
387 350
385 350
379 346
374 355
376 352
384 352
370 364
378 363
376 364
379 361
384 361
386 359
393 354
391 353
384 352
373 355
376 354
372 357
371 363
376 366
374 368
382 364
376 373
363 372
375 375
362 377
366 376
372 370
364 380
368 376
362 377
365 376
363 374
361 369
367 370
365 368
369 373
363 374
360 374
368 370
367 377
358 386
357 386
363 383
356 390
351 390
343 391
350 397
348 393
352 390
356 385
358 386
353 391
350 396
352 399
364 386
352 392
343 396
348 395
342 398
352 388
337 390
343 392
331 400
339 402
329 401
336 401
338 401
340 396
350 393
351 388
358 383
365 383
361 379
356 384
362 378
367 379
355 381
357 380
356 383
367 378
375 375
375 372
368 378
367 379
361 375
363 374
356 383
354 389
359 391
357 386
358 393
351 396
356 391
360 389
361 379
366 381
372 376
370 374
363 377
356 377
368 378
369 375
372 372
358 384
364 383
361 384
355 384
356 383
356 382
366 381
366 380
357 382
358 379
364 377
369 375
366 375
369 371
376 372
370 367
372 367
359 374
355 377
351 377
357 375
355 376
356 380
361 382
352 380
364 379
365 376
358 379
365 378
356 382
354 382
362 384
352 385
355 382
356 377
351 379
341 383
355 379
355 376
357 377
350 386
346 390
351 382
367 386
357 387
359 385
358 383
366 378
362 379
370 369
379 361
383 357
376 361
374 366
372 369
356 377
357 377
364 373
352 381
356 381
354 381
356 380
361 379
356 381
360 382
356 379
352 387
345 388
341 388
340 394
333 398
337 405
347 395
345 397
349 397
348 394
344 395
340 397
343 403
338 404
327 409
326 405
320 415
326 416
321 414
328 413
319 411
314 417
314 421
318 417
316 415
321 407
318 408
319 413
320 406
312 412
322 409
312 414
321 412
324 413
318 416
322 414
322 422
320 420
317 424
309 431
297 440
295 435
301 439
296 432
308 436
298 442
294 442
289 441
295 440
282 449
286 450
271 454
269 455
275 452
284 453
281 454
289 444
306 440
310 429
302 435
307 431
303 436
299 436
308 431
311 424
315 424
317 420
321 421
321 424
322 426
333 420
333 417
319 419
335 414
338 412
334 412
325 409
331 407
330 404
326 403
325 413
321 414
328 412
320 416
310 421
311 423
309 424
322 419
312 421
301 427
303 426
306 432
307 429
307 427
294 430
295 428
295 431
296 428
305 431
298 427
315 428
312 428
303 427
302 431
308 430
302 435
303 431
305 436
308 431
303 436
296 443
292 450
304 433
301 422
307 423
315 417
319 426
318 431
315 428
310 434
303 441
293 442
319 428
312 430
315 426
329 422
325 420
322 421
327 422
319 429
318 433
311 433
311 436
318 429
328 426
324 429
327 420
318 419
330 414
327 412
327 410
320 412
330 411
322 408
334 409
335 405
340 404
339 404
336 399
331 397
320 402
333 397
329 402
327 403
336 398
328 400
319 408
329 404
331 409
327 411
330 413
331 413
334 408
334 404
321 411
325 406
336 411
322 413
321 415
327 416
332 411
334 408
330 409
325 414
331 412
330 410
336 406
337 404
343 402
337 401
329 410
320 412
329 409
330 411
318 414
323 417
319 424
315 428
304 436
308 434
296 434
294 433
293 435
296 428
306 422
306 425
307 428
303 429
312 425
307 424
310 419
307 421
315 427
316 428
324 421
330 420
314 425
330 417
325 417
328 416
331 409
335 413
326 413
334 405
339 404
333 403
340 395
330 404
330 406
341 401
338 398
345 394
340 396
335 395
344 397
342 395
342 397
331 405
341 403
343 397
325 403
327 405
331 397
335 403
336 401
330 405
333 408
326 400
336 398
340 399
339 399
335 404
337 404
342 396
340 399
329 403
324 407
334 404
337 400
340 402
339 403
322 412
320 415
325 411
320 409
310 419
309 420
317 423
312 422
331 412
328 412
329 415
327 416
335 406
337 403
331 405
331 408
332 415
312 420
310 421
311 425
305 431
309 434
303 440
306 438
316 433
313 435
303 426
311 428
315 424
306 427
322 419
327 415
326 415
317 422
324 422
326 420
319 426
320 420
325 409
331 404
338 401
342 400
338 395
337 399
340 397
348 389
334 395
338 403
330 404
328 403
344 398
337 400
330 412
325 410
325 409
324 418
317 418
324 416
332 401
329 403
342 393
335 397
332 398
320 409
325 407
321 408
333 405
328 412
331 411
326 406
330 408
335 404
349 398
349 393
360 385
351 385
349 387
354 386
356 388
359 381
363 377
359 373
366 367
359 368
365 369
373 364
372 367
361 370
369 367
368 363
371 364
384 358
384 353
390 346
388 349
370 363
376 358
371 358
373 360
363 367
358 366
358 375
363 367
370 368
360 373
358 373
356 371
363 371
361 373
365 372
373 373
368 372
365 370
373 368
365 376
363 382
355 386
357 387
353 388
347 393
346 391
350 387
347 387
352 390
344 396
337 392
337 395
335 398
345 391
345 394
341 398
337 397
325 402
341 399
341 402
347 398
333 405
340 398
349 389
350 390
354 385
348 387
350 382
354 385
352 387
347 389
339 392
336 388
340 393
342 389
343 382
346 380
351 385
347 387
356 386
341 393
347 390
347 391
351 391
359 382
348 390
347 395
350 390
353 386
350 390
351 391
348 395
360 385
361 385
357 384
345 388
350 384
359 379
344 385
360 384
361 386
353 391
357 388
357 387
367 377
375 373
374 372
372 370
373 368
367 366
369 370
360 374
365 372
360 379
362 372
355 377
351 378
366 371
365 368
362 366
358 372
362 373
357 375
367 371
367 379
356 383
364 377
369 368
366 369
368 364
378 360
383 358
382 356
388 357
376 361
379 359
374 366
365 369
364 367
362 368
355 373
352 376
351 382
352 377
359 375
365 373
374 366
368 369
374 367
383 359
383 358
380 354
377 358
379 358
380 353
375 355
375 357
377 355
371 354
370 359
372 362
383 353
378 360
378 357
381 356
386 347
390 346
401 336
401 332
394 336
395 330
394 333
385 342
381 344
384 344
382 346
386 346
392 351
393 348
392 347
387 345
383 349
384 346
385 346
376 348
378 350
373 357
372 360
370 358
381 352
385 353
387 350
394 343
391 341
387 350
378 350
381 347
376 354
366 360
366 362
364 366
361 373
369 370
373 370
365 374
361 379
368 370
370 368
372 364
375 365
380 364
378 366
368 372
372 367
366 365
368 364
382 359
383 361
378 360
368 367
367 369
372 366
376 364
367 375
360 381
369 381
366 380
365 380
359 386
351 393
353 394
357 391
359 389
361 385
347 398
348 398
343 403
339 405
332 407
327 407
333 404
347 396
333 402
324 396
337 396
342 392
343 396
339 392
332 396
328 397
334 396
323 399
316 406
321 404
319 404
328 412
313 424
330 408
319 409
322 405
329 401
340 398
341 396
345 398
347 396
352 390
339 395
349 387
355 387
355 385
351 387
351 386
355 389
366 379
361 388
358 386
360 381
345 383
347 383
360 371
372 363
373 357
367 361
371 356
389 349
389 355
387 360
376 360
381 366
380 364
372 366
387 353
383 348
386 349
390 348
389 347
387 355
382 358
387 356
378 354
382 356
388 354
378 356
380 355
378 351
371 354
374 353
370 355
371 357
361 364
357 373
344 377
342 376
345 378
343 378
345 382
336 394
337 395
341 400
337 399
334 405
320 413
329 410
316 422
320 423
323 420
327 416
335 407
339 404
350 398
345 395
345 393
360 383
349 388
358 387
351 397
349 393
341 394
341 397
333 404
332 402
338 399
345 394
348 391
341 391
362 376
350 382
349 386
362 380
358 383
352 383
362 383
367 379
376 374
381 364
374 364
379 358
385 355
381 353
385 353
387 352
379 358
373 365
375 362
374 367
375 371
377 360
379 365
385 362
378 365
374 366
360 381
360 382
348 387
360 384
349 392
358 387
348 391
346 395
340 400
337 403
339 402
339 397
320 406
327 405
326 414
326 411
328 408
329 405
320 410
314 411
320 410
320 407
320 413
310 414
312 415
313 413
306 421
307 430
302 433
291 433
299 440
291 440
289 445
294 435
298 435
299 442
284 450
291 448
290 449
287 455
293 449
296 449
300 449
291 450
289 448
300 438
301 437
299 436
300 438
288 439
295 434
308 426
316 424
313 426
316 427
324 423
317 421
304 428
323 419
329 410
342 399
353 390
346 396
351 393
357 387
369 377
357 380
355 382
361 384
351 383
349 388
356 381
371 374
373 373
372 372
365 370
364 372
360 370
353 384
353 389
346 389
344 393
326 401
321 406
328 396
337 394
337 389
339 386
347 386
344 381
341 384
333 392
331 398
335 394
325 402
322 401
340 396
334 398
319 408
330 402
328 401
318 406
332 402
344 403
335 406
343 410
334 417
326 413
336 406
343 397
344 400
345 402
337 405
331 398
332 403
329 404
331 403
337 405
350 394
361 392
356 389
362 389
365 378
367 379
370 375
365 376
372 372
366 372
367 373
360 377
357 382
347 387
351 390
338 394
335 399
333 397
343 386
345 386
345 385
357 377
345 377
352 380
355 378
354 379
358 376
353 381
354 381
354 380
350 383
351 384
354 380
360 383
353 386
362 380
360 380
356 384
358 384
358 385
345 384
348 381
352 380
356 382
340 385
351 378
347 378
353 380
349 380
347 379
340 385
346 377
349 381
353 382
359 383
352 393
347 400
334 406
340 403
324 407
321 406
325 408
334 404
325 405
327 405
324 413
325 411
335 406
338 402
335 399
340 397
345 398
347 393
346 390
340 391
345 388
359 386
352 385
349 392
357 385
361 378
362 379
356 385
347 386
349 392
346 395
351 392
358 389
347 388
354 386
350 383
362 386
364 382
367 377
357 382
341 387
341 391
343 392
355 386
351 390
345 392
344 392
327 397
338 397
328 403
335 400
334 402
339 406
329 417
329 413
319 414
318 416
317 417
331 414
322 414
317 422
315 427
311 426
312 426
322 422
321 418
324 409
330 410
343 401
341 400
333 404
326 408
328 409
324 414
323 415
318 415
316 411
310 416
309 417
313 414
310 413
315 411
322 410
324 405
330 406
324 412
322 416
315 427
314 433
309 425
309 430
301 425
319 423
324 423
327 418
332 418
319 424
308 428
305 432
298 434
299 434
308 425
308 421
311 421
310 425
317 418
312 421
303 427
310 424
310 422
307 426
309 425
317 422
312 423
318 425
315 425
315 420
323 409
322 409
315 410
313 410
326 406
340 401
343 392
346 388
349 386
356 386
350 385
364 383
350 384
355 379
353 384
343 387
345 384
351 379
363 372
359 381
356 378
354 380
358 376
358 382
346 386
338 393
348 392
338 398
337 397
348 393
338 396
343 387
352 390
350 388
351 387
353 388
361 381
372 372
371 375
362 379
362 376
357 380
351 388
347 388
352 386
360 381
359 372
357 380
355 389
354 388
352 380
357 382
363 374
360 379
368 375
375 368
364 369
367 364
366 366
361 371
373 368
361 368
366 376
355 380
358 377
355 383
356 380
359 382
357 387
358 389
357 388
360 386
353 383
346 386
347 385
347 381
344 388
338 391
341 395
342 400
339 404
338 405
340 402
345 396
354 391
361 391
347 392
346 391
351 380
366 380
365 377
356 385
355 384
348 385
342 386
342 394
343 392
336 390
329 395
332 397
321 401
327 406
326 405
346 399
339 400
334 404
335 403
342 397
345 396
343 399
334 400
338 399
340 389
340 381
350 385
357 379
347 381
351 379
366 369
354 372
364 368
362 375
371 372
362 377
368 375
365 369
360 372
365 373
361 377
368 377
366 378
362 375
369 366
374 361
375 364
372 359
371 360
369 362
367 364
374 364
368 364
384 359
384 360
377 361
376 363
374 363
377 365
371 371
369 371
370 368
358 372
364 368
367 367
360 366
365 369
362 369
357 371
357 370
355 368
357 369
355 371
340 376
349 377
355 383
348 385
345 389
342 397
346 395
343 397
341 393
333 399
331 401
330 405
323 409
330 406
327 401
336 397
339 396
337 402
328 407
324 411
320 417
320 421
317 418
317 419
320 416
334 409
333 410
341 401
330 396
345 390
349 390
353 391
341 389
350 388
360 389
356 389
352 391
368 381
371 381
358 380
357 385
348 391
358 380
349 384
346 387
343 387
355 386
349 386
349 383
354 377
368 371
365 371
364 367
364 369
360 368
358 364
370 361
367 358
367 360
372 360
383 352
386 348
389 353
380 351
380 354
377 358
381 354
377 357
383 355
383 358
369 359
385 349
394 346
385 350
381 349
394 349
385 356
377 359
380 359
377 362
375 363
375 369
364 374
371 370
379 365
372 371
374 371
381 366
385 366
368 369
372 366
379 363
374 361
379 361
380 355
375 355
379 359
390 363
383 364
380 363
378 362
376 362
387 357
375 361
380 358
388 347
384 350
374 354
374 349
370 356
371 357
368 363
372 362
380 364
378 363
384 362
388 353
388 348
389 351
392 355
387 354
385 359
374 367
381 358
375 366
364 368
371 361
373 360
367 360
370 359
380 354
374 356
376 353
364 363
376 364
370 364
383 356
377 361
384 353
374 362
373 364
375 364
362 367
369 360
366 358
372 359
376 360
375 360
366 367
363 372
365 371
361 378
349 382
359 382
364 378
353 382
357 380
357 375
346 389
343 397
341 401
345 394
348 394
344 401
331 408
340 404
331 397
333 393
331 397
333 396
334 397
344 394
347 395
337 399
341 404
337 406
337 405
345 398
352 392
352 392
354 393
356 394
353 392
362 391
354 389
355 382
353 384
349 389
350 390
353 386
360 383
346 391
354 378
366 376
350 385
351 384
359 382
364 381
359 382
364 381
368 382
360 384
366 376
373 373
377 368
381 365
379 363
383 356
383 356
379 357
374 365
370 369
372 370
369 375
368 367
368 371
368 373
373 371
376 377
366 375
364 380
366 384
364 381
360 382
356 379
371 371
369 373
358 376
353 385
350 383
355 384
349 386
342 389
332 396
343 390
367 371
366 369
360 374
368 363
367 364
359 371
346 380
353 377
334 386
342 389
341 395
336 397
346 388
355 376
353 376
361 372
347 379
345 378
351 383
344 383
342 389
340 391
336 395
343 389
339 390
349 386
332 393
327 401
323 409
326 409
323 408
331 404
329 398
341 393
353 387
347 391
348 391
351 394
352 392
356 390
353 392
345 396
343 401
336 398
336 397
342 391
346 388
345 390
344 388
348 387
352 388
343 396
354 403
350 400
348 394
344 397
358 383
353 381
365 371
365 371
360 381
365 377
374 368
378 359
375 368
366 374
367 367
371 362
369 366
362 363
373 360
386 356
376 360
370 361
365 374
358 378
365 382
357 383
354 380
351 387
351 382
346 387
344 389
344 393
350 388
342 391
348 395
344 393
349 396
348 396
348 396
346 396
344 398
341 394
346 395
349 402
350 396
352 393
348 395
349 394
351 392
348 395
357 392
353 393
345 396
347 392
363 383
368 373
371 376
368 370
369 362
371 363
370 365
374 360
367 358
367 357
359 364
355 367
357 368
351 373
358 372
360 378
355 378
351 387
354 385
347 395
358 385
366 378
362 376
363 376
364 378
358 381
360 381
369 372
366 367
368 363
377 356
378 355
379 359
359 364
367 367
364 369
367 369
349 380
351 382
348 384
360 378
356 378
353 379
360 374
352 380
338 386
352 383
348 390
347 394
336 400
347 401
337 400
340 399
341 390
356 384
351 383
362 373
365 372
365 373
359 376
368 371
371 369
373 368
371 363
380 359
370 363
387 347
391 345
387 352
379 356
372 360
369 363
366 371
372 369
367 371
371 364
364 370
362 380
358 380
360 379
353 377
369 369
365 367
361 371
370 364
361 367
366 365
361 358
368 355
369 353
363 359
359 361
364 366
356 372
355 371
356 374
354 379
361 370
360 372
365 374
369 377
368 381
358 388
368 376
363 383
357 384
348 385
349 388
356 380
356 376
358 370
363 365
362 363
373 362
383 352
380 352
385 351
392 344
402 346
404 341
403 341
403 339
400 345
399 349
388 357
393 352
405 343
400 343
399 342
390 343
390 346
397 343
391 352
379 355
386 355
383 354
393 345
392 345
392 340
397 336
383 345
390 345
399 343
381 352
382 352
371 353
378 349
380 349
373 352
369 354
369 350
373 349
377 342
386 339
391 339
386 339
390 336
396 333
398 340
392 342
392 339
398 334
388 341
397 345
393 345
396 347
388 352
395 350
382 357
384 359
383 362
377 362
379 363
377 365
385 362
382 364
385 362
372 367
367 366
367 367
363 374
365 375
368 365
369 362
372 364
382 360
374 358
381 352
375 356
385 357
383 355
367 361
382 361
377 359
383 355
385 349
378 352
387 354
390 347
381 351
394 352
384 352
390 349
372 356
374 356
383 347
399 338
396 340
389 340
402 329
397 330
412 322
408 326
416 318
417 320
424 319
420 320
423 319
415 326
414 323
407 335
403 337
404 335
406 337
405 339
405 335
409 328
409 331
421 325
418 323
424 320
416 326
424 321
423 320
424 317
431 310
424 320
427 323
418 331
413 325
402 329
402 333
416 323
409 323
410 321
398 325
397 332
406 332
395 335
399 334
389 340
387 344
383 345
383 344
383 348
386 349
374 349
372 354
382 351
379 351
387 348
389 344
391 345
385 355
372 364
374 361
376 357
371 358
380 360
394 354
380 366
382 355
382 353
390 352
395 348
399 349
404 344
396 346
399 343
406 338
393 336
407 331
397 328
391 339
396 341
400 340
401 341
396 343
402 337
404 334
401 341
405 343
404 339
409 333
397 345
392 349
392 350
395 352
392 358
373 371
368 372
368 380
362 385
365 379
358 382
355 380
358 384
366 380
349 388
345 388
351 386
352 386
345 384
356 381
343 383
344 387
345 381
356 384
355 379
353 385
353 382
346 384
347 378
362 372
366 370
363 371
371 365
375 364
369 365
378 363
365 369
377 366
367 368
375 367
375 359
372 361
370 364
368 368
369 374
371 374
368 375
366 375
370 372
370 371
374 366
371 375
364 382
351 392
355 383
344 386
350 385
356 387
354 386
364 377
347 381
336 381
330 395
330 394
337 393
334 397
328 398
321 399
315 404
321 406
308 418
322 410
326 408
333 411
334 414
341 400
346 400
331 408
339 403
345 402
349 400
344 405
340 405
325 419
326 425
332 418
335 418
330 425
325 427
336 418
338 413
348 404
346 393
342 397
348 394
340 398
345 391
348 392
341 397
338 400
343 394
354 391
350 385
350 387
346 384
340 394
346 388
341 390
340 386
337 386
328 389
341 385
346 382
347 385
359 380
344 383
345 384
352 378
354 373
358 368
354 373
350 384
340 391
344 392
350 394
348 397
346 399
339 399
335 403
338 397
339 396
342 389
350 390
351 391
358 389
346 397
340 402
347 394
336 398
332 399
342 398
326 410
