Actives Prisoners
0 0
525 20
505 47
487 69
474 94
443 124
432 145
417 164
396 184
370 204
354 221
332 239
333 248
324 264
325 274
316 287
311 302
290 312
276 323
268 333
247 346
252 350
239 361
214 369
208 382
201 393
200 406
190 410
192 410
183 415
188 419
185 423
179 433
174 438
171 441
182 440
185 440
188 440
174 454
167 456
163 461
163 459
175 453
172 452
171 446
178 445
171 442
188 440
181 444
174 447
187 440
182 442
178 440
183 433
184 433
186 435
186 437
178 442
177 442
158 448
174 438
182 437
178 441
176 442
178 439
181 433
199 427
197 431
194 429
188 429
186 427
194 425
192 431
181 434
187 428
190 433
178 440
185 441
187 438
184 446
184 444
183 449
168 451
164 448
173 444
190 435
190 439
192 441
191 433
183 430
189 422
193 421
184 424
195 423
187 422
191 420
205 413
208 412
215 409
195 419
186 425
184 433
180 431
182 434
183 435
161 442
170 440
163 443
171 439
167 445
176 444
166 449
167 454
176 451
176 453
172 457
173 460
168 463
176 457
172 461
177 457
165 459
168 452
162 460
175 450
176 449
178 447
174 446
178 442
183 441
184 439
171 438
191 431
204 417
202 418
208 412
193 414
211 406
208 411
206 415
209 415
200 415
196 417
196 413
206 415
198 410
199 418
200 418
196 417
196 418
193 420
191 431
192 426
187 434
190 431
172 440
179 440
180 442
184 446
188 442
185 436
187 434
202 432
195 435
201 435
183 437
183 437
192 432
191 438
180 445
177 450
171 450
176 450
190 443
178 449
187 443
196 433
192 436
189 441
193 430
192 436
186 444
190 437
177 447
173 447
182 439
178 441
183 439
180 435
174 438
185 441
191 439
187 436
193 432
196 429
193 430
210 419
209 424
201 419
205 414
202 414
205 410
207 411
209 417
206 421
197 425
203 430
199 423
204 420
202 424
198 420
206 414
215 403
213 410
210 412
193 424
193 426
193 428
200 424
205 422
216 412
209 410
200 417
201 419
197 419
202 417
201 418
195 420
195 424
195 425
204 423
202 420
202 420
191 417
192 415
195 421
203 417
191 422
193 422
203 415
203 414
206 411
203 418
196 424
192 426
200 422
197 428
193 433
209 424
207 422
192 421
203 420
201 425
192 429
194 427
200 426
205 423
213 416
228 404
215 408
215 412
209 413
203 419
212 412
200 411
204 410
210 409
207 413
200 420
204 413
211 416
211 417
196 415
187 422
188 430
191 430
178 438
185 437
183 436
179 435
187 428
189 428
199 419
193 430
199 430
196 434
190 433
198 429
197 426
198 432
187 436
187 434
186 435
177 442
180 441
177 441
184 437
172 445
186 448
183 451
169 459
167 455
181 449
171 455
172 456
171 448
178 441
188 437
192 433
200 423
195 427
193 431
190 429
200 426
205 419
205 420
210 419
206 417
212 410
210 408
210 412
210 407
218 401
213 409
204 417
201 421
206 427
194 429
186 438
187 437
175 445
174 450
185 436
180 441
164 446
170 449
175 448
168 454
171 453
183 449
188 444
198 437
191 444
191 436
198 433
201 428
193 430
201 427
201 426
203 421
208 419
217 415
206 417
215 409
209 412
207 414
200 416
219 411
204 418
222 408
214 405
211 406
223 406
212 406
214 411
201 415
193 421
198 423
195 427
193 419
198 419
208 414
198 415
204 424
196 422
202 422
200 422
204 426
203 428
199 430
206 428
190 434
190 433
189 434
204 426
206 429
215 423
215 415
218 409
206 418
203 417
211 414
209 416
211 418
211 420
211 415
202 414
215 406
220 405
220 398
227 392
230 393
231 395
228 395
215 402
222 397
222 401
218 402
218 398
224 390
214 393
207 406
209 405
212 399
224 396
236 397
218 406
219 403
221 403
224 409
213 410
224 406
246 391
239 390
237 393
229 392
239 390
232 393
224 395
217 403
214 399
220 394
226 396
222 400
225 402
224 402
220 399
222 407
213 407
215 405
229 399
224 403
220 402
230 390
237 384
237 381
241 373
236 372
246 369
243 370
242 378
243 377
238 378
227 383
251 376
246 377
244 384
241 386
242 385
247 377
260 372
256 372
242 374
248 378
234 387
236 386
231 383
237 389
225 403
215 404
211 410
211 415
219 403
230 394
226 393
232 395
226 394
232 391
233 394
213 406
204 410
207 408
207 410
221 403
233 399
233 395
228 394
223 396
223 397
233 396
239 394
236 396
226 396
229 397
225 394
224 398
230 397
218 405
227 409
213 410
212 407
228 399
227 399
226 397
223 396
236 389
248 379
240 379
247 377
239 381
233 389
239 386
239 383
236 387
231 386
231 387
237 389
239 388
229 392
223 398
210 402
216 399
217 401
216 400
225 392
227 393
222 391
225 389
233 387
230 392
225 394
230 390
213 401
210 407
215 404
216 403
212 410
223 404
209 412
209 411
222 404
229 399
226 396
236 391
227 392
226 395
234 389
238 389
238 391
252 382
239 385
244 384
245 384
230 390
226 390
237 387
245 386
233 384
238 382
246 386
244 383
238 378
245 378
235 384
223 391
213 390
224 394
224 395
224 395
219 396
221 398
219 403
215 406
216 408
219 406
232 399
224 398
219 403
230 396
219 397
224 395
221 396
221 397
223 396
210 407
201 417
218 414
219 407
228 397
225 403
214 413
219 412
212 412
218 411
207 412
212 408
216 403
221 401
230 398
219 397
219 400
213 405
208 412
214 409
206 412
205 414
201 420
209 415
213 407
214 406
219 400
226 401
222 396
237 384
244 373
236 378
242 375
243 380
248 373
247 373
252 375
254 376
252 383
236 390
237 391
239 388
230 388
235 386
239 383
240 386
236 387
236 384
254 375
244 380
238 385
236 383
241 384
224 388
229 388
222 395
221 393
214 398
213 403
212 404
209 410
206 409
218 410
220 408
219 407
205 415
221 411
224 408
224 402
233 400
230 404
229 402
233 399
235 398
236 393
245 391
231 393
228 399
216 403
222 406
227 396
225 398
210 399
207 406
214 406
213 406
197 411
197 416
192 419
209 407
222 403
213 409
207 412
203 413
201 417
204 416
207 412
205 411
219 401
235 392
224 393
226 387
234 384
246 374
246 375
241 378
249 375
243 383
239 385
222 390
228 394
228 396
245 395
237 401
216 406
224 398
217 405
216 402
224 400
211 398
220 394
205 404
220 403
218 404
217 402
213 405
220 404
219 403
218 405
218 404
211 408
206 414
202 426
207 424
215 424
213 421
206 425
204 424
212 418
212 420
219 419
220 413
214 414
225 408
225 406
218 408
218 408
225 402
236 395
233 395
238 389
235 390
231 398
230 395
230 388
230 385
223 390
222 392
212 401
209 410
213 410
220 408
210 412
205 417
215 415
212 415
205 422
204 418
206 416
206 419
217 411
224 404
212 402
219 399
215 399
216 397
218 395
227 394
220 401
213 405
224 404
220 405
214 407
207 414
211 408
208 405
221 402
222 405
210 405
202 415
207 412
208 411
211 413
211 415
208 418
197 420
201 424
194 425
195 428
189 435
197 429
197 425
202 427
198 427
197 431
193 432
203 430
199 429
202 428
207 424
202 424
209 417
214 413
217 409
215 410
218 405
208 413
219 403
228 396
231 394
225 397
212 405
215 407
225 404
224 405
224 409
216 413
217 407
207 417
211 417
207 413
197 415
219 410
218 404
227 397
228 396
212 403
217 401
222 396
220 400
219 403
227 402
220 400
234 386
237 384
245 378
241 375
239 379
242 382
245 378
237 382
253 377
249 373
251 375
246 379
242 375
241 380
240 383
235 381
239 384
246 378
262 373
246 379
240 387
239 386
252 379
242 375
249 376
251 378
241 380
250 376
252 374
244 372
252 374
264 363
257 364
251 375
245 375
264 367
268 368
258 374
254 375
242 376
257 369
247 375
248 384
243 380
235 383
248 378
242 381
226 388
227 391
224 385
239 377
233 385
232 382
237 382
220 391
222 389
226 387
234 379
245 379
247 380
241 381
249 383
245 381
243 381
237 381
250 379
248 378
237 379
237 380
248 382
251 380
250 381
249 379
247 381
249 375
245 384
244 386
241 386
254 381
244 385
248 386
242 389
245 387
240 384
233 383
228 389
232 394
232 395
234 395
236 393
224 389
234 386
232 387
228 388
230 384
234 387
225 386
217 396
232 394
223 400
216 403
220 403
224 405
214 408
213 410
209 416
223 406
218 411
221 408
227 409
219 414
220 413
227 408
225 403
223 403
223 398
221 398
224 401
211 404
215 402
232 394
219 392
241 385
239 385
253 374
240 384
228 387
234 387
244 385
239 385
238 379
230 381
233 366
238 372
240 372
234 379
225 383
225 388
220 391
222 392
243 386
246 384
245 376
253 374
245 384
248 378
249 380
246 385
243 383
250 377
249 381
239 386
232 391
242 389
246 386
238 394
236 396
240 389
240 392
231 391
230 389
243 384
246 375
245 375
251 369
249 372
244 372
250 364
246 363
247 367
250 368
243 372
243 377
257 367
254 370
253 366
243 371
255 363
253 363
254 368
254 369
255 364
261 356
264 360
255 364
248 360
258 357
256 358
269 354
263 353
254 358
252 367
255 371
252 376
254 377
243 382
237 380
240 374
228 384
235 380
230 388
230 389
238 389
231 395
227 399
211 409
214 411
220 403
223 402
223 401
235 391
241 386
228 388
241 385
238 385
235 386
229 392
240 388
246 382
247 368
256 368
264 368
255 375
253 371
251 374
249 377
256 373
246 375
257 367
255 367
245 379
250 378
245 384
252 378
249 371
264 364
258 368
245 371
244 376
258 375
257 373
235 379
242 377
248 375
250 373
251 368
248 366
265 358
259 363
252 364
265 363
251 362
259 370
263 368
251 372
239 376
248 374
243 372
253 366
246 372
247 366
247 369
245 374
246 369
239 372
237 378
239 380
237 384
228 393
229 390
232 397
227 395
218 399
225 392
226 394
231 384
227 386
233 383
241 379
245 377
243 384
255 380
245 381
258 374
250 376
239 382
243 383
241 390
231 394
234 391
223 394
224 394
229 394
234 398
220 402
225 403
211 406
221 399
219 400
215 401
223 398
208 406
203 407
208 408
210 410
201 416
193 418
206 409
205 416
193 425
194 428
207 418
202 427
193 430
189 431
197 425
203 421
203 421
201 418
214 419
213 415
229 404
228 402
219 404
221 401
237 398
237 393
237 387
245 385
244 384
245 378
243 382
238 386
234 388
238 381
240 387
242 386
235 392
240 387
234 390
231 394
234 395
230 396
244 384
247 373
239 377
249 371
252 372
241 378
247 365
270 351
271 349
248 364
263 357
263 359
255 363
258 362
258 370
262 365
253 364
252 365
245 368
232 374
241 374
243 381
230 380
231 387
217 395
229 393
226 391
228 391
238 386
243 376
242 372
257 363
244 371
244 364
246 366
245 371
252 369
236 378
242 378
235 386
234 389
235 386
247 376
252 373
249 376
251 377
256 375
245 377
258 369
269 353
263 354
267 349
263 355
256 358
253 365
262 364
257 354
265 357
260 360
271 360
265 355
267 357
265 358
262 358
273 350
262 357
258 362
267 359
271 356
262 364
257 372
256 366
257 362
259 366
252 368
254 368
265 359
274 348
272 351
274 348
266 350
275 347
267 347
264 349
270 352
272 348
282 348
270 349
270 343
263 345
267 349
270 352
273 349
269 349
266 356
273 351
267 352
268 351
270 353
261 349
256 354
254 355
252 354
251 359
259 364
259 362
256 372
246 386
239 389
241 382
243 381
264 370
259 372
262 368
254 367
254 371
257 374
252 375
246 374
261 369
250 373
250 378
242 378
242 385
249 376
257 374
261 374
256 375
257 379
248 380
250 384
255 379
263 371
272 369
267 371
275 365
269 370
266 370
272 360
277 356
279 349
277 351
276 349
271 356
271 350
281 344
282 341
281 342
287 336
287 342
278 347
273 346
266 354
264 356
272 354
275 355
278 350
275 351
266 353
270 345
282 339
269 344
276 345
282 339
289 334
290 335
291 330
296 320
306 319
305 318
300 314
298 319
296 324
291 326
302 327
291 333
299 331
301 333
301 333
301 334
292 340
303 328
297 335
304 328
291 329
294 325
299 325
296 328
296 324
294 325
292 324
280 331
291 329
296 328
294 330
301 323
295 322
307 319
307 318
310 313
310 313
307 311
313 305
312 309
315 310
314 306
317 305
318 309
326 306
321 308
315 308
311 313
310 313
315 309
306 314
305 312
309 314
305 322
312 311
321 305
318 311
319 315
311 313
310 313
304 315
302 313
308 311
312 307
311 308
307 311
295 318
298 317
297 318
298 320
304 316
303 316
304 309
302 314
302 310
305 309
303 312
305 320
305 322
297 320
296 324
293 327
289 332
292 327
296 328
298 326
284 331
283 335
281 335
289 331
282 334
278 338
273 343
275 339
273 342
274 345
260 349
267 347
268 349
262 354
259 359
249 371
254 368
248 371
251 370
255 364
266 363
278 351
272 359
273 353
273 356
282 348
280 347
282 342
287 333
290 326
297 319
296 325
283 335
274 340
273 341
286 338
284 338
280 344
278 339
284 337
284 332
301 324
303 325
311 322
313 323
300 331
292 331
289 330
294 325
296 329
293 332
285 341
279 340
276 339
273 337
265 347
273 338
271 342
259 351
261 346
259 356
250 368
251 368
243 373
245 376
247 374
234 381
230 381
249 372
246 376
252 368
247 368
260 364
257 369
249 376
254 373
246 374
245 379
247 376
232 382
222 388
232 386
221 396
229 396
231 397
225 396
229 399
237 383
231 388
243 379
240 385
250 378
239 380
237 381
225 386
230 387
225 394
232 392
229 396
228 395
234 395
241 391
238 387
233 389
234 386
244 384
235 385
235 381
249 376
251 375
252 381
252 379
255 377
258 373
255 371
251 376
258 373
257 373
259 372
264 371
260 369
249 377
249 381
251 375
247 373
257 366
257 371
248 375
259 368
258 372
260 364
261 364
258 362
260 364
255 363
247 370
245 373
250 367
261 361
258 361
253 367
254 366
253 373
259 379
236 392
229 401
240 393
247 392
232 394
238 388
230 393
229 392
226 395
226 394
233 391
225 390
222 389
230 388
240 385
243 384
244 387
239 388
228 387
248 379
239 376
237 377
241 378
241 375
239 377
249 375
248 376
255 371
249 373
256 366
258 369
260 368
249 371
253 372
251 370
257 362
261 369
256 366
268 361
272 350
270 355
277 355
282 352
264 352
274 341
277 342
271 355
277 356
272 356
266 362
267 359
269 360
266 364
264 368
261 367
263 360
252 362
255 360
263 356
263 355
262 358
261 357
259 357
261 354
261 357
267 349
281 343
283 336
280 334
287 336
277 340
273 351
270 353
262 358
264 360
257 367
261 361
271 358
267 358
272 347
278 352
272 356
269 357
262 361
256 361
259 364
259 365
252 370
256 367
266 364
265 366
254 369
256 361
247 363
242 368
265 360
264 357
264 355
261 357
265 359
262 360
259 365
259 361
254 365
251 370
254 367
250 368
260 361
266 361
267 355
272 356
264 359
254 370
249 375
262 365
256 366
265 362
274 356
275 363
280 357
278 354
285 346
299 335
287 339
296 330
303 321
308 313
308 314
299 317
301 319
305 319
296 322
296 326
299 325
291 327
296 327
297 331
287 335
276 340
291 335
300 328
293 327
305 322
306 317
300 315
300 326
283 333
285 337
287 334
288 339
289 342
286 345
288 338
278 346
281 338
280 343
278 346
268 353
272 353
275 351
272 355
277 352
279 352
269 356
267 358
267 358
261 357
264 356
262 355
259 355
266 354
263 354
261 357
268 353
270 346
267 350
275 345
273 346
273 342
280 338
287 337
297 333
296 338
283 343
284 347
287 337
285 343
283 345
272 355
276 352
280 346
276 352
278 346
284 340
272 344
273 351
267 356
266 353
266 352
269 355
258 357
254 362
256 354
259 353
262 352
252 358
263 357
264 356
271 358
253 364
266 354
264 352
275 345
279 344
286 343
290 343
293 337
291 337
294 338
296 336
296 343
292 352
289 346
281 353
280 354
284 352
290 345
282 348
280 352
279 349
269 350
271 343
279 344
287 339
283 339
282 340
280 341
276 346
276 348
268 347
277 349
266 355
262 358
270 358
271 356
271 353
272 354
273 355
274 355
280 348
273 352
273 347
262 351
270 343
272 349
275 347
279 349
279 347
274 344
283 335
290 337
292 337
290 338
295 337
290 341
285 339
276 344
288 336
285 336
292 332
276 337
275 342
284 342
282 344
284 346
265 352
266 353
262 353
272 347
269 350
271 349
269 347
284 339
282 342
278 346
263 360
260 362
273 355
277 353
276 358
274 360
281 352
275 356
275 355
285 349
284 341
294 329
295 321
287 326
292 319
303 314
300 318
303 314
302 312
301 312
304 317
307 314
305 310
307 315
300 325
308 317
309 311
295 317
293 324
299 324
302 321
305 320
299 324
297 323
302 321
305 317
300 322
297 323
303 326
284 334
299 328
298 328
295 331
296 329
292 329
292 330
291 336
286 335
297 329
281 337
288 341
290 336
292 336
285 334
288 336
285 331
288 325
291 325
290 324
292 326
304 317
305 317
304 323
316 317
302 323
299 325
299 321
308 317
322 308
318 306
306 309
321 303
307 309
312 304
314 302
316 298
322 302
312 300
313 302
309 305
317 302
303 310
299 310
310 313
299 316
304 319
292 325
283 330
279 331
286 333
280 338
282 341
281 332
283 332
289 330
290 328
282 331
276 334
290 329
292 330
285 332
274 345
270 347
275 340
270 345
273 341
273 350
269 348
257 354
256 351
261 352
263 351
262 349
263 347
275 345
268 345
268 344
262 346
267 351
265 352
272 350
270 351
262 353
259 361
262 355
265 357
256 361
265 359
256 364
265 360
270 359
270 356
280 348
265 361
273 357
269 356
269 354
268 353
266 357
272 359
268 359
266 360
274 360
272 360
271 363
276 356
278 351
271 351
275 349
266 357
268 353
264 358
269 352
273 354
271 357
265 357
256 360
272 350
280 345
280 345
274 346
263 355
270 352
269 352
270 353
265 359
268 362
264 362
257 371
247 372
236 373
243 371
238 370
245 369
249 373
248 374
238 374
236 382
227 382
237 375
238 377
253 366
245 366
245 368
241 372
248 373
243 376
236 380
244 382
241 381
242 387
246 384
246 381
237 383
230 384
236 384
240 380
238 380
244 378
241 378
238 378
238 377
233 383
243 380
247 385
253 381
245 379
251 381
255 377
262 369
265 366
269 366
257 373
263 366
262 365
270 358
282 351
284 351
265 353
264 355
261 354
265 352
260 358
266 357
266 356
253 362
251 364
265 365
260 370
257 373
261 376
255 377
252 376
237 382
248 379
247 384
248 386
249 380
251 381
240 380
255 377
241 384
234 389
236 391
242 381
240 389
241 384
234 384
237 383
239 385
228 386
234 383
237 385
232 388
230 387
240 381
242 383
246 378
251 378
254 377
258 370
249 376
244 376
244 371
251 365
246 367
247 366
249 370
260 369
261 363
258 371
253 376
243 377
243 381
241 388
240 382
245 381
239 386
248 382
245 378
255 370
262 366
255 364
258 362
274 357
272 356
272 356
264 362
248 364
249 365
253 363
252 371
255 364
270 352
264 359
253 360
247 358
246 362
250 369
239 377
242 379
236 386
256 378
250 372
246 372
266 365
261 359
263 361
250 367
255 358
263 360
259 368
251 372
262 366
259 365
271 361
266 363
272 361
274 356
272 352
262 356
272 350
279 355
268 362
268 363
266 361
280 354
282 347
289 348
289 342
294 332
282 337
292 330
273 334
290 323
288 324
298 318
293 323
296 320
300 319
284 329
281 337
288 335
277 338
280 337
288 328
287 328
285 328
281 338
263 343
270 348
278 349
286 341
279 345
275 346
283 346
276 342
272 341
275 336
280 336
286 334
276 333
276 339
276 344
266 347
279 345
285 333
288 335
287 338
284 346
274 346
270 354
275 350
272 354
263 364
265 364
253 370
252 369
257 369
252 374
254 368
257 372
247 374
250 377
253 375
250 376
247 377
258 371
255 364
260 364
265 363
254 364
257 367
250 367
249 370
253 370
251 370
250 372
241 379
242 372
253 369
256 375
252 378
257 373
247 382
243 383
245 380
253 374
252 372
251 370
250 375
253 372
257 369
252 364
255 362
247 364
251 365
252 366
260 360
263 362
251 374
237 382
243 373
240 377
245 374
251 374
242 374
241 379
248 373
253 369
245 370
245 371
252 374
248 376
247 382
234 387
236 388
236 389
230 393
230 393
236 389
241 391
258 379
243 385
249 376
255 373
255 373
258 371
254 371
254 372
268 371
264 368
261 367
259 372
249 373
246 378
249 378
248 379
245 378
251 374
258 368
243 372
249 372
246 370
262 356
273 348
256 353
268 351
259 352
253 360
259 362
260 364
255 366
250 369
244 373
236 377
251 373
241 378
243 380
230 386
223 390
230 396
227 394
231 391
229 388
235 382
235 384
239 385
244 386
247 384
246 386
240 382
237 392
253 380
241 388
240 384
237 383
237 377
243 376
254 372
238 376
253 373
247 375
260 363
260 361
263 356
267 351
275 352
268 352
282 345
272 346
266 355
266 352
276 350
278 348
287 346
292 338
284 338
285 334
280 337
268 341
277 343
283 341
283 335
270 342
265 348
278 347
279 337
278 343
276 340
281 335
272 348
274 348
277 349
276 349
281 352
271 351
271 351
274 349
278 352
275 354
266 351
260 358
261 358
256 363
258 359
265 357
267 351
260 354
263 355
261 356
251 362
257 368
256 372
250 380
240 384
242 386
253 376
258 368
261 358
267 355
272 349
274 345
277 347
280 345
268 351
273 350
268 355
265 357
258 364
263 358
254 366
259 366
262 362
256 363
255 361
259 353
253 362
257 360
258 358
256 363
246 371
243 377
245 372
246 373
250 375
246 378
244 379
243 374
251 376
247 375
247 379
242 380
238 376
237 377
245 378
237 385
234 387
221 387
224 386
228 386
238 386
236 388
218 387
229 392
228 390
229 387
239 384
243 383
239 378
239 377
235 377
236 382
233 390
243 384
237 382
257 367
256 365
265 366
246 371
258 367
249 371
251 371
246 368
253 365
255 364
254 358
250 358
262 359
260 355
255 354
264 353
268 354
261 358
249 362
260 362
252 366
259 360
251 367
254 361
261 360
253 366
254 374
253 374
250 372
246 377
254 373
248 374
255 375
248 377
240 377
256 368
248 374
248 385
241 387
244 378
246 382
250 380
231 389
229 395
241 390
230 394
244 385
247 382
250 383
243 381
225 387
227 393
233 391
235 396
230 399
232 400
226 399
217 402
220 404
219 403
217 410
208 412
218 410
223 402
226 398
231 400
232 399
217 406
217 409
226 402
220 406
233 396
225 393
227 398
216 406
217 404
225 399
223 403
216 404
232 395
224 392
234 392
240 385
234 390
245 384
257 372
267 360
278 358
275 356
278 350
282 346
284 346
289 343
283 345
288 340
283 342
289 336
286 339
286 339
277 338
293 335
273 343
271 354
271 358
271 356
277 357
271 361
272 361
271 365
262 367
270 356
267 355
260 359
258 359
267 354
265 352
261 356
273 353
265 355
263 357
260 364
269 361
275 354
277 348
274 347
277 341
269 346
247 351
256 351
269 346
272 352
272 352
254 362
248 364
251 366
259 354
264 359
263 359
270 363
259 367
263 369
260 365
256 369
248 375
263 369
260 361
271 360
268 362
272 353
271 346
282 347
267 352
267 352
270 352
269 352
282 346
275 347
284 344
292 341
280 346
281 350
283 344
277 348
277 352
269 353
269 354
274 347
264 354
256 358
263 355
275 351
270 353
267 345
268 349
263 352
274 348
264 354
258 358
262 362
241 370
256 372
238 384
232 387
229 390
225 393
227 396
229 402
216 409
210 415
207 416
206 425
211 419
212 424
213 423
217 411
224 406
228 403
223 403
229 395
226 399
237 396
238 386
245 381
245 384
234 385
241 380
237 375
243 374
238 377
232 382
243 376
240 376
239 372
236 377
242 379
244 378
245 379
246 382
246 382
245 376
239 382
239 381
246 382
241 377
248 376
256 369
243 373
241 379
254 373
259 373
254 374
255 367
250 361
251 364
250 367
257 358
262 347
251 355
260 357
262 356
262 359
260 358
252 364
246 370
232 375
241 380
231 389
232 387
238 390
235 393
241 388
244 389
243 390
234 393
229 393
238 386
226 393
228 394
225 396
220 397
230 396
236 390
230 397
227 399
229 397
217 403
230 396
227 399
230 400
237 394
229 395
229 393
226 397
236 387
249 376
248 374
247 376
245 381
251 379
240 382
236 390
237 387
244 381
251 374
255 375
259 374
262 367
261 365
254 369
256 369
252 372
253 370
243 377
247 373
254 373
265 372
261 363
261 366
267 362
260 367
253 370
263 363
248 370
241 377
242 376
250 372
257 364
251 367
257 367
251 365
262 365
260 368
254 367
249 366
255 361
265 356
263 359
261 361
252 364
261 359
266 354
265 356
258 366
256 364
259 364
254 374
255 372
243 375
249 372
243 379
251 381
243 383
236 384
244 379
236 378
243 374
249 373
248 375
249 376
239 380
238 383
235 385
238 388
237 386
231 392
234 388
240 383
240 386
239 388
246 377
239 380
238 379
249 371
247 373
242 375
261 370
247 376
247 379
246 380
242 379
253 372
264 363
267 360
261 365
271 358
264 356
263 355
266 351
273 348
260 351
266 352
260 359
266 358
266 354
260 358
260 364
251 369
245 373
246 369
257 361
256 362
267 363
259 366
257 371
253 365
253 368
265 368
252 376
251 378
249 378
246 379
247 377
259 367
255 365
260 354
266 350
272 359
273 357
261 359
255 362
248 371
254 374
250 373
248 369
243 374
254 366
261 365
254 369
250 370
256 372
262 365
274 361
267 356
258 364
248 369
251 365
249 367
258 365
256 374
255 375
256 376
249 375
241 378
257 373
254 378
250 375
247 376
246 372
256 370
247 375
248 372
255 372
257 369
244 374
245 369
245 368
259 365
264 359
268 360
272 358
282 347
277 340
269 346
270 349
272 355
277 348
280 346
286 343
292 342
289 344
277 348
283 352
268 357
265 356
275 352
278 349
274 351
267 354
272 353
276 349
270 352
269 352
270 352
265 357
263 357
265 355
257 355
262 365
258 371
245 381
235 384
242 386
252 377
239 382
244 377
241 382
245 379
243 385
245 383
246 383
244 384
237 387
247 381
245 383
255 377
253 375
255 374
257 374
266 369
273 363
272 365
265 368
260 370
257 374
258 369
272 359
276 356
274 353
283 351
276 347
300 328
298 327
293 331
294 334
296 331
295 333
295 335
287 332
291 330
283 327
294 328
285 326
287 325
308 314
307 316
307 315
314 303
319 296
312 307
305 307
319 303
315 300
321 297
310 302
308 308
299 315
310 310
308 314
304 316
302 314
297 325
300 322
293 325
295 325
299 321
297 322
298 324
294 330
288 337
282 337
274 340
278 339
283 335
280 336
278 335
280 330
288 330
280 336
267 344
274 344
262 350
274 342
262 349
272 344
266 342
270 346
246 350
258 350
256 351
265 350
261 354
269 353
264 356
263 357
250 367
251 365
254 372
248 370
243 374
254 375
245 377
245 370
265 360
249 363
256 365
253 362
245 368
253 369
251 370
263 364
259 366
260 367
263 363
262 369
260 363
259 364
254 366
262 368
263 366
259 364
261 365
259 368
244 373
248 369
258 364
257 365
268 357
261 361
259 364
260 358
262 359
259 361
267 357
262 359
255 366
260 364
264 369
264 362
264 366
263 365
252 371
246 379
246 382
251 378
246 379
244 379
245 381
234 384
238 383
237 382
250 375
253 381
251 383
248 382
255 375
254 371
262 367
262 369
268 368
257 369
260 369
257 363
259 359
257 356
251 364
256 361
240 376
230 382
244 384
233 383
237 384
240 380
247 378
244 375
250 372
249 370
242 375
248 372
250 373
256 372
252 368
252 367
244 367
257 372
251 370
253 375
245 381
251 376
254 374
249 378
248 382
246 385
234 384
242 385
239 387
224 395
225 393
230 398
225 398
227 396
228 396
225 398
222 406
235 403
229 402
226 402
224 399
234 397
227 398
237 395
243 392
236 388
236 384
239 380
242 387
241 388
247 383
246 384
235 391
236 388
230 396
230 395
230 403
232 397
236 395
233 397
224 398
232 400
224 394
218 399
228 392
231 385
244 382
245 377
256 369
253 372
258 367
259 359
251 361
256 365
247 365
252 364
247 371
260 366
258 366
253 370
251 373
258 361
260 360
258 362
257 363
262 363
261 358
257 364
254 368
244 371
248 369
246 372
245 378
233 384
225 394
239 392
231 397
236 387
236 391
222 399
212 407
223 398
228 391
236 386
237 390
241 386
239 388
237 391
221 399
227 399
233 390
233 389
238 387
241 387
230 390
227 390
217 398
237 387
239 387
232 396
228 403
237 394
236 393
243 387
244 387
247 383
232 384
228 388
240 381
237 380
238 381
235 379
236 383
239 384
242 382
232 388
240 387
243 381
250 376
244 383
246 379
246 378
244 376
232 381
229 389
236 387
230 394
228 394
234 392
229 391
238 383
237 388
240 387
232 392
243 386
238 389
242 395
234 393
238 397
227 395
226 391
212 392
227 394
212 401
223 400
207 403
216 402
217 402
221 397
228 397
222 400
226 393
237 386
233 390
231 390
233 389
216 398
237 391
232 389
236 389
242 384
244 385
242 384
236 387
234 390
238 390
241 392
234 395
232 393
236 391
233 391
233 391
245 383
250 375
253 367
256 366
261 362
259 365
261 368
258 366
268 358
262 359
262 361
256 366
267 359
268 358
262 363
262 368
253 374
257 380
235 387
233 390
233 385
233 389
230 390
221 390
233 387
232 389
233 391
235 389
228 393
227 390
236 389
219 393
233 385
217 387
224 389
218 397
223 392
217 394
227 389
232 390
233 388
240 382
231 394
229 397
221 406
233 399
234 393
231 397
233 394
243 392
254 380
244 380
244 381
236 383
237 383
249 382
237 381
232 390
234 394
230 386
241 385
229 382
239 382
236 386
234 388
241 384
227 387
223 384
232 385
225 386
239 389
238 387
228 388
225 391
228 391
220 399
216 407
220 409
220 404
207 411
220 400
226 405
222 409
228 405
230 404
240 394
242 390
241 387
241 390
225 397
222 401
219 404
220 399
232 392
231 389
235 388
246 375
259 367
256 365
252 366
256 366
256 362
249 368
249 362
259 358
251 364
266 355
255 359
261 356
274 344
277 341
276 334
279 337
277 339
279 341
260 349
254 357
264 357
260 358
263 359
250 367
261 363
263 362
261 358
268 356
267 357
264 362
264 359
261 360
267 358
277 354
267 357
260 359
270 356
260 356
265 360
266 360
256 363
258 364
253 365
257 359
264 355
264 358
258 356
262 356
262 354
264 355
265 353
279 342
268 351
264 357
267 361
263 367
250 363
247 368
242 379
252 376
257 377
270 365
263 370
274 367
265 366
269 360
261 361
265 356
269 353
274 350
275 347
276 350
272 349
271 353
271 354
279 351
284 349
284 343
287 340
282 336
284 339
278 344
279 345
276 354
268 357
259 360
255 358
266 351
269 348
262 344
260 351
255 356
263 356
268 353
269 354
261 355
257 357
253 359
254 364
248 370
250 369
254 371
244 384
255 371
261 372
257 368
257 365
254 378
256 377
257 380
250 378
248 383
251 378
247 377
259 369
256 367
254 365
258 365
262 356
269 362
270 360
261 361
264 360
256 362
260 356
262 355
252 361
260 361
257 370
252 374
262 370
247 378
259 371
255 366
264 361
271 359
264 363
273 353
264 363
259 367
265 366
259 373
254 374
267 364
264 366
266 360
268 359
262 366
265 365
264 364
261 360
258 363
257 362
258 365
256 365
252 362
252 359
263 359
262 356
259 357
259 360
255 356
262 354
255 361
257 357
251 366
252 370
245 370
243 376
249 372
253 374
253 373
261 364
269 364
261 367
259 366
263 367
252 372
255 372
244 379
247 378
230 387
234 383
241 384
228 386
234 385
238 376
236 380
239 385
240 387
243 392
234 394
238 395
239 390
239 387
238 385
240 387
237 387
234 392
225 391
232 387
241 380
239 377
235 383
232 384
239 380
244 381
241 381
239 382
236 385
248 376
247 373
246 374
234 381
235 385
228 385
241 382
240 386
241 383
245 380
259 373
258 370
255 366
249 369
251 369
255 369
241 379
229 388
237 389
232 394
224 391
233 382
229 385
234 381
237 382
237 383
240 380
243 378
237 376
236 375
246 372
240 381
236 380
239 375
245 376
237 385
241 384
244 381
239 383
235 374
245 372
244 369
260 361
251 366
258 363
258 363
270 360
274 358
262 362
262 362
268 358
269 357
261 366
274 358
270 367
275 360
277 353
282 348
293 337
288 334
298 326
302 325
292 325
287 333
269 345
265 349
256 359
269 355
272 355
258 363
257 360
257 364
263 361
250 365
256 369
257 361
259 359
257 364
270 358
266 355
252 367
259 365
260 366
249 371
254 368
262 363
269 360
272 357
269 358
278 353
276 353
265 359
264 357
254 361
264 359
259 367
252 367
264 363
264 363
260 367
258 364
246 373
249 371
258 369
260 369
279 359
276 357
279 357
267 366
278 355
272 357
277 356
269 357
271 354
269 360
269 359
265 361
267 359
266 354
287 345
281 343
291 345
293 344
282 347
275 347
277 345
272 347
282 344
273 351
283 345
283 340
281 335
285 334
296 338
277 345
281 344
281 344
272 347
271 352
271 352
269 358
268 359
263 358
271 356
278 351
262 356
273 352
278 350
279 344
277 340
287 334
282 335
277 336
279 343
268 346
269 350
268 350
260 357
268 345
271 347
270 354
271 354
271 350
273 347
277 343
275 344
289 337
283 337
283 336
282 332
289 334
286 333
287 334
289 331
289 334
288 332
275 338
276 338
279 342
270 348
270 351
259 354
273 351
265 353
267 349
272 348
271 354
262 357
264 359
267 356
261 366
256 370
255 365
270 352
269 357
271 360
265 362
265 354
271 349
256 353
265 354
262 353
264 355
260 357
265 357
259 361
264 362
270 357
272 350
274 355
270 357
271 358
274 358
267 360
265 360
270 356
261 354
272 349
270 350
272 345
271 349
266 344
258 347
264 350
257 353
264 352
263 354
263 353
273 346
279 348
277 351
278 348
274 351
284 348
282 347
284 345
276 344
273 348
283 346
269 353
270 353
275 350
267 358
268 360
256 366
266 359
272 350
275 344
282 345
280 342
273 344
271 348
271 341
264 350
256 361
254 360
240 366
255 361
256 359
259 360
257 355
247 367
240 373
247 371
244 369
252 367
255 364
254 363
255 361
253 361
252 366
258 364
273 357
274 351
275 353
272 353
274 352
259 360
256 368
259 370
257 373
256 374
256 374
258 362
255 365
257 366
266 359
262 361
269 363
270 362
263 368
268 364
256 364
268 364
261 361
261 363
260 361
264 355
268 352
267 352
273 343
286 337
285 331
288 328
296 328
295 328
287 333
281 339
287 336
284 335
285 333
277 337
274 337
284 331
285 331
281 331
293 325
295 322
299 327
289 334
285 332
279 339
275 345
282 341
275 347
268 350
278 341
271 342
279 347
271 350
275 346
283 344
279 343
278 340
279 337
263 346
260 352
263 347
260 358
267 352
272 347
272 353
267 354
261 358
260 362
253 364
253 369
254 373
256 373
249 376
245 377
248 379
253 373
250 370
245 370
255 368
251 377
240 381
227 390
230 393
226 398
221 405
220 404
225 400
229 393
225 392
227 398
230 400
231 394
236 393
234 394
241 392
244 393
236 395
241 395
228 394
230 394
230 393
239 388
237 388
238 385
238 384
245 379
253 377
244 379
246 377
237 375
244 377
245 377
240 381
244 384
243 382
254 375
245 376
246 373
242 372
252 362
253 361
252 364
247 366
244 369
244 372
248 367
247 367
248 369
244 370
248 368
246 369
250 369
240 374
251 364
251 365
245 368
244 374
248 371
245 372
254 364
260 362
251 369
250 372
255 367
258 361
249 365
254 372
247 372
243 372
239 378
249 372
239 378
229 385
233 386
237 391
233 398
221 398
230 396
217 403
225 396
224 395
221 397
220 394
229 391
236 390
233 389
233 391
233 392
237 391
236 386
242 384
244 381
254 380
237 385
246 381
247 387
248 383
250 378
257 372
264 366
263 361
266 361
261 363
259 367
255 366
262 358
269 357
266 359
262 364
267 362
265 362
271 358
274 358
269 356
275 350
280 344
286 343
288 341
284 340
291 335
290 334
292 328
292 334
293 335
289 336
286 337
281 344
280 342
283 338
284 336
276 339
284 329
279 334
272 338
285 338
264 348
265 349
259 354
256 354
254 360
265 355
261 362
253 364
251 370
255 373
256 372
261 370
260 366
261 364
254 365
258 366
251 364
263 357
255 364
250 368
246 372
245 370
258 365
268 361
259 362
253 366
253 367
246 371
248 373
254 366
256 373
248 374
252 375
247 377
244 379
239 383
246 377
236 379
245 378
257 371
256 365
263 362
267 361
262 359
270 360
266 361
273 360
272 359
280 349
280 349
266 354
272 352
279 353
279 352
269 354
271 354
258 362
261 367
263 364
268 361
253 359
259 358
256 364
264 361
256 364
267 357
265 362
255 357
261 355
260 354
268 357
269 353
259 354
266 352
265 352
275 350
262 358
264 357
265 356
269 360
264 367
265 367
272 361
271 361
270 355
278 350
284 350
275 351
267 353
266 355
271 348
274 346
271 349
267 346
261 351
256 357
256 360
258 357
258 359
248 362
246 367
243 369
239 376
250 373
245 376
244 376
251 369
262 362
270 351
266 357
262 356
255 359
260 356
254 358
253 358
255 359
257 353
257 362
261 361
262 361
274 352
266 354
272 353
262 359
266 357
274 354
281 356
275 352
280 345
274 350
270 351
279 349
270 349
271 349
270 346
269 347
269 352
267 353
267 354
264 357
269 343
260 342
271 345
265 352
253 352
255 354
254 361
250 366
247 369
238 376
240 377
251 365
246 368
252 366
241 372
249 365
242 373
241 374
237 376
243 377
238 380
247 377
242 383
237 385
247 381
235 383
239 386
237 389
234 394
226 401
219 401
226 399
239 384
234 387
239 383
234 385
243 380
246 376
247 381
243 384
243 380
239 383
242 389
246 381
253 376
267 363
271 361
271 364
263 363
264 361
247 368
256 367
257 368
255 368
261 360
269 354
274 352
292 336
273 344
279 346
287 346
283 346
276 352
288 345
292 339
285 347
279 348
278 348
291 338
284 338
288 340
281 338
289 330
278 336
286 329
281 332
279 337
273 339
274 344
276 336
280 339
273 346
295 334
286 341
279 340
288 339
276 346
271 350
259 347
269 341
272 347
261 352
260 355
267 356
260 353
266 349
271 343
265 342
274 348
260 358
256 362
270 354
269 355
274 350
270 349
278 349
282 344
287 334
271 339
269 345
276 340
281 339
281 342
268 349
268 354
264 359
260 363
251 366
252 361
244 363
249 362
248 370
233 378
243 371
243 376
236 380
237 382
234 389
229 395
238 392
239 391
233 388
240 384
256 381
261 378
256 377
251 377
254 374
260 368
265 368
254 370
249 368
259 368
258 372
269 362
252 366
258 368
248 377
256 372
258 378
240 387
248 384
234 390
240 385
243 382
245 385
243 385
245 383
238 380
251 373
246 377
248 378
234 385
235 389
224 393
221 403
225 400
226 397
231 394
235 390
237 386
237 389
231 388
243 376
243 377
247 376
250 374
243 377
238 382
242 384
247 376
239 378
237 380
237 382
240 384
230 385
236 380
228 381
222 382
230 384
228 390
226 387
231 381
237 376
243 375
237 377
245 376
241 376
225 375
225 376
234 377
241 373
242 376
246 374
237 382
238 378
240 385
249 377
248 380
246 381
255 380
255 377
246 379
250 370
235 377
244 378
243 371
254 370
250 371
250 373
238 377
228 388
234 391
226 395
238 399
232 399
218 404
223 406
223 407
220 400
230 398
230 396
233 393
232 391
232 392
233 391
239 389
232 385
250 373
238 380
244 381
242 384
239 386
250 379
247 377
248 376
244 380
253 373
264 361
258 363
258 360
262 360
258 365
277 357
276 351
265 353
260 360
255 356
261 355
269 351
258 359
252 355
245 363
256 362
258 360
264 358
268 357
262 359
262 359
262 354
262 360
254 364
258 361
256 363
249 366
248 368
257 364
271 350
273 347
268 345
274 346
279 346
267 352
257 360
257 359
254 364
253 364
254 369
269 364
264 361
258 359
265 361
259 362
251 365
252 368
240 373
241 373
237 371
234 377
247 371
243 378
231 380
236 381
243 385
240 389
233 394
235 394
233 394
244 388
253 383
240 386
238 389
241 389
242 388
237 387
240 387
251 379
239 387
231 395
239 393
235 389
243 384
243 381
243 381
246 377
252 373
256 369
261 368
264 361
265 361
258 360
250 360
258 360
253 359
252 361
255 364
245 367
244 373
244 373
248 373
253 371
260 364
257 360
249 363
256 358
264 357
266 359
250 369
253 367
267 358
274 353
267 358
266 361
269 361
261 371
258 373
252 371
254 372
251 375
252 380
247 380
245 378
241 380
246 385
242 385
231 388
235 386
245 379
244 376
250 373
238 378
246 378
241 378
240 374
250 373
251 373
246 371
252 371
255 369
263 364
263 364
250 373
252 370
264 360
261 364
262 369
260 372
263 366
268 358
274 357
275 354
277 346
283 342
279 339
270 348
284 341
274 349
271 347
275 343
275 350
272 347
265 351
265 353
266 361
257 366
253 373
257 375
262 370
253 367
246 368
243 373
244 380
237 378
242 374
238 371
243 372
236 377
245 383
250 378
249 384
243 387
262 378
262 376
255 376
248 380
258 373
257 369
267 365
265 367
263 366
266 363
266 362
280 354
279 346
277 350
280 345
274 345
271 353
279 346
279 347
279 350
266 355
259 358
263 363
261 367
268 364
268 362
272 356
279 348
281 346
276 347
283 337
279 336
287 336
282 347
284 347
270 353
269 354
264 360
257 368
264 364
269 360
264 355
280 349
269 349
272 348
282 348
273 352
264 357
280 346
279 346
277 345
285 344
277 349
274 354
271 356
273 352
270 349
263 357
270 351
275 351
263 358
275 346
274 343
275 342
285 338
281 335
290 328
289 329
297 329
300 330
298 322
302 323
299 318
306 318
298 319
293 321
299 316
301 317
284 322
289 327
289 331
293 328
279 327
282 328
287 326
288 328
282 330
287 328
297 325
303 321
301 319
300 325
296 328
289 339
287 340
284 345
280 343
279 344
279 339
274 342
274 341
278 344
279 345
286 339
272 345
275 345
287 339
287 338
282 335
287 335
285 337
284 338
292 336
285 338
278 345
280 343
273 345
280 343
269 347
271 350
270 355
276 356
280 354
271 358
271 352
264 353
255 356
245 360
263 363
263 354
266 353
271 355
262 361
257 364
268 363
264 364
269 361
265 360
256 360
261 363
266 366
259 366
254 369
269 359
266 358
271 355
275 349
271 351
265 355
274 352
275 348
279 347
277 350
277 348
288 348
284 352
285 352
283 353
291 345
295 336
292 336
291 333
301 329
289 335
300 320
299 322
293 324
293 321
298 318
285 317
308 310
311 303
305 306
302 305
309 309
312 304
306 303
309 303
308 302
306 307
305 312
301 315
299 316
296 319
302 315
309 310
295 318
300 317
300 310
308 307
313 311
302 314
298 319
299 317
304 314
303 313
310 314
306 319
298 321
299 326
295 327
295 319
281 327
293 322
286 325
288 326
295 322
285 331
282 330
286 328
285 329
289 326
284 330
291 333
267 342
267 347
278 348
276 343
281 348
279 350
290 342
282 344
287 337
296 334
298 333
288 336
293 332
290 337
287 334
307 326
298 322
305 319
314 313
304 326
304 328
299 329
299 329
295 325
295 332
299 327
286 329
297 322
280 326
294 325
295 332
290 332
282 332
295 326
299 326
302 322
299 325
294 327
291 323
297 325
308 316
296 320
296 318
295 320
295 322
297 322
293 320
293 324
298 330
289 329
292 329
280 331
284 328
281 331
289 322
283 324
282 330
280 332
290 329
290 327
306 318
300 323
297 323
294 326
293 331
294 327
299 322
292 327
296 322
294 322
294 325
298 322
297 323
306 324
304 325
300 327
299 322
295 322
296 322
292 328
292 328
284 335
279 338
290 337
282 340
278 344
282 351
272 355
262 361
246 365
261 360
268 361
264 364
248 372
251 378
252 375
254 375
262 365
259 367
265 361
274 358
280 356
272 357
281 353
278 352
279 350
274 355
283 350
277 351
277 347
269 349
270 353
264 353
270 352
275 353
274 351
278 346
281 349
280 344
287 343
283 348
285 344
269 351
273 351
267 353
275 350
273 349
271 349
270 353
270 349
269 354
276 354
274 351
267 354
265 362
258 364
271 358
278 347
263 349
275 346
266 354
272 353
265 358
268 353
259 359
259 362
255 369
257 364
273 354
268 350
270 350
258 357
269 355
267 351
259 354
264 359
274 347
279 346
284 342
280 346
286 339
277 343
284 336
280 336
278 339
284 341
287 343
281 349
268 356
269 356
278 355
265 360
268 361
271 356
268 361
272 357
268 364
261 366
262 365
264 359
273 357
272 353
266 359
270 352
270 350
273 347
276 342
273 343
280 338
272 341
287 338
283 340
297 328
297 330
291 325
307 313
308 313
311 313
310 322
296 323
295 321
294 321
307 316
305 316
313 313
315 314
299 318
311 311
306 319
302 324
292 330
297 324
286 326
301 319
308 319
298 327
306 326
300 322
298 325
303 325
300 327
306 319
309 316
310 316
312 313
310 316
310 311
315 313
300 316
291 322
297 318
310 310
302 319
317 310
317 305
317 308
308 312
314 312
318 309
319 305
317 309
308 315
312 313
303 320
292 328
299 324
295 324
303 321
295 323
301 323
297 324
307 318
309 318
291 331
296 323
302 324
310 319
312 312
301 319
300 324
310 320
300 319
308 313
308 316
302 317
296 325
295 324
307 322
304 325
302 322
315 317
308 317
311 311
310 309
311 311
303 315
305 319
294 319
300 318
301 318
296 322
284 328
288 336
281 338
284 337
273 339
271 339
273 339
275 342
278 335
278 338
279 335
286 335
289 329
281 333
279 334
273 340
276 344
279 342
286 335
289 332
289 325
287 328
286 329
282 330
285 327
278 329
287 328
287 328
287 329
294 329
300 330
303 327
293 328
297 331
306 325
294 330
281 335
294 325
306 313
312 307
311 312
315 313
307 311
316 308
318 307
316 313
303 314
303 321
296 321
283 327
289 326
291 333
297 331
292 335
271 341
276 345
275 341
283 338
275 344
275 344
290 337
283 344
286 343
276 349
271 350
267 348
260 349
264 348
263 351
265 354
262 354
268 349
270 346
260 354
255 358
253 362
259 361
256 365
265 358
259 357
270 352
265 357
263 362
261 364
256 364
255 362
262 356
257 356
273 355
260 362
263 362
259 363
253 366
258 367
249 365
254 369
247 374
242 379
242 381
250 378
251 377
245 383
241 385
242 381
255 373
264 365
252 369
252 375
254 365
267 356
276 348
276 346
260 354
277 339
276 343
281 341
277 345
274 349
269 349
272 345
269 343
258 351
270 348
269 351
265 358
260 364
263 363
264 365
257 368
264 370
250 372
260 367
250 371
258 363
248 367
254 361
250 364
259 360
264 358
259 360
262 362
269 354
270 353
266 361
265 361
260 366
252 368
262 364
277 357
268 357
271 355
272 355
278 351
275 348
274 349
278 350
275 343
274 344
279 344
285 342
277 345
266 351
262 354
251 356
255 355
248 357
258 356
252 359
261 356
245 360
269 354
264 352
262 351
264 353
255 357
265 347
259 347
264 349
254 362
261 360
256 358
258 360
254 365
253 367
259 372
254 379
247 383
252 381
232 393
235 393
232 400
230 399
232 403
228 405
232 405
248 391
236 392
247 393
246 390
240 386
251 377
234 390
242 382
241 384
247 373
251 372
261 367
262 368
259 366
261 364
262 361
259 365
258 366
264 362
264 360
274 352
266 363
268 357
282 353
275 356
264 362
252 364
250 365
259 362
258 364
253 371
255 373
254 371
263 365
265 358
258 364
257 366
274 362
262 362
268 354
259 365
262 360
260 364
254 370
261 360
257 364
266 358
265 354
264 352
282 351
268 356
260 357
256 369
256 361
261 356
261 346
251 353
241 359
246 358
249 356
250 359
251 360
249 363
259 365
256 375
269 363
261 364
267 358
270 354
264 353
277 352
279 343
282 340
258 350
260 346
276 342
264 348
268 354
263 358
248 363
250 367
255 363
255 358
250 358
260 355
257 361
256 355
262 355
245 357
265 346
269 341
275 343
269 349
253 356
257 356
259 357
261 358
264 352
261 350
249 356
259 359
262 356
270 351
280 344
274 346
267 352
268 353
270 357
254 364
261 365
248 372
249 376
251 370
239 377
256 366
259 364
251 369
248 370
251 371
250 362
252 360
250 365
247 370
247 371
242 381
249 380
244 378
252 374
229 384
226 385
227 377
232 371
247 368
252 368
250 367
256 362
251 366
253 372
261 365
264 368
250 374
253 375
259 374
250 370
248 374
255 373
247 374
246 375
236 381
245 381
253 376
248 379
247 375
236 382
241 377
239 381
247 378
248 378
247 379
248 375
247 374
238 380
235 380
237 386
238 387
231 388
234 388
234 390
227 394
222 398
234 396
233 386
229 394
234 387
232 388
244 374
238 377
231 385
226 386
226 393
232 390
236 390
233 384
233 384
232 386
237 382
242 381
236 388
230 393
216 401
217 405
225 398
242 385
254 382
258 382
249 383
244 384
254 378
253 380
252 379
267 365
266 359
273 350
282 337
278 342
275 347
279 347
281 348
283 345
279 346
273 345
261 352
270 350
266 356
271 355
259 358
261 359
260 364
250 365
258 365
238 370
236 380
240 377
244 370
255 372
250 378
245 383
248 383
247 385
249 377
247 381
249 379
256 370
262 364
249 369
252 368
239 375
241 381
242 383
237 386
233 385
242 378
241 383
243 381
245 374
249 380
253 377
250 371
262 355
263 356
255 359
269 349
274 344
262 354
267 351
269 354
258 363
257 363
268 363
253 368
259 368
250 372
244 378
253 374
252 380
254 380
254 380
255 382
243 384
249 377
245 382
242 387
240 388
245 384
263 371
256 373
265 367
254 377
246 373
254 370
259 368
241 376
249 377
251 373
246 378
241 376
231 388
243 389
239 389
239 388
250 381
256 381
247 379
245 381
245 377
237 379
252 376
242 383
248 380
246 374
245 373
250 367
252 367
257 363
250 365
255 363
252 367
250 371
255 367
270 358
269 359
260 363
251 367
257 366
248 374
252 370
258 374
249 374
253 371
246 373
255 369
254 369
255 369
258 366
254 371
243 373
247 378
244 376
254 376
257 371
262 368
267 359
272 360
263 358
263 362
256 358
270 355
258 354
262 357
272 351
258 355
257 364
255 361
249 365
262 357
262 358
247 362
249 361
243 371
237 378
245 377
241 372
251 370
250 373
240 382
241 380
244 380
245 383
240 385
237 384
233 392
247 388
242 394
233 400
234 400
225 406
216 410
213 417
231 414
220 413
216 409
223 405
208 410
219 404
220 406
210 420
210 417
209 412
229 403
226 405
213 408
218 405
210 409
212 411
210 411
225 403
231 397
235 388
228 388
248 382
236 387
241 384
241 383
241 385
241 383
248 379
246 379
246 378
244 382
228 388
231 389
237 385
230 395
227 393
226 390
230 388
229 393
231 389
237 388
238 383
250 376
235 375
246 373
239 381
233 378
231 388
233 391
242 389
234 397
231 389
225 394
217 400
211 404
212 411
210 412
203 418
202 421
202 421
209 416
201 419
206 416
199 416
203 411
200 413
199 416
207 414
206 412
221 400
216 407
212 413
216 413
212 409
210 414
208 417
222 401
222 399
225 393
227 396
223 397
226 392
230 394
230 396
223 405
233 399
225 404
219 406
229 400
213 401
219 396
219 396
210 406
209 412
193 423
200 423
195 419
202 418
201 424
205 423
216 413
220 413
209 415
223 404
225 402
240 392
249 382
235 385
229 388
232 385
228 384
228 388
229 395
233 395
225 400
222 400
228 398
216 400
215 397
222 399
227 399
220 402
217 410
214 414
208 415
203 417
205 409
217 406
225 399
230 391
229 389
236 389
244 391
230 390
218 385
240 373
242 366
246 370
237 374
242 371
242 371
242 370
235 371
233 371
234 374
239 383
243 385
243 388
238 394
235 393
229 396
222 397
236 388
232 388
227 391
241 385
222 390
220 392
224 390
228 385
233 379
232 385
237 383
241 380
244 376
233 382
229 387
243 385
238 386
235 386
242 384
243 385
237 387
237 384
247 377
240 377
242 377
259 370
248 371
249 371
234 378
244 370
236 371
236 379
234 380
229 381
227 386
218 386
225 388
222 394
212 402
220 398
219 401
212 400
220 399
213 402
218 400
223 405
225 410
225 405
223 404
220 406
223 407
208 415
217 413
214 412
214 406
215 404
211 405
222 393
230 391
234 386
238 383
240 379
232 384
242 384
240 375
244 377
242 376
240 383
237 386
233 390
222 400
224 394
217 399
222 397
226 394
225 402
216 401
222 399
234 392
223 395
230 397
220 404
218 403
226 401
243 394
226 400
242 390
241 386
235 391
229 390
233 388
232 387
233 389
228 397
223 398
227 392
229 393
233 389
241 387
243 382
240 386
240 383
243 374
233 384
246 376
236 379
239 378
244 368
234 380
246 381
230 387
244 383
232 390
234 385
239 388
232 390
231 388
228 390
234 384
235 381
234 384
233 383
231 387
232 394
225 403
227 394
226 395
235 394
236 395
239 387
244 380
240 379
231 387
227 386
227 389
225 387
225 385
237 381
235 381
225 391
237 389
225 391
221 396
217 402
221 398
218 404
214 410
205 415
213 408
225 403
228 394
242 382
234 383
239 382
231 386
229 391
242 389
235 392
246 386
241 384
238 390
232 394
229 394
245 387
235 388
231 393
224 394
223 393
222 394
232 390
235 389
234 383
240 386
244 382
237 386
232 386
248 380
257 371
259 366
261 365
265 365
260 368
259 367
254 370
255 370
248 371
256 374
251 384
237 384
250 377
245 379
254 371
263 367
258 366
259 367
263 364
251 364
249 367
253 368
241 372
249 365
252 361
247 365
255 364
262 364
267 360
268 352
259 359
252 364
250 367
240 374
235 382
236 380
244 379
241 378
258 368
246 371
251 368
246 369
242 377
247 375
250 371
250 372
232 374
239 373
243 368
246 366
243 367
234 372
249 371
248 373
249 372
246 376
246 379
249 375
248 371
255 370
263 368
247 372
253 364
263 360
263 360
251 366
244 370
255 369
248 379
244 378
254 370
259 366
259 368
262 367
247 370
241 378
250 375
260 369
254 375
253 380
251 379
267 365
265 361
255 360
261 354
261 355
256 358
255 361
268 357
264 352
273 350
268 351
274 349
277 342
291 336
287 331
280 333
286 334
277 343
261 353
264 353
267 350
267 353
259 353
264 352
270 351
259 352
267 355
268 355
274 348
269 348
259 352
257 361
263 356
263 353
263 356
259 358
267 353
270 350
272 346
270 344
263 351
257 361
261 357
257 361
260 355
255 362
256 358
249 368
255 361
261 356
262 360
263 361
271 356
268 357
284 348
266 356
256 367
251 370
257 368
259 367
262 366
270 363
271 361
271 362
277 354
268 353
265 348
277 349
278 352
265 359
288 347
273 357
266 360
274 355
285 346
271 351
271 351
276 347
276 344
271 352
264 354
253 360
264 360
257 362
263 364
256 359
263 357
273 351
276 345
279 350
278 345
275 347
269 348
275 343
288 337
276 344
271 347
264 351
267 349
261 358
258 362
255 367
253 369
258 369
251 373
244 372
249 371
240 378
234 386
237 379
240 382
235 387
237 387
224 396
222 399
225 402
223 403
219 407
224 405
226 402
228 396
228 388
232 388
235 389
231 394
235 391
239 391
231 392
232 392
227 395
222 400
225 404
212 407
216 402
226 397
224 398
222 396
222 400
218 399
221 404
225 401
232 396
243 389
247 383
247 381
251 381
256 374
262 373
260 374
260 372
256 368
259 356
264 360
265 362
271 357
268 359
276 355
271 356
267 358
269 358
272 356
258 362
249 373
249 375
247 374
249 376
249 384
237 384
238 386
241 386
237 389
228 394
233 396
231 389
247 376
244 371
244 369
242 376
236 378
218 390
218 399
221 402
227 400
224 401
230 394
229 389
230 391
235 387
229 390
236 390
229 393
232 389
236 385
231 389
229 389
228 393
234 390
238 387
242 385
242 383
255 367
260 363
258 361
265 357
273 356
273 356
268 355
262 364
264 357
264 354
275 349
262 349
268 348
270 352
276 355
274 358
264 364
261 364
258 360
262 359
267 353
265 358
250 359
271 355
259 359
268 354
264 359
260 357
265 354
265 353
252 364
252 365
232 373
239 374
246 375
242 372
239 380
228 389
227 394
224 391
239 383
238 384
235 388
221 393
219 398
216 405
212 410
212 411
218 411
226 403
215 402
225 395
231 386
236 385
224 388
234 389
239 388
231 392
230 393
234 389
239 387
230 390
229 389
232 388
234 385
232 388
246 382
246 383
237 391
237 398
232 396
229 399
233 399
228 399
232 394
248 382
242 388
237 388
235 386
239 381
234 375
243 377
237 382
237 384
233 384
245 379
242 382
238 382
237 386
242 382
248 375
254 372
255 369
256 360
262 362
270 356
260 364
266 362
264 363
263 363
256 363
258 361
256 368
268 365
265 365
269 359
265 359
276 350
277 352
273 354
283 344
269 347
271 351
271 353
266 358
260 359
260 356
274 351
267 353
260 355
263 349
271 348
259 359
258 362
256 364
249 367
254 370
264 366
263 366
250 371
257 370
250 375
251 379
246 383
239 389
236 389
237 391
234 391
235 392
248 384
249 370
243 370
243 364
240 375
246 371
240 374
252 376
252 375
256 366
244 377
246 374
249 377
252 371
258 366
266 358
275 358
274 360
266 366
266 362
260 360
255 374
247 372
248 373
252 375
253 377
252 383
244 383
253 376
253 365
257 368
264 372
251 381
245 387
244 381
248 378
252 376
247 372
249 374
264 367
261 363
265 362
266 359
265 357
264 353
273 348
274 349
269 352
279 340
287 337
277 340
257 350
269 342
278 338
267 345
268 343
259 352
268 352
267 349
267 350
272 344
277 340
277 343
279 344
273 341
272 344
270 347
268 350
261 341
261 354
255 356
254 360
262 359
274 349
274 349
278 348
273 352
265 354
266 358
272 355
266 358
267 359
262 367
262 364
265 363
262 363
256 371
263 369
256 378
256 373
262 368
270 362
272 360
277 356
274 352
267 358
276 352
274 352
259 358
274 355
262 359
267 360
265 359
269 362
269 360
282 350
287 347
280 351
275 354
282 352
268 353
270 356
263 355
264 357
261 355
271 350
268 354
266 356
258 362
265 363
266 364
256 370
261 364
260 365
260 361
263 355
263 355
274 355
267 352
265 350
271 350
272 351
264 356
261 359
268 358
263 360
260 360
267 362
254 368
248 375
248 380
257 379
250 379
261 370
260 370
271 368
263 370
260 370
251 376
251 371
240 379
231 380
231 379
243 377
244 372
245 376
252 370
253 371
259 363
246 370
248 373
234 379
248 370
258 368
252 371
248 368
264 365
260 365
256 368
257 369
258 367
251 370
254 366
248 369
259 367
254 370
259 365
257 364
258 367
257 371
247 374
249 371
245 373
254 366
246 374
247 375
247 377
237 385
229 384
226 382
224 390
223 393
216 392
225 388
222 384
226 385
221 393
226 394
224 393
235 394
234 394
241 390
244 387
246 381
247 381
247 382
250 379
261 374
270 366
261 365
253 366
243 371
249 367
248 370
239 382
235 385
231 393
230 392
228 399
220 402
225 401
236 392
221 391
228 389
225 396
223 396
235 385
223 392
223 392
225 396
221 395
228 395
230 394
224 395
228 392
242 382
229 385
244 376
252 374
257 373
255 375
257 373
264 372
264 366
267 359
276 357
255 366
251 367
247 374
251 376
236 387
239 384
231 386
228 388
237 381
239 383
231 386
218 393
236 386
237 380
245 380
235 379
240 378
236 378
238 380
237 385
236 383
237 382
223 387
231 384
235 378
235 377
239 383
240 373
234 379
234 380
229 386
234 386
244 383
240 385
240 386
239 388
234 389
234 385
229 395
225 398
236 396
237 397
244 388
240 384
231 386
246 382
231 388
229 391
229 382
238 381
242 380
251 374
250 376
240 374
249 371
241 376
244 375
249 375
237 383
231 386
227 386
232 380
244 377
242 379
255 379
251 379
243 379
256 369
262 369
258 368
265 366
272 359
273 355
263 354
271 351
273 347
269 354
255 367
247 367
247 372
251 376
259 371
242 374
243 370
250 372
243 374
247 369
253 365
257 364
257 364
251 365
256 362
249 365
246 368
250 362
246 370
243 370
245 369
241 369
239 374
234 377
247 373
234 379
235 387
230 390
235 387
247 384
243 384
237 381
250 374
242 380
233 388
239 383
237 389
243 386
237 381
249 370
249 375
246 377
260 370
249 377
254 374
253 371
254 369
248 374
252 366
250 373
252 373
252 374
253 375
249 377
240 379
254 378
251 376
261 371
260 370
261 365
264 359
267 361
271 356
279 359
266 368
261 367
271 365
263 363
269 356
269 354
269 354
273 349
267 359
268 360
274 360
273 359
263 360
261 355
274 353
262 355
257 355
252 363
255 361
246 372
247 370
243 370
253 371
251 375
252 372
264 368
276 355
263 358
278 347
274 347
259 354
261 357
261 354
262 352
267 355
261 361
250 368
253 363
255 360
261 356
259 359
253 358
255 356
261 359
268 350
267 354
283 343
271 348
263 356
259 357
260 359
270 352
266 357
266 360
259 366
261 366
271 354
272 355
264 362
275 364
270 365
266 362
268 361
272 356
263 360
268 355
276 353
272 353
274 348
280 337
285 335
285 330
281 332
277 334
288 331
282 338
278 338
275 339
276 340
272 347
264 352
244 356
250 357
256 357
255 356
260 352
250 357
256 357
252 357
257 361
248 362
251 370
256 379
247 379
250 375
236 377
245 376
240 381
235 380
231 384
241 375
247 370
244 367
243 369
247 370
247 373
242 382
231 383
239 379
232 377
231 375
237 375
247 375
232 380
237 383
233 387
242 383
248 379
253 375
257 374
269 370
264 372
254 370
245 376
237 379
238 379
241 379
242 384
256 378
253 368
249 378
241 380
236 383
239 380
228 388
227 399
231 399
231 394
234 385
235 387
225 402
233 401
230 398
236 390
244 383
239 390
230 397
228 396
219 395
223 396
221 397
228 394
231 394
227 395
225 392
230 388
231 385
229 390
226 391
237 391
236 385
245 380
237 389
232 390
235 392
235 396
240 395
229 400
224 402
222 403
218 406
213 411
237 398
236 400
236 399
234 400
235 398
239 396
237 401
228 407
237 389
244 384
242 384
254 373
257 374
254 376
242 380
235 381
242 384
251 377
266 364
253 370
253 375
259 365
265 366
260 369
257 370
260 371
261 370
260 364
266 356
259 358
255 359
252 360
255 362
263 364
253 364
263 363
251 365
269 356
266 353
268 347
277 343
289 343
284 341
263 351
261 354
263 355
266 360
248 370
251 370
242 378
247 380
235 388
239 389
241 384
244 381
241 382
236 382
240 377
241 372
251 370
257 369
249 375
231 389
243 387
247 378
253 373
248 375
254 370
256 364
265 365
247 368
253 364
245 364
253 364
256 366
261 363
262 364
255 364
251 366
248 364
253 368
245 370
248 368
260 363
258 364
261 362
261 368
246 371
242 375
244 381
239 380
243 378
244 374
240 373
247 375
237 374
241 375
237 368
240 365
232 377
232 380
234 383
234 386
242 384
240 382
230 388
229 388
232 393
224 400
218 400
225 398
217 404
221 408
215 412
207 413
230 397
233 391
236 383
232 377
241 380
230 385
234 388
238 386
240 391
244 388
242 381
241 380
242 382
243 384
252 379
241 383
249 375
248 372
244 371
246 375
243 376
253 374
255 374
255 372
270 359
267 360
267 358
280 352
269 353
271 356
273 353
269 354
266 353
249 362
266 355
257 359
253 364
252 368
245 374
237 376
250 373
251 380
250 374
254 369
257 365
270 361
253 371
257 368
252 375
245 379
248 373
235 373
258 364
259 360
252 361
255 361
253 365
251 366
252 370
254 369
260 363
264 363
264 364
258 365
258 364
261 362
264 360
256 368
260 373
248 375
261 365
251 368
245 370
256 367
265 361
258 366
269 364
266 361
269 367
269 366
266 363
268 365
267 360
272 357
268 360
277 352
273 354
270 361
252 367
257 368
252 369
257 369
257 368
253 366
257 365
259 361
262 365
264 364
256 368
261 365
257 368
256 365
261 365
273 358
263 367
268 368
272 363
280 359
267 361
257 365
262 362
256 364
257 363
265 358
265 357
260 361
262 358
258 365
245 367
260 366
262 363
272 357
278 354
280 348
274 354
270 351
273 351
265 353
269 355
264 356
268 357
270 354
268 353
259 357
276 351
269 348
267 348
270 349
262 348
274 347
265 350
261 356
264 354
275 354
269 359
248 375
257 375
255 364
266 356
264 360
257 365
254 368
265 361
265 357
248 362
249 364
253 365
257 362
257 361
253 361
258 362
254 364
250 365
259 361
251 366
241 371
250 358
248 366
252 361
263 350
258 349
254 359
249 368
244 377
248 384
258 377
245 389
250 383
257 377
256 373
259 373
243 381
248 379
241 379
243 382
242 383
233 393
243 381
249 385
251 385
247 377
271 362
258 364
259 358
269 360
258 371
266 366
265 363
256 367
260 360
266 363
274 362
261 363
263 366
264 366
260 369
259 369
254 371
259 367
254 370
270 363
261 366
245 372
250 375
250 372
253 369
250 370
252 366
240 376
248 368
245 375
240 384
236 388
230 391
224 396
227 396
234 391
236 394
230 391
222 397
232 393
228 394
219 403
232 395
231 395
231 389
234 394
221 396
235 389
249 381
249 380
241 383
255 377
248 382
251 381
247 383
248 380
246 380
250 381
244 386
257 367
251 367
251 369
253 369
247 370
256 369
262 363
263 364
256 367
266 364
265 368
258 366
257 363
260 355
268 356
271 347
268 352
254 361
249 367
240 368
245 371
250 368
266 352
266 354
269 358
268 358
274 354
266 358
262 355
242 362
243 367
245 374
248 368
254 368
239 379
248 380
257 372
249 375
246 382
260 371
253 379
248 377
260 365
262 363
263 362
270 360
270 358
264 361
260 361
271 358
275 353
276 349
264 354
265 347
271 352
269 352
267 352
258 359
264 360
245 367
255 370
249 373
249 375
241 370
235 379
236 379
245 379
237 388
245 375
262 369
258 367
264 364
261 365
264 362
263 359
271 354
261 358
252 364
264 360
269 357
269 356
266 357
276 350
279 348
280 347
270 352
269 352
276 351
272 344
278 344
277 340
283 336
278 336
284 333
278 340
284 340
270 345
275 345
278 341
276 345
262 352
264 350
268 351
278 352
274 351
262 357
262 359
264 356
260 361
259 364
249 371
248 371
253 367
242 368
253 363
244 358
249 368
251 368
258 365
251 373
247 380
236 382
233 379
241 372
247 365
243 370
233 375
232 385
237 385
233 390
237 390
230 398
222 398
225 399
217 403
223 393
233 390
225 394
236 390
242 386
235 388
234 386
244 381
231 389
237 386
234 390
244 387
238 392
237 383
250 377
251 376
254 371
258 368
253 374
241 379
243 376
249 376
259 365
266 354
260 361
265 359
269 356
267 360
261 364
257 370
252 371
256 368
265 364
258 367
260 367
267 364
249 369
253 374
250 370
255 366
256 367
260 361
258 362
250 368
254 372
257 372
257 371
263 368
265 367
261 373
266 368
263 367
260 368
251 370
255 366
254 369
255 369
258 368
261 360
249 365
252 367
261 366
253 366
260 364
257 361
271 359
265 358
276 352
280 344
284 340
282 339
283 343
286 341
286 336
297 330
285 332
292 327
293 325
295 328
294 330
292 336
295 336
306 325
293 333
293 334
289 338
302 324
302 320
305 317
302 319
298 325
303 321
299 324
302 320
291 327
279 334
292 330
281 337
277 347
271 351
269 351
265 354
269 347
266 345
265 345
270 345
262 348
266 346
267 350
273 347
278 347
274 349
267 354
267 357
270 356
261 357
261 360
256 362
255 364
250 368
245 372
237 378
252 373
244 368
241 373
251 372
248 374
253 369
260 365
261 364
280 350
269 357
267 355
267 357
263 355
266 356
267 357
259 365
264 361
257 361
258 359
254 361
265 355
263 351
255 355
264 354
258 360
251 363
262 357
270 353
253 358
252 356
249 360
247 366
255 366
258 361
255 364
245 366
246 371
251 368
256 363
247 369
260 366
248 376
258 365
259 362
260 369
255 373
255 376
250 377
262 374
254 378
254 372
259 369
259 375
254 374
260 368
261 372
255 378
256 378
248 376
248 373
249 375
245 377
234 377
249 372
245 375
242 382
238 380
245 376
244 377
241 380
234 388
233 391
237 390
225 386
234 387
244 378
256 373
241 373
251 370
252 372
236 375
251 370
250 368
245 374
249 374
257 365
266 361
264 356
260 360
262 357
257 354
257 353
253 359
241 367
240 372
250 367
249 370
250 365
243 367
254 362
269 355
270 346
269 346
263 351
251 360
253 363
248 371
260 369
250 372
248 378
244 380
261 374
253 377
256 364
260 364
256 365
269 362
270 356
262 361
258 365
262 362
259 367
257 373
262 367
254 372
240 376
237 377
248 370
240 381
246 378
248 377
251 374
247 374
242 374
250 369
250 373
255 370
257 364
258 362
262 362
269 354
272 348
274 347
278 339
288 335
273 340
277 344
280 345
278 342
281 338
285 337
286 339
285 338
290 333
290 336
291 342
286 340
283 341
281 345
295 339
283 346
277 346
283 348
284 344
277 347
272 355
277 356
285 349
280 346
265 348
264 351
259 350
260 349
273 345
270 348
266 348
259 351
266 343
272 346
277 346
267 355
263 361
264 360
263 362
268 361
269 356
278 354
281 353
280 346
287 334
295 330
292 331
288 333
286 333
274 337
266 339
272 344
274 346
275 345
278 344
284 344
284 343
275 350
276 345
273 342
277 341
277 337
292 330
294 329
290 331
292 334
296 337
298 333
298 338
294 339
289 338
290 334
294 331
295 333
302 329
288 335
293 334
290 335
296 333
292 336
297 328
297 326
296 327
294 326
289 328
294 320
301 320
289 328
282 333
279 328
287 329
282 338
275 337
266 347
271 347
281 343
285 341
274 344
283 337
278 340
272 350
265 353
265 352
261 352
266 347
263 346
275 343
271 348
274 344
287 338
281 347
267 351
262 354
267 352
265 352
261 353
264 349
265 351
275 352
266 356
273 357
269 357
275 352
260 361
272 354
278 350
272 355
261 357
267 353
271 351
269 347
278 343
289 338
272 341
279 337
278 335
280 340
282 342
278 348
273 348
275 345
286 338
274 345
283 342
282 344
282 341
280 347
266 352
273 350
271 358
274 358
273 358
265 360
271 356
278 359
277 354
265 365
264 367
265 364
266 359
267 367
254 376
256 368
252 365
256 366
248 372
250 372
238 378
247 379
243 379
252 374
258 373
255 372
260 364
246 375
247 372
261 369
254 370
253 366
252 370
270 361
265 364
251 363
265 364
245 374
239 370
240 373
242 369
241 375
238 377
244 385
234 387
243 383
231 388
230 389
227 386
234 384
224 392
234 387
229 395
212 405
216 403
229 394
225 396
226 398
246 388
245 390
234 390
227 393
231 390
233 398
230 400
229 396
229 394
227 400
229 401
217 408
222 402
211 409
218 411
215 417
222 413
231 406
215 410
207 409
210 408
208 411
223 405
214 406
224 403
223 398
226 398
225 400
226 401
237 391
228 393
231 392
233 390
251 380
239 383
231 388
237 389
237 390
230 393
232 387
232 388
236 387
246 385
244 379
240 380
253 374
259 367
248 377
248 380
255 377
261 372
255 373
256 370
255 372
252 373
269 363
265 359
271 359
271 361
270 365
269 368
268 366
275 365
269 368
264 368
253 375
264 364
256 365
244 370
238 371
249 366
256 365
264 358
244 367
255 363
254 361
245 366
242 370
242 370
256 363
256 364
253 366
255 364
261 361
260 360
270 355
281 347
267 352
277 351
275 347
276 344
278 350
271 357
282 347
267 351
263 349
266 353
260 354
256 358
272 355
258 363
248 371
241 375
237 381
244 375
242 382
231 390
229 395
227 394
234 395
221 404
233 400
240 394
243 387
238 393
236 395
232 395
244 388
241 391
234 394
244 390
229 399
225 403
222 405
221 402
228 401
223 404
224 403
225 400
224 399
241 391
238 390
241 387
247 387
240 383
242 384
242 389
242 380
242 378
244 370
249 370
246 367
254 372
251 372
252 369
249 374
250 373
245 378
240 379
242 381
244 379
240 376
245 378
240 380
244 377
259 366
266 363
251 368
253 368
249 370
241 377
244 383
243 385
230 386
227 388
225 386
231 387
224 390
222 403
233 398
234 391
234 395
241 387
232 393
230 398
240 388
232 390
244 385
236 383
239 385
232 384
240 383
242 381
250 378
238 381
245 373
237 375
241 374
232 382
233 384
241 384
229 389
237 392
237 390
233 392
225 393
230 395
228 394
231 387
226 395
220 393
224 396
232 394
222 400
227 399
233 393
237 391
240 385
236 387
236 389
236 388
235 388
236 383
232 387
229 391
226 388
227 384
224 388
226 390
232 391
236 387
229 392
229 396
221 400
226 398
226 394
219 396
219 398
225 398
217 401
212 406
219 402
227 397
238 390
228 397
227 396
230 393
242 385
242 390
234 394
226 394
238 382
240 380
239 380
249 369
253 367
254 364
253 366
236 379
236 380
238 380
239 382
234 386
225 392
229 397
223 398
221 394
215 398
215 402
227 396
221 394
223 399
219 394
205 397
212 405
210 403
214 406
208 409
209 412
207 415
197 419
206 416
185 424
213 416
202 418
202 423
191 425
202 422
207 418
207 415
208 419
189 419
190 422
190 426
197 428
205 421
189 431
184 428
190 424
200 422
203 419
206 418
197 421
202 419
201 418
209 419
208 423
206 422
202 419
217 412
221 403
219 401
223 397
224 391
230 389
215 396
219 400
226 395
229 397
234 400
224 401
226 400
217 401
208 407
217 405
224 404
213 406
221 402
217 407
216 398
224 401
220 404
217 401
228 394
214 399
217 401
216 414
220 413
211 413
225 412
217 412
216 404
205 410
209 410
208 410
212 415
206 415
194 421
204 414
205 413
197 416
201 420
211 421
208 410
202 416
211 416
211 411
203 407
208 405
212 413
215 413
211 412
212 408
208 409
209 405
212 408
211 414
211 420
216 416
204 425
217 420
216 423
219 415
221 408
212 410
222 410
218 404
237 402
231 404
218 411
224 400
218 401
231 396
232 397
219 404
224 400
222 400
223 406
214 402
212 405
220 404
220 403
226 402
210 407
211 405
219 402
227 394
230 396
231 397
218 404
220 402
218 408
219 410
221 413
220 410
226 411
230 407
223 406
225 400
225 395
229 393
220 394
219 399
230 393
237 390
228 395
237 393
236 397
228 398
233 399
243 394
246 392
235 389
236 396
243 385
240 383
244 376
252 372
252 368
234 376
238 382
237 383
230 390
238 383
223 388
219 391
229 384
238 385
247 381
256 369
246 375
248 376
250 374
249 373
245 378
244 381
247 381
240 385
225 385
221 387
223 389
225 393
243 385
240 386
237 387
233 385
242 383
233 384
236 384
243 382
242 386
246 379
241 385
233 388
226 396
205 406
215 408
212 406
209 409
217 410
219 410
218 406
222 407
215 409
219 410
223 403
211 411
221 413
222 414
212 413
217 416
211 422
203 427
208 421
225 405
222 404
223 404
216 404
210 410
207 409
218 405
212 407
217 401
209 404
216 405
220 408
218 408
225 400
220 399
220 398
224 393
219 398
207 398
214 396
214 404
213 397
220 398
216 398
215 397
215 397
223 396
229 397
224 395
220 403
225 401
229 397
234 395
219 400
223 394
233 390
231 390
233 394
236 394
234 394
237 391
230 395
227 396
216 400
212 400
209 403
215 400
201 408
208 407
205 413
208 404
208 405
216 399
222 391
228 390
231 392
227 397
220 400
226 395
230 404
229 402
232 400
234 396
233 398
223 407
223 405
222 401
225 398
233 394
214 400
229 399
215 405
216 403
221 405
224 404
220 404
211 406
220 399
219 402
213 405
213 404
210 411
220 399
216 406
206 410
209 408
203 412
210 409
216 413
208 418
203 422
207 415
204 419
197 423
202 418
208 413
208 413
205 415
199 412
209 408
203 410
198 416
199 417
202 420
201 422
214 414
203 411
213 408
211 405
215 407
202 410
207 410
199 406
213 415
202 421
202 421
203 421
203 422
203 416
217 410
209 412
209 414
210 409
206 418
199 418
196 424
194 421
204 414
200 418
206 420
203 419
210 414
206 415
223 410
222 406
222 403
215 409
229 397
227 396
227 396
218 400
225 396
205 406
214 408
209 410
211 410
195 418
190 425
196 424
200 420
199 417
198 420
203 415
202 419
197 419
204 410
197 419
210 416
202 419
200 424
197 428
198 429
192 426
199 423
205 419
207 418
209 417
206 415
215 402
216 403
216 403
215 401
216 406
223 401
222 404
212 412
221 405
215 402
218 398
217 400
222 403
223 404
211 413
207 417
203 414
206 413
208 416
205 408
209 412
205 420
197 422
209 415
206 412
212 408
203 414
207 414
215 411
220 411
226 405
213 408
234 394
232 389
242 388
229 393
225 394
217 400
222 402
229 395
227 393
228 391
222 392
227 392
226 392
226 396
230 399
217 405
219 407
230 394
233 393
221 392
223 395
220 401
220 403
214 408
203 414
206 414
201 409
212 408
206 412
209 408
210 409
203 412
221 400
221 401
218 405
207 406
198 409
207 408
208 407
208 411
212 407
212 409
208 414
205 420
207 418
204 418
213 415
211 410
208 413
207 411
215 401
224 397
225 400
223 398
224 393
236 389
216 392
217 399
218 400
217 401
220 400
222 401
228 393
227 390
229 391
238 387
228 386
228 388
217 396
216 400
222 398
224 399
232 391
235 390
241 377
241 379
241 379
227 390
221 398
228 401
207 420
205 422
208 425
203 427
194 432
198 436
194 435
202 430
205 420
213 418
209 411
201 410
208 399
226 385
219 393
218 396
229 389
237 379
238 381
225 385
227 388
223 394
236 385
234 389
236 392
234 393
243 388
225 395
237 390
225 393
225 396
230 392
234 392
224 396
219 401
218 401
217 403
224 398
232 401
220 406
226 399
225 402
221 402
220 408
212 410
212 412
221 408
210 409
206 414
211 414
206 419
197 425
190 430
197 420
203 414
198 419
206 417
224 410
217 411
218 409
212 414
207 417
219 414
209 417
219 415
226 408
236 400
233 401
237 390
240 384
251 375
248 376
243 374
253 367
259 360
269 357
259 361
263 359
272 360
263 363
263 360
265 355
271 347
282 339
265 341
270 344
258 354
272 352
282 346
289 348
277 348
274 355
268 356
270 355
272 350
271 350
274 348
269 353
275 344
277 342
280 338
278 338
288 334
292 334
284 337
284 341
275 349
261 355
258 361
263 358
256 362
254 361
254 363
254 366
260 363
246 371
254 372
254 371
254 374
246 372
241 372
254 362
259 358
250 364
256 358
249 362
262 363
264 359
254 362
266 357
258 359
269 355
275 350
273 349
277 351
281 347
275 349
280 349
274 352
278 344
285 341
284 342
277 345
286 340
286 346
290 341
291 340
299 330
291 331
291 331
287 328
281 331
285 330
291 329
282 331
288 330
288 334
279 337
276 339
284 339
278 340
289 338
277 345
278 344
275 350
280 351
275 349
273 351
274 351
281 343
283 339
279 339
283 338
278 341
283 345
288 341
294 339
294 339
298 332
304 324
292 330
296 328
302 324
300 321
287 328
291 325
296 321
294 323
292 318
289 320
293 322
290 324
280 330
293 327
293 326
294 329
288 334
292 324
287 330
287 328
285 328
288 328
291 330
287 333
286 334
285 337
280 339
280 335
278 336
273 339
277 339
268 351
265 351
271 348
269 348
279 348
270 355
259 355
268 347
272 343
256 352
261 349
258 350
260 346
271 345
270 351
266 358
258 368
252 369
252 375
248 381
252 377
260 373
263 369
268 366
262 365
267 358
265 362
257 361
258 362
259 360
272 363
263 361
267 360
276 352
275 351
269 351
264 358
277 352
270 354
271 357
260 368
260 367
259 368
252 372
248 377
252 368
260 359
264 358
268 356
254 360
270 354
273 349
270 350
279 344
266 348
277 350
267 353
262 357
271 345
288 338
284 343
288 347
281 351
280 353
275 357
266 362
272 358
268 357
266 358
269 353
269 352
271 354
282 348
280 345
284 344
275 347
267 355
276 347
273 348
286 345
280 349
291 347
288 342
303 332
302 328
287 334
294 337
280 341
279 343
286 335
288 334
294 327
292 326
296 330
290 334
289 326
285 335
284 336
279 338
292 336
290 332
301 319
298 324
300 319
297 316
301 314
302 315
296 312
303 312
291 315
294 318
285 322
287 322
288 322
287 326
288 331
286 334
293 332
298 328
295 329
297 328
302 326
290 332
289 335
283 335
288 332
288 333
291 333
296 327
298 322
303 321
294 327
298 325
288 330
291 331
279 336
284 333
287 335
279 339
287 338
293 335
281 341
283 339
282 340
288 336
291 329
292 328
303 323
302 328
299 331
305 325
303 326
300 328
293 330
295 331
296 332
299 329
309 322
299 327
297 330
295 335
294 338
285 338
289 342
275 345
265 348
272 350
265 352
264 353
269 351
265 349
273 344
270 341
284 341
267 347
267 353
273 342
286 338
283 342
273 343
274 350
278 349
274 352
285 344
270 347
269 350
275 346
268 342
268 344
269 349
268 351
274 345
275 344
278 342
286 343
270 351
281 350
270 352
260 355
267 351
280 345
270 348
268 352
274 349
269 350
279 347
275 349
264 351
283 348
285 349
280 345
284 341
286 342
285 343
285 342
295 339
286 346
286 335
299 327
306 320
292 326
293 329
294 327
299 319
290 329
290 328
297 329
295 329
292 328
282 331
286 329
280 337
275 344
270 347
268 352
263 358
259 356
271 355
271 361
272 357
268 354
263 355
262 361
260 364
265 365
266 361
279 354
281 350
276 349
281 350
277 350
287 344
279 341
284 340
280 347
278 354
273 358
277 353
272 352
277 354
272 352
271 352
279 343
275 340
274 346
282 348
280 347
272 351
275 351
283 350
279 344
285 336
283 341
290 335
292 335
294 335
293 336
296 330
309 323
306 324
316 319
314 319
314 316
316 315
301 314
298 323
288 327
301 328
299 328
292 325
294 327
303 326
311 319
310 316
310 313
306 314
312 311
315 314
304 320
315 316
306 317
304 316
294 320
289 321
298 319
299 318
290 324
298 324
288 324
288 324
293 324
288 329
298 327
293 328
291 324
289 331
296 328
283 333
284 337
282 337
277 338
282 338
283 339
285 339
279 337
285 334
283 340
283 336
280 337
277 348
269 353
275 343
269 345
273 347
264 356
266 352
260 355
272 353
272 354
265 356
274 348
277 345
267 350
272 346
270 345
274 346
285 336
283 335
293 330
294 333
292 333
294 328
299 324
290 323
307 318
295 322
292 320
290 323
292 321
301 321
302 328
304 324
310 315
302 319
301 324
299 325
299 321
309 321
310 323
307 324
316 319
313 311
313 310
311 311
310 312
306 316
300 314
302 315
305 318
299 319
294 321
292 324
282 327
286 324
281 328
271 331
284 329
276 332
281 333
285 336
287 337
285 339
281 340
287 332
280 339
296 330
294 324
296 318
291 320
295 321
290 327
303 320
302 323
300 322
292 322
285 326
280 326
282 333
279 342
282 344
278 348
276 350
274 351
258 354
254 361
252 369
247 373
246 375
251 365
253 364
256 367
258 366
249 366
248 369
255 364
258 360
267 353
280 347
262 358
255 365
260 355
254 361
266 359
252 362
254 362
257 365
255 363
259 358
259 361
264 360
263 364
265 360
269 357
268 357
265 356
267 358
272 349
271 352
278 350
267 357
272 358
263 360
261 364
263 357
261 363
256 371
259 369
259 360
264 359
256 366
254 371
252 376
249 371
250 371
244 373
247 379
249 375
251 377
255 374
255 369
251 368
255 367
246 372
247 367
269 353
270 353
257 362
258 369
255 371
262 369
265 369
269 363
277 358
271 354
261 358
260 361
263 362
264 360
270 355
277 352
268 358
264 362
268 361
267 365
270 360
255 370
254 374
263 368
266 367
275 359
266 364
256 374
259 374
266 369
265 365
272 359
269 357
275 351
271 355
271 358
259 364
252 361
258 362
254 365
256 364
251 367
253 370
244 378
254 369
263 366
261 362
270 358
265 359
266 354
267 353
275 347
276 349
273 354
267 351
275 350
273 351
286 345
284 344
277 348
285 347
276 347
273 345
267 349
275 347
277 342
279 338
285 343
278 343
280 340
287 336
273 340
280 339
277 341
273 343
282 342
289 334
281 341
271 352
270 347
273 350
286 346
281 344
281 345
280 343
279 346
274 347
264 358
269 352
263 359
266 360
247 370
254 366
261 361
254 363
247 367
247 366
253 366
246 366
255 362
250 363
265 357
268 353
269 353
258 363
243 373
248 367
257 362
254 364
260 358
267 353
268 352
272 351
266 354
249 367
258 364
257 361
249 360
256 363
252 358
249 360
259 360
247 363
259 368
241 382
244 380
253 369
260 367
263 368
259 368
245 373
251 376
251 371
260 369
251 376
257 364
259 368
254 371
247 379
252 377
245 386
247 387
234 387
244 386
233 388
244 387
234 393
242 386
244 384
242 380
241 376
249 375
251 374
243 383
242 381
239 379
243 374
244 374
239 378
237 374
229 381
236 378
247 373
236 375
231 377
238 376
233 379
233 382
250 377
253 373
250 371
245 375
245 375
248 376
244 375
240 379
251 373
251 372
249 372
243 377
241 384
246 380
247 375
250 387
257 373
254 375
235 378
238 376
240 382
237 384
239 383
231 387
243 384
232 386
236 387
242 388
246 383
253 380
255 378
254 381
265 367
263 366
271 358
265 358
265 362
258 366
259 366
256 360
272 353
275 355
275 351
281 346
284 344
279 348
279 351
273 348
267 352
277 348
273 355
271 356
258 364
257 364
254 363
258 360
253 356
252 363
246 368
252 362
261 363
263 368
269 363
263 365
253 375
254 373
255 367
267 361
269 356
279 353
277 356
278 357
271 356
269 354
285 345
281 344
284 347
281 345
276 347
274 352
277 349
281 351
288 338
293 335
288 339
295 335
285 340
291 333
298 329
293 331
305 322
314 318
318 312
324 308
326 307
317 308
318 310
314 310
322 306
313 305
305 309
318 307
316 302
319 303
311 310
313 313
301 318
310 313
306 316
304 322
308 317
310 313
314 307
318 307
315 309
312 314
310 313
306 322
303 321
301 319
300 319
304 318
293 324
290 326
293 325
305 320
312 315
309 319
300 320
301 319
304 315
308 316
300 324
296 327
287 335
285 336
284 344
284 342
277 349
280 349
273 349
270 351
277 345
278 345
284 345
284 345
279 342
280 344
283 344
281 346
284 346
290 342
288 344
288 337
283 346
285 344
288 346
286 343
289 337
284 336
284 339
279 344
283 343
286 343
279 345
284 342
279 345
283 347
273 346
278 345
281 350
276 350
270 353
261 351
285 344
274 347
283 338
286 334
288 344
281 350
273 351
275 345
274 345
278 344
281 343
283 343
279 339
292 336
279 336
290 335
291 335
299 326
293 331
273 341
284 341
280 346
288 342
286 337
287 339
294 334
290 330
296 330
294 330
285 333
288 333
288 334
284 336
282 343
286 338
286 338
291 339
290 336
297 334
293 332
291 334
295 328
307 323
302 326
301 332
304 334
299 336
286 342
296 336
297 337
287 337
288 334
275 341
277 345
276 346
278 345
271 348
278 346
282 345
272 348
274 346
269 349
273 346
276 348
279 345
279 340
276 339
276 344
282 342
292 334
289 331
302 325
302 322
301 317
295 324
291 322
301 317
297 321
294 325
290 330
289 333
290 334
289 336
295 327
301 328
300 327
304 323
298 325
295 327
296 326
289 333
297 327
299 325
308 319
309 320
292 326
299 324
303 329
300 328
301 322
301 321
302 322
299 320
311 314
301 318
304 317
305 318
305 320
307 313
316 313
312 313
293 324
303 322
297 326
289 326
298 321
295 326
296 328
292 331
291 335
300 326
292 332
294 326
287 327
288 325
293 322
294 320
298 326
292 335
287 335
285 333
289 335
288 340
279 344
275 351
274 344
286 343
281 347
276 341
274 337
280 336
281 342
283 340
286 338
277 340
284 337
276 344
282 342
272 347
276 347
273 350
278 344
275 343
285 335
291 331
280 338
294 322
295 320
300 316
304 314
300 313
300 311
302 312
304 311
303 310
307 308
313 306
307 313
301 313
304 315
294 326
295 321
306 319
306 322
302 325
303 324
299 328
301 324
306 324
303 332
306 325
291 327
300 322
302 316
308 313
315 312
300 315
303 315
298 323
279 330
284 330
279 335
273 342
282 341
275 343
273 344
281 344
278 348
278 342
283 343
264 354
268 359
256 364
260 359
258 360
260 358
271 362
280 348
266 352
270 347
279 347
269 348
275 350
262 355
264 353
266 356
255 360
262 357
256 359
251 364
250 359
254 360
248 360
246 361
235 368
250 370
239 375
228 384
