Actives Prisoners
0 0
273 7
272 19
269 30
274 47
261 65
255 76
238 97
224 111
217 125
210 129
204 136
197 141
187 148
187 151
183 156
169 166
160 172
156 178
154 185
147 195
145 199
142 200
138 206
134 210
133 211
128 214
133 207
145 198
136 206
136 210
136 209
129 211
118 215
122 219
118 220
115 228
118 226
127 216
113 218
123 212
146 199
145 196
147 196
144 190
143 191
135 198
141 203
139 201
137 204
139 203
141 203
128 210
128 213
140 209
129 214
130 210
126 213
135 211
133 211
129 214
139 205
128 214
127 217
121 221
125 216
127 212
123 221
119 229
118 233
115 229
120 225
124 223
126 221
126 220
126 217
122 222
122 220
125 220
122 214
127 214
130 209
133 205
138 200
137 201
134 205
120 216
120 219
129 214
134 210
132 209
132 212
132 212
131 216
126 216
130 210
132 207
126 212
129 209
134 210
131 211
133 213
144 200
141 202
128 212
125 219
134 212
135 209
130 212
127 220
136 215
134 210
132 210
145 206
140 207
135 201
147 198
138 206
141 205
139 209
124 220
130 219
131 216
134 210
133 205
123 211
122 210
132 206
133 204
136 206
142 201
139 200
141 200
135 200
138 200
137 202
132 203
143 193
143 194
145 196
135 199
131 203
134 207
129 209
129 208
128 212
132 211
139 211
137 212
138 213
131 209
127 211
122 213
136 210
141 207
138 207
139 203
143 204
129 208
126 210
123 210
115 213
117 216
125 214
136 210
130 212
133 212
136 212
139 207
128 212
127 208
123 213
124 214
126 212
132 209
122 214
124 217
137 206
129 214
126 217
127 219
135 213
137 216
131 217
131 217
131 216
126 217
128 213
127 213
125 215
134 211
131 211
126 215
131 211
132 212
136 210
146 204
145 201
138 205
149 197
139 202
145 193
147 193
143 199
146 199
139 208
136 209
141 207
142 206
149 198
140 203
141 201
134 203
128 207
142 204
140 203
150 196
149 198
150 198
144 199
127 212
127 213
127 216
128 219
128 221
125 225
119 226
127 217
126 220
118 225
125 222
127 219
129 221
114 224
108 229
116 223
121 218
131 212
121 217
120 218
128 217
136 216
124 216
134 215
122 220
125 223
123 223
120 227
127 220
125 218
120 218
110 225
123 219
120 226
123 223
127 226
134 217
134 209
130 214
128 214
128 214
124 221
118 222
115 222
141 208
128 216
124 216
130 216
116 226
120 225
101 230
116 226
112 224
120 217
123 215
119 216
120 218
122 217
125 218
128 217
129 215
135 212
136 214
134 216
126 215
127 217
126 217
130 213
133 211
128 208
138 206
133 212
121 219
126 221
125 214
125 212
129 211
138 205
138 200
134 199
137 200
134 203
131 211
121 213
127 213
127 207
131 204
133 210
121 218
116 224
114 224
134 210
129 206
143 199
153 194
143 197
138 202
141 200
151 199
148 199
144 199
146 200
143 205
131 209
142 205
144 202
135 203
142 199
142 199
143 195
141 197
150 192
141 194
142 197
141 204
142 205
139 206
147 199
144 198
134 202
133 199
139 196
136 197
145 198
142 197
140 205
136 207
128 211
129 211
125 214
132 209
148 200
135 206
128 216
120 215
115 214
135 205
129 209
129 207
138 205
134 201
131 208
134 207
142 203
134 206
138 206
151 194
141 205
137 208
146 204
145 200
142 201
140 201
140 197
138 199
134 206
139 200
142 199
140 199
139 201
147 196
150 194
145 198
147 196
143 201
152 192
150 191
151 192
149 192
155 188
152 193
147 192
146 201
142 197
141 199
140 195
138 196
142 194
135 200
138 206
135 204
140 198
148 194
151 192
153 191
147 195
143 202
147 202
140 201
143 196
143 196
144 193
144 197
145 192
151 189
150 190
156 184
156 180
157 178
160 174
158 183
151 188
146 190
147 191
152 188
146 190
150 187
150 193
155 190
161 185
156 189
153 194
141 195
144 197
139 196
140 196
149 192
138 203
141 204
136 208
134 213
133 207
130 206
133 207
134 211
131 209
118 216
118 216
130 210
133 205
128 210
137 206
145 201
160 190
151 189
148 194
151 195
152 190
154 185
159 184
160 188
163 184
155 186
147 186
153 192
143 196
134 201
130 207
131 204
127 214
123 214
128 217
122 211
125 213
133 206
130 210
139 204
130 209
128 213
145 200
144 198
126 207
130 206
133 196
139 192
139 190
128 201
136 196
135 203
135 198
136 205
131 206
131 209
128 210
129 208
128 212
127 215
133 216
137 212
137 207
140 209
135 210
140 208
136 205
154 196
146 201
142 205
144 205
144 202
142 203
140 200
155 194
141 200
137 202
135 198
131 205
140 191
142 193
148 189
157 185
148 190
148 191
142 196
129 204
142 201
140 200
148 196
142 197
151 198
141 203
134 207
128 210
126 213
138 209
143 200
146 194
134 203
128 208
132 203
143 199
136 199
149 197
149 198
149 195
145 200
143 203
138 203
125 209
121 213
127 213
129 218
122 224
132 215
130 213
124 210
125 210
130 205
130 204
133 210
135 211
131 206
135 211
130 215
122 220
117 215
122 213
126 222
125 226
122 222
138 215
127 219
123 223
118 224
123 220
122 224
124 223
129 217
131 212
118 221
118 226
123 222
124 220
131 219
130 216
132 217
131 211
131 211
130 212
129 209
133 208
127 204
123 211
126 213
118 220
116 220
116 225
113 225
118 222
125 224
131 218
130 212
136 207
134 216
125 220
128 219
126 216
138 209
135 214
132 210
137 205
137 207
132 207
135 208
129 213
130 216
137 215
128 224
117 229
118 229
112 234
107 235
115 232
117 231
110 230
112 228
122 221
123 224
121 222
113 230
116 233
108 233
111 235
119 229
125 227
123 226
122 226
117 229
123 223
132 215
131 216
136 210
118 212
117 219
122 210
130 210
131 209
137 210
131 209
135 208
140 208
136 207
138 210
121 214
118 214
128 206
132 203
125 211
126 210
114 219
117 219
126 214
134 206
125 212
134 207
124 212
131 205
129 209
127 209
135 206
134 205
140 202
144 199
139 201
141 201
134 203
131 208
126 209
137 210
137 209
135 209
131 205
125 206
131 203
127 208
128 215
123 216
119 218
119 218
119 221
116 221
128 217
126 217
128 216
124 215
130 208
130 213
128 216
127 218
112 229
111 233
113 230
119 228
117 225
118 224
124 218
129 219
133 219
131 215
125 223
132 217
116 228
121 227
122 224
115 222
120 222
124 217
138 206
143 207
135 204
134 208
145 196
146 197
141 204
139 205
141 203
155 195
151 196
147 195
146 194
146 196
157 189
142 193
152 194
154 193
148 195
143 198
141 197
140 207
130 210
128 217
130 217
131 220
129 220
122 223
130 216
126 215
121 222
118 226
121 218
119 220
115 225
113 225
120 225
115 227
114 229
122 223
127 219
127 217
124 223
115 230
119 230
121 232
114 235
109 239
109 240
105 243
110 235
112 232
122 224
134 216
131 212
116 216
120 219
115 226
108 233
106 233
119 224
117 228
131 218
122 222
124 220
119 225
111 232
120 233
121 231
122 225
115 226
118 228
119 229
119 232
117 231
120 226
119 222
114 226
120 223
104 232
115 226
115 224
115 227
114 232
121 227
111 229
113 235
110 237
106 244
102 241
113 231
106 232
108 237
107 237
113 232
117 229
119 226
127 220
128 217
129 216
122 217
123 220
121 218
120 223
122 219
127 222
124 222
119 225
126 220
134 213
127 222
125 225
119 224
123 218
114 227
110 229
116 222
104 232
115 227
107 230
100 242
96 243
107 238
105 235
99 237
112 235
99 237
103 239
111 228
122 225
120 223
126 214
124 211
126 211
135 205
143 201
148 193
152 188
144 195
133 201
136 203
132 202
134 198
128 205
129 209
120 214
129 207
132 208
130 215
132 211
141 202
139 199
134 201
130 205
129 204
128 209
133 200
133 202
138 205
136 205
139 202
135 206
138 206
132 204
133 198
130 200
124 206
136 200
130 205
140 198
145 197
137 197
139 197
147 197
140 198
142 194
160 182
169 174
163 181
153 186
162 184
162 188
153 184
151 185
151 185
141 192
149 186
150 184
146 189
157 184
150 188
149 192
154 191
146 191
140 193
144 192
144 195
149 196
138 195
131 206
121 212
133 209
131 211
142 205
136 206
140 208
144 204
132 208
144 204
123 213
119 215
126 218
127 216
119 218
114 220
121 219
131 214
129 214
128 212
127 210
131 205
133 207
130 209
127 212
136 207
132 205
138 202
131 205
129 208
133 208
131 204
130 209
130 213
138 209
131 215
121 217
127 215
127 218
129 214
126 218
122 225
120 224
120 222
135 210
143 204
141 204
134 208
138 204
143 198
141 200
134 205
127 213
132 212
131 212
125 219
125 221
127 219
127 213
118 214
115 223
115 224
114 226
115 220
120 221
110 229
109 220
115 221
114 223
115 226
118 222
123 222
131 217
126 218
128 213
137 212
147 205
141 204
138 208
135 209
138 205
137 203
132 204
146 200
147 197
143 199
147 200
125 209
123 216
127 213
131 209
122 217
136 210
133 211
136 206
139 208
132 213
129 216
131 212
129 209
132 210
129 210
122 220
127 215
137 209
134 210
133 208
134 206
140 199
141 198
129 203
136 203
135 198
139 197
134 199
141 200
143 195
152 197
138 204
141 204
134 206
142 202
134 209
135 212
120 219
124 211
123 211
129 209
133 211
121 214
113 220
114 221
122 215
131 210
133 200
134 199
127 205
137 192
145 186
151 186
142 195
145 194
154 185
156 182
156 183
155 186
143 190
143 191
137 198
131 210
121 217
123 219
129 210
138 203
143 208
136 209
136 208
136 208
136 210
135 213
131 217
129 217
129 213
141 207
132 207
131 209
147 199
139 200
136 203
136 208
130 209
122 220
130 215
135 217
126 219
119 223
117 224
118 230
117 231
120 229
114 232
113 230
111 232
112 235
104 237
106 232
115 228
118 228
121 224
117 232
117 227
121 226
129 220
132 210
129 212
133 212
137 205
134 206
138 203
142 196
141 194
149 189
156 187
155 187
163 187
160 184
161 184
158 181
154 186
157 188
163 187
151 195
147 196
151 191
150 192
146 198
146 197
140 199
135 199
131 203
128 205
121 214
131 207
121 213
126 216
119 223
122 223
119 227
117 229
121 229
130 221
131 224
125 225
117 229
111 233
122 229
125 222
126 221
133 216
137 212
144 204
147 204
133 205
141 204
135 204
144 195
154 185
154 186
151 192
140 196
143 203
149 195
146 198
140 199
133 198
129 204
128 205
132 204
139 203
142 210
128 216
138 213
144 210
135 214
127 219
118 226
117 227
132 216
131 216
124 221
123 223
131 220
121 223
125 219
131 216
134 217
140 212
136 211
134 208
135 211
136 208
145 203
155 193
149 192
152 190
150 191
150 192
158 190
158 188
154 186
146 193
140 200
143 195
136 202
144 200
140 203
134 203
134 203
138 202
138 199
145 198
139 203
129 210
133 210
139 208
142 208
139 208
137 212
138 213
133 210
143 203
143 204
153 197
157 191
153 193
159 183
162 185
169 179
161 179
159 182
157 180
156 178
163 178
159 184
159 181
159 186
149 192
146 189
149 194
150 192
149 197
161 190
156 193
143 200
137 205
139 204
144 203
139 202
142 203
143 205
137 205
120 214
126 215
132 212
144 206
152 203
139 209
134 214
146 207
148 205
138 211
143 201
151 198
151 194
153 193
153 198
148 198
136 204
132 212
130 212
128 216
124 221
127 217
133 218
139 217
130 213
136 211
137 208
143 201
144 201
142 200
129 209
134 203
133 208
136 205
135 204
140 205
135 201
134 204
145 202
142 195
142 195
151 189
162 189
156 185
154 188
157 187
158 185
160 185
165 181
158 190
160 188
152 191
158 186
155 189
161 184
160 185
172 174
172 170
170 168
179 161
169 171
157 180
153 182
145 190
144 191
140 193
143 190
139 195
147 197
138 202
143 200
131 202
136 201
139 204
133 205
130 207
137 205
130 206
133 211
131 211
150 200
148 196
150 196
143 198
142 203
138 203
132 205
136 209
142 200
130 205
139 204
136 206
147 199
142 201
143 200
140 206
150 200
150 199
147 195
144 198
146 196
143 197
145 199
141 200
148 195
142 201
141 208
148 203
143 204
129 205
145 197
135 204
141 202
135 201
149 196
146 197
142 199
137 199
137 195
144 194
149 194
156 193
153 194
157 192
155 194
148 196
152 197
147 199
150 198
145 200
156 195
153 194
141 198
136 198
142 197
145 194
145 196
149 194
148 191
146 197
142 200
148 202
139 201
137 205
145 201
148 197
148 197
140 201
137 208
137 205
141 201
145 201
144 203
147 198
141 201
141 205
139 206
142 204
139 205
134 208
134 209
130 208
137 205
132 205
124 205
141 202
136 206
126 211
135 208
138 207
143 204
136 208
135 212
129 215
136 213
137 209
120 217
131 205
128 209
121 211
138 203
128 211
116 220
131 211
127 213
127 213
125 215
126 214
116 219
115 222
112 226
109 230
116 230
121 226
114 230
119 227
113 226
114 228
110 232
117 235
116 235
112 232
132 217
129 218
130 216
140 208
128 211
134 210
130 209
133 211
140 205
137 206
143 201
150 198
147 204
142 204
139 208
135 212
133 215
127 220
132 218
137 212
139 212
134 219
145 207
137 211
132 211
143 203
140 205
138 199
144 196
140 196
141 202
146 202
135 206
135 205
136 207
132 206
140 205
136 203
137 202
137 200
144 198
148 195
136 201
138 197
139 202
142 201
140 198
141 198
141 198
136 200
137 203
140 199
138 203
137 203
142 199
136 201
139 200
143 203
144 201
135 210
141 201
133 207
141 200
141 202
148 195
161 186
151 186
151 193
152 191
145 196
142 203
143 202
148 201
136 204
134 207
139 208
127 215
131 216
134 214
133 208
135 207
144 203
137 209
137 210
122 215
137 210
122 221
122 222
131 213
127 217
124 221
125 217
115 224
118 220
136 210
136 210
118 217
131 212
126 214
129 211
136 207
137 211
129 215
131 212
128 212
121 217
126 211
134 203
139 200
138 203
141 205
140 205
143 201
144 199
143 204
132 208
141 199
145 200
144 202
140 207
132 212
131 213
131 212
124 219
120 222
128 217
139 211
144 207
137 203
145 196
129 205
138 209
129 213
136 214
123 217
120 218
109 223
116 226
116 228
113 222
129 216
135 209
127 212
136 207
132 205
132 207
137 210
139 207
134 207
142 203
150 194
145 194
150 196
145 194
158 188
152 192
148 196
155 191
152 195
146 203
142 204
127 211
133 212
126 217
126 212
136 208
137 205
137 210
141 206
127 208
137 203
136 207
135 205
147 198
150 186
158 184
149 184
142 192
135 199
135 207
125 212
127 218
118 225
127 221
124 223
114 232
115 233
124 228
125 227
125 225
125 225
115 231
124 228
132 220
124 220
127 212
131 213
134 205
138 207
135 209
131 209
144 201
139 202
138 203
145 196
139 196
137 202
138 199
127 203
133 203
130 202
136 197
142 200
145 201
138 202
137 202
140 200
136 201
135 210
130 217
137 211
131 212
133 203
125 211
126 215
125 214
125 218
127 217
125 214
128 213
137 209
131 212
141 209
143 205
145 205
134 212
131 217
138 212
130 216
131 215
119 220
129 221
131 214
127 218
131 216
132 216
123 224
126 226
131 220
127 222
122 222
124 221
125 222
122 218
127 210
135 208
124 212
139 207
137 209
131 211
136 212
132 209
137 202
142 200
143 203
146 203
141 200
151 199
149 193
160 186
149 190
150 190
130 198
136 205
127 213
139 205
140 205
127 210
131 208
143 206
126 215
130 214
145 207
136 213
141 204
138 204
141 201
151 196
148 198
151 195
164 189
155 191
142 196
143 194
142 198
150 192
155 190
146 197
147 197
143 201
137 204
141 202
136 201
142 201
143 199
144 200
137 203
133 207
139 212
132 217
135 219
125 218
121 220
126 220
131 218
135 211
141 202
127 208
126 214
130 212
127 217
133 212
119 218
118 213
119 219
131 216
135 212
135 212
125 213
132 206
142 198
141 201
140 201
150 201
143 201
136 201
138 203
139 200
133 208
141 210
147 204
151 204
146 205
135 211
147 203
155 204
155 200
149 203
143 207
137 210
140 210
127 217
117 223
119 228
114 232
123 226
123 223
122 219
128 219
125 222
128 220
132 214
133 210
132 206
131 209
131 212
149 199
143 198
146 203
134 209
136 207
136 207
137 209
136 205
136 207
147 201
140 208
144 206
129 212
129 213
136 210
133 210
128 217
115 227
125 223
120 220
119 228
116 230
111 230
121 227
115 231
125 225
126 221
132 216
145 207
145 208
157 198
148 199
157 190
151 191
151 193
154 194
149 197
147 194
150 196
147 200
141 202
150 197
153 192
163 185
159 183
152 182
159 183
151 183
153 181
148 186
146 188
142 196
136 198
141 201
145 199
147 197
146 197
152 190
144 195
149 194
146 195
148 197
151 192
147 197
144 202
134 205
134 205
134 211
133 209
136 208
134 209
133 208
132 208
125 213
132 207
131 209
139 205
140 200
150 188
161 185
152 193
151 192
155 192
151 197
147 196
150 195
143 197
149 191
142 193
141 195
136 200
136 197
140 200
143 195
147 194
151 190
154 196
148 199
137 205
137 199
140 193
132 199
134 199
138 200
135 203
135 210
139 207
137 205
142 203
143 192
140 190
152 184
143 188
146 189
146 192
141 202
144 204
140 202
137 205
139 200
141 201
135 207
133 207
136 208
135 207
144 205
140 206
134 204
132 210
133 210
128 210
133 210
140 207
140 199
148 196
136 200
139 204
141 209
146 202
140 200
143 199
141 203
143 201
150 196
134 199
142 195
137 204
133 209
137 208
134 208
124 213
122 212
128 212
134 208
135 208
133 210
131 217
129 222
128 216
122 216
126 209
138 205
119 214
122 216
140 206
136 212
138 214
133 217
135 209
136 209
123 215
128 209
129 213
121 216
130 214
137 211
138 207
128 213
136 205
142 205
134 213
133 217
138 214
143 210
143 207
154 199
141 205
137 210
150 209
148 205
140 205
140 201
140 207
143 204
137 206
138 207
140 205
134 205
131 211
128 215
139 211
133 214
128 220
126 217
130 220
125 219
121 221
108 222
114 223
124 217
135 216
121 220
128 213
124 219
128 219
140 211
137 208
140 205
137 207
133 206
134 208
140 203
135 208
140 202
141 194
147 189
148 190
140 195
131 201
132 202
123 210
130 210
127 215
131 205
123 213
132 213
129 211
136 209
138 209
138 209
130 213
135 213
133 213
134 216
139 214
136 211
133 214
140 208
135 208
141 209
133 207
135 211
135 210
142 203
132 207
131 207
140 205
128 208
147 197
135 206
141 204
133 208
138 209
135 215
131 219
125 225
128 221
132 214
128 216
125 219
128 219
119 221
132 214
128 214
131 213
133 212
130 209
126 207
128 210
138 206
137 207
132 208
142 200
140 203
133 203
130 207
133 206
133 211
126 213
125 215
136 216
134 209
141 205
135 209
139 209
135 209
134 209
139 208
139 202
141 200
144 202
136 202
155 193
155 192
152 187
144 190
139 196
138 198
155 194
151 194
147 192
138 195
153 190
144 196
142 201
131 205
128 213
130 209
131 209
124 213
125 223
130 222
130 216
132 211
134 211
126 216
121 221
125 220
119 221
125 212
127 217
119 222
122 225
124 222
124 224
116 229
112 234
119 225
110 224
108 222
125 218
136 211
130 212
121 216
121 210
131 207
129 201
129 209
127 213
117 221
109 227
106 225
122 210
124 212
128 213
132 211
131 216
137 212
130 211
137 207
136 203
134 205
134 205
139 199
164 186
157 186
170 181
152 191
150 191
147 193
141 198
136 199
130 203
136 205
139 210
131 209
126 215
126 218
131 213
139 205
134 209
140 208
132 210
146 200
143 200
145 199
144 196
144 198
145 203
131 212
132 211
128 214
132 207
129 208
125 211
125 210
138 204
142 201
141 202
142 204
141 202
133 206
133 212
132 211
124 223
126 221
132 216
135 213
126 219
133 218
129 218
131 213
135 205
140 206
152 192
148 201
145 198
145 199
146 199
151 194
151 195
143 196
145 195
142 195
138 197
143 200
148 195
135 199
135 201
134 204
136 199
128 202
129 206
130 215
136 206
133 212
136 212
134 209
138 214
131 214
132 212
127 217
120 220
112 226
110 230
123 225
128 223
131 217
136 216
133 221
136 218
139 215
135 210
139 210
136 206
141 205
131 210
142 202
134 206
144 201
139 207
140 199
143 201
138 207
142 203
146 199
144 197
142 193
138 195
141 201
127 213
136 209
134 211
128 210
125 211
127 209
124 210
127 209
124 212
109 223
102 228
113 230
109 236
101 240
102 244
90 248
94 247
105 244
103 238
108 239
99 245
105 240
103 241
108 241
109 242
113 238
113 235
105 239
112 235
109 234
113 231
107 232
124 226
117 231
113 230
129 216
122 219
131 209
125 210
123 215
133 216
131 207
141 207
140 204
131 209
129 213
138 213
138 211
135 209
140 206
149 200
146 199
144 196
145 193
150 190
147 190
146 190
157 189
153 191
147 198
139 201
145 195
139 194
140 193
147 197
139 201
145 199
141 203
131 208
134 211
135 213
139 208
146 203
146 204
144 206
137 205
125 214
137 205
130 212
134 210
128 215
122 220
130 214
132 216
128 216
127 215
125 219
130 215
118 218
115 214
124 207
126 204
133 206
139 206
134 210
136 205
130 210
130 207
137 205
136 210
140 208
133 209
133 214
134 209
133 212
141 212
137 208
134 208
135 211
133 207
135 211
136 209
134 207
134 210
128 210
136 207
142 205
140 204
146 201
149 201
148 201
147 204
139 209
128 218
128 218
119 220
133 210
127 210
126 207
124 211
123 213
121 218
123 216
129 213
132 210
137 203
131 209
136 208
131 213
119 218
116 222
109 229
107 234
109 231
118 221
118 218
129 209
140 208
137 206
137 209
129 214
128 216
133 214
133 210
136 212
134 215
138 211
128 215
132 214
136 210
133 212
140 207
131 211
125 213
129 211
127 208
129 205
143 206
144 207
131 209
135 206
131 209
134 214
139 212
139 209
139 213
131 215
127 221
128 221
133 218
125 219
126 217
125 218
116 225
130 218
132 207
139 200
137 202
140 198
152 193
145 192
150 193
146 195
142 202
142 202
156 194
143 197
140 199
143 194
137 198
141 203
143 203
142 200
141 203
148 200
143 200
148 195
137 204
138 203
141 202
139 204
146 203
136 209
144 203
135 210
131 213
127 215
133 218
130 211
124 216
130 213
141 205
137 209
147 206
145 202
146 201
146 195
152 195
155 188
146 194
142 198
142 200
142 202
145 202
138 209
141 202
139 202
141 205
142 201
143 196
150 192
139 190
141 194
142 197
145 193
147 194
144 195
146 196
139 199
137 199
141 204
131 209
129 208
134 204
136 202
141 197
137 195
143 197
146 200
140 205
143 206
134 210
142 202
141 204
142 205
142 201
137 203
139 205
133 208
134 207
133 211
122 216
122 220
126 218
134 216
139 210
137 207
144 200
140 209
149 205
142 202
140 208
134 210
133 207
132 208
136 208
135 202
137 200
147 193
145 195
140 203
136 205
142 202
143 206
149 199
139 205
145 202
140 205
146 204
141 204
149 202
150 202
149 203
144 201
148 200
143 200
142 200
143 200
143 205
138 204
137 209
124 214
120 213
123 212
125 217
131 207
142 200
146 198
146 199
144 196
147 199
147 195
145 191
148 186
138 195
143 195
137 204
129 214
121 216
123 213
106 223
104 229
126 219
120 219
122 219
123 217
132 216
130 216
133 213
132 213
135 210
136 210
135 214
140 209
134 212
131 213
126 217
120 218
135 210
143 207
129 211
137 208
134 211
136 205
134 203
127 203
130 202
123 211
138 208
142 198
147 195
140 201
136 202
138 206
139 197
140 195
143 194
157 184
153 185
153 192
137 200
142 199
143 196
143 198
132 203
129 204
133 201
131 202
135 207
129 212
134 210
132 210
134 210
132 208
131 211
134 209
141 208
143 203
141 200
144 199
138 203
136 207
149 198
140 201
139 206
133 208
138 204
142 198
148 198
152 192
140 197
150 191
159 190
152 189
152 185
150 187
156 189
151 195
144 197
147 190
154 193
156 186
156 184
152 190
158 187
151 190
144 194
142 196
144 192
138 196
140 202
135 205
137 205
139 206
135 206
128 212
126 215
126 217
129 212
133 209
130 209
125 209
135 203
135 212
143 201
138 208
135 212
147 201
143 207
136 211
135 214
130 214
143 207
137 205
142 203
134 207
139 205
135 202
144 205
147 197
143 201
149 199
137 208
130 211
135 210
137 209
132 213
136 214
130 216
131 212
128 211
133 214
134 213
134 208
129 212
133 211
141 209
140 211
141 210
145 208
135 209
141 212
139 213
139 209
139 214
143 209
138 207
123 216
132 212
140 205
136 207
135 207
144 197
150 193
138 204
129 212
130 210
128 217
121 218
126 216
133 208
141 207
143 205
139 205
141 207
134 206
128 207
127 211
136 202
136 204
131 203
145 200
142 205
147 198
145 194
156 192
155 192
147 197
135 201
132 203
135 203
130 203
137 204
135 205
129 207
135 205
142 203
134 214
130 220
127 222
129 223
126 221
117 220
126 222
130 222
129 221
137 214
141 211
128 218
129 218
126 216
131 214
141 210
132 214
137 216
143 211
140 204
150 198
147 197
150 199
144 204
133 208
132 208
142 206
146 200
152 195
145 197
135 203
139 199
143 192
137 192
126 205
123 203
139 202
137 208
136 208
135 208
131 214
131 211
139 205
134 207
133 202
129 208
132 206
133 206
140 198
136 208
131 214
134 214
122 213
128 213
135 206
143 202
135 208
137 209
130 213
132 212
126 217
126 215
134 215
139 214
137 213
132 219
140 210
133 209
132 211
134 208
142 202
143 201
144 197
147 196
144 198
143 200
131 205
135 205
138 206
136 206
135 204
134 204
128 205
147 198
145 198
151 194
141 199
145 197
154 190
158 189
152 193
146 198
148 195
142 202
152 197
151 196
145 201
145 206
149 202
142 205
148 202
147 203
155 199
156 194
156 189
154 193
156 193
156 191
162 187
158 189
163 184
161 185
156 188
154 186
156 190
163 182
175 171
171 170
165 170
170 167
166 174
158 180
154 186
154 191
152 190
146 196
147 195
144 197
142 196
140 201
136 199
152 195
147 197
147 200
148 202
138 200
151 195
148 197
147 197
142 195
144 198
141 197
144 199
148 200
146 198
141 201
137 204
133 207
138 200
128 210
126 213
138 206
135 210
128 211
139 207
141 207
137 208
134 209
139 206
142 206
139 207
143 207
145 210
138 213
134 213
129 212
136 204
147 190
140 197
143 196
148 193
151 186
141 192
150 190
139 194
143 198
132 203
129 208
136 204
128 214
124 210
117 220
122 213
133 206
125 209
120 218
118 221
112 230
114 230
109 233
113 233
106 241
101 243
107 241
110 239
110 235
100 239
105 238
106 235
120 224
112 228
120 222
118 223
123 230
119 231
117 230
124 223
118 230
122 227
124 227
118 231
128 223
135 211
135 212
128 217
131 217
135 214
126 219
125 213
127 211
136 209
138 205
141 197
140 205
143 202
145 203
156 196
147 202
144 204
142 204
143 207
141 205
139 204
142 203
149 205
147 200
152 199
149 198
135 201
137 201
125 206
127 201
137 205
127 211
127 215
126 215
134 213
133 213
127 212
127 217
125 220
131 215
141 207
134 212
133 213
127 221
124 222
137 211
132 214
135 211
142 207
142 208
137 208
139 204
136 206
129 207
119 214
123 213
128 211
127 211
125 212
131 214
137 210
146 202
150 198
147 197
138 202
144 201
140 198
146 199
145 204
150 202
143 205
137 203
142 201
149 201
142 203
138 203
143 200
141 203
123 211
138 212
136 203
146 202
146 199
147 196
150 198
146 195
145 194
147 192
145 201
145 200
151 194
143 199
136 212
131 214
139 210
145 208
145 207
143 206
124 220
127 213
122 215
126 215
125 220
124 217
131 213
126 217
135 212
130 216
128 217
130 213
123 216
128 213
129 217
125 220
129 216
131 217
124 213
119 215
124 215
130 211
127 213
132 211
131 212
132 213
131 214
124 220
125 222
124 221
121 220
124 216
129 214
129 210
128 215
130 219
131 221
121 222
123 222
127 222
123 223
118 226
121 223
128 218
137 210
136 212
135 212
137 214
133 216
123 220
130 214
141 212
131 213
126 215
122 220
130 220
126 219
128 216
139 202
134 202
132 208
132 210
127 215
125 215
123 218
111 222
124 212
117 218
122 220
128 224
128 223
118 226
118 224
119 227
120 223
118 226
124 221
123 217
116 218
127 214
126 212
121 217
134 216
135 212
142 205
136 205
148 197
143 196
146 194
150 190
144 192
142 194
156 190
154 190
144 192
143 200
137 201
144 204
134 204
131 206
135 210
128 215
120 219
127 217
123 220
124 227
116 228
126 227
122 226
125 223
123 229
132 218
135 210
129 216
116 222
123 218
133 213
139 211
132 208
138 212
137 210
128 219
136 218
132 221
135 214
140 212
144 207
145 208
137 213
141 208
141 205
138 209
139 204
134 206
131 212
131 212
136 213
129 210
122 218
137 213
130 217
123 219
127 218
127 214
121 221
118 220
124 218
121 217
114 219
110 227
116 223
118 226
128 219
137 214
128 218
120 219
122 219
140 205
135 210
127 211
126 213
129 217
136 216
131 214
132 212
133 213
135 209
141 210
135 214
135 211
136 214
123 218
120 217
126 217
128 221
124 216
132 211
126 210
128 210
141 199
143 198
142 202
136 206
132 207
136 210
128 214
127 217
124 218
131 215
134 211
126 212
128 217
125 218
130 217
122 216
134 210
133 207
135 201
138 206
136 201
143 194
135 207
136 203
134 205
135 210
134 217
133 218
127 222
136 220
132 220
130 219
131 210
143 203
137 204
142 206
137 209
136 210
137 208
125 213
127 215
136 214
131 215
140 209
138 205
142 206
140 209
140 204
136 207
126 209
123 217
130 213
127 213
119 216
133 210
141 203
144 201
142 201
143 194
150 189
149 187
159 181
166 182
166 183
153 188
154 194
140 200
141 195
142 205
133 210
125 219
126 217
132 213
132 218
123 219
127 211
127 211
131 207
140 200
140 200
139 202
140 207
141 204
140 209
140 213
130 217
136 221
119 227
121 223
123 217
127 208
135 200
132 204
127 206
134 206
134 205
131 209
134 211
128 215
134 211
135 209
128 211
126 209
117 217
135 206
134 208
137 202
127 214
125 213
131 216
129 218
137 212
133 210
142 208
142 204
147 198
138 202
146 198
141 196
142 196
135 197
138 201
131 205
128 213
131 211
124 215
116 217
113 213
114 214
125 212
133 212
123 219
121 220
122 218
128 217
126 219
123 218
122 214
117 213
122 214
129 218
125 224
124 225
120 224
128 221
127 219
132 220
128 217
128 212
136 205
128 211
131 214
134 211
131 208
134 212
125 220
120 223
125 221
129 218
129 216
135 214
140 211
143 204
132 210
134 207
137 207
142 204
148 200
136 200
151 195
140 199
140 198
137 199
135 203
125 207
132 213
128 213
128 215
126 220
133 212
135 210
133 204
138 203
136 208
134 211
128 214
129 214
135 217
131 215
124 219
129 219
121 217
131 214
127 216
130 217
124 217
137 215
138 213
139 208
136 204
140 208
138 207
143 203
134 204
131 210
127 214
129 210
121 213
125 208
121 209
124 213
128 220
117 223
128 217
127 217
136 210
115 220
129 218
126 216
131 213
134 213
146 209
129 221
128 220
140 211
131 211
129 213
124 213
134 209
136 210
135 210
135 210
132 211
147 204
150 195
132 204
141 205
139 208
142 202
140 201
143 199
127 210
125 213
135 207
128 218
126 221
132 213
129 214
131 212
136 208
138 206
132 209
137 207
131 203
140 201
129 205
132 204
138 203
137 205
129 214
137 207
144 195
130 201
140 201
148 199
138 203
133 211
133 213
135 211
131 220
125 225
126 219
125 219
119 220
130 216
121 221
127 220
118 224
113 228
119 231
117 233
116 231
123 232
110 239
110 236
115 231
119 227
115 227
122 226
119 227
121 225
117 224
122 214
131 211
119 215
131 214
129 214
133 212
127 217
127 218
124 215
137 211
147 207
134 211
134 215
133 208
114 214
118 217
132 207
134 213
132 215
129 216
128 216
136 214
132 211
127 211
136 208
129 218
127 217
123 220
109 231
107 235
114 228
122 230
121 231
124 229
111 231
115 229
126 220
136 219
141 213
148 205
150 201
146 198
150 195
157 190
149 194
152 194
156 183
151 188
149 189
151 191
145 198
140 202
133 205
135 210
129 212
137 209
129 216
121 218
122 220
120 219
136 213
126 216
126 220
131 215
122 221
116 222
118 224
125 220
116 225
129 217
127 220
125 219
132 217
143 208
140 203
146 203
133 205
147 194
142 196
142 201
142 205
138 205
125 216
131 214
119 220
120 221
135 211
131 213
138 211
137 210
144 202
139 206
131 217
133 215
135 214
124 219
135 210
129 209
129 209
130 206
117 211
118 208
129 210
125 209
128 207
136 206
130 211
126 215
131 217
117 223
129 214
139 205
136 206
142 198
140 199
135 204
131 201
147 202
146 193
139 193
141 193
137 196
143 195
151 189
145 190
135 199
138 196
147 198
136 198
133 200
136 206
133 208
128 216
126 219
126 219
129 215
132 215
128 217
127 217
121 220
119 220
121 220
129 216
126 216
132 216
124 226
117 227
125 221
115 220
119 222
118 218
123 220
122 215
116 221
125 217
132 211
131 216
124 217
123 215
124 217
127 221
123 224
131 220
116 223
125 218
124 220
123 222
121 225
116 227
120 228
119 223
114 228
120 223
118 224
117 224
122 223
118 223
121 218
131 211
137 211
130 214
126 213
124 215
125 218
121 226
124 227
122 231
127 225
125 220
136 212
124 217
126 221
117 224
112 221
109 223
113 220
126 218
137 215
134 212
131 217
122 218
128 218
117 226
119 226
128 223
123 222
128 218
128 221
127 220
119 225
115 229
123 223
111 228
116 221
121 221
127 215
123 214
128 211
135 209
131 212
131 213
134 217
130 216
133 215
134 210
141 211
145 207
150 198
154 198
153 201
148 199
145 196
144 200
141 203
145 202
139 201
138 200
142 198
132 202
144 200
132 209
134 211
138 208
141 204
149 199
145 192
146 197
151 195
144 198
150 189
138 195
136 199
140 203
136 207
139 210
139 209
124 219
133 218
132 217
124 220
130 211
134 209
134 213
139 213
141 207
129 210
125 212
137 206
131 211
142 204
134 211
143 204
142 200
155 192
147 192
139 195
131 201
141 202
139 203
143 207
153 199
153 197
140 202
142 207
132 209
126 216
126 215
121 216
113 222
124 222
124 227
117 229
120 227
116 230
123 222
120 219
121 218
117 220
117 226
127 220
117 222
110 231
108 229
113 228
110 227
117 224
122 225
132 220
126 225
124 226
129 219
130 212
126 209
136 206
135 207
135 212
137 212
130 209
138 210
136 213
134 208
131 206
139 207
122 213
126 213
132 212
142 204
150 200
152 195
143 202
147 201
138 200
148 197
150 198
141 203
151 198
160 194
157 194
166 186
164 181
157 183
158 182
152 186
158 188
150 191
160 188
156 183
150 193
153 189
153 193
143 194
141 198
145 194
131 202
142 199
147 204
146 203
153 198
146 203
147 203
148 197
147 196
139 197
136 202
143 202
137 208
135 206
128 213
130 214
136 212
142 211
134 214
129 214
130 214
131 213
126 220
126 220
131 212
130 213
136 212
134 210
135 210
128 213
124 211
118 209
115 217
115 219
119 222
119 220
122 220
123 216
125 216
139 213
123 219
124 219
131 213
133 206
139 198
144 199
130 202
135 204
139 205
131 207
143 198
132 205
137 203
136 205
148 203
134 208
131 208
122 213
119 216
114 223
116 219
121 212
124 214
133 208
131 206
131 201
129 209
134 208
133 210
137 203
144 198
138 203
138 203
143 199
142 204
141 203
148 195
146 192
139 202
143 195
138 195
137 198
145 197
140 193
139 199
138 199
138 197
125 204
133 196
140 197
131 201
135 206
132 210
140 205
130 206
140 200
142 202
139 203
141 202
132 206
134 209
129 218
129 217
132 216
120 223
123 219
117 220
119 215
115 216
125 211
120 218
124 223
119 224
123 222
129 223
136 217
137 208
143 201
149 195
142 200
136 201
136 204
132 212
127 214
122 213
126 221
121 224
124 222
127 216
114 216
111 223
121 213
117 217
116 220
119 221
123 219
136 207
123 214
136 211
134 210
139 208
130 211
131 212
130 216
122 218
130 216
123 223
117 219
120 224
121 220
130 216
128 218
124 222
131 219
131 214
131 211
143 203
141 202
147 203
151 202
142 208
136 213
142 211
143 206
130 210
121 216
124 215
134 206
129 206
128 213
130 213
127 213
133 208
131 207
126 213
135 212
129 214
129 220
133 212
135 211
125 216
125 212
132 208
122 213
129 210
137 205
139 203
142 203
133 208
134 210
134 210
139 204
146 201
137 209
139 211
140 211
131 211
137 211
139 207
135 199
131 202
141 201
143 198
145 199
141 199
142 197
142 200
143 201
139 202
144 200
130 209
137 210
134 212
134 206
138 200
142 201
137 201
134 209
138 204
146 203
140 208
128 209
138 201
143 199
141 204
137 202
136 206
127 213
127 212
123 213
124 208
132 205
136 206
130 210
122 212
115 216
124 211
138 209
124 216
128 211
124 222
127 219
122 222
121 225
122 225
124 222
126 218
130 218
131 218
136 216
137 212
145 210
154 199
156 191
158 188
148 192
150 193
138 196
144 194
136 198
130 202
140 201
134 204
132 208
136 208
138 205
141 202
140 204
131 210
133 217
131 220
131 212
133 214
139 206
140 205
136 208
135 203
133 207
129 217
121 218
127 216
133 214
125 215
128 216
126 216
130 217
134 214
132 209
136 206
140 205
134 204
138 204
137 200
153 190
144 195
135 198
135 203
135 207
127 211
119 213
126 218
123 218
124 216
122 216
130 216
121 220
121 219
117 224
119 222
127 221
132 220
130 226
130 224
124 218
133 213
133 211
132 214
135 209
134 208
131 213
127 211
133 210
128 211
131 205
139 203
140 207
127 216
124 218
125 218
122 221
128 222
130 223
119 223
113 231
119 234
132 216
130 218
119 226
121 224
124 218
119 221
120 219
124 213
121 219
125 219
126 218
129 215
130 213
131 216
127 216
130 216
135 216
139 213
139 209
139 209
137 201
134 207
134 203
134 207
142 200
141 201
132 208
136 205
125 207
126 208
143 202
136 205
135 206
136 200
139 201
135 208
131 213
133 215
131 217
126 224
117 226
118 221
113 225
117 226
114 227
110 232
123 228
127 222
129 215
125 217
126 214
124 213
125 211
140 203
137 205
126 207
125 213
133 207
140 204
131 209
135 209
122 213
130 209
133 206
136 208
134 203
140 196
141 193
142 196
147 197
142 200
144 197
143 206
133 215
136 213
135 212
129 220
128 214
127 218
130 219
128 220
121 223
126 221
122 223
122 225
118 226
127 223
130 220
135 213
132 210
138 205
140 205
140 202
144 200
138 204
130 203
140 202
154 193
154 195
160 189
151 190
133 198
134 201
142 196
143 194
146 196
143 197
155 190
152 190
150 188
154 184
153 185
154 189
159 191
143 191
154 186
146 186
148 195
138 200
128 209
129 209
128 215
131 217
116 224
121 227
120 223
124 218
122 217
132 218
131 211
128 216
127 212
119 220
122 221
126 222
131 216
128 217
136 212
126 214
128 215
140 203
140 199
144 197
142 197
144 200
145 199
133 207
144 200
148 196
143 192
146 191
139 194
129 201
125 208
122 210
130 207
133 209
129 211
131 209
134 206
131 207
138 201
137 204
136 207
138 206
143 204
147 198
130 205
130 205
137 196
145 190
147 189
148 188
139 197
135 199
140 191
143 190
145 188
150 190
147 195
152 192
150 187
159 181
152 178
150 181
148 187
154 188
156 189
158 181
160 179
166 178
154 182
161 180
171 180
173 179
163 187
163 184
161 177
155 181
146 184
147 191
139 197
138 200
137 203
131 208
134 208
130 208
125 212
130 212
137 207
146 200
136 207
137 207
134 216
134 213
135 206
143 205
143 199
152 196
145 197
142 202
149 198
148 199
147 198
149 199
155 190
160 186
153 195
151 198
144 199
130 206
131 209
131 213
127 211
127 215
120 220
119 224
131 215
137 212
131 212
137 207
137 208
139 205
132 205
139 201
142 203
134 206
128 212
128 211
130 206
122 216
137 214
127 219
125 218
133 214
129 213
125 215
135 212
125 213
121 217
133 211
137 205
134 202
135 205
139 211
148 207
134 214
142 212
141 213
134 209
142 203
144 201
142 200
143 200
142 201
144 199
144 200
149 201
145 196
135 200
134 200
135 200
143 192
140 194
135 199
134 201
140 201
141 203
137 205
133 205
140 205
138 202
141 200
150 197
143 196
152 190
148 192
147 193
143 196
136 197
142 195
145 196
149 192
148 200
143 211
128 215
137 212
139 206
146 206
143 206
143 199
146 201
147 196
147 194
147 197
142 201
146 199
144 205
147 202
137 202
147 194
138 198
136 203
136 206
136 206
134 206
130 205
138 197
131 202
135 204
142 206
129 210
129 212
135 218
126 224
122 223
123 225
133 217
143 205
137 206
141 203
146 206
154 197
154 195
153 192
158 187
148 189
158 185
158 189
159 186
154 189
158 179
153 188
154 186
148 188
153 186
156 187
150 190
158 189
156 192
152 189
152 187
154 193
161 190
149 194
141 202
135 203
134 201
129 206
133 208
132 208
126 212
126 214
110 219
117 217
129 213
132 210
132 213
138 212
137 205
139 202
130 207
137 205
139 208
148 204
143 202
144 202
142 201
152 197
151 199
144 197
141 204
134 207
133 208
135 206
132 214
128 213
132 211
135 210
136 213
134 209
143 203
141 201
143 198
153 192
145 195
146 195
147 190
143 188
156 185
162 180
162 175
167 181
161 182
153 193
152 197
136 205
143 202
146 203
145 203
135 214
141 208
143 206
143 203
140 207
150 197
155 197
151 192
155 190
158 189
154 187
140 196
154 189
145 195
146 199
131 204
134 209
134 204
134 207
138 208
134 209
138 206
129 212
130 215
133 209
130 212
137 208
142 208
132 214
128 216
133 214
131 212
139 209
138 204
146 202
152 195
150 199
145 197
143 203
135 205
144 199
146 199
142 203
142 206
137 204
131 205
137 206
131 210
127 210
132 207
127 206
130 208
133 207
136 210
122 217
120 225
124 225
112 230
120 223
125 222
123 223
119 229
123 228
121 230
123 228
117 228
129 222
135 212
132 211
132 210
127 210
135 212
136 210
142 204
129 213
126 214
120 214
129 209
134 207
130 208
147 198
140 198
145 199
148 201
139 198
156 193
141 203
136 208
139 211
136 213
138 215
138 209
138 211
133 209
130 213
124 216
124 213
126 217
130 219
138 208
131 207
134 204
138 205
133 211
144 209
131 211
124 218
126 218
118 224
120 218
118 221
125 216
120 217
121 218
118 222
117 219
120 222
136 208
136 206
127 207
139 206
135 200
133 201
129 209
138 206
142 208
134 212
139 212
135 214
135 211
126 208
135 202
148 196
147 200
139 201
136 203
135 203
142 198
142 199
136 199
140 197
131 205
141 200
135 201
129 206
135 203
134 205
123 204
133 202
131 206
117 214
121 217
114 219
116 217
120 216
132 216
123 221
115 225
104 229
114 219
108 227
124 219
121 221
119 221
127 215
117 215
112 223
116 221
126 224
128 224
136 225
128 225
128 223
121 228
124 230
125 223
135 212
125 216
124 217
131 216
129 214
131 214
126 213
123 215
136 208
137 207
133 206
134 209
124 217
122 225
132 222
128 222
132 216
129 217
131 216
128 216
126 219
131 214
135 211
136 211
133 208
129 208
132 206
136 205
119 212
112 222
113 219
117 220
115 220
130 216
118 217
124 216
125 222
120 226
123 221
128 219
130 219
124 221
122 221
123 223
124 223
132 216
130 213
129 220
135 212
134 210
131 211
145 201
131 202
124 208
131 204
135 204
141 202
137 201
141 202
137 201
144 197
146 195
129 200
142 195
148 192
147 196
135 200
135 202
132 201
135 197
141 189
143 191
135 197
134 198
147 197
144 202
137 207
130 214
135 205
141 204
156 191
148 188
148 192
148 194
149 198
143 199
136 209
139 205
137 206
138 209
139 210
139 209
133 210
133 210
130 209
129 206
141 203
145 198
129 203
133 205
140 205
140 200
144 197
142 198
136 200
129 204
122 213
118 216
125 216
128 216
127 214
132 209
131 214
126 216
122 221
117 221
134 212
135 211
127 211
132 212
138 207
139 210
132 214
139 208
140 209
128 214
135 215
129 215
135 212
139 210
139 206
130 207
126 208
129 208
133 206
123 209
126 207
128 207
134 201
129 207
135 206
132 205
134 208
139 207
142 204
141 204
147 206
139 208
138 210
134 211
132 213
134 216
136 210
130 214
127 215
126 217
122 216
118 216
128 210
129 213
128 215
133 213
129 207
140 195
145 188
143 188
141 194
159 183
144 193
143 197
136 203
133 208
139 202
142 199
135 201
140 204
148 198
137 202
130 206
140 202
138 200
139 206
139 209
127 217
124 217
120 224
116 230
117 225
126 223
131 218
140 208
139 207
139 210
139 207
132 207
143 206
144 205
135 210
132 209
128 209
127 213
133 214
128 217
129 216
132 218
143 207
144 204
133 210
133 208
130 212
144 204
131 208
141 204
144 199
139 204
136 208
138 206
142 205
136 205
137 209
141 201
141 202
140 203
132 207
128 215
124 215
130 215
142 204
139 201
144 200
142 203
139 201
143 196
134 199
136 201
144 199
145 198
140 202
142 196
135 197
145 197
136 203
128 211
134 211
132 216
129 219
127 222
135 213
138 211
136 213
126 218
123 213
126 208
128 208
124 215
117 216
116 221
130 214
125 218
126 219
128 215
137 208
140 208
135 213
131 215
133 215
133 213
130 211
140 212
133 210
123 216
142 206
144 197
131 208
134 211
132 208
138 206
143 202
136 207
147 201
144 202
148 201
142 199
134 204
128 208
119 213
124 215
124 212
129 212
131 216
124 216
128 215
132 207
128 209
122 211
124 212
123 214
126 213
132 210
133 211
130 214
132 213
129 213
124 219
126 217
123 222
130 217
129 215
130 218
129 217
127 217
121 220
125 223
121 220
111 225
125 219
122 221
118 216
124 217
124 214
133 212
133 209
121 218
137 209
141 208
126 218
115 228
117 226
118 228
118 223
118 223
116 223
113 230
119 220
127 219
118 228
117 230
133 222
132 221
136 214
130 214
131 214
131 214
134 212
138 207
129 213
124 214
134 202
145 198
145 196
151 192
149 195
149 196
145 198
153 190
146 200
150 199
142 201
131 212
129 212
122 210
122 218
120 213
129 211
117 225
115 227
117 225
112 227
113 225
116 226
114 231
115 233
127 224
122 226
124 216
125 215
134 210
139 207
120 208
123 209
138 200
141 198
136 200
145 194
130 200
133 200
135 205
138 206
131 206
126 204
121 213
124 213
120 221
124 222
123 219
132 219
126 221
129 219
119 222
125 219
127 218
125 218
118 222
127 223
123 221
133 211
129 216
136 205
136 206
135 209
140 207
138 205
128 213
123 216
127 220
133 219
130 221
138 218
131 220
137 215
134 216
139 211
138 210
132 211
135 207
137 211
135 214
128 224
140 219
124 223
130 220
116 218
117 214
117 219
123 212
122 217
119 215
124 215
128 217
127 213
131 216
121 222
127 224
125 223
132 217
140 209
140 204
135 203
150 199
146 201
132 206
145 194
140 199
142 197
139 197
146 193
139 197
137 199
142 197
145 197
142 190
148 192
152 186
142 195
146 193
156 189
152 193
156 191
158 192
156 190
155 188
156 193
153 189
158 184
154 184
144 189
145 192
140 193
148 191
140 197
139 200
148 196
146 197
149 199
146 201
138 202
138 205
148 200
153 194
150 192
147 196
158 190
153 193
148 201
147 198
147 193
141 201
137 205
143 205
144 209
140 204
135 209
134 213
134 216
133 215
127 215
132 207
142 201
140 207
133 210
126 214
135 208
141 203
131 207
131 213
126 219
122 227
122 224
125 230
119 234
116 229
111 226
122 222
118 228
117 230
118 229
119 224
126 221
123 221
124 221
121 229
125 223
121 223
124 222
133 219
133 216
131 217
137 213
134 208
137 208
136 208
139 203
152 198
153 193
148 200
141 200
142 196
142 198
139 202
134 197
136 197
139 198
134 203
139 202
141 200
144 204
138 204
142 204
141 206
142 204
139 209
128 215
125 221
128 218
125 218
129 215
129 214
129 213
139 211
130 213
136 207
136 212
130 213
134 208
139 201
149 190
143 193
148 191
142 195
145 192
156 185
153 186
158 176
160 178
160 180
152 183
155 179
159 178
157 181
162 183
159 181
159 187
151 191
143 193
138 197
134 201
138 203
139 208
133 208
129 211
128 210
132 208
136 209
128 212
132 209
132 209
139 206
136 210
129 216
130 217
136 217
130 213
143 207
136 207
138 210
143 209
141 204
134 203
147 204
154 198
144 198
146 196
150 195
143 198
150 195
149 189
153 186
154 185
150 185
162 177
166 174
165 175
165 174
171 171
169 173
175 166
175 171
158 179
166 178
165 179
160 181
160 179
156 185
153 190
143 193
145 193
145 192
143 197
152 191
145 199
144 201
146 196
134 201
137 200
143 200
146 197
134 213
131 217
125 215
114 219
111 220
108 221
111 221
111 225
123 221
132 216
125 217
116 224
124 215
131 211
137 206
139 206
137 203
143 203
135 211
140 205
136 204
141 202
135 205
144 200
136 202
140 200
142 202
134 208
141 202
145 203
139 208
124 215
128 208
145 192
137 196
136 198
146 198
140 203
139 205
149 196
153 198
135 207
133 210
125 215
121 218
120 218
122 220
122 222
127 212
127 215
129 218
124 221
120 221
123 219
119 216
125 220
124 227
119 226
112 231
126 222
118 228
118 222
125 217
129 215
135 206
128 208
140 197
130 204
135 204
130 207
143 203
139 211
136 211
134 209
129 215
133 214
132 216
118 220
130 214
131 210
137 201
140 199
142 199
149 187
137 197
140 201
136 210
132 208
138 207
140 206
141 202
141 200
130 202
136 200
132 208
128 210
121 212
126 214
138 205
135 210
135 205
133 209
129 212
125 215
133 213
124 220
125 214
122 218
119 220
127 217
130 214
132 211
142 210
141 209
145 203
140 209
139 206
137 206
131 213
133 217
128 217
136 217
122 221
121 223
119 223
122 224
124 222
123 224
121 224
127 219
140 213
146 206
146 207
139 208
131 207
132 208
135 205
143 201
139 208
144 206
140 208
133 216
137 212
135 207
135 203
132 207
123 211
128 211
128 205
139 201
137 205
142 209
144 203
140 211
136 212
128 218
132 215
127 217
128 213
123 214
128 214
118 222
128 216
146 205
139 206
130 214
131 212
134 209
138 207
141 201
140 205
153 195
151 196
150 193
141 193
143 197
147 195
139 195
135 199
150 196
140 199
143 194
142 200
146 198
150 199
140 203
139 203
142 199
134 207
141 204
143 203
137 207
149 199
142 205
136 206
127 207
143 197
143 203
136 201
135 203
137 203
128 207
135 201
142 201
145 199
145 201
145 198
137 206
130 207
122 216
120 215
129 208
133 206
127 209
131 208
138 208
132 203
140 199
143 189
148 192
145 194
146 190
134 198
137 199
144 200
130 213
126 215
134 217
135 211
135 212
141 207
141 204
135 212
124 215
124 217
123 216
128 217
127 220
126 221
117 230
108 234
113 232
121 229
124 224
124 224
130 218
134 211
137 206
132 209
124 212
130 213
136 212
129 221
129 218
131 214
135 211
139 214
131 220
132 213
132 215
139 208
141 209
140 210
134 211
137 212
143 211
138 207
138 208
135 205
138 206
139 207
126 215
129 216
127 215
124 216
131 207
134 212
144 207
142 208
140 203
143 204
142 201
135 207
128 209
131 211
126 213
128 215
135 207
140 203
137 204
143 203
140 199
145 195
142 199
143 203
133 204
130 207
135 210
136 211
133 214
139 208
134 210
133 210
147 200
143 198
142 206
148 203
143 206
137 202
142 201
138 203
143 205
133 212
132 211
134 211
133 213
136 213
133 219
137 214
125 220
115 223
121 227
123 225
128 219
129 221
139 211
135 210
141 207
135 205
141 203
138 205
131 207
137 198
147 196
148 201
141 205
142 204
148 198
140 200
145 200
147 194
149 200
156 194
150 198
143 207
143 201
134 205
130 202
134 202
143 197
142 198
149 197
151 195
153 194
144 196
142 203
152 192
147 199
144 194
150 192
150 193
156 189
155 194
147 199
140 201
118 212
136 211
136 204
144 206
146 210
139 212
129 210
130 216
127 220
124 219
135 215
121 217
116 221
121 217
127 213
124 215
119 220
124 216
133 211
121 220
123 218
126 211
134 206
132 200
142 197
138 201
143 198
143 202
142 196
145 195
147 196
144 199
151 194
145 198
139 198
145 193
147 195
142 201
150 202
139 205
141 201
140 199
136 203
132 206
132 208
138 205
128 212
124 220
122 226
135 216
123 217
130 219
133 220
137 214
143 208
138 206
142 205
133 208
137 208
139 209
138 208
140 206
138 204
137 205
141 206
126 211
138 204
140 203
147 199
149 193
155 191
147 196
146 197
140 195
147 189
152 188
150 189
144 191
147 189
153 187
147 186
155 186
152 187
152 186
149 185
148 189
148 189
147 195
134 202
132 204
137 203
139 200
138 204
139 209
148 202
150 198
142 202
134 206
133 210
131 207
133 210
146 206
142 206
135 204
131 204
134 209
141 205
136 210
135 207
134 212
134 208
136 208
141 203
154 195
146 198
134 204
142 198
138 207
136 206
141 204
147 193
139 201
146 203
152 199
141 206
132 210
133 209
139 206
134 210
135 207
145 201
150 197
149 203
154 194
157 192
153 193
151 193
162 188
158 191
163 186
164 182
164 184
152 188
156 190
162 188
162 183
160 183
151 188
150 186
157 181
152 185
148 192
150 191
149 192
153 191
154 192
155 187
160 183
164 179
169 179
163 185
159 182
152 192
158 184
169 179
160 181
159 187
149 190
148 195
151 191
146 199
143 205
132 218
130 219
126 222
130 216
142 204
134 202
129 207
130 210
123 214
119 216
122 217
122 218
129 220
124 219
121 220
120 223
117 222
129 212
130 214
128 213
132 213
131 218
127 218
145 206
148 207
137 206
139 206
144 207
134 202
132 200
138 197
146 193
146 190
137 199
135 199
140 204
133 205
139 201
129 204
134 203
133 211
141 205
145 203
141 206
129 217
122 221
124 216
121 217
127 218
124 218
136 216
128 217
126 220
124 222
128 221
130 220
130 221
118 220
123 220
116 225
124 226
126 226
132 214
138 211
137 207
136 209
135 213
139 208
141 207
143 205
145 202
139 201
137 205
132 206
141 201
131 204
125 211
130 205
128 202
143 199
145 199
136 205
132 213
132 205
136 207
144 199
132 207
137 207
144 202
154 195
146 197
144 195
133 202
128 206
129 208
132 203
133 209
132 209
126 213
130 210
139 207
149 196
147 199
147 197
151 191
147 192
147 196
134 199
140 204
142 203
137 204
136 206
139 206
137 205
136 206
135 209
134 214
138 208
144 207
134 207
135 206
139 201
147 198
141 200
145 198
149 198
149 195
141 195
140 201
147 190
149 186
149 190
149 190
154 188
145 188
154 186
156 183
158 181
163 187
157 190
156 192
164 186
142 195
150 197
146 201
141 206
147 203
136 210
138 204
133 208
133 208
129 208
129 207
124 208
127 209
127 213
130 212
132 212
126 220
129 217
125 221
135 216
126 221
123 219
125 219
126 214
124 217
125 218
121 221
124 217
126 222
132 219
124 221
138 215
125 219
126 220
116 223
124 221
131 215
135 212
131 211
136 208
137 209
129 216
127 217
136 209
135 206
132 206
146 202
141 204
136 202
130 209
140 204
132 205
134 207
136 208
137 206
135 208
142 206
130 214
128 210
135 207
138 205
142 201
145 202
136 206
134 212
128 218
125 215
125 214
132 207
129 206
132 207
129 211
128 208
124 211
118 220
120 225
124 222
124 219
126 217
125 216
117 224
114 221
124 219
129 219
132 216
117 224
122 228
119 231
111 231
112 230
116 228
129 225
116 225
121 222
128 222
120 232
123 228
123 224
118 227
131 221
114 227
107 232
106 227
111 230
119 228
122 228
129 222
132 216
138 219
132 215
135 216
137 212
136 204
136 208
140 200
132 206
133 207
139 210
132 214
133 215
131 213
141 211
130 210
139 211
132 213
129 219
122 229
122 231
126 221
121 219
111 226
113 228
106 233
105 238
104 235
106 234
113 234
113 233
117 230
115 231
119 225
115 228
116 232
119 232
126 225
122 228
111 230
113 228
122 223
132 219
131 217
144 209
132 214
126 211
137 208
145 208
130 217
130 220
133 217
134 217
134 212
133 210
138 211
128 213
132 209
139 210
141 212
145 203
141 202
139 205
137 204
131 208
137 208
132 216
138 209
139 210
139 209
131 214
127 214
128 213
136 213
125 215
126 213
124 212
129 207
128 214
128 215
124 216
123 217
124 216
119 214
130 217
128 217
115 221
119 225
123 221
125 219
132 214
129 217
125 219
128 217
129 214
128 214
126 219
121 223
139 210
134 210
135 215
126 217
127 216
125 217
128 217
127 214
119 214
128 212
127 215
137 209
144 203
137 208
141 206
136 206
134 205
120 212
126 208
127 209
121 216
117 216
114 226
123 223
122 224
130 219
129 220
129 218
124 223
132 218
118 225
117 225
115 222
123 216
109 216
118 216
124 218
119 221
125 218
124 218
124 218
122 216
137 211
134 215
128 224
120 227
122 225
125 222
128 218
112 226
113 229
117 228
119 228
118 230
114 232
122 230
115 227
114 226
113 228
126 216
128 219
134 210
131 211
143 206
129 214
127 214
125 220
122 223
127 217
129 215
121 218
121 224
125 221
115 226
124 222
110 228
111 226
117 222
119 224
125 217
133 209
130 206
134 206
143 197
142 200
144 197
149 195
145 193
141 196
135 194
140 195
133 198
143 192
143 197
137 204
134 203
127 208
132 206
130 202
130 208
121 215
131 215
120 220
119 223
131 214
127 214
121 220
121 214
124 215
121 213
121 219
125 218
120 220
125 218
118 218
117 220
133 215
130 215
128 213
134 211
131 208
134 215
126 222
123 223
129 219
132 217
125 218
137 209
135 207
134 207
133 206
137 206
134 209
136 206
138 207
134 208
130 212
131 211
134 208
137 204
138 201
137 201
130 206
131 211
134 208
134 215
124 218
122 224
114 228
121 220
117 221
125 218
123 222
121 223
114 223
114 225
116 219
114 219
118 220
119 222
123 222
129 218
125 220
124 216
115 225
117 222
132 210
122 213
119 216
126 216
127 216
138 209
131 208
141 205
137 203
148 199
144 202
144 207
130 212
135 204
139 206
127 207
129 206
118 214
128 211
131 211
116 220
123 218
119 221
112 230
117 226
115 230
123 222
133 218
128 219
127 219
116 222
121 223
124 223
126 222
124 219
135 214
134 212
132 207
128 213
135 206
136 204
139 208
140 205
142 204
145 203
157 192
150 194
147 197
148 192
154 188
150 190
147 190
152 183
149 185
142 187
148 195
144 193
136 197
132 205
127 206
125 207
138 197
157 186
146 194
150 196
147 196
141 201
136 206
140 202
146 195
154 192
145 191
147 195
148 194
140 195
132 201
130 206
127 212
132 210
124 208
124 214
129 212
134 208
130 214
129 215
131 211
135 216
133 217
131 219
129 220
128 217
138 211
136 215
142 211
134 213
131 210
145 201
143 200
143 197
141 196
142 198
139 202
133 202
143 198
134 200
133 204
140 202
140 205
150 200
155 196
144 202
140 207
145 199
135 207
138 208
144 206
135 207
137 214
135 214
127 218
131 216
132 214
142 205
141 205
141 204
140 209
131 206
137 200
135 203
144 198
144 196
145 200
151 191
154 194
151 195
142 196
147 201
138 203
136 202
136 205
148 200
148 202
143 205
148 203
137 202
147 198
144 202
137 204
133 200
138 200
140 202
142 203
142 207
135 205
129 208
132 216
129 212
136 210
132 211
134 209
133 207
141 203
153 198
152 193
157 195
147 204
144 207
140 210
143 210
135 212
126 212
134 208
139 202
145 200
144 196
150 193
155 188
147 197
145 203
135 205
130 210
124 219
125 220
133 215
135 210
131 210
138 203
138 205
138 206
131 211
123 216
136 211
139 209
133 213
128 213
126 216
118 218
134 211
138 205
133 204
134 202
138 195
135 199
140 201
128 209
130 207
137 209
134 214
130 219
138 212
129 215
141 210
136 213
139 212
140 209
140 210
121 220
123 218
124 218
127 218
127 213
132 210
142 202
135 208
134 206
134 208
137 204
136 204
140 202
140 205
137 200
150 191
148 193
142 196
147 189
147 189
153 184
142 185
150 185
147 189
145 188
150 191
143 190
156 190
149 198
136 207
142 207
144 205
140 204
137 206
137 202
142 201
142 203
138 206
132 207
129 213
124 220
123 224
124 227
114 228
119 226
123 225
122 222
122 221
117 221
115 225
126 226
120 223
131 210
128 212
118 216
124 221
124 222
125 222
123 219
129 218
138 211
138 210
131 206
130 209
130 205
129 211
127 215
146 201
136 206
135 202
139 198
140 204
141 200
147 200
137 205
149 203
147 201
132 204
138 203
142 194
145 195
149 189
150 192
153 186
155 192
150 197
152 195
139 193
139 195
153 194
139 201
133 204
138 197
140 197
137 204
129 209
136 204
134 209
123 217
125 217
122 218
115 222
115 219
128 214
133 209
135 206
144 199
151 198
150 197
153 195
156 190
156 197
152 194
146 198
151 196
156 192
148 192
150 190
143 197
141 198
136 200
135 205
131 207
122 213
126 211
122 215
127 212
130 217
136 205
144 196
138 208
132 206
141 207
144 208
138 210
131 212
132 213
144 200
139 204
144 204
146 205
139 203
141 202
141 205
140 205
138 206
145 203
133 203
140 198
147 192
153 189
146 192
151 189
151 191
145 198
147 201
142 203
147 204
147 199
148 196
147 198
134 208
131 208
129 213
130 207
134 211
136 208
143 206
135 203
149 193
147 192
140 197
136 199
126 203
139 199
133 203
135 203
142 202
142 203
142 202
142 202
142 200
143 199
150 193
141 195
146 194
147 196
152 196
140 197
148 194
139 201
140 204
142 206
143 204
141 202
141 201
139 202
139 205
137 209
135 208
131 210
132 210
128 211
136 210
122 220
131 214
126 216
132 214
131 215
137 214
138 215
134 215
131 214
141 209
136 213
138 207
133 211
139 208
136 208
133 206
146 197
140 200
138 204
127 210
132 208
143 200
142 204
140 201
148 196
159 190
150 188
146 193
150 191
149 194
136 199
145 196
132 201
134 204
134 208
136 207
141 206
143 206
143 204
148 199
156 192
149 193
146 199
144 203
145 201
144 202
128 212
137 205
141 202
144 203
150 202
146 204
143 209
144 210
142 208
148 203
145 198
141 197
149 192
142 194
153 197
158 190
157 188
148 189
159 183
154 186
158 185
143 192
151 194
148 197
143 204
133 208
138 213
139 213
145 207
146 205
132 208
133 211
142 205
133 210
129 212
135 211
138 208
124 207
144 202
135 206
126 212
133 210
126 220
123 220
123 220
138 208
135 209
144 203
145 207
141 208
145 204
150 199
151 202
147 201
153 195
155 197
143 199
134 206
146 206
145 206
147 201
150 195
144 197
160 191
170 180
156 180
153 182
157 181
160 179
161 188
156 185
153 187
156 183
145 193
148 190
139 195
142 198
145 198
145 198
145 194
142 201
146 197
153 191
149 190
163 184
169 183
158 189
161 183
163 182
158 182
157 180
151 177
158 178
160 177
160 174
171 173
161 180
160 182
159 182
158 181
150 187
153 182
162 179
164 178
162 179
164 175
168 174
163 175
163 179
168 180
160 185
162 182
159 184
156 188
148 186
157 182
152 184
156 185
157 185
162 185
146 195
141 198
153 195
140 197
146 197
152 195
151 191
152 186
164 181
155 182
149 189
162 182
160 182
162 177
170 176
159 179
161 178
155 176
155 179
164 174
158 178
159 179
156 184
157 181
157 182
157 180
175 171
181 169
173 172
178 171
174 172
175 170
165 178
164 176
172 176
169 175
166 179
164 181
164 181
156 186
155 187
155 189
157 185
146 192
152 190
148 189
149 190
150 182
159 179
150 186
158 188
153 193
161 188
163 184
157 191
155 188
157 184
145 197
147 196
157 192
153 198
156 191
153 194
159 190
161 193
162 192
167 185
173 181
167 179
169 176
167 178
161 177
163 176
158 181
155 189
155 191
139 200
142 199
142 202
141 198
138 197
139 198
133 201
138 199
134 205
130 208
149 199
144 205
135 211
133 208
134 210
132 211
132 209
135 209
129 205
134 205
130 204
130 210
139 209
134 208
140 206
144 206
137 212
134 214
128 221
136 216
144 211
152 204
152 197
155 195
160 190
159 185
150 188
149 188
157 185
162 185
158 187
163 183
158 188
157 189
155 183
162 183
156 184
157 182
154 185
151 189
142 195
136 200
131 206
134 207
131 210
131 206
128 208
132 206
140 203
141 202
135 206
136 205
147 200
145 198
131 204
140 197
148 192
148 197
146 201
144 203
151 197
148 200
141 200
138 204
139 202
133 205
142 194
143 194
144 198
143 202
131 201
137 201
132 210
130 213
129 207
124 216
124 214
131 210
125 211
130 213
131 211
123 214
129 219
113 225
114 225
123 218
117 222
118 218
122 219
124 218
134 214
129 215
132 209
134 212
122 217
122 215
123 219
138 213
130 208
136 206
137 206
126 215
138 209
124 214
123 215
129 214
133 212
144 204
135 208
144 204
139 206
145 208
138 206
143 204
135 204
138 199
137 202
134 205
133 202
134 205
132 206
127 212
121 218
109 220
115 225
118 225
114 228
115 226
114 227
123 222
123 220
120 216
119 219
122 220
119 222
122 219
124 217
117 221
121 214
117 217
126 212
120 216
138 209
125 214
138 204
130 208
138 208
136 208
127 217
130 213
139 207
145 205
135 212
139 212
130 219
128 223
128 219
125 218
130 215
134 210
129 211
128 208
132 207
134 207
137 206
139 210
131 214
122 219
129 219
130 220
118 226
116 228
119 227
125 223
121 221
124 219
132 215
128 223
125 225
123 220
123 214
125 220
116 224
110 227
117 225
121 216
126 209
124 208
134 203
124 211
133 211
145 207
140 204
137 205
132 209
127 211
128 216
138 214
129 217
133 212
121 219
121 220
131 218
134 212
134 219
131 217
131 217
131 213
126 213
128 210
119 214
133 208
135 213
129 210
134 212
124 213
135 204
131 205
131 203
139 201
126 207
139 203
141 200
133 202
132 205
128 210
122 212
131 208
139 199
149 198
145 203
138 208
133 206
135 208
130 211
131 217
136 213
124 219
136 210
144 206
143 205
134 207
129 211
147 200
139 199
130 200
150 187
158 185
158 189
152 189
158 182
145 189
140 197
130 200
138 207
137 209
129 216
133 213
136 212
134 215
147 213
131 212
140 210
134 210
126 212
139 206
134 210
136 209
137 207
137 202
141 203
140 204
139 201
137 207
137 205
145 200
152 191
166 184
148 192
144 199
148 190
145 196
136 197
139 197
130 202
133 201
142 197
140 203
138 207
139 205
142 206
149 201
154 192
160 192
149 194
152 196
140 200
135 208
139 202
135 205
131 208
136 203
134 207
135 204
141 204
144 207
143 206
136 212
143 210
134 211
136 208
131 211
153 202
146 202
138 204
131 204
134 199
132 201
138 197
142 198
140 203
155 193
148 197
144 197
145 192
141 196
149 197
147 197
144 198
144 196
145 197
140 194
141 197
135 198
148 200
147 190
151 190
153 193
145 198
160 189
146 187
149 194
151 195
147 199
134 210
139 207
137 206
137 209
137 203
129 207
136 204
142 202
142 202
152 198
146 200
150 196
136 206
132 212
139 200
132 210
131 215
142 215
131 216
139 214
135 213
134 210
126 209
130 210
132 212
131 212
121 218
132 218
122 220
121 227
130 221
135 218
122 226
126 223
124 221
132 216
134 210
132 208
133 203
135 201
139 203
137 208
141 207
134 206
148 202
149 204
156 200
142 204
139 201
140 205
143 204
144 199
144 203
136 201
137 203
142 203
124 208
125 212
136 208
131 209
136 206
141 205
137 207
134 210
135 205
129 210
135 207
131 208
139 203
144 205
149 199
147 200
140 203
137 203
140 202
153 198
140 198
136 201
126 213
135 207
150 194
154 195
153 198
141 200
139 201
136 207
131 210
131 206
148 198
141 203
147 197
149 193
153 193
147 199
141 199
145 200
149 195
144 192
144 200
136 200
128 205
133 203
127 209
124 209
129 200
151 194
144 198
141 197
132 206
130 213
132 213
135 209
132 210
130 210
132 212
125 219
132 211
133 208
128 218
134 213
124 216
122 215
124 216
132 213
135 208
130 206
140 202
140 200
136 204
130 210
130 208
132 208
134 208
133 211
136 209
132 210
132 210
129 208
127 209
137 206
138 201
141 203
138 205
137 204
148 198
144 201
154 197
158 191
165 187
163 188
159 190
150 201
157 192
158 188
157 190
154 193
148 193
157 192
150 191
166 185
155 190
156 192
153 196
151 195
155 186
146 193
151 190
151 193
147 198
163 185
162 185
158 184
163 184
154 190
154 189
157 185
152 188
146 186
154 186
160 183
151 189
160 180
155 182
146 185
140 190
143 191
147 190
147 194
148 194
141 203
140 199
146 201
146 203
135 209
139 206
146 199
133 203
144 197
141 207
136 209
141 203
142 205
134 208
129 211
119 219
114 227
114 227
118 231
114 228
116 228
115 225
123 218
116 222
122 225
124 223
124 224
118 225
122 220
131 212
129 207
131 206
134 209
124 211
128 210
138 202
137 202
132 207
140 206
133 206
129 209
131 209
130 214
134 210
135 211
140 209
125 215
135 206
129 214
128 217
135 209
139 204
131 207
120 216
130 214
128 212
139 212
132 214
130 214
147 204
139 204
144 198
136 205
141 202
142 198
145 198
144 202
147 206
147 206
133 216
129 224
135 220
133 215
118 218
121 217
121 218
121 218
117 221
110 222
126 218
110 222
119 219
124 221
121 222
123 224
116 230
125 225
123 224
126 218
122 221
112 224
117 223
128 213
123 213
127 211
129 213
125 214
129 216
127 215
134 210
135 216
136 212
131 216
126 223
125 226
128 225
136 214
139 215
129 218
136 217
137 215
125 214
124 215
127 213
132 216
117 222
126 223
119 226
123 223
126 224
109 233
115 228
117 227
115 223
121 221
117 224
137 213
127 215
125 216
127 215
137 206
143 202
137 204
135 210
143 204
142 201
140 205
134 212
141 208
130 211
136 208
144 197
128 212
124 216
125 216
123 215
131 216
132 215
138 210
139 205
139 205
138 205
133 206
138 208
132 208
137 209
131 215
122 219
131 206
139 201
137 201
126 207
117 212
119 219
117 225
118 232
113 232
115 235
109 232
115 232
118 233
127 228
128 225
131 222
134 217
137 213
137 211
146 199
140 202
133 206
133 208
136 203
129 208
124 214
130 214
135 214
137 211
130 216
135 211
139 210
130 209
132 209
129 211
133 209
141 203
138 201
135 206
141 205
138 210
139 211
138 213
133 213
138 207
130 211
131 213
129 215
133 214
130 213
131 213
125 216
133 211
134 213
129 211
128 212
137 210
145 199
133 208
130 210
137 208
135 209
128 212
132 206
142 204
132 209
127 212
131 205
133 211
131 209
138 203
134 203
136 203
137 195
141 199
118 207
116 213
122 219
130 212
136 214
123 220
124 220
114 228
121 219
109 221
110 227
122 223
115 227
118 225
121 220
126 215
127 214
130 216
132 215
127 214
121 218
117 224
119 222
110 230
116 224
110 222
118 229
117 233
106 232
106 231
112 231
120 229
113 231
114 232
108 236
116 233
118 227
118 225
123 223
133 215
128 219
126 220
126 220
124 217
135 208
131 206
132 205
126 208
124 212
121 214
127 214
132 214
124 216
113 223
108 226
105 229
123 219
125 219
142 207
125 211
136 204
135 205
133 205
131 212
126 216
119 222
121 221
122 221
119 217
122 219
125 219
127 220
126 220
124 223
120 223
113 230
114 231
118 223
122 218
131 211
135 216
129 217
136 210
127 213
122 219
130 214
127 215
130 215
129 213
123 212
133 212
135 208
136 205
148 196
147 197
149 197
135 197
145 197
144 200
138 203
144 203
136 202
140 197
146 197
136 202
130 206
135 208
135 206
133 208
136 204
131 206
130 214
135 212
134 210
135 205
134 207
120 217
120 215
125 218
126 220
121 221
121 222
118 224
123 220
132 217
132 213
140 212
132 216
120 225
126 220
119 220
130 212
127 216
133 212
131 214
138 206
130 210
128 210
134 208
132 207
133 209
135 214
132 212
128 216
131 211
128 214
132 211
134 209
140 207
136 212
130 217
122 224
119 229
120 232
122 228
120 229
120 226
121 225
126 225
113 230
129 226
132 216
131 217
134 218
131 219
128 221
119 221
124 220
122 219
125 217
130 214
130 214
126 213
134 201
146 192
139 200
143 205
142 213
134 217
131 216
125 218
126 221
129 222
134 222
120 230
130 221
130 222
130 219
127 215
127 215
120 220
129 218
132 212
132 212
136 208
129 213
131 216
128 215
133 214
130 213
135 209
136 207
138 211
132 212
127 215
123 213
120 219
127 217
133 218
128 216
130 215
140 213
121 223
127 218
130 212
128 214
134 210
138 210
141 211
138 209
132 214
127 214
125 222
118 226
120 228
125 228
122 225
119 224
123 224
124 221
117 219
119 218
124 216
118 220
118 225
117 225
126 219
124 218
128 212
136 211
125 212
133 208
130 214
130 219
125 222
125 228
117 229
120 226
127 224
127 225
115 233
119 229
124 225
118 225
120 223
124 220
122 226
112 231
110 235
99 239
104 244
111 240
105 237
111 236
112 226
104 228
94 236
102 233
108 232
109 231
112 230
121 224
117 224
131 212
126 210
124 213
122 218
123 212
128 208
132 205
131 209
121 213
128 215
132 210
133 207
128 211
138 202
147 195
143 206
141 212
126 220
129 219
134 209
135 207
136 205
136 208
132 212
128 214
132 216
126 219
123 226
116 233
115 238
123 231
112 237
117 232
116 233
116 231
113 232
114 227
117 222
117 223
113 228
124 222
123 219
123 221
134 214
127 215
135 211
132 211
126 208
122 214
128 214
133 213
134 210
140 212
125 215
130 214
123 216
127 212
139 209
132 210
135 211
140 209
131 211
124 215
127 212
128 213
140 210
143 205
153 198
142 202
146 199
146 201
137 207
141 203
143 209
143 210
142 211
135 209
135 207
150 199
143 202
143 202
150 194
146 193
143 195
140 196
150 187
151 191
149 194
152 196
149 194
139 199
145 191
143 192
144 195
144 197
145 200
146 201
127 205
127 206
117 219
125 217
126 215
122 218
134 213
135 210
141 211
148 206
135 214
138 211
137 213
140 210
132 204
138 201
139 201
147 197
134 203
143 197
140 203
137 211
131 216
132 217
127 216
129 215
123 221
114 222
124 223
125 220
132 213
135 210
136 210
135 210
121 210
122 213
121 218
136 212
126 217
125 218
128 214
132 216
131 211
139 209
129 210
134 217
126 217
131 215
130 216
116 225
116 223
127 220
130 217
123 216
127 218
125 217
137 209
130 213
139 211
137 207
137 202
138 200
137 199
136 203
138 202
136 204
140 204
136 209
138 209
133 219
136 216
127 218
134 217
134 217
134 219
128 223
140 212
133 212
131 214
133 209
124 215
126 212
129 209
138 203
133 205
134 207
138 204
128 209
124 215
125 218
122 216
119 222
125 221
124 223
122 226
124 226
114 228
130 224
128 221
121 221
129 215
129 220
127 221
129 222
132 217
129 216
124 218
131 222
134 214
140 211
147 207
151 197
152 195
144 197
140 199
141 196
141 195
148 188
147 189
147 194
145 190
150 186
153 186
152 187
154 188
151 189
137 196
132 200
144 195
146 192
136 198
129 197
134 195
149 193
148 195
136 201
138 199
141 202
140 203
133 212
128 211
129 214
134 215
133 212
143 208
141 204
143 205
145 201
148 200
145 196
145 199
139 202
146 204
145 203
140 207
142 202
140 204
138 202
150 199
132 206
134 206
138 204
134 210
126 219
123 222
117 229
112 229
108 235
109 237
116 230
112 226
121 223
119 220
122 219
116 221
118 226
119 226
134 216
136 216
129 218
122 220
115 227
123 221
131 215
133 216
136 213
136 207
146 201
133 208
144 205
137 205
139 202
135 209
133 213
133 215
134 215
135 210
138 209
144 203
144 204
147 198
134 208
137 210
136 211
136 210
132 212
135 216
137 218
130 214
120 220
131 213
121 217
123 216
131 211
123 215
128 217
126 218
122 214
136 210
137 211
134 211
138 207
138 209
143 206
145 207
123 210
136 198
136 199
144 195
152 192
153 195
140 194
146 195
139 200
142 198
140 199
139 201
132 207
133 206
132 205
130 204
117 218
119 217
114 218
115 225
110 232
112 222
116 224
118 219
122 221
103 231
105 237
106 236
97 245
100 242
118 229
125 226
119 220
127 217
131 211
132 208
136 204
138 198
151 196
145 199
138 206
141 206
136 208
139 211
142 204
138 209
139 205
140 201
152 196
152 196
135 205
139 207
132 208
131 209
134 206
142 199
135 206
131 206
135 207
142 200
151 200
143 202
142 200
138 204
131 208
131 210
125 214
121 218
130 212
132 210
122 212
114 219
124 214
137 208
128 212
127 214
128 220
135 212
130 215
133 214
145 205
141 199
143 205
137 212
132 218
133 213
128 218
143 206
142 208
148 204
155 197
161 187
165 187
161 181
164 172
156 176
175 170
162 174
158 177
163 176
167 181
152 187
151 193
143 201
140 205
141 206
138 209
133 208
133 211
129 212
129 210
135 206
137 209
136 207
128 209
128 213
126 216
130 218
121 224
118 228
121 224
117 224
118 220
122 222
126 219
123 218
127 213
131 215
121 219
128 219
125 221
134 212
127 212
133 212
144 206
139 205
144 204
139 206
135 205
122 210
134 206
132 213
123 218
125 224
120 224
125 224
128 222
129 222
110 230
118 225
113 230
109 231
109 230
119 230
105 232
112 235
114 232
113 230
114 225
115 229
116 228
123 221
122 227
118 225
121 223
114 229
111 232
115 232
117 227
116 224
119 220
120 220
129 213
125 213
128 218
129 220
129 217
125 219
135 205
139 202
144 204
137 208
138 204
143 208
147 204
137 206
147 202
146 201
141 206
145 205
138 208
123 214
131 213
134 206
136 196
144 200
136 204
135 203
135 204
133 209
132 210
128 208
129 207
129 210
133 211
136 212
134 208
130 213
128 215
138 204
138 204
135 203
136 204
145 202
146 197
146 198
142 199
136 201
126 205
122 210
134 207
129 208
130 213
133 210
123 214
133 213
136 207
142 199
130 213
137 211
130 215
130 217
127 215
125 218
129 214
119 219
119 221
125 224
122 220
114 223
118 222
120 221
115 226
113 228
118 230
118 227
127 221
128 219
127 217
125 218
119 227
116 226
117 229
122 225
112 224
121 220
133 213
137 209
135 203
139 201
138 204
134 206
133 206
131 208
137 206
132 209
139 204
131 210
120 216
118 218
128 218
123 221
123 223
126 224
130 221
118 223
121 221
117 223
125 218
118 219
122 215
121 222
115 224
117 222
124 219
121 222
121 224
122 222
110 223
127 213
125 215
129 212
140 205
136 205
139 204
136 205
133 209
128 213
128 213
130 218
134 213
131 213
131 216
127 218
114 223
117 223
120 221
120 225
115 229
117 228
118 225
120 224
115 231
127 227
132 219
132 217
135 211
143 207
143 205
147 203
135 204
145 196
138 200
140 200
160 190
161 187
149 189
157 193
156 194
154 195
161 193
151 196
155 196
145 197
147 198
143 194
157 190
144 193
133 195
132 193
133 193
135 195
122 198
131 198
129 205
126 210
117 217
122 212
125 213
125 217
130 210
132 209
133 209
141 206
135 203
131 210
121 217
124 217
133 211
134 208
134 205
140 205
135 206
121 214
128 212
123 216
132 211
130 210
132 208
137 208
124 216
121 217
131 211
135 208
133 210
128 217
124 220
127 219
124 223
122 221
127 222
114 229
113 223
120 222
114 227
120 223
130 216
135 217
130 217
135 214
129 213
131 210
138 205
136 211
140 211
133 212
135 214
136 209
137 206
139 207
146 196
144 194
146 193
144 196
132 206
147 197
140 200
153 193
153 194
151 201
148 196
147 194
161 190
147 191
137 198
148 192
138 200
147 194
147 191
148 193
134 198
137 203
138 198
139 200
146 205
139 211
131 212
125 214
122 215
124 213
138 209
135 208
126 215
121 213
121 212
123 212
129 212
130 208
131 212
116 223
123 220
116 224
120 220
120 216
125 216
120 219
117 212
127 210
127 214
127 209
125 209
128 211
132 209
128 213
136 210
131 210
136 209
130 218
134 218
133 215
131 220
123 224
125 217
130 210
122 215
132 213
132 214
126 214
136 203
129 206
132 208
125 211
138 207
127 214
119 216
127 209
123 211
145 202
145 199
144 197
139 199
145 197
133 202
144 201
146 200
130 209
125 214
128 211
122 212
125 215
132 214
128 214
125 218
128 211
130 211
131 212
126 216
130 208
144 203
143 201
147 201
135 205
125 217
125 225
131 221
131 217
131 213
123 214
133 209
132 211
129 210
140 205
135 205
142 205
149 200
141 203
138 203
139 207
131 208
127 207
132 207
144 205
137 208
130 210
133 213
138 213
134 207
129 210
131 209
129 210
132 214
124 215
126 213
130 219
119 222
121 220
124 215
129 215
119 224
115 226
120 223
128 217
131 212
130 210
135 210
145 197
136 200
142 197
127 202
136 203
138 204
140 199
133 204
123 210
120 214
124 215
122 220
126 214
120 219
114 223
124 215
124 215
122 219
122 222
119 222
127 218
132 206
126 207
121 211
137 208
127 214
128 219
126 217
132 214
123 216
125 213
116 217
120 215
132 210
134 213
130 215
126 220
125 216
124 216
130 212
137 205
139 211
143 208
147 203
145 202
148 206
134 211
125 216
137 212
140 210
136 206
143 201
141 199
134 204
127 212
130 211
125 213
123 214
131 220
119 221
128 215
127 215
131 211
124 215
132 212
129 214
125 213
134 208
136 209
129 214
133 212
132 212
126 214
130 213
130 212
129 213
124 212
133 208
132 213
143 206
139 211
141 205
144 205
142 206
141 203
144 202
138 198
150 196
143 197
153 195
146 196
151 194
149 194
146 200
148 196
147 198
140 207
145 207
149 200
145 204
141 201
137 210
132 207
137 208
125 216
125 218
127 214
119 215
127 205
122 207
128 212
132 213
132 209
140 204
144 201
130 205
139 203
133 204
139 202
140 202
142 194
144 199
146 195
141 194
145 195
148 197
143 203
151 200
144 205
143 207
142 207
144 208
140 212
123 219
135 215
128 211
132 214
131 213
136 213
124 217
119 226
124 222
125 219
134 214
134 215
126 216
129 215
128 216
128 217
128 218
120 219
119 218
126 216
128 213
124 209
130 210
127 215
125 218
134 211
136 213
138 208
142 208
145 212
140 209
137 207
139 205
128 209
131 209
138 204
126 216
127 218
137 210
152 199
152 198
150 197
153 197
157 195
142 202
145 195
145 200
135 202
131 202
140 200
142 202
145 210
141 208
136 212
145 206
145 205
134 209
140 203
132 210
136 207
134 211
137 210
134 215
135 213
123 217
128 211
133 210
139 205
136 205
121 213
128 216
128 212
131 211
126 212
131 206
125 211
141 201
122 212
124 216
120 217
123 218
120 225
129 215
129 216
127 215
125 216
132 211
131 206
126 211
115 225
116 226
125 220
118 223
110 226
137 208
131 210
132 207
137 206
136 211
129 212
127 210
126 212
134 214
123 217
124 221
127 212
118 219
117 225
119 222
127 218
128 215
128 221
132 217
119 218
125 217
131 216
128 221
129 219
118 228
120 226
122 225
129 225
110 233
121 226
123 224
120 225
119 224
119 224
124 227
130 222
127 218
125 222
136 214
144 210
137 206
141 203
131 205
140 200
140 198
135 199
135 196
138 192
126 205
143 199
141 205
133 207
126 215
127 208
126 213
138 211
134 207
139 207
144 209
129 217
125 224
129 222
133 220
136 211
130 213
128 212
123 215
130 213
137 210
140 209
138 215
137 215
130 220
126 223
115 227
120 227
120 226
128 220
129 217
130 220
130 219
130 218
132 211
135 211
135 208
136 208
140 210
142 212
133 217
142 213
137 211
133 210
132 213
133 212
145 204
143 202
131 204
142 199
140 205
146 205
142 203
136 209
137 204
145 204
150 196
147 197
141 200
142 206
139 203
144 196
142 198
138 203
130 207
136 202
142 198
139 201
138 203
138 209
154 197
140 202
144 200
132 211
133 207
128 214
132 214
137 204
147 200
134 205
130 204
133 208
152 194
135 199
138 201
129 206
140 204
139 201
137 201
137 202
147 199
147 197
148 199
146 198
137 201
145 203
135 210
135 207
131 207
134 204
133 202
132 203
141 203
143 204
141 205
135 208
143 209
140 209
143 203
141 205
144 204
150 200
145 205
136 209
134 210
136 204
140 200
145 202
137 205
143 207
136 209
130 213
136 216
138 212
142 209
145 206
144 206
140 208
146 208
144 199
146 198
155 197
148 200
148 197
150 198
145 194
142 199
148 192
146 197
145 203
137 212
141 207
150 202
137 205
137 207
132 208
139 204
141 205
149 201
155 188
156 190
159 187
156 187
143 193
144 194
138 200
149 200
146 199
138 201
143 198
143 200
133 208
130 210
136 212
141 203
153 199
142 204
150 194
144 200
135 203
141 202
146 201
147 201
148 200
140 199
139 199
145 199
148 192
147 188
155 183
156 186
156 185
152 183
154 187
146 198
132 205
128 211
142 208
135 207
135 204
134 206
133 207
129 212
135 205
144 198
137 200
141 201
145 197
140 202
140 206
139 205
136 210
140 208
131 212
145 208
144 207
150 205
156 197
144 199
141 197
144 195
141 190
145 189
146 193
151 194
158 188
158 192
148 193
160 189
151 190
149 197
139 202
140 201
147 194
142 195
136 201
124 206
119 215
122 212
114 218
115 217
118 215
115 220
126 220
117 222
127 218
126 222
124 223
111 231
116 230
112 237
117 230
114 233
118 231
110 233
115 233
118 231
117 227
136 216
130 212
137 208
139 208
142 204
144 197
151 196
151 192
149 193
147 192
143 195
144 201
148 197
157 193
148 196
149 199
144 199
152 192
148 185
146 187
158 184
145 189
149 200
146 198
137 203
135 204
132 210
127 219
132 213
123 215
117 218
124 219
125 219
119 219
130 210
130 206
137 199
138 197
141 199
145 195
149 192
142 197
142 202
140 197
137 197
141 201
137 207
145 209
126 218
133 216
135 208
140 205
140 202
139 198
150 193
145 201
139 201
132 206
136 201
138 204
139 207
137 210
133 211
131 208
138 208
136 216
144 209
138 208
145 207
144 205
144 200
148 200
156 190
166 186
156 191
163 182
159 183
159 179
154 183
149 187
146 189
138 190
139 195
136 196
141 197
137 205
132 207
137 204
133 205
149 201
150 201
137 205
144 204
136 215
137 215
136 212
136 211
133 211
128 217
136 213
132 214
129 213
133 214
137 213
147 204
144 199
142 202
135 202
133 202
123 210
131 209
133 214
131 214
139 209
136 207
133 204
141 197
139 197
146 194
145 195
148 192
145 191
137 193
127 201
142 200
134 206
139 205
129 209
132 210
145 203
130 210
141 204
138 202
117 216
128 210
131 203
138 198
142 202
136 205
134 208
138 209
126 216
122 217
130 216
127 219
127 218
126 216
125 214
126 217
118 222
128 215
132 218
122 220
119 224
128 223
121 228
114 225
134 217
122 220
116 219
121 213
127 212
125 215
125 215
138 207
138 209
144 200
141 203
134 209
134 213
130 214
140 207
136 211
134 217
132 216
128 210
131 208
122 205
131 204
127 204
137 207
128 214
130 215
129 216
130 213
123 224
119 225
126 222
118 222
124 218
131 206
126 211
139 208
135 211
133 214
130 219
123 226
124 227
128 230
110 238
123 228
119 230
120 225
123 219
126 221
130 216
132 213
135 207
142 201
139 200
136 201
140 196
134 206
136 205
142 203
143 201
140 200
146 196
134 199
142 199
143 203
138 207
140 209
133 211
130 215
123 214
132 205
138 203
133 207
132 209
131 211
127 209
123 211
129 210
121 209
127 210
133 209
134 205
133 209
131 208
133 207
134 211
120 219
128 214
120 220
118 223
118 223
113 233
124 223
118 224
111 228
124 226
137 214
134 212
132 212
131 206
132 202
133 199
131 199
131 207
133 211
138 208
146 201
150 203
144 207
141 204
135 211
134 212
137 211
142 204
138 201
137 208
142 205
141 200
124 211
122 217
141 211
139 209
127 213
130 216
127 220
132 217
132 220
141 217
129 219
130 211
142 208
133 212
129 213
124 209
134 205
141 206
136 204
136 206
130 211
125 216
125 214
127 220
124 222
116 221
127 209
123 215
123 221
117 221
122 221
111 222
117 220
116 227
126 219
131 211
124 214
126 219
122 218
127 216
123 216
115 216
128 210
