Actives Prisoners
0 0
493 19
490 43
480 69
459 93
436 114
435 135
401 154
393 171
364 185
364 201
354 211
349 219
331 236
330 245
330 249
314 256
318 260
319 263
301 274
298 283
298 294
289 302
272 312
258 318
258 318
249 323
238 338
241 341
246 343
247 346
233 346
241 346
234 350
236 353
236 350
249 347
245 346
246 346
239 350
245 352
245 356
241 352
249 354
246 355
239 358
252 351
250 341
255 343
249 342
253 342
261 336
264 335
255 334
261 335
261 335
243 347
245 349
246 346
258 344
252 341
257 333
248 339
246 344
244 347
249 338
260 338
253 335
252 339
255 337
250 339
253 344
237 351
243 354
244 345
243 346
227 348
234 352
235 353
235 355
247 351
242 349
251 340
250 338
263 329
256 330
251 337
249 342
245 343
247 348
244 349
234 355
247 355
235 364
231 370
240 360
233 365
229 363
235 353
236 354
235 359
248 348
252 350
240 360
245 360
253 348
258 340
257 345
251 351
270 337
264 340
270 331
256 333
255 336
250 339
244 341
252 339
254 334
256 333
261 332
263 332
267 327
246 337
250 344
235 353
243 349
248 347
249 349
238 354
247 356
220 363
236 364
228 367
223 371
222 378
223 382
218 385
218 380
222 368
221 369
229 368
232 361
251 356
256 354
243 362
241 365
228 363
233 360
237 356
243 354
244 355
245 356
241 360
234 358
228 361
245 350
237 351
243 351
233 356
227 355
231 362
220 368
240 356
232 353
234 353
229 358
241 360
243 356
258 347
248 351
259 337
254 337
241 338
249 343
262 336
249 344
250 342
246 338
253 343
241 344
236 346
259 347
255 347
241 354
235 353
239 348
244 349
252 346
263 343
260 345
264 343
259 334
251 335
259 331
264 329
260 326
250 332
240 341
237 347
234 356
243 360
244 353
246 359
246 353
242 351
249 340
244 347
243 348
231 347
241 346
244 343
255 342
244 353
247 356
230 364
236 365
241 360
242 362
252 350
232 359
242 361
230 356
236 356
237 358
248 354
255 342
268 337
271 324
266 326
261 339
262 339
246 346
252 342
243 343
242 343
251 340
242 346
247 346
243 352
235 353
238 359
238 358
248 353
241 351
250 352
237 355
239 362
241 360
233 360
242 351
247 353
244 348
227 358
228 357
245 347
249 347
254 345
247 352
245 346
257 339
266 336
264 330
275 325
265 329
251 337
257 341
261 338
262 335
263 329
257 332
254 332
264 325
263 328
248 334
268 328
268 321
286 315
272 323
264 327
261 328
266 327
256 336
240 342
241 344
252 341
251 342
262 339
269 338
256 334
260 336
242 342
255 339
268 332
277 329
263 322
258 333
250 339
250 343
243 345
254 342
243 343
249 342
248 343
255 340
255 340
250 337
257 333
266 327
263 329
266 336
266 341
253 349
253 345
242 345
265 342
251 345
257 343
253 350
245 353
231 364
232 364
233 356
237 352
240 352
241 351
233 364
230 372
234 363
231 363
230 369
246 360
248 352
257 348
238 353
256 341
261 335
251 340
260 338
258 339
242 339
241 347
236 350
245 344
230 346
246 345
236 346
231 347
235 354
246 354
231 357
234 353
236 352
239 354
244 350
245 345
240 344
234 353
240 353
249 346
251 340
251 343
257 345
251 349
256 346
255 347
253 349
248 355
243 352
249 343
247 342
249 342
242 340
241 339
251 332
258 333
262 331
254 335
265 329
270 324
257 330
254 336
267 328
250 331
254 325
265 322
255 327
260 331
249 339
244 347
252 345
247 348
251 346
249 342
256 341
254 346
242 351
232 359
241 352
242 354
246 354
240 357
223 367
239 360
246 353
236 355
231 357
238 346
231 352
233 351
239 353
239 356
233 359
240 358
243 357
235 354
235 353
241 349
232 354
242 349
236 346
239 342
238 344
247 341
253 338
250 340
260 332
264 330
265 340
258 338
256 342
258 344
260 344
259 336
251 339
246 342
263 333
274 330
268 327
274 328
272 324
271 321
274 320
268 327
267 331
266 333
252 341
255 340
245 346
231 352
232 353
237 354
237 352
246 353
229 361
221 369
235 357
238 350
232 351
239 354
244 352
228 360
236 361
234 359
234 366
235 359
240 364
241 358
242 364
240 361
251 358
247 354
239 352
255 347
251 349
267 339
252 344
256 348
262 345
261 350
247 353
250 342
268 334
260 338
265 329
282 315
275 316
272 316
284 308
264 309
276 312
267 317
277 312
280 314
267 321
280 315
280 310
291 308
292 302
290 302
278 311
282 314
281 311
287 312
278 311
272 317
281 325
276 331
276 329
281 325
281 319
280 319
271 323
266 316
260 317
284 309
263 320
273 316
266 324
272 326
258 331
262 333
258 338
259 338
272 333
267 331
267 328
264 329
275 330
275 326
284 325
280 317
286 310
293 313
284 314
275 319
288 312
271 313
275 315
285 308
281 305
278 312
293 312
295 312
301 308
293 310
286 312
288 314
292 314
289 311
286 313
270 318
277 322
272 329
273 327
277 322
267 328
267 332
263 336
258 339
261 340
254 347
267 335
275 329
275 326
265 323
274 319
274 320
287 311
295 311
292 318
297 306
291 308
291 311
285 311
299 310
289 312
289 309
289 312
291 309
293 310
282 306
282 307
285 305
282 298
286 298
266 312
270 313
270 316
280 310
281 314
279 315
278 320
281 324
288 316
278 324
278 323
282 320
289 315
287 315
286 324
288 321
295 315
286 319
295 309
290 317
295 305
302 299
300 300
305 296
302 300
310 293
312 293
298 289
315 283
317 279
310 283
314 287
304 295
303 297
293 301
293 304
304 305
287 311
276 317
282 313
290 304
287 300
285 308
279 317
285 314
288 312
286 316
287 316
280 323
291 320
270 327
275 328
277 330
270 333
265 330
278 325
277 323
285 319
291 318
277 315
286 311
285 304
291 302
301 297
287 295
293 293
296 297
296 300
282 304
284 299
283 306
287 316
267 322
272 315
272 324
263 331
268 333
264 330
267 334
268 342
262 344
243 345
248 350
252 348
267 334
260 336
266 333
264 330
273 326
273 327
275 329
273 327
269 320
275 316
274 318
274 317
287 312
276 314
281 303
292 296
298 297
284 304
281 305
284 307
272 310
283 304
289 306
288 313
277 319
288 321
285 320
280 321
282 318
272 322
260 325
264 322
255 329
258 329
258 333
251 340
248 336
247 342
247 344
241 347
239 352
243 349
239 357
246 354
246 359
248 352
253 350
259 342
250 344
239 346
249 346
263 343
257 339
257 339
265 334
263 337
260 336
268 334
255 337
256 340
255 338
273 333
260 330
261 322
276 321
281 316
280 308
283 303
274 311
276 314
270 312
278 308
277 305
279 315
266 315
280 317
268 324
258 325
265 323
271 323
270 323
258 331
264 328
263 331
261 335
270 327
266 332
262 332
253 333
247 341
234 351
229 360
237 356
247 350
252 351
239 360
239 362
237 364
225 363
239 358
238 354
247 348
243 348
251 348
255 343
262 333
262 326
275 332
260 329
262 332
266 331
271 323
273 329
266 327
268 322
268 321
283 312
267 316
265 324
274 320
271 328
271 328
254 333
248 341
265 333
262 329
273 324
268 328
252 335
262 337
265 333
278 327
266 333
269 332
259 335
264 338
267 335
260 332
266 324
276 314
272 317
267 324
279 315
276 323
268 323
280 318
295 315
280 318
281 322
275 325
282 322
288 317
288 311
295 312
292 315
293 322
286 327
284 324
282 321
274 326
273 327
278 321
267 327
259 334
257 331
261 334
266 327
269 331
271 327
265 334
262 326
267 324
269 324
263 329
271 323
266 323
275 320
277 315
275 317
275 320
261 322
277 320
285 315
292 310
290 309
297 309
289 310
299 296
301 298
296 299
289 302
291 301
292 305
289 302
293 301
287 307
292 306
275 308
285 312
284 313
276 318
277 319
283 325
261 327
267 336
267 338
284 323
277 324
278 321
269 319
268 315
265 322
268 324
274 323
276 328
275 326
267 336
270 331
265 329
271 338
261 342
278 329
271 332
283 325
291 319
294 314
292 314
289 321
287 315
293 314
285 312
286 309
280 319
268 324
274 318
276 318
282 313
267 320
266 322
273 323
256 328
238 338
233 342
253 333
250 335
260 331
262 337
271 333
269 334
271 332
264 330
277 329
262 336
273 321
289 305
285 308
292 308
275 315
295 307
302 299
300 296
307 298
298 308
290 310
300 300
298 302
300 293
301 294
302 295
310 294
289 308
267 314
269 322
282 320
265 320
269 325
262 319
271 315
282 301
285 300
290 301
289 311
279 315
282 316
285 314
283 318
266 328
266 325
281 317
272 319
275 325
267 325
269 324
275 327
277 320
280 311
296 312
285 318
272 318
277 317
274 314
277 315
276 313
279 306
280 309
289 304
295 306
292 303
297 297
281 305
279 308
276 308
275 311
280 307
286 305
274 314
276 313
270 320
278 326
281 321
290 311
281 313
290 316
284 319
268 328
280 321
283 321
270 329
268 333
275 330
283 332
279 329
284 320
271 322
283 321
286 319
281 313
290 310
279 311
283 312
276 312
283 313
264 321
275 317
282 315
275 319
281 315
278 314
279 316
290 320
281 321
286 318
291 315
285 315
291 304
296 303
289 306
279 310
270 318
287 315
272 321
289 315
289 321
282 322
272 324
276 324
270 324
283 322
284 319
276 320
268 326
278 324
276 323
269 321
278 316
286 314
296 313
288 317
281 320
298 318
299 317
291 320
292 314
299 311
295 313
297 310
297 308
303 305
302 306
307 308
306 304
294 309
294 309
289 307
301 300
312 289
301 297
305 294
308 287
303 295
310 291
298 296
297 299
308 288
321 283
316 279
317 280
322 278
324 279
325 283
318 283
315 286
322 282
327 285
325 275
320 277
317 280
306 286
314 280
310 284
310 286
300 293
294 288
311 288
300 293
305 289
306 289
301 289
302 289
304 287
301 284
302 280
312 280
313 279
304 276
308 280
305 286
304 289
304 299
297 301
294 292
308 288
309 288
296 291
296 293
291 299
284 305
296 293
295 296
298 296
304 297
303 300
292 298
286 305
294 306
294 301
294 302
287 304
294 307
298 308
290 311
287 300
301 301
299 302
299 296
302 301
295 303
293 308
294 313
297 305
296 302
290 305
291 301
290 304
285 310
285 312
279 318
274 326
276 329
277 325
280 321
276 322
284 323
269 326
284 319
281 319
287 308
277 316
284 315
277 312
289 312
280 313
279 313
290 308
280 313
275 319
279 323
266 327
275 319
283 310
283 319
288 317
279 321
285 315
292 305
276 309
280 310
284 306
286 307
287 306
281 310
282 308
285 311
295 299
288 297
286 307
292 306
292 307
292 310
287 317
274 326
284 315
277 318
277 318
272 324
263 329
270 329
281 323
273 319
286 307
285 308
287 302
294 301
290 304
290 303
295 304
292 305
293 307
287 308
287 311
280 315
269 324
285 313
287 314
291 309
295 308
285 304
299 297
290 300
287 304
277 308
287 300
301 298
303 300
296 307
301 306
296 308
301 300
295 305
279 311
290 312
284 315
284 317
277 321
267 321
285 312
259 321
279 315
274 319
277 315
281 315
275 312
277 308
276 308
278 299
279 300
299 294
294 297
305 295
295 300
296 302
290 307
288 315
284 318
282 316
283 321
274 323
272 321
277 315
284 309
288 307
286 305
280 307
278 320
283 314
272 323
273 328
271 325
266 328
259 332
263 334
270 336
264 338
260 342
253 343
269 331
277 330
270 326
279 319
285 313
291 309
278 310
285 308
292 305
295 310
301 303
304 299
313 299
305 300
309 292
305 294
295 295
299 295
301 297
302 298
292 301
290 303
295 304
288 301
290 305
299 297
311 285
306 290
313 288
304 288
302 284
297 284
297 285
300 294
293 304
288 309
282 312
296 302
293 305
287 303
301 303
296 307
307 302
300 306
299 302
296 298
296 301
306 295
301 302
301 301
308 297
317 294
308 300
316 297
314 292
311 290
311 284
323 279
320 276
324 278
315 286
325 276
325 272
329 269
327 278
327 269
318 273
334 269
326 268
330 269
325 274
329 271
338 267
326 266
339 267
338 263
348 261
338 261
350 252
346 253
347 256
335 263
330 265
341 266
328 276
325 287
320 287
320 280
323 280
333 270
326 269
337 266
337 265
344 265
332 262
345 256
343 242
349 245
358 244
347 249
340 256
324 264
328 268
330 273
327 269
334 265
328 274
327 279
315 276
313 277
308 278
301 286
299 289
300 290
309 289
314 290
309 290
311 294
306 291
311 289
313 295
314 291
323 283
311 285
303 286
308 286
309 279
322 278
312 282
321 282
323 280
324 279
316 280
307 287
299 291
308 287
292 287
300 284
300 286
306 283
306 280
310 276
312 283
299 284
304 285
295 300
305 294
295 296
284 303
285 305
296 302
294 306
287 306
293 307
309 295
326 287
316 284
317 282
334 272
325 274
324 277
321 280
325 276
323 277
329 275
333 273
324 272
328 270
316 274
313 282
317 278
317 274
315 271
321 269
321 274
308 281
311 279
313 279
316 278
322 277
311 285
309 286
303 293
296 290
292 297
301 299
297 304
305 305
316 294
314 294
320 289
325 291
333 284
329 282
329 277
331 272
328 273
339 266
331 270
334 273
332 272
346 262
333 267
334 271
336 270
328 268
330 270
317 275
314 278
318 273
326 268
315 273
319 279
328 276
325 277
324 280
323 279
322 278
323 282
303 290
305 292
311 289
298 296
303 295
303 301
293 304
289 303
303 300
306 298
300 301
305 300
305 301
302 300
299 300
306 295
307 288
311 286
321 282
313 295
327 293
325 284
325 282
318 284
315 282
309 286
306 295
303 289
305 286
305 291
305 286
314 284
296 295
310 289
298 287
311 286
309 281
305 284
304 288
302 289
309 286
317 284
310 283
303 288
295 293
307 290
311 285
315 285
309 282
305 290
299 289
312 276
311 275
315 273
322 270
319 270
328 272
315 274
319 274
313 279
317 274
319 270
316 271
309 279
321 273
316 280
318 280
305 295
303 294
315 297
301 309
298 309
305 309
308 307
294 315
301 306
307 296
312 293
312 293
304 292
306 293
308 290
303 286
298 286
296 289
306 281
305 284
313 279
320 278
324 277
321 267
332 267
320 274
316 279
325 275
331 271
326 272
323 281
331 275
312 277
305 280
298 284
296 287
304 282
310 283
301 286
315 281
323 278
313 278
307 285
303 277
308 275
318 276
331 265
331 265
328 267
324 270
325 273
315 276
325 274
332 272
330 269
340 272
330 269
325 272
317 275
316 275
318 274
322 273
331 265
324 265
325 268
327 266
318 273
324 275
316 277
318 278
324 279
314 287
306 293
308 287
324 280
314 286
309 294
299 301
292 301
310 291
300 292
303 290
314 277
321 281
315 280
319 282
320 280
324 281
323 283
332 278
325 280
325 276
325 277
330 272
332 273
348 256
349 254
353 250
354 248
350 254
358 244
358 244
364 237
372 233
367 238
367 230
356 240
358 237
366 230
369 225
366 227
370 227
372 224
366 221
363 229
365 229
354 236
356 229
363 236
348 245
347 251
342 252
343 254
345 245
342 249
339 256
350 254
340 267
345 260
334 259
339 259
318 272
321 276
329 270
324 273
326 272
320 273
319 277
317 278
316 281
317 277
325 269
337 263
334 265
343 262
329 264
340 257
341 253
326 262
327 265
330 262
354 251
346 250
350 249
349 248
362 243
370 240
371 242
368 240
367 241
371 235
366 235
372 234
367 233
360 242
362 243
371 240
369 238
367 236
371 234
373 226
377 226
369 235
359 237
356 238
347 239
343 244
331 259
323 262
319 265
319 269
306 281
309 283
306 292
301 295
313 291
316 290
299 291
317 285
314 285
295 295
305 294
304 294
311 292
312 291
308 295
303 298
303 301
310 287
315 288
326 281
328 279
329 279
325 277
330 272
320 278
320 279
328 275
334 269
328 269
329 277
325 280
332 272
325 274
327 276
331 272
335 269
321 274
332 271
336 270
338 265
340 267
339 266
347 258
356 259
357 255
351 253
342 260
349 248
351 241
345 241
334 248
342 248
337 247
341 251
339 252
328 252
346 238
346 244
346 242
348 247
335 257
342 258
337 263
330 269
316 272
324 270
332 266
322 270
325 271
333 268
332 272
331 270
328 265
338 261
339 253
331 262
336 261
335 260
330 269
329 272
342 267
340 264
343 261
332 267
330 269
327 275
336 267
333 265
336 266
328 277
326 277
327 276
324 282
321 285
330 285
330 278
338 275
338 269
343 265
350 258
351 259
350 257
357 249
368 247
360 249
361 247
366 242
351 249
356 239
356 244
359 245
359 244
363 244
364 242
369 235
359 242
366 240
355 245
359 243
353 245
359 241
359 242
350 247
349 245
339 248
336 248
343 249
332 257
326 268
319 274
324 280
330 272
333 270
335 267
337 266
336 258
327 263
334 265
336 266
345 262
343 260
358 254
356 243
358 250
350 255
348 257
343 259
330 265
335 262
338 257
337 256
335 261
354 248
341 251
336 257
344 255
350 257
360 253
363 249
353 252
347 256
355 253
347 260
354 255
356 251
351 257
334 261
335 264
346 263
334 264
342 262
346 255
349 256
348 254
348 255
351 260
362 253
359 253
352 257
342 257
344 257
345 248
342 247
351 239
347 237
348 237
339 242
353 240
356 242
361 244
363 243
359 247
349 250
360 242
353 247
360 242
370 236
357 236
356 240
355 238
348 244
353 241
367 235
359 238
364 234
358 243
351 250
356 250
354 251
353 253
360 252
344 261
355 250
346 249
362 244
358 242
362 241
356 245
357 248
354 249
361 241
361 245
356 242
351 245
352 244
351 242
359 239
352 243
357 240
338 253
345 249
347 241
339 248
342 245
330 253
352 244
345 246
350 247
352 251
356 241
342 252
333 259
346 257
336 263
340 262
342 252
343 258
339 260
328 260
331 262
333 264
331 269
337 265
341 264
344 260
339 260
342 264
342 263
339 263
344 256
343 245
355 242
354 244
348 249
353 251
347 251
342 252
350 249
350 247
352 249
353 253
351 250
342 253
336 253
344 250
350 252
349 252
342 253
350 257
346 257
335 264
344 260
344 263
344 259
331 261
332 263
328 263
338 259
343 255
348 247
355 243
351 244
348 249
353 243
350 250
349 250
354 251
358 244
360 242
364 238
366 228
371 230
365 233
363 237
359 237
363 237
361 239
366 235
365 236
368 238
352 241
361 235
354 237
347 239
353 242
353 242
349 251
345 250
353 241
363 237
359 236
360 239
354 243
353 246
356 248
350 246
360 245
349 252
354 252
343 255
343 252
345 252
350 251
343 251
350 247
350 245
355 243
352 243
345 248
339 255
350 252
349 251
347 250
345 254
353 249
345 257
352 255
350 255
344 255
350 258
340 260
345 266
345 264
354 265
336 268
345 263
333 263
332 272
340 271
332 270
334 275
340 272
320 285
319 280
310 275
329 266
325 270
330 270
343 265
335 264
337 266
340 263
349 259
342 257
333 260
345 255
347 253
338 258
342 257
341 260
341 261
340 254
329 259
335 258
325 260
326 261
326 268
325 272
320 280
319 281
315 284
321 277
325 271
323 278
315 281
316 275
317 273
326 276
321 275
319 272
319 276
317 276
323 271
317 276
320 271
321 265
337 266
326 271
339 264
325 274
331 272
333 268
339 264
354 260
342 261
341 263
335 261
340 255
339 253
348 251
355 248
355 250
367 246
359 246
347 254
356 254
352 257
333 265
335 265
316 269
317 267
311 276
331 266
331 270
328 275
321 273
324 272
322 277
324 276
323 274
314 285
311 285
302 297
300 294
303 288
313 288
306 291
317 289
320 288
320 282
317 283
313 282
322 277
322 276
330 272
321 277
325 276
332 271
338 269
338 263
321 270
323 270
326 269
318 268
319 267
320 269
325 270
319 277
296 291
296 288
307 288
304 295
304 297
310 299
314 293
326 282
319 279
319 275
329 275
323 273
336 270
325 271
323 270
315 274
324 271
324 277
327 276
333 273
330 276
337 271
331 273
335 272
341 265
336 263
342 259
328 263
326 263
331 266
330 262
334 257
342 256
329 266
323 273
326 274
314 279
317 278
329 277
311 284
310 285
305 286
311 273
311 273
314 271
308 277
300 282
309 277
317 275
314 273
322 272
323 274
322 269
326 275
338 270
318 276
305 280
311 280
310 278
300 284
300 289
309 286
307 286
318 286
319 289
313 287
320 278
316 275
315 275
322 271
324 273
320 276
323 271
325 269
331 265
334 262
341 253
336 253
346 250
352 252
357 246
364 237
368 243
371 242
366 241
365 241
365 240
363 237
366 235
359 236
373 235
371 234
365 239
355 243
350 251
355 246
360 239
361 240
363 240
355 240
358 232
358 234
348 245
343 249
349 249
336 252
347 253
337 259
343 260
336 263
326 266
331 268
327 269
321 270
318 274
327 268
315 272
318 265
315 269
319 276
324 278
331 274
318 277
313 283
305 290
301 300
304 304
297 297
298 295
302 293
302 298
297 290
303 289
304 290
301 296
304 296
309 294
303 292
303 291
310 282
323 280
329 276
320 278
324 277
328 278
328 278
338 269
328 270
335 271
328 271
329 271
315 271
320 273
314 279
317 285
312 286
311 287
302 288
297 293
297 293
293 294
293 297
300 295
304 293
312 287
312 284
315 286
320 286
316 289
314 293
306 299
320 292
317 291
308 293
312 293
316 291
316 288
324 283
325 274
327 275
325 280
326 276
311 283
319 280
317 280
307 281
317 285
303 289
311 290
308 300
305 297
317 294
299 301
302 307
302 302
292 309
300 310
307 307
300 303
294 301
307 300
311 298
318 300
310 292
332 279
313 286
306 293
305 296
308 287
307 286
312 284
305 287
308 290
293 303
305 296
314 292
315 286
317 282
314 278
315 280
316 280
308 286
314 279
310 280
313 282
300 285
306 287
300 289
300 290
300 289
302 291
286 299
288 305
289 304
294 301
303 302
302 302
300 303
295 302
298 307
299 301
288 310
288 309
289 313
305 305
293 307
282 309
291 304
295 306
301 302
309 303
305 300
301 300
292 305
297 300
305 300
290 307
288 310
293 312
290 305
302 297
300 295
304 297
314 291
320 284
320 285
317 281
311 287
320 284
325 280
330 273
323 277
328 270
333 270
338 269
333 274
338 277
328 280
318 286
321 286
314 287
324 284
308 287
311 284
318 282
309 285
319 285
322 279
323 283
332 278
343 269
339 262
350 258
343 263
351 263
343 266
338 271
345 263
347 256
352 256
350 253
348 256
337 266
337 262
332 262
337 254
342 252
344 254
358 243
356 241
361 236
354 242
348 249
349 252
343 250
340 255
351 248
345 246
357 241
354 240
342 245
345 240
350 241
346 243
345 242
346 245
354 236
349 243
356 242
352 245
341 254
347 253
347 257
344 255
341 259
327 265
342 266
332 272
322 274
322 278
317 287
328 280
319 284
323 279
321 277
335 275
325 273
343 267
341 264
343 267
340 267
338 268
334 270
338 269
331 276
325 283
324 276
317 280
317 279
318 280
327 277
324 279
316 281
323 277
314 279
309 282
314 278
317 280
313 288
310 287
305 293
296 297
289 296
297 293
298 289
306 282
327 270
328 270
333 265
324 267
327 266
329 263
317 269
324 275
319 277
319 279
321 280
323 275
333 271
335 267
330 269
333 271
324 280
324 281
317 289
319 290
307 295
321 298
323 290
328 285
319 280
318 285
331 280
332 273
336 268
338 262
347 261
341 269
337 267
327 272
340 259
331 259
339 259
346 255
334 255
329 264
326 260
328 263
333 266
329 268
321 269
307 275
300 280
329 270
327 271
322 267
324 271
328 266
326 266
330 264
330 269
326 269
330 267
330 265
331 262
334 263
336 266
338 260
343 256
338 255
345 248
341 255
340 254
348 252
343 256
347 254
348 257
339 264
333 263
341 262
326 268
326 272
328 268
330 265
331 266
329 268
334 263
336 267
333 263
333 260
333 262
328 260
330 264
333 267
328 267
338 262
346 258
333 258
332 262
330 269
334 269
342 263
341 256
348 256
348 252
348 254
343 263
353 252
347 251
344 251
352 249
336 259
337 259
348 250
346 253
344 254
348 254
355 255
348 257
340 257
340 259
341 256
334 263
331 260
336 265
330 269
330 272
333 273
334 276
325 278
324 276
327 274
329 273
325 269
327 268
330 272
333 271
341 270
339 268
334 274
331 279
330 278
326 283
332 281
328 281
329 280
323 274
330 270
335 265
330 265
340 261
328 264
329 267
331 267
314 276
319 277
323 274
323 273
321 276
312 275
310 278
322 275
307 284
312 284
307 292
314 286
307 292
306 291
301 293
299 297
304 292
311 292
313 296
305 291
305 290
312 290
305 289
304 292
295 297
302 292
306 292
299 294
296 296
303 301
306 304
296 301
306 301
311 290
307 289
310 294
304 292
301 294
306 293
308 292
307 293
320 284
325 278
338 265
341 263
325 277
314 278
315 283
328 279
314 282
320 279
326 279
320 284
330 284
330 285
326 288
335 283
332 285
329 277
331 274
324 278
331 277
337 270
335 265
332 270
333 267
339 267
336 273
335 267
345 263
354 261
347 259
337 264
343 262
333 265
327 273
314 282
328 274
324 268
324 267
320 272
326 266
318 272
317 273
328 270
322 272
316 280
321 274
339 262
347 258
338 261
343 266
342 261
335 265
335 260
332 256
336 260
348 258
347 254
352 250
343 252
348 251
342 256
345 262
342 259
344 259
345 256
338 263
336 259
335 266
338 268
342 261
337 262
341 257
346 250
339 249
349 245
358 238
352 239
354 242
351 237
368 226
363 231
367 232
362 238
364 234
353 242
356 238
347 239
357 238
343 246
339 251
352 246
353 240
335 251
329 252
337 250
339 252
333 253
335 256
343 255
338 255
341 249
334 251
336 251
338 254
341 253
357 250
331 257
337 254
345 254
337 261
335 259
340 265
344 267
333 271
343 265
355 255
342 256
352 258
350 257
354 254
341 251
341 248
337 250
348 243
358 245
353 247
346 251
356 250
348 255
341 258
352 250
343 245
349 241
361 235
357 234
353 234
372 225
382 220
373 224
369 226
368 226
354 229
356 232
366 227
364 230
361 238
361 239
357 241
350 250
342 254
340 257
345 255
349 250
355 245
359 251
343 255
337 253
340 252
329 265
330 268
331 265
339 258
330 262
319 268
322 271
320 272
315 276
316 279
319 274
326 275
328 276
331 271
327 269
329 270
306 282
321 276
322 270
333 266
338 269
344 262
344 257
342 260
337 267
338 265
326 273
337 267
331 270
334 272
342 270
345 262
340 263
342 261
348 264
352 251
358 249
359 246
350 246
346 256
358 251
357 250
362 246
368 241
357 244
349 247
346 253
341 254
344 256
354 250
358 244
344 252
344 253
342 258
335 259
335 259
334 260
332 262
335 262
322 269
342 260
342 258
337 268
328 273
329 283
323 282
321 283
320 281
316 280
322 274
320 281
323 273
339 268
339 270
336 267
333 270
334 276
333 272
338 272
339 265
337 259
338 258
344 254
340 256
350 250
351 245
357 244
366 239
355 247
358 248
358 257
348 260
339 263
338 262
347 259
333 266
336 276
325 280
326 281
337 275
326 274
327 270
322 273
312 276
307 277
305 286
300 294
301 296
302 290
315 283
316 285
332 280
328 275
327 272
333 269
323 275
324 280
308 279
311 282
321 283
311 293
321 282
332 275
332 275
319 282
320 278
320 278
324 272
324 272
329 270
327 276
324 271
327 267
329 266
341 260
343 266
339 264
337 271
322 277
327 277
332 276
328 277
316 284
324 276
313 279
318 272
319 274
315 282
306 284
308 285
309 291
314 295
325 285
327 280
334 274
346 266
329 267
337 268
324 271
322 273
320 275
324 265
328 264
331 267
319 269
326 268
333 266
328 266
324 272
324 274
315 276
318 279
313 281
316 274
319 272
322 271
324 274
310 278
305 286
298 296
303 294
296 298
292 301
289 306
291 310
298 304
289 308
289 303
291 301
294 301
305 299
312 287
318 284
310 284
320 280
319 278
308 284
323 284
309 282
311 286
314 277
312 282
304 290
309 286
308 287
296 291
312 288
296 292
313 286
316 284
315 281
316 279
318 284
327 275
324 275
321 277
310 280
317 282
321 283
314 285
318 282
315 274
326 273
321 273
325 270
331 268
320 276
325 276
325 277
325 271
326 275
319 281
320 279
322 281
315 287
310 291
299 292
303 290
303 295
308 290
324 278
314 281
309 283
319 279
310 286
326 275
322 279
318 278
317 271
308 271
325 272
322 275
330 274
329 273
328 274
327 273
334 268
324 274
319 278
326 280
326 281
322 275
334 264
335 261
334 265
335 266
334 263
341 259
356 249
351 251
356 251
354 245
335 257
337 253
342 253
335 260
344 258
344 258
332 267
327 273
334 273
335 275
330 277
336 275
329 276
324 270
324 268
328 267
339 263
326 268
335 268
320 269
323 273
339 267
333 272
331 273
335 260
342 256
335 261
328 263
336 254
350 252
345 253
347 261
330 267
338 262
334 265
331 266
325 271
315 276
313 280
305 284
300 291
295 292
306 287
303 289
304 298
316 296
307 298
299 296
297 297
311 285
293 292
307 288
305 292
315 285
311 285
318 283
322 273
320 272
318 272
305 281
306 287
313 286
311 284
320 285
319 285
320 285
320 287
321 289
314 294
306 295
308 292
321 283
317 286
321 287
304 293
304 293
310 291
313 290
324 288
315 289
311 295
296 291
289 300
292 303
290 302
282 310
285 308
290 311
276 312
294 301
307 299
307 291
310 289
310 285
319 281
319 281
319 282
321 278
324 279
308 281
310 283
314 284
319 275
310 278
307 284
308 283
305 292
310 294
321 288
318 282
331 272
331 269
332 264
324 268
338 264
340 264
346 258
333 266
341 260
343 259
343 259
341 259
338 257
345 255
334 264
342 259
337 254
344 252
345 256
348 257
349 252
342 261
343 260
346 259
339 260
340 260
336 266
343 261
339 257
322 267
320 272
320 274
317 277
328 277
323 282
327 277
332 275
331 270
338 261
346 259
348 251
345 251
350 244
348 246
351 242
346 250
358 243
352 247
354 241
344 248
357 248
357 249
354 248
363 242
364 243
357 237
370 232
360 235
357 235
357 237
354 238
359 239
353 236
360 237
364 236
366 234
365 241
363 242
359 242
357 238
363 237
370 226
371 222
369 231
368 226
371 230
370 226
379 229
380 221
369 226
368 229
374 226
378 221
380 217
383 214
376 219
380 220
390 215
387 218
384 219
379 219
373 218
386 215
373 220
367 225
364 230
366 225
373 225
370 227
359 230
360 235
371 232
371 230
373 230
369 232
364 241
368 237
370 233
363 240
367 237
358 241
367 241
355 239
344 245
351 245
353 244
350 241
359 233
363 233
364 237
362 238
354 243
340 248
339 249
334 256
338 256
336 261
333 260
327 261
339 261
334 257
321 264
329 262
334 261
349 259
343 266
343 265
337 268
337 261
343 257
349 252
350 250
348 250
363 240
365 241
376 236
367 236
382 229
376 231
372 233
372 228
379 227
379 224
377 231
368 234
368 241
361 245
374 235
361 238
369 239
364 236
361 244
364 242
351 249
345 252
342 254
345 250
352 250
349 255
347 256
346 254
349 248
355 244
361 245
353 247
342 250
342 254
333 261
331 263
344 255
343 258
335 259
336 257
329 257
328 264
327 264
319 265
319 269
319 277
311 279
326 270
314 265
327 259
344 253
328 256
342 257
348 253
345 255
342 252
333 257
334 254
345 253
342 257
338 260
338 265
336 267
337 269
331 266
335 263
340 266
350 254
348 251
336 256
340 254
339 256
337 251
335 258
333 264
340 266
334 267
338 267
347 261
345 258
350 254
352 251
354 250
362 246
360 251
355 254
344 254
351 249
358 249
357 246
362 243
362 238
382 226
373 227
366 235
371 235
364 243
373 241
369 243
353 252
357 250
359 247
359 246
361 246
355 249
366 244
363 247
361 249
364 246
352 251
363 247
351 251
352 259
352 253
349 254
344 261
330 265
326 269
334 264
333 257
334 261
346 254
356 255
344 260
352 254
355 249
357 247
363 244
373 237
368 239
364 241
359 242
351 249
350 246
357 245
362 240
366 242
368 234
372 233
371 230
361 236
362 237
353 242
345 251
353 249
347 247
331 257
330 257
331 261
331 260
336 260
340 252
334 255
336 259
339 258
330 258
336 256
331 259
335 255
340 253
333 259
330 259
324 264
331 262
330 260
332 263
345 258
341 256
348 255
336 260
335 257
331 263
320 269
333 265
334 267
335 266
333 263
324 271
335 269
332 271
323 279
319 283
308 285
322 283
321 275
335 270
342 265
350 251
339 249
337 256
328 263
330 261
319 273
328 273
324 273
330 279
340 275
332 270
332 275
336 272
338 265
353 253
339 257
339 262
341 258
351 252
356 250
349 247
351 246
353 244
358 244
361 241
360 244
362 243
356 239
344 248
343 254
339 263
354 253
354 253
369 243
361 249
351 258
369 246
361 250
368 248
382 243
365 245
361 247
353 248
361 245
363 242
358 242
352 248
357 247
357 242
355 249
352 249
356 247
363 244
363 236
366 234
344 242
354 241
368 233
369 230
377 217
366 227
361 231
354 245
341 252
346 251
348 246
351 247
339 257
349 256
352 248
352 250
351 249
351 252
360 250
343 254
340 262
343 260
336 267
360 252
350 255
354 250
356 253
368 249
356 253
361 244
355 242
356 241
363 241
361 244
345 246
348 245
350 247
344 249
342 238
346 242
337 245
335 247
343 254
343 247
345 250
342 257
347 257
355 250
356 250
354 251
350 258
362 252
347 260
346 262
343 264
339 264
347 260
335 266
334 264
333 266
333 269
338 268
334 274
335 267
337 265
337 265
342 265
337 264
337 266
332 269
322 277
327 274
327 273
332 273
332 273
328 272
331 270
325 270
320 273
308 279
313 278
320 272
334 268
326 269
337 266
342 261
335 266
331 260
327 267
334 259
334 256
339 261
330 263
330 264
340 262
325 271
331 268
333 260
352 249
333 257
340 254
342 256
349 252
333 257
341 259
329 266
341 261
343 260
336 261
339 252
349 245
341 248
348 251
340 256
343 263
342 264
353 252
358 251
353 240
346 247
350 245
343 254
348 251
346 254
343 246
346 253
352 250
358 249
353 247
358 246
344 252
346 251
354 254
351 258
338 257
340 255
342 255
343 253
349 245
351 246
368 241
361 246
362 239
361 243
362 237
366 235
374 234
363 235
371 228
366 234
370 229
360 233
345 249
340 257
339 259
343 254
334 260
340 252
335 255
326 262
326 272
311 282
300 290
314 290
313 291
312 290
314 283
310 286
311 287
309 293
304 288
303 292
315 288
303 292
300 292
310 286
313 286
314 284
322 271
331 270
329 272
330 271
337 273
338 275
338 273
339 274
343 266
342 263
340 263
347 261
343 264
342 257
342 259
353 254
347 253
331 263
337 262
341 260
340 258
345 259
343 256
347 251
356 244
353 243
361 243
366 236
370 232
367 237
365 243
360 243
358 247
357 248
371 236
358 242
367 239
369 232
369 232
371 227
363 235
365 246
353 249
351 248
357 247
359 248
361 249
338 253
337 262
339 260
348 256
362 251
349 254
346 250
345 254
353 251
354 251
336 257
335 260
331 263
333 265
320 267
327 270
316 277
320 274
321 282
322 277
324 274
322 274
319 275
320 277
337 269
333 271
317 277
320 278
324 266
329 268
325 273
321 274
319 271
319 271
327 267
332 269
348 266
347 262
342 257
361 247
367 241
360 240
357 250
370 244
369 249
364 247
350 251
358 250
363 244
360 244
357 240
357 246
354 247
360 244
351 243
354 240
351 242
354 239
355 241
351 245
345 245
353 244
353 246
357 249
357 248
341 258
343 259
345 257
341 260
340 262
341 262
344 264
337 267
335 272
339 267
338 261
335 259
339 266
329 264
343 260
328 263
326 264
335 263
325 271
322 275
335 268
346 250
343 258
342 259
343 260
344 257
356 251
349 250
358 245
342 256
333 256
341 256
353 251
347 256
342 259
340 256
346 257
342 262
336 266
336 264
347 263
337 263
340 270
335 272
332 270
338 272
340 266
331 266
344 259
351 259
355 254
348 253
342 256
347 257
334 261
346 258
344 253
353 253
357 252
357 251
358 246
352 246
360 241
361 240
366 240
356 236
364 234
345 242
354 235
351 235
338 241
339 237
345 243
347 249
347 257
341 262
345 257
328 264
335 269
328 270
331 271
332 268
337 263
337 259
344 260
346 257
333 265
347 263
343 259
339 264
339 263
339 262
355 254
354 257
344 261
352 261
342 265
338 265
354 255
334 258
351 251
349 249
359 244
364 237
359 242
346 249
356 246
353 242
355 250
356 251
343 256
347 253
349 252
358 250
346 258
351 252
346 257
347 254
342 260
335 265
335 267
337 264
334 268
341 262
342 262
334 266
346 252
341 255
353 246
361 243
347 251
342 260
348 256
346 248
332 255
328 254
342 249
338 253
338 258
332 263
339 259
335 261
325 264
323 264
335 259
340 254
338 253
327 262
326 264
330 263
325 263
334 262
320 267
324 265
326 264
332 265
332 258
331 260
325 270
330 272
322 273
333 271
342 265
345 256
347 250
352 240
362 234
355 234
354 239
354 242
346 251
355 249
360 242
359 245
357 244
359 244
341 254
338 254
347 253
333 258
329 264
332 263
338 263
336 261
331 265
331 266
328 264
322 273
320 283
313 282
325 287
314 286
312 289
309 291
297 292
305 290
309 291
309 294
298 298
298 295
300 294
314 290
317 292
321 288
316 288
314 284
313 283
320 276
319 273
321 278
318 277
321 275
325 278
326 273
333 264
339 264
348 260
354 255
343 258
339 258
341 258
350 257
352 251
360 248
335 258
338 262
348 258
344 258
348 261
348 256
353 255
335 259
332 259
337 256
334 261
329 258
333 265
341 259
338 257
350 253
342 257
343 254
337 259
342 256
343 255
335 256
338 261
338 265
341 264
332 270
346 263
335 268
335 269
329 268
333 268
341 268
342 264
347 256
352 251
358 245
349 252
351 248
355 242
360 232
360 234
359 243
359 240
355 243
361 243
351 241
356 240
339 248
354 246
350 252
362 243
355 245
346 243
352 240
357 242
353 243
344 246
342 255
335 254
337 257
326 262
325 265
327 263
328 272
332 269
322 277
319 276
332 271
321 280
330 276
331 271
332 272
329 273
332 275
326 282
321 287
317 287
319 291
325 285
325 280
341 272
338 276
329 272
339 264
336 258
326 269
323 272
324 274
328 269
329 266
332 270
326 270
330 275
332 268
349 259
347 258
351 253
345 253
347 252
360 249
369 242
358 248
364 240
350 238
339 242
343 246
357 247
346 253
335 257
345 255
342 258
343 260
340 258
336 265
321 273
327 266
331 262
311 270
313 273
307 281
317 281
316 278
310 285
310 284
307 290
316 291
311 293
309 290
306 291
312 289
311 292
325 289
313 300
317 294
322 286
316 283
326 274
329 271
334 268
339 265
342 267
346 262
340 261
348 264
343 272
334 274
344 269
339 274
340 276
340 272
341 275
333 276
335 275
324 283
329 275
329 273
336 272
333 266
333 266
326 268
336 268
331 263
329 265
329 265
325 264
323 270
330 270
313 283
317 268
311 273
316 283
320 278
324 276
326 268
320 269
315 275
331 270
325 272
329 272
327 272
331 269
330 267
322 267
331 267
333 266
327 271
332 270
332 267
332 268
326 266
320 270
322 266
319 275
319 275
333 267
327 268
331 267
324 266
334 266
323 269
333 266
328 270
320 279
325 273
323 268
329 270
336 269
330 273
327 273
323 272
319 276
330 274
325 278
337 281
334 279
327 277
324 281
326 282
330 279
332 282
330 282
326 275
332 272
347 260
343 262
346 259
340 264
339 267
345 261
345 261
352 255
350 255
348 257
342 258
353 253
362 251
362 246
354 253
349 253
351 247
358 248
346 257
351 258
345 259
346 255
349 258
344 261
340 258
340 255
348 253
336 253
331 257
336 257
322 259
337 254
342 248
340 253
344 247
338 250
338 252
334 263
333 265
327 263
325 266
316 265
315 272
323 271
324 271
331 269
339 270
335 268
340 262
335 269
338 267
325 281
325 287
339 271
343 269
340 268
333 269
328 269
336 263
334 265
350 257
342 261
339 260
339 257
340 259
337 259
342 257
341 252
351 243
354 250
352 250
355 248
367 244
357 251
345 250
353 248
350 244
351 241
361 239
359 228
351 234
351 241
348 242
342 247
349 242
346 242
350 241
354 238
357 240
363 238
356 239
357 234
357 238
359 237
355 237
343 241
348 245
343 250
355 244
355 249
352 248
361 250
350 253
338 258
338 262
322 270
323 270
336 265
346 265
357 253
358 245
362 245
360 239
355 242
346 243
353 239
359 242
356 245
349 250
343 254
348 246
341 248
348 244
349 242
345 239
341 242
339 248
346 247
339 247
349 242
342 246
347 250
349 247
334 253
341 249
349 246
373 237
361 245
353 243
356 242
361 242
351 245
355 238
367 232
360 239
359 241
351 245
349 248
356 249
358 241
361 241
366 237
372 229
370 231
377 226
384 227
382 230
368 241
371 237
370 237
364 237
365 239
375 239
377 234
377 229
374 230
381 228
376 226
389 221
376 227
373 227
368 230
367 234
365 238
370 240
365 242
356 245
356 243
357 249
347 249
355 252
356 249
353 252
343 256
342 252
353 242
351 246
348 250
347 248
342 250
348 247
333 248
343 242
356 244
343 249
351 250
344 250
356 247
352 245
366 239
367 236
360 239
359 242
363 240
364 240
365 242
366 238
361 239
361 240
357 244
360 246
362 242
365 238
364 236
366 237
369 233
372 233
359 242
357 240
361 237
362 238
364 230
372 228
370 227
374 227
367 226
363 226
368 233
347 245
348 250
354 244
358 247
357 252
362 251
359 250
363 246
358 251
350 257
345 260
341 261
345 255
349 257
347 258
347 257
351 259
353 253
362 251
347 251
344 256
337 260
342 261
342 252
343 255
348 254
358 250
350 260
354 250
352 243
357 239
357 243
357 243
363 237
363 239
359 237
359 237
351 240
355 241
368 237
364 230
353 233
375 221
368 223
364 229
362 230
364 229
364 238
365 237
360 234
370 228
364 231
364 236
353 233
352 239
352 240
360 237
353 242
358 237
354 240
359 234
359 239
371 233
366 232
368 238
359 238
347 246
353 247
354 245
358 246
354 250
349 253
342 260
345 260
338 262
328 268
340 264
346 258
333 261
340 256
345 256
340 261
342 265
343 258
342 262
347 258
358 246
351 245
364 238
367 238
373 239
373 240
355 249
358 249
359 249
359 249
356 246
360 241
356 244
355 243
350 249
349 253
354 245
345 254
342 258
340 258
344 259
337 261
355 253
340 258
338 258
336 265
339 264
333 269
334 268
334 266
337 257
358 246
345 253
351 251
348 255
334 264
341 258
352 254
338 257
347 261
341 261
350 261
345 257
359 253
363 243
351 241
352 240
356 246
352 253
349 246
347 241
358 237
364 234
362 236
361 239
360 238
357 240
356 240
357 245
367 240
359 251
337 258
340 258
340 249
348 248
348 255
345 251
350 250
345 249
343 254
336 256
343 257
345 256
335 264
331 275
331 269
331 271
337 266
347 260
349 256
349 257
340 266
334 267
344 271
334 271
325 278
333 269
341 263
337 262
349 253
332 255
338 259
338 254
339 259
341 258
336 263
332 264
347 255
343 264
344 270
331 274
333 275
333 271
338 264
341 261
342 262
344 258
340 259
342 255
329 263
337 265
318 269
333 264
332 262
333 262
327 273
331 278
319 288
320 282
321 285
326 280
325 279
326 273
334 270
321 278
317 273
310 276
322 273
325 273
327 271
339 265
322 272
310 279
319 280
324 276
321 278
329 272
337 265
344 263
337 261
337 263
340 263
334 267
348 254
354 251
352 246
339 249
346 249
356 252
351 247
347 250
349 251
349 251
347 253
342 256
353 255
352 247
349 253
353 250
340 252
345 256
345 256
346 261
337 258
349 253
357 250
346 257
346 253
341 255
347 251
349 259
343 259
342 259
342 256
342 258
343 256
353 253
353 251
353 252
355 251
351 257
341 255
343 255
341 257
326 267
327 268
322 274
315 275
323 271
329 266
329 266
337 256
321 262
341 254
348 253
344 254
347 256
345 250
350 247
359 244
356 250
360 245
358 249
354 245
357 240
355 239
350 244
361 245
363 243
371 241
363 242
355 247
357 237
356 238
352 245
339 259
335 263
337 266
343 267
327 265
328 268
332 262
333 264
329 269
340 267
338 270
351 257
342 259
338 267
324 278
323 278
334 273
337 268
336 267
346 249
343 241
350 241
336 247
338 245
322 246
335 249
339 246
340 251
337 256
329 262
330 264
327 260
335 260
339 258
327 261
332 259
334 256
326 254
334 255
331 258
324 258
321 262
320 268
316 278
319 282
319 278
314 285
311 290
311 289
307 287
309 286
306 287
291 293
312 286
300 291
297 295
295 288
310 285
312 281
315 281
319 277
317 283
319 281
323 275
329 273
323 271
322 269
326 273
333 266
333 264
350 252
351 251
357 252
348 258
357 251
337 257
354 254
343 254
338 253
342 250
339 250
354 246
341 252
352 244
350 247
345 254
344 258
341 260
340 257
336 263
330 267
325 272
325 275
329 275
319 282
327 283
328 278
337 273
338 277
333 273
335 268
338 268
341 263
346 261
335 266
336 268
340 272
322 281
335 277
335 271
349 259
351 259
353 250
363 237
360 237
354 239
363 241
371 236
369 233
351 243
356 241
351 238
345 240
335 248
347 249
338 257
353 250
352 247
359 241
343 239
354 243
338 263
334 272
336 271
336 267
336 267
339 267
346 260
355 254
355 249
357 250
362 248
362 244
363 234
373 226
383 223
387 220
390 221
384 224
373 231
374 227
369 231
373 224
354 233
364 232
357 232
361 236
351 245
347 247
344 250
342 252
347 255
344 260
343 265
351 250
355 246
363 239
364 241
364 245
364 240
364 242
358 250
360 247
366 243
365 243
361 244
372 242
369 244
366 250
362 252
356 259
358 248
353 251
353 254
339 258
338 259
340 252
344 252
353 249
348 252
348 246
343 252
347 249
350 246
339 254
343 251
332 264
325 266
340 259
331 264
338 260
346 256
334 259
344 260
345 258
342 266
351 266
354 257
349 256
343 257
344 258
348 250
356 244
361 243
357 245
364 238
363 236
363 227
353 237
346 237
355 236
363 230
372 222
380 214
375 219
379 219
382 216
388 210
385 213
377 214
386 219
386 220
395 221
390 225
386 227
386 231
381 232
376 234
370 234
371 233
365 230
359 233
372 230
364 231
363 231
363 237
367 232
368 226
368 227
373 226
375 228
375 237
372 236
370 241
372 243
371 239
362 241
370 236
365 237
364 238
368 234
371 239
363 238
366 242
377 237
372 238
377 234
372 227
376 232
371 232
382 222
380 224
388 224
386 224
389 215
391 211
389 213
372 215
375 219
369 219
370 221
371 221
372 216
361 214
377 213
377 217
363 222
372 228
367 228
368 226
370 222
365 220
370 223
377 225
360 234
366 233
358 229
361 230
361 235
364 239
372 231
379 229
359 234
367 235
365 236
353 244
348 246
348 249
343 250
331 254
337 255
338 254
339 247
340 249
342 246
350 240
342 243
341 245
343 246
358 239
350 240
362 234
365 235
371 232
372 233
366 233
363 232
367 229
371 233
371 242
363 246
373 236
373 235
365 243
376 234
370 233
377 227
372 230
371 229
364 235
361 232
370 230
366 233
365 236
358 239
359 241
361 236
352 238
358 236
374 228
360 236
369 238
365 240
357 242
352 244
348 249
347 251
338 255
348 254
345 252
346 257
337 257
336 258
349 249
350 241
354 247
338 256
334 260
339 257
334 254
345 253
352 248
354 248
352 249
347 246
350 243
354 245
350 246
355 247
341 251
351 246
344 253
336 255
339 254
336 249
348 249
351 253
347 256
343 255
349 248
345 248
344 245
348 244
346 246
355 250
336 259
346 252
345 254
350 249
354 249
354 245
349 252
344 258
340 258
349 252
345 255
353 252
344 254
349 253
339 258
353 253
339 264
349 254
352 255
349 253
363 240
360 239
360 238
362 236
363 236
364 239
357 242
350 245
357 245
353 247
349 243
338 249
339 247
352 243
347 241
353 236
344 238
337 248
327 253
325 256
327 256
328 261
319 268
321 274
315 275
314 280
308 282
320 276
323 272
343 265
332 274
320 287
318 285
308 289
309 286
306 288
310 290
312 285
312 291
318 285
320 281
333 275
329 273
330 269
338 262
339 252
348 244
341 246
349 255
343 253
354 255
336 257
347 247
352 250
340 256
343 257
344 263
342 263
341 261
344 261
360 252
357 248
361 245
358 247
357 249
367 250
362 250
365 245
354 248
361 251
352 248
349 254
343 260
337 261
328 263
328 267
340 262
340 257
330 265
329 274
334 274
344 261
341 260
340 256
332 261
338 263
327 267
318 278
313 277
318 267
326 261
331 270
331 266
328 265
345 254
345 256
338 259
343 256
350 247
338 258
346 248
356 246
358 247
358 246
362 244
364 245
344 253
351 250
344 253
341 258
354 262
362 254
354 259
338 267
350 265
339 267
337 268
342 267
340 265
332 266
333 264
344 260
354 260
360 255
362 246
371 239
369 241
362 246
360 249
357 246
364 237
363 241
356 245
353 247
353 243
355 246
355 246
348 251
348 246
343 248
361 243
361 244
365 241
365 239
357 246
351 244
361 239
360 242
360 239
363 242
351 253
356 248
352 256
331 264
345 255
350 247
349 247
341 252
349 249
339 256
347 256
352 251
339 262
340 260
340 258
340 263
337 264
331 265
335 258
350 253
335 259
337 257
330 259
335 256
331 260
326 261
348 250
348 248
346 252
344 253
349 252
345 258
343 264
337 265
321 273
311 279
310 279
313 284
310 283
325 269
316 271
324 278
314 287
309 291
319 288
306 293
318 285
327 281
328 273
343 265
338 258
333 257
348 250
347 256
343 256
343 248
342 252
338 253
347 249
346 254
343 252
341 254
350 247
343 251
354 248
357 246
351 243
358 239
362 240
356 240
358 243
365 238
360 239
358 242
349 244
360 243
346 251
334 254
332 253
342 257
334 263
333 260
341 260
345 254
335 256
334 253
343 251
328 260
349 259
347 259
322 274
315 278
313 281
312 270
315 268
321 270
325 267
324 278
327 276
324 274
326 273
330 276
318 277
326 274
316 276
331 271
331 264
331 272
316 277
321 280
322 276
318 285
323 283
323 277
329 276
327 278
326 281
326 279
327 272
329 275
328 273
329 275
334 267
331 268
327 270
332 272
326 276
323 281
328 278
334 276
342 267
332 266
337 269
342 265
344 263
346 254
344 254
363 248
358 247
360 240
368 231
364 229
372 229
360 239
362 239
366 235
360 244
353 246
363 243
359 246
353 244
354 240
357 240
358 242
355 243
359 240
351 243
364 242
359 241
355 244
359 242
354 242
349 249
349 258
336 262
342 263
351 257
346 258
342 265
348 257
345 256
350 261
350 257
359 256
351 260
357 252
351 257
350 256
352 258
345 265
333 268
331 269
329 264
330 263
329 266
345 262
335 267
344 258
338 258
342 257
334 258
333 260
337 253
341 253
338 246
341 252
344 253
338 249
336 251
333 254
320 257
324 258
328 265
342 258
337 258
335 261
320 265
313 273
314 279
315 281
322 275
324 275
317 278
330 275
335 274
328 280
325 277
319 282
323 273
314 278
332 268
330 267
327 267
331 263
334 272
338 266
330 268
326 267
313 274
319 272
323 271
331 262
338 256
333 259
329 261
342 255
337 262
330 269
338 263
336 265
316 274
320 277
328 273
321 279
325 271
322 275
327 275
314 287
319 282
310 286
317 284
314 286
307 286
321 279
315 285
311 288
303 289
305 294
316 290
310 287
326 277
323 275
325 273
325 278
325 271
327 271
325 274
330 271
319 275
323 268
316 277
326 266
320 271
331 273
311 280
320 278
325 277
310 281
306 286
328 274
326 275
330 270
321 273
329 268
340 268
323 268
324 270
337 266
328 270
319 274
326 274
328 273
328 273
337 265
333 267
341 262
323 270
320 275
306 284
322 279
322 277
324 279
314 282
318 282
324 282
320 279
328 276
333 274
328 269
339 262
331 267
332 268
326 280
321 285
323 283
323 277
301 287
317 286
307 292
304 287
314 280
308 282
296 287
312 280
309 284
315 281
309 279
304 286
306 288
318 283
326 274
324 272
323 271
328 267
321 270
322 268
323 268
326 271
329 269
335 266
337 258
330 263
337 256
343 255
353 255
347 257
344 254
358 249
357 249
358 251
364 252
355 255
353 253
349 256
355 250
348 256
349 254
350 251
355 252
346 252
341 253
339 251
337 254
319 264
324 260
322 264
320 270
325 272
330 261
330 270
335 264
331 267
335 265
339 262
337 262
338 259
342 259
336 261
331 268
337 260
332 266
333 261
341 251
335 252
349 254
346 251
356 250
346 257
356 247
345 252
344 252
352 247
348 246
350 244
353 239
355 238
358 236
360 236
362 238
355 239
348 238
351 241
349 241
368 233
364 239
359 241
379 229
375 232
364 240
364 245
359 244
361 245
352 245
355 247
359 242
355 250
351 254
354 248
354 249
347 255
350 258
354 253
370 246
362 244
358 237
358 242
355 245
336 252
340 257
341 256
330 275
328 280
335 275
325 283
321 282
326 281
327 273
329 268
328 276
326 273
330 270
324 277
335 268
328 272
327 274
327 269
340 266
332 272
334 264
332 265
325 274
330 274
327 274
335 267
332 261
332 260
332 264
321 267
331 265
332 264
331 265
325 263
323 272
322 275
317 274
312 276
316 284
315 286
324 284
312 285
316 286
323 279
323 279
329 276
326 274
343 268
340 264
336 268
325 275
330 276
341 273
348 262
351 256
362 246
355 250
346 259
346 261
355 257
344 261
338 262
338 263
344 255
342 262
353 256
337 258
336 261
337 254
342 246
347 244
341 249
346 246
348 246
358 245
357 243
348 246
349 245
333 251
332 257
345 250
341 248
344 254
349 250
351 243
352 249
360 246
353 246
350 244
352 241
355 246
353 249
345 250
359 240
346 244
355 251
343 254
342 259
328 255
326 261
332 270
334 267
324 272
316 279
309 285
319 280
323 279
333 268
336 269
325 273
327 267
330 259
334 253
322 258
319 264
321 262
328 257
326 255
328 261
327 260
315 266
325 269
323 271
331 272
316 274
323 268
324 265
324 272
330 268
332 260
335 261
336 262
348 253
339 253
346 254
344 262
346 258
357 248
360 242
361 240
358 243
353 240
368 238
358 238
354 240
354 236
363 229
364 226
362 229
364 225
365 229
366 226
370 224
371 221
361 232
361 235
351 241
353 242
346 247
352 245
349 242
357 246
354 245
360 241
359 240
346 248
355 247
350 247
330 259
338 259
339 260
342 264
336 260
339 259
346 252
348 256
353 251
340 258
337 266
339 262
334 261
337 265
332 264
339 258
337 253
347 251
337 254
343 257
356 245
341 250
346 245
340 247
351 244
351 246
357 242
355 240
363 238
376 233
375 231
380 231
380 227
382 224
384 224
380 225
383 225
387 218
389 210
380 213
375 219
378 224
376 223
377 220
384 220
395 217
383 221
378 220
384 213
382 220
380 219
380 217
379 221
376 223
373 225
368 221
370 219
380 215
387 216
391 211
384 220
374 222
370 222
361 226
365 228
362 230
351 235
354 234
358 233
355 242
342 248
335 251
342 251
343 253
338 254
325 255
336 255
344 247
336 254
331 256
334 255
340 258
349 251
343 253
335 260
344 251
336 256
340 257
343 259
332 269
324 269
323 274
328 277
330 276
325 280
331 276
323 274
318 280
313 278
329 268
336 266
337 268
331 271
332 269
331 270
330 268
333 263
338 259
348 249
344 251
355 247
336 256
344 250
339 250
336 252
345 246
339 248
350 245
345 248
351 244
346 243
337 251
347 249
343 253
350 251
348 250
352 247
354 240
364 243
351 251
341 258
339 256
339 258
352 253
342 262
351 257
354 256
344 257
351 252
358 252
351 255
337 261
350 254
343 252
349 248
359 240
351 242
351 248
351 244
370 235
368 235
379 228
373 228
379 222
369 230
371 225
366 235
381 231
373 233
375 236
379 230
373 230
377 224
377 222
387 219
386 218
392 213
390 216
381 217
377 215
384 214
375 214
371 218
385 211
385 215
382 216
380 220
380 221
381 212
376 214
377 220
372 229
367 229
366 233
368 231
368 233
363 236
367 231
371 228
368 231
362 234
371 223
364 224
361 233
365 228
351 236
356 237
351 242
358 239
363 240
354 244
349 245
352 252
354 255
361 249
352 259
354 253
345 253
344 251
339 259
339 257
339 253
354 253
342 264
340 254
339 262
335 262
333 268
346 261
340 264
337 262
344 259
343 259
340 264
348 258
351 258
358 254
360 247
373 245
358 243
364 241
377 231
373 232
380 224
374 223
374 222
378 219
379 214
382 215
375 224
381 216
378 215
386 215
381 221
368 225
371 226
363 229
365 232
360 241
363 235
376 226
363 230
378 217
374 219
377 214
365 223
364 224
373 223
365 224
380 219
370 227
379 221
377 220
377 225
377 223
371 230
374 231
388 226
373 231
373 232
369 234
373 233
371 237
367 235
365 235
371 230
370 233
371 233
368 229
356 238
353 235
356 236
363 229
361 231
367 223
372 226
365 233
355 238
362 234
365 235
368 228
368 226
378 226
373 230
367 228
382 221
385 213
383 212
376 223
367 230
373 227
374 225
369 230
376 222
377 230
360 244
360 242
367 237
374 239
376 235
374 237
365 237
372 237
375 230
375 233
370 233
362 235
359 234
349 246
349 244
360 241
350 241
357 236
358 236
357 237
355 240
357 234
362 230
366 225
361 234
373 231
362 235
360 237
355 243
356 241
358 246
342 249
338 251
339 252
338 252
348 246
355 248
354 250
352 253
347 256
354 256
356 254
347 260
339 263
348 262
359 252
352 252
347 252
347 253
345 258
344 256
335 271
335 271
331 276
337 271
337 275
325 278
342 270
333 273
336 266
342 259
344 256
353 255
350 255
358 250
344 249
350 251
360 246
347 251
365 244
347 245
354 248
351 247
363 236
358 239
369 235
360 239
356 244
360 236
354 236
359 237
353 239
353 241
358 242
355 244
353 248
350 250
342 255
341 251
339 254
341 251
347 251
333 255
338 256
334 252
319 255
333 251
340 252
343 250
341 255
348 251
350 250
354 244
345 252
348 251
344 251
351 247
360 239
364 238
364 237
359 240
369 235
367 230
370 230
376 231
375 227
376 227
377 227
381 228
365 236
376 235
367 236
373 231
368 229
374 229
367 234
369 234
366 241
355 245
347 251
354 248
354 246
355 247
356 245
360 238
366 239
360 243
357 245
349 252
344 259
350 258
337 263
343 255
344 251
356 245
354 246
362 247
350 242
354 243
350 244
344 251
350 242
344 245
346 246
340 254
343 252
338 259
339 258
337 266
322 270
320 276
326 277
310 285
305 287
308 292
307 286
318 275
327 269
326 273
324 271
331 270
337 271
329 269
330 270
335 271
331 263
328 265
348 257
349 255
353 250
362 248
358 254
357 257
344 261
327 264
333 263
326 269
340 269
329 271
334 265
345 260
348 257
350 259
341 264
334 269
332 270
336 269
342 266
342 266
346 266
332 270
336 266
323 270
323 272
309 282
324 280
322 276
323 277
322 275
323 267
334 258
326 256
330 264
332 261
328 265
317 271
322 274
315 275
318 275
311 284
317 285
314 287
325 274
324 275
314 278
316 274
318 271
323 265
321 264
322 268
328 270
322 278
313 283
315 284
310 289
315 285
301 292
299 290
291 293
303 292
308 290
310 296
309 287
316 281
312 288
310 288
309 296
308 294
313 294
314 292
305 295
310 292
311 296
323 289
320 285
322 280
319 282
327 279
322 282
331 274
338 269
326 268
340 262
338 265
337 265
339 271
325 274
329 275
334 273
335 278
320 278
328 277
330 274
326 272
332 270
326 275
334 268
325 272
339 264
335 260
344 258
348 256
345 255
343 256
353 249
370 240
360 245
356 240
362 238
362 243
349 246
361 245
365 241
364 240
372 233
369 238
368 239
369 233
360 239
371 236
363 240
364 243
359 244
361 242
366 239
367 238
370 228
371 228
376 227
373 231
375 232
377 228
375 233
360 235
365 232
366 233
370 231
363 234
366 231
370 236
366 237
370 234
371 232
373 228
378 220
382 221
389 216
396 211
398 211
394 214
386 215
375 223
376 227
378 225
370 234
362 236
367 235
366 232
374 226
374 228
370 228
370 230
378 222
374 222
376 226
390 216
389 217
391 219
389 219
388 218
379 223
379 225
383 225
392 216
398 214
394 215
395 216
394 218
405 207
402 203
400 204
400 208
387 213
391 217
381 221
389 222
385 223
374 227
379 225
373 226
386 226
384 233
372 233
373 235
361 241
372 237
375 233
381 232
367 234
366 233
376 224
363 228
368 228
369 217
369 219
368 230
369 229
365 235
377 231
359 235
369 229
371 226
377 228
367 230
367 232
375 230
365 232
365 231
368 236
358 240
369 236
365 235
364 230
370 237
366 237
362 239
360 241
348 245
345 244
358 238
351 242
349 247
355 244
351 247
362 241
346 249
343 251
340 256
351 254
346 250
351 244
355 245
352 248
363 245
366 239
368 231
369 234
354 243
365 238
359 242
370 234
380 230
378 225
378 233
368 229
368 229
357 236
366 239
363 240
357 245
353 242
349 242
346 244
354 247
346 257
336 255
341 261
342 263
345 258
341 258
351 251
351 246
351 243
350 251
348 254
352 249
347 253
348 255
357 250
356 254
351 257
343 255
351 255
353 254
351 256
356 252
368 246
356 253
361 253
356 255
367 246
360 249
357 250
371 245
370 242
370 241
375 240
367 240
379 232
374 230
374 228
391 216
390 216
392 218
384 219
384 218
384 219
382 223
387 216
384 221
389 217
380 223
373 225
367 236
367 229
364 233
358 242
354 242
355 245
350 249
358 244
351 241
355 244
344 250
342 249
350 243
342 248
336 253
349 252
352 249
341 256
333 261
335 264
329 267
335 269
344 261
346 257
342 265
341 271
341 267
352 257
339 264
348 254
347 252
348 247
348 254
353 247
351 241
346 248
344 249
342 251
332 257
340 261
334 268
335 269
323 274
340 262
345 258
362 245
352 245
347 251
358 245
348 250
350 249
355 246
358 240
366 241
361 243
363 244
350 246
355 251
345 255
339 261
335 264
349 260
348 263
339 267
340 261
345 253
344 257
350 254
345 258
340 262
342 257
346 245
342 251
337 252
332 251
339 255
333 259
337 256
338 254
336 256
342 263
329 263
334 268
325 270
319 279
322 280
319 283
314 285
320 289
316 293
320 288
325 288
326 284
327 285
331 282
324 283
315 284
315 288
323 283
317 278
322 280
310 282
326 272
322 274
328 276
324 273
320 269
325 268
324 268
326 262
342 258
346 255
340 259
333 266
336 266
337 266
329 267
336 265
327 266
337 262
335 261
343 253
346 249
353 246
353 247
337 256
338 258
327 255
333 256
331 264
333 263
329 267
328 266
326 273
322 273
319 284
313 284
310 289
310 289
308 289
317 284
310 289
312 288
318 289
306 293
293 303
296 305
295 312
291 310
313 295
328 282
321 288
319 283
333 277
326 279
331 275
328 272
329 279
326 280
329 274
333 271
342 268
344 270
337 272
334 270
341 261
344 257
352 258
353 256
349 253
345 258
348 256
345 254
349 251
360 252
357 246
358 245
360 247
355 253
368 241
374 233
362 241
363 245
364 245
362 242
353 245
353 248
347 252
350 244
357 245
355 245
358 247
368 240
361 241
361 239
366 240
364 241
361 240
362 241
360 246
372 236
357 245
358 237
356 240
356 242
352 245
355 246
360 239
352 246
362 238
363 230
363 231
370 224
370 231
354 231
353 237
356 234
366 235
366 234
347 244
353 244
348 245
340 252
338 254
345 245
351 245
351 248
347 248
352 246
345 253
331 260
341 257
335 258
353 250
344 252
342 254
339 255
337 258
334 268
336 273
339 271
335 272
330 274
326 274
325 279
332 264
331 265
325 268
321 270
322 279
327 272
330 276
325 280
329 270
331 274
320 283
326 281
319 285
331 280
337 276
333 272
319 275
327 275
313 275
317 278
311 284
319 279
318 283
315 282
320 276
326 275
314 276
335 267
332 266
345 261
350 253
342 260
333 263
345 255
350 250
345 256
339 254
339 259
341 254
349 254
337 257
330 258
334 256
341 250
344 254
344 260
364 248
345 248
350 245
342 247
336 247
344 246
338 258
322 265
328 265
332 263
344 255
344 255
339 259
340 260
334 265
337 266
337 261
342 257
344 255
343 253
336 263
339 263
338 264
333 265
332 268
338 268
327 274
329 272
328 275
336 264
343 258
339 258
340 260
336 262
342 259
366 244
360 240
372 232
365 239
369 237
357 241
364 239
375 235
361 242
359 247
354 251
354 254
350 254
351 260
345 262
350 256
363 249
361 250
362 249
347 256
361 250
353 253
361 246
365 245
364 242
357 244
359 244
363 243
360 243
367 239
373 231
365 235
366 238
361 238
364 238
368 238
362 240
358 243
369 240
358 240
357 242
364 233
363 235
367 234
367 233
362 240
358 240
358 236
364 234
375 228
368 229
369 235
370 235
364 235
347 242
357 234
364 235
363 236
372 231
362 236
355 244
351 249
352 251
359 246
351 251
357 246
353 248
365 241
366 235
359 235
382 223
377 221
370 221
370 223
358 224
363 228
352 236
344 235
351 239
349 237
345 244
347 244
343 245
346 239
347 242
343 239
347 242
342 248
346 249
346 244
350 242
350 243
348 252
331 257
327 259
334 255
345 251
353 244
350 242
336 251
338 254
344 254
328 259
347 256
336 262
345 263
342 263
344 264
358 248
365 245
366 246
361 251
374 239
367 242
361 239
355 249
352 252
362 246
356 245
361 242
375 230
381 225
385 222
389 219
384 222
384 228
372 231
372 234
369 236
366 229
362 236
366 241
373 236
375 232
371 232
361 242
357 244
356 245
358 246
355 251
359 250
354 250
360 243
357 246
358 251
355 250
350 255
359 251
349 252
346 255
354 249
343 256
340 254
331 260
343 248
333 252
339 261
327 267
345 251
342 252
350 253
351 251
343 254
353 256
346 261
339 263
336 264
331 271
339 269
337 267
344 256
350 255
360 251
355 255
355 254
350 256
345 254
364 244
355 245
353 245
362 240
362 246
361 247
357 249
351 257
353 254
364 249
349 259
357 253
353 251
330 260
343 255
336 256
337 248
343 251
325 255
336 260
333 260
339 255
340 260
347 258
350 252
353 251
357 241
360 242
357 242
360 238
364 240
355 245
355 244
345 250
345 257
350 261
335 265
335 266
330 271
336 266
331 265
337 260
336 262
339 264
317 268
328 270
322 271
322 275
308 281
303 283
312 275
314 279
315 287
312 283
312 282
320 286
328 284
314 284
309 285
318 280
320 282
320 283
318 282
311 279
320 275
327 276
333 269
330 269
327 275
313 282
324 280
303 290
321 287
323 284
323 281
328 272
323 270
321 267
314 268
331 257
345 256
347 255
357 247
348 251
341 254
336 260
343 259
355 250
357 246
368 241
364 240
362 247
360 255
363 247
362 250
349 256
352 254
349 256
348 253
342 260
340 265
339 268
344 267
337 265
345 259
326 270
340 264
342 265
344 262
343 261
343 259
349 256
343 255
346 252
358 249
351 248
358 246
346 254
348 252
346 256
350 253
348 257
346 262
335 258
341 258
345 260
353 264
345 269
360 255
351 252
352 249
360 240
351 244
349 246
348 253
355 245
364 232
369 233
361 232
363 232
360 229
360 233
365 230
359 232
360 228
357 231
349 239
352 234
355 236
348 245
354 240
356 242
356 240
363 231
365 236
365 230
357 236
356 239
357 242
359 238
362 236
367 244
363 232
366 231
371 226
366 231
363 237
372 237
375 237
367 241
364 236
374 229
377 229
376 231
372 233
371 235
373 233
368 233
371 231
372 234
374 231
374 226
370 232
375 236
371 243
370 247
379 240
387 232
389 232
389 227
382 225
365 233
376 230
371 221
379 222
361 228
366 225
370 225
376 214
377 217
374 223
375 226
378 220
380 215
378 219
372 226
373 223
374 223
370 226
364 230
362 235
367 236
368 238
375 231
369 234
378 227
372 230
380 224
375 228
376 228
372 229
366 230
371 230
371 231
369 232
373 233
375 237
371 244
374 236
378 238
366 242
373 244
361 250
361 251
357 251
365 239
371 237
358 242
372 231
376 222
368 224
366 225
367 230
373 235
369 233
371 233
374 229
375 231
372 235
371 238
366 235
359 243
357 246
343 254
350 248
343 252
334 257
343 260
336 264
334 259
347 254
337 261
333 262
334 258
328 266
337 260
330 260
332 262
325 268
326 268
331 265
337 262
337 263
336 264
339 264
343 260
329 265
342 260
347 258
338 257
351 251
342 256
352 247
339 254
354 252
342 254
358 246
350 239
350 245
354 243
345 247
351 249
340 256
347 255
347 255
351 252
355 251
356 248
354 244
361 241
360 243
362 235
371 229
368 229
362 232
372 225
377 231
369 237
376 235
359 242
352 250
353 249
355 250
356 249
356 246
365 242
368 234
376 232
377 232
383 226
374 231
370 229
369 231
371 230
368 232
373 228
372 231
359 237
362 236
363 232
369 235
364 235
363 234
374 231
371 229
366 229
359 227
366 227
369 225
366 231
357 239
358 237
366 233
358 236
354 237
351 242
357 239
356 234
348 240
353 241
357 240
357 237
359 233
358 230
367 226
366 229
371 232
371 234
371 236
371 234
373 232
370 230
384 228
389 226
378 229
376 230
378 228
382 225
376 224
376 220
372 226
367 223
365 224
375 220
370 221
365 226
361 228
359 229
365 229
356 233
363 232
362 228
362 225
362 226
372 225
383 223
380 221
369 228
369 229
365 228
366 228
364 229
358 233
361 236
358 236
359 238
360 233
366 230
369 223
372 218
377 216
384 214
370 220
364 223
370 228
363 236
357 237
358 239
362 233
360 239
363 241
372 237
377 233
375 235
376 234
380 228
383 226
374 231
368 226
369 222
383 220
372 226
368 221
374 218
373 223
368 231
365 232
375 228
369 228
375 226
368 224
371 230
369 232
371 235
364 240
359 242
352 244
348 241
356 243
352 242
355 243
356 244
349 247
347 252
349 253
342 253
327 257
322 267
311 270
322 270
320 276
332 268
330 266
329 271
329 276
331 272
340 267
336 274
342 272
341 269
337 272
341 268
344 263
338 265
350 258
341 263
337 266
341 263
345 265
349 258
347 255
344 256
347 252
352 255
348 256
359 250
366 247
365 243
366 236
380 227
374 224
378 224
383 225
387 223
374 231
362 235
365 236
364 234
369 235
361 240
358 246
371 233
367 239
359 238
364 243
365 233
361 231
370 227
368 227
370 224
374 219
367 225
371 229
360 236
360 244
358 238
352 245
355 248
349 245
366 241
361 242
350 247
353 247
346 246
341 250
342 248
346 245
349 241
345 248
347 249
347 250
333 250
345 236
359 242
351 245
355 245
352 249
348 250
354 249
352 249
350 247
351 245
359 241
352 244
352 238
356 238
365 239
362 241
372 241
372 239
370 236
375 234
372 232
377 225
355 236
365 234
366 235
356 236
353 241
364 241
350 244
355 246
357 244
350 249
361 241
365 240
350 243
353 245
349 249
357 251
354 250
355 247
355 250
361 254
351 252
352 251
361 246
357 243
352 246
359 245
354 245
352 246
355 252
356 247
359 244
366 242
365 235
362 237
363 237
358 236
356 237
346 246
347 250
335 257
344 257
344 260
344 258
341 262
341 260
342 262
356 256
346 262
347 265
342 266
345 260
357 254
344 257
348 257
350 262
342 260
343 251
356 247
360 243
349 246
355 238
350 244
355 239
365 243
361 243
369 244
368 246
367 242
367 239
366 241
367 241
361 242
362 241
351 248
343 254
351 252
344 252
344 256
343 261
334 262
341 252
346 249
344 250
352 249
359 252
348 254
362 249
367 241
359 245
371 238
363 242
365 245
362 240
367 239
365 242
360 242
358 246
361 246
352 248
353 248
354 245
359 241
362 240
351 246
355 246
350 244
344 246
352 242
360 234
351 239
358 241
360 235
352 238
363 232
356 235
357 234
350 243
350 244
348 246
350 247
336 251
337 246
346 249
348 249
355 240
359 236
365 239
365 241
369 242
372 238
374 237
374 237
369 233
375 230
360 233
365 231
362 239
366 237
365 243
352 248
366 245
360 245
353 252
357 251
363 248
362 246
373 244
363 244
365 241
365 239
365 241
362 239
368 233
380 227
375 232
370 234
372 234
371 237
371 237
374 233
369 234
369 232
364 236
368 231
363 230
361 233
367 231
363 233
366 228
355 233
357 235
353 244
360 240
353 247
368 236
365 237
364 240
358 242
362 243
359 245
354 248
353 254
355 253
362 244
363 246
353 249
345 254
331 258
331 263
327 262
335 256
336 255
341 252
346 255
341 260
343 260
349 256
349 253
338 255
336 259
341 261
339 260
345 264
346 266
337 265
324 272
315 278
324 280
319 281
323 291
322 290
317 284
322 282
320 281
340 272
340 265
341 268
347 270
344 269
348 260
345 260
344 256
356 248
353 250
365 245
346 248
362 244
359 233
355 236
364 238
358 236
361 233
357 227
357 237
348 236
351 236
354 232
356 234
345 238
353 243
345 244
355 250
337 252
350 254
347 251
350 251
337 265
340 264
348 263
340 265
339 265
354 268
347 266
348 262
344 267
354 258
347 261
351 256
349 258
349 262
352 263
355 251
348 251
352 249
359 242
356 243
357 244
356 237
359 236
355 235
353 234
356 238
353 241
353 249
349 249
349 247
337 250
339 246
340 253
350 252
345 252
346 249
353 247
353 245
356 245
354 247
359 247
363 240
363 237
365 239
367 242
361 248
359 246
357 242
354 245
363 242
357 241
354 244
352 248
355 250
350 255
341 254
343 256
344 258
349 260
338 258
333 260
340 257
333 263
330 263
343 260
340 261
347 255
330 260
336 267
339 264
332 262
332 263
323 266
333 258
329 260
320 263
333 261
336 256
342 256
343 253
340 255
334 261
344 260
336 260
330 258
334 262
336 269
326 268
335 271
320 281
314 286
325 278
321 279
329 275
334 268
330 272
325 272
317 273
336 264
338 262
338 261
331 267
333 268
332 269
319 275
323 278
324 274
325 281
321 280
317 285
320 284
314 289
321 284
321 279
345 277
348 269
348 265
336 273
349 268
332 278
336 274
332 275
325 279
319 283
321 279
315 283
310 287
316 284
306 289
312 288
321 284
311 289
318 284
320 287
325 287
316 291
307 292
308 293
319 290
326 278
328 272
322 272
333 266
329 264
311 270
322 268
335 265
337 263
336 265
355 255
345 257
344 254
339 257
340 262
336 262
337 256
335 263
334 263
333 263
325 270
328 269
329 267
327 273
324 274
316 277
322 278
321 276
310 278
317 280
307 287
305 286
299 293
296 290
296 287
306 286
308 280
312 281
316 282
315 275
307 283
314 278
319 276
318 277
311 285
308 281
315 280
320 280
327 272
322 272
320 277
321 281
320 279
327 274
336 269
324 277
322 281
325 280
337 277
330 276
330 270
336 265
350 258
349 257
348 264
349 262
332 269
340 274
343 266
341 265
328 269
328 274
329 276
315 279
315 278
325 276
320 279
314 277
318 270
316 274
331 261
343 256
340 251
340 259
337 256
325 264
331 259
338 258
342 262
344 264
340 267
326 270
331 280
321 278
330 272
347 262
345 257
344 257
335 258
335 266
318 272
319 275
312 281
311 285
329 274
331 266
327 268
331 267
320 269
327 268
336 265
324 270
324 273
316 274
309 275
307 277
316 276
313 277
302 283
313 281
326 266
320 273
319 279
312 287
322 279
322 274
323 272
326 276
319 280
306 281
303 291
302 290
318 289
296 294
303 292
306 291
314 282
322 282
318 288
313 283
317 281
319 275
316 280
313 284
317 276
315 274
325 270
326 266
325 264
325 264
336 256
338 263
333 263
334 268
328 270
335 268
333 274
328 275
327 282
333 277
337 270
340 268
340 270
323 277
324 277
318 282
309 287
325 282
314 290
307 297
310 294
319 293
305 304
316 300
315 295
326 283
329 275
326 274
337 268
345 255
360 247
357 248
351 256
352 252
360 243
346 253
341 258
357 252
354 251
351 249
357 247
364 240
373 231
371 230
369 228
364 231
367 233
356 245
347 247
351 246
353 245
358 247
366 239
364 233
359 239
353 241
358 238
360 242
365 238
358 241
358 244
350 239
353 244
335 249
338 255
340 252
334 251
353 246
346 246
351 250
358 239
356 244
350 242
359 242
360 242
359 245
363 249
351 248
345 252
346 255
339 260
346 259
332 268
336 270
323 273
328 273
332 271
330 272
336 271
330 274
323 279
323 284
318 286
317 285
312 292
327 283
323 283
332 274
323 277
337 269
335 271
339 262
349 255
346 256
344 255
339 258
362 245
350 250
350 257
348 263
332 261
339 261
344 258
340 255
344 253
338 262
344 260
338 266
346 259
337 256
347 254
337 259
332 264
327 271
332 274
328 272
339 260
341 265
342 263
343 261
328 266
334 264
338 262
327 262
325 265
335 265
340 266
333 272
328 274
329 273
326 272
323 278
327 277
336 267
331 263
336 266
332 262
332 259
332 265
331 264
326 267
325 268
327 277
319 281
313 286
303 291
315 285
312 279
319 281
326 275
319 276
309 286
309 294
318 289
313 296
315 292
325 286
326 291
315 295
321 291
319 285
319 285
323 284
320 287
317 282
331 275
320 277
331 270
332 264
331 260
338 256
327 261
342 257
338 256
330 257
331 258
333 262
332 262
341 260
344 255
348 252
343 249
337 253
339 249
341 247
339 249
340 248
337 252
333 253
336 253
324 268
335 267
330 264
333 270
334 278
326 276
322 283
301 293
308 300
306 296
300 298
313 296
306 294
307 295
310 286
309 286
315 287
313 291
312 286
298 301
300 310
305 308
295 310
294 311
298 307
309 299
301 310
295 316
299 312
294 306
296 301
303 293
294 285
298 292
307 291
307 289
319 284
325 280
324 282
332 277
328 273
341 265
344 261
346 262
336 265
338 266
344 258
335 265
334 273
326 278
327 279
340 268
330 269
331 276
335 273
344 265
339 266
344 269
329 268
341 265
341 263
346 258
334 269
331 268
327 267
320 271
329 269
333 270
328 273
338 258
335 262
327 258
345 252
337 259
336 257
339 257
330 258
329 263
323 263
335 255
329 262
318 274
321 272
321 275
323 275
324 271
342 269
332 268
330 272
344 267
339 267
334 265
344 266
336 268
341 265
340 262
344 263
332 265
330 270
328 272
324 276
318 273
311 279
311 278
324 272
330 270
338 266
340 262
343 259
338 261
336 265
343 262
336 269
328 271
321 273
322 273
327 270
328 269
320 273
331 267
340 261
331 264
343 255
344 255
342 258
344 259
350 260
353 259
363 247
359 249
359 247
363 240
360 238
365 235
369 236
370 232
376 228
375 229
358 235
370 237
368 236
371 231
365 236
353 244
359 244
350 252
340 255
335 258
341 251
335 253
342 253
344 251
339 252
339 253
345 253
338 261
334 265
340 261
349 260
333 263
321 265
335 260
333 258
346 261
332 263
335 256
326 261
345 259
342 264
331 269
336 269
335 267
327 274
326 272
332 268
326 274
328 272
331 271
330 274
340 266
351 263
343 265
336 267
340 263
345 267
343 260
339 259
341 255
350 252
354 250
348 250
341 251
335 262
338 261
346 254
343 257
352 247
341 250
340 254
347 251
348 251
353 253
362 245
358 245
349 248
348 250
347 252
351 252
346 250
358 248
347 261
339 267
339 268
341 271
341 272
336 275
327 279
335 268
340 257
332 259
331 261
323 268
320 269
337 260
333 253
331 257
350 245
354 247
349 248
350 249
349 249
344 253
355 243
359 242
364 241
358 246
353 246
353 243
355 243
352 244
349 239
362 235
366 234
356 235
380 220
374 223
372 226
373 229
382 223
384 219
368 222
362 227
361 226
362 227
362 228
372 225
364 226
368 222
378 220
379 221
382 215
384 218
388 213
389 219
398 211
386 220
390 220
405 208
404 205
413 205
413 203
406 206
409 202
409 203
405 208
409 207
407 205
399 209
398 209
394 209
391 212
386 209
379 215
385 214
389 214
389 211
381 215
378 216
374 215
396 206
391 205
387 217
394 217
396 213
398 208
398 207
389 216
386 218
389 212
386 218
388 219
380 225
386 222
389 219
383 220
376 225
374 225
382 224
374 235
374 231
380 230
368 239
370 237
375 235
378 233
377 235
380 230
382 223
387 220
380 223
362 230
364 232
361 236
363 239
371 229
377 223
374 224
362 221
369 221
359 228
361 234
357 238
343 244
347 248
345 253
350 247
353 250
347 251
364 239
367 239
358 247
359 247
362 241
359 241
367 239
362 240
360 241
367 233
369 233
362 236
357 245
362 240
362 241
365 243
357 246
347 252
356 252
367 249
367 241
353 245
350 245
350 245
354 240
362 236
367 239
365 237
371 235
368 238
366 239
365 236
359 241
364 242
362 244
352 248
363 238
368 239
370 238
372 232
363 235
369 231
373 230
379 226
373 224
368 225
365 227
381 226
378 229
376 234
367 239
360 240
381 226
389 216
382 222
376 226
375 227
383 225
376 230
373 230
370 232
386 222
381 221
374 224
378 227
367 233
358 243
367 242
356 246
359 240
358 245
356 252
363 249
365 245
363 237
372 231
365 234
364 239
365 237
362 246
350 245
346 246
353 250
354 247
344 253
354 253
349 249
343 251
354 251
350 250
351 248
356 247
353 247
355 242
349 240
352 237
364 236
357 243
353 243
349 244
361 240
361 242
351 248
353 240
359 237
366 233
369 231
368 234
364 240
361 241
367 235
369 236
361 248
360 245
358 239
354 242
359 241
367 245
366 242
370 239
365 237
370 232
375 227
376 229
381 227
389 221
377 227
367 233
366 231
357 230
363 223
364 219
362 225
364 228
354 234
346 245
345 252
340 253
344 255
347 250
348 253
347 259
345 256
356 251
350 252
339 256
347 258
342 260
337 263
338 264
335 267
338 266
333 266
354 256
343 264
340 264
342 268
344 262
329 268
336 266
338 264
332 263
343 256
340 254
335 259
336 268
327 266
328 270
338 268
336 271
349 268
345 269
341 270
345 264
343 265
347 259
346 252
356 252
359 244
359 246
354 244
359 244
355 247
369 232
374 229
377 230
385 227
385 225
389 219
380 214
394 209
390 212
389 218
375 232
387 231
372 234
368 243
368 242
372 232
376 233
374 236
371 233
364 232
361 233
366 230
361 234
363 234
362 239
355 251
355 248
358 245
373 247
365 245
359 244
364 235
352 239
349 239
355 245
353 247
353 243
343 251
357 242
359 239
362 238
369 234
367 239
373 229
359 234
372 228
367 228
368 229
362 234
365 236
367 243
360 246
356 245
359 241
366 235
361 234
353 240
358 241
359 237
344 242
341 248
339 250
343 251
340 251
339 253
335 256
350 253
340 258
343 256
344 255
351 255
341 253
354 248
349 249
355 246
347 245
357 248
352 247
365 238
352 243
358 235
354 237
360 229
360 232
365 232
362 234
355 243
360 236
352 239
344 245
338 252
340 256
352 256
337 262
335 267
322 277
317 275
327 274
321 273
326 272
329 280
337 272
335 274
328 273
315 275
331 270
337 264
332 266
336 263
335 268
333 265
325 269
323 272
320 269
321 266
317 267
325 268
326 269
336 266
336 262
351 252
347 255
349 254
350 257
346 257
350 256
348 251
360 239
365 239
354 236
361 235
357 238
357 245
357 241
360 245
353 248
349 250
346 253
347 252
337 259
322 261
332 269
324 275
320 278
327 275
332 265
335 267
335 266
340 266
336 265
329 267
332 271
327 264
343 252
341 249
354 244
356 248
343 251
346 255
343 252
353 246
349 251
340 259
340 259
337 264
330 272
330 273
338 272
333 268
336 264
336 259
340 262
337 257
339 260
332 263
329 265
328 270
324 272
314 278
327 269
329 269
328 269
332 262
325 264
341 254
341 251
337 258
335 266
338 257
332 259
336 260
331 256
334 263
336 258
328 262
331 259
330 267
339 254
344 259
346 250
351 245
361 246
359 245
349 248
355 243
345 251
339 255
339 258
322 265
333 261
324 265
334 262
322 270
324 268
326 262
336 258
342 254
334 258
334 260
351 252
346 256
334 260
336 265
332 266
331 266
325 273
324 272
332 268
323 272
319 274
327 277
333 272
331 266
336 264
341 266
340 265
351 261
349 261
363 254
361 250
353 251
364 246
360 245
340 255
342 253
344 256
340 260
346 258
337 263
346 256
350 251
357 249
346 252
353 252
356 251
355 255
352 253
355 249
360 247
356 246
346 248
343 254
354 251
343 252
351 253
348 258
340 259
349 256
349 251
345 250
350 255
341 256
342 258
343 258
341 258
340 261
326 266
326 263
327 267
338 261
341 264
344 259
347 257
339 259
340 260
338 256
338 253
358 249
354 250
347 247
345 253
349 246
361 236
353 245
339 250
334 250
357 241
358 238
349 245
349 247
357 244
337 251
341 251
349 249
352 249
350 248
349 251
340 257
354 254
349 252
356 246
354 250
352 251
349 255
349 261
336 259
339 260
337 256
342 257
336 259
333 258
338 258
349 256
343 256
342 255
344 247
349 248
347 250
331 255
341 255
346 251
350 244
341 246
345 243
342 252
333 259
335 264
343 254
349 249
350 253
345 252
345 253
358 251
342 257
350 258
350 260
337 263
343 265
350 262
338 261
345 256
355 248
347 252
360 250
363 239
356 235
348 241
340 248
351 245
350 240
353 244
353 243
334 253
334 259
328 264
329 259
335 259
341 259
343 258
350 258
345 260
330 263
333 258
330 257
323 262
321 267
327 265
332 266
333 262
327 261
331 258
341 251
352 245
351 248
348 243
357 242
341 246
352 235
349 238
363 238
355 236
359 235
365 238
360 238
363 246
356 242
357 238
353 237
367 238
376 235
363 238
380 231
387 224
388 224
380 223
386 218
387 219
393 219
380 220
375 224
379 223
372 224
372 224
367 224
365 229
367 223
361 229
374 233
372 235
360 239
363 242
364 237
365 246
356 251
354 248
351 247
351 253
345 254
349 251
355 245
365 241
366 240
352 239
355 242
368 238
359 241
353 249
351 257
331 267
338 263
339 266
337 271
333 274
336 264
342 255
335 259
346 253
352 253
348 254
340 254
340 255
332 258
336 257
331 265
328 263
334 260
334 257
337 258
336 260
339 256
337 252
339 250
355 243
334 252
335 259
334 266
325 265
328 267
332 265
319 268
325 275
321 273
330 260
342 257
336 255
347 251
345 253
345 252
344 255
354 255
353 256
345 257
351 260
350 258
357 256
349 256
348 258
344 264
343 261
339 262
363 244
352 249
351 245
342 249
346 247
346 244
346 245
345 245
345 251
346 247
349 243
342 247
331 255
325 261
340 263
345 259
349 259
348 253
342 252
359 242
344 253
334 260
340 255
342 253
345 251
339 251
334 254
334 254
331 255
328 261
328 268
339 259
347 258
337 266
345 259
330 266
340 263
356 253
351 257
349 259
352 256
349 260
353 256
351 254
352 249
360 245
352 240
347 240
348 241
354 237
368 229
367 230
369 229
368 226
366 230
377 226
370 233
362 233
363 233
367 233
356 231
370 234
361 238
359 238
367 239
350 243
356 244
366 233
371 228
373 222
368 227
371 226
353 235
359 227
360 222
368 227
374 226
362 230
353 239
354 243
361 246
344 255
346 250
350 254
348 258
346 255
349 254
351 252
346 249
342 254
339 257
352 249
361 243
363 242
352 247
350 251
352 252
347 255
347 251
350 252
357 248
356 243
368 238
358 248
356 243
354 245
349 246
353 247
339 253
356 242
362 241
346 246
349 247
346 247
344 247
348 251
343 250
356 246
365 235
370 232
380 231
373 229
370 232
368 231
379 233
376 231
378 232
371 233
359 232
362 228
365 226
369 226
375 228
368 232
368 232
370 231
357 239
361 245
359 244
344 249
356 248
348 251
353 252
351 248
356 246
348 257
350 257
348 253
352 251
359 249
350 255
355 254
349 259
353 257
341 259
351 254
350 256
347 254
347 255
354 248
352 251
344 255
346 255
336 260
342 258
353 253
346 254
338 256
338 250
352 244
356 240
354 239
335 250
346 251
337 251
343 253
332 261
330 266
332 270
331 274
326 273
334 266
330 267
331 271
350 263
333 267
341 264
334 268
345 265
339 263
345 262
347 259
347 254
349 253
348 254
354 252
352 247
360 247
366 236
362 238
386 224
378 224
375 227
388 220
380 224
383 224
372 230
368 231
371 232
374 230
364 236
358 240
357 246
354 247
350 253
339 255
354 247
354 249
361 244
363 247
366 237
362 248
357 245
359 239
339 254
351 244
349 241
361 234
362 227
360 232
354 234
361 236
353 241
355 244
363 243
359 243
363 243
366 241
359 244
363 242
359 243
355 247
353 247
348 252
341 259
348 254
335 261
332 267
345 263
331 273
320 276
319 272
320 278
336 262
334 269
343 267
336 270
346 264
343 265
333 261
349 259
343 259
339 256
343 254
334 256
325 263
338 259
341 260
346 260
341 262
339 267
337 263
349 264
333 269
337 268
337 271
339 263
336 264
339 267
338 262
337 256
342 250
